{"page":10,"total_pages":66,"total_items":3272,"items":[{"id":"1472638","type":"movie","title":"Buen Camino","poster":"https://image.tmdb.org/t/p/w342/jUiGMecwhYLOwJJqVl1YovRMAFa.jpg","year":"2025","result":"HD","language":["Hindi"],"country":["IT"],"original_language":"it","genres":["Comedy","Family","Adventure"],"imdb_id":"tt38350059"},{"id":"1386827","type":"movie","title":"Coyotes","poster":"https://image.tmdb.org/t/p/w342/fSzs9ZXYcrln0FRrjGIPCjuB6En.jpg","year":"2025","result":"HD","language":["Hindi"],"country":["US","GB","CO"],"original_language":"en","genres":["Horror","Comedy"],"imdb_id":"tt34581826"},{"id":"1165096","type":"movie","title":"F+","poster":"https://image.tmdb.org/t/p/w342/f0qeTgIcGZ6s3jz5xg8PQ7K0MZO.jpg","year":"2025","result":"HD","language":["Hindi"],"country":["US"],"original_language":"en","genres":["Comedy","Family"],"imdb_id":"tt28322249"},{"id":"1510339","type":"movie","title":"Mark","poster":"https://image.tmdb.org/t/p/w342/6LTDv6XHiHN0N77QIFg2tidVvhh.jpg","year":"2025","result":"HD","language":["Hindi"],"country":["IN"],"original_language":"kn","genres":["Action","Thriller"],"imdb_id":"tt28961625"},{"id":"1439112","type":"movie","title":"Muzzle: City of Wolves","poster":"https://image.tmdb.org/t/p/w342/8qTMRmC07XCGidnKQFLbRM3FoDU.jpg","year":"2025","result":"HD","language":["Hindi"],"country":["US"],"original_language":"en","genres":["Action","Thriller","Mystery"],"imdb_id":"tt32395062"},{"id":"1314452","type":"movie","title":"Other","poster":"https://image.tmdb.org/t/p/w342/fo4Ew0RjP0FkFscmXbyJLGachOY.jpg","year":"2025","result":"HD","language":["Hindi"],"country":["FR","BE"],"original_language":"fr","genres":["Horror","Thriller","Science Fiction"],"imdb_id":"tt34207924"},{"id":"1465245","type":"movie","title":"Ten Hours","poster":"https://image.tmdb.org/t/p/w342/5dYmfe3UtKyWZs4GNlLPS4pweEa.jpg","year":"2025","result":"HD","language":["Hindi"],"country":[],"original_language":"ta","genres":["Crime","Thriller"],"imdb_id":"tt29456794"},{"id":"1081208","type":"movie","title":"The Dogs","poster":"https://image.tmdb.org/t/p/w342/kz6oqKyKCjmR8V1JdnF9brp9DSn.jpg","year":"2025","result":"HD","language":["Hindi"],"country":["CA"],"original_language":"en","genres":["Horror","Thriller","Mystery"],"imdb_id":"tt7873304"},{"id":"891584","type":"movie","title":"The History of Sound","poster":"https://image.tmdb.org/t/p/w342/5tNr1CySiYQICRsQbWWSSsDiKjn.jpg","year":"2025","result":"HD","language":["Hindi"],"country":["GB","US","SE"],"original_language":"en","genres":["Drama","Romance","Music"],"imdb_id":"tt15799524"},{"id":"604079","type":"movie","title":"The Long Walk","poster":"https://image.tmdb.org/t/p/w342/wobVTa99eW0ht6c1rNNzLkazPtR.jpg","year":"2025","result":"HD","language":["Hindi"],"country":["US"],"original_language":"en","genres":["Science Fiction","Thriller","Horror"],"imdb_id":"tt10374610"},{"id":"1462471","type":"movie","title":"Wanted","poster":"https://image.tmdb.org/t/p/w342/s8fTavgqVsjXQNP048NaL7Q0EuP.jpg","year":"2025","result":"HD","language":["Hindi"],"country":["CN"],"original_language":"zh","genres":["Action","Drama"],"imdb_id":"tt36617682"},{"id":"1119377","type":"movie","title":"Xeno","poster":"https://image.tmdb.org/t/p/w342/bXJD04oDre4ZiW6CapzBuJyyp4w.jpg","year":"2025","result":"HD","language":["Hindi"],"country":["US"],"original_language":"en","genres":["Adventure","Drama","Mystery","Science Fiction"],"imdb_id":"tt27629220"},{"id":"1383247","type":"movie","title":"Agent Zero","poster":"https://image.tmdb.org/t/p/w342/diDNHFfccBZxw0CmQoVQkSuJIri.jpg","year":"2025","result":"HD","language":["Hindi"],"country":["FR"],"original_language":"fr","genres":["Action","Thriller"],"imdb_id":"tt35526133"},{"id":"1414578","type":"movie","title":"Choo Mantar","poster":"https://image.tmdb.org/t/p/w342/niKNhXDy7rkvjxRoxgy31sMXQZg.jpg","year":"2025","result":"HD","language":["Hindi"],"country":["IN"],"original_language":"kn","genres":["Horror","Thriller"],"imdb_id":"tt25506052"},{"id":"1317288","type":"movie","title":"Marty Supreme","poster":"https://image.tmdb.org/t/p/w342/lYWEXbQgRTR4ZQleSXAgRbxAjvq.jpg","year":"2025","result":"HD","language":["Hindi"],"country":["US"],"original_language":"en","genres":["Drama","Thriller"],"imdb_id":"tt32916440"},{"id":"234586","type":"tv","title":"Barbie Mysteries","poster":"https://image.tmdb.org/t/p/w342/zKfE4AevCL8RjfcrhfJZat5vWTb.jpg","year":"2025","result":"HD","language":["Hindi"],"country":["US"],"original_language":"en","genres":["Animation","Kids"],"imdb_id":"tt33130884","latest_uploaded_season":2,"total_uploaded_episodes":16},{"id":"1330421","type":"movie","title":"Bone Lake","poster":"https://image.tmdb.org/t/p/w342/sGo5ti82LlydAZrvcsaj31iPuEI.jpg","year":"2025","result":"HD","language":["Hindi"],"country":["US"],"original_language":"en","genres":["Horror","Mystery","Thriller"],"imdb_id":"tt26783625"},{"id":"1266798","type":"movie","title":"Dog 51","poster":"https://image.tmdb.org/t/p/w342/olMvhbCRuhTbf6EMKxKGHi2on3L.jpg","year":"2025","result":"HD","language":["Hindi"],"country":["FR","BE"],"original_language":"fr","genres":["Thriller","Science Fiction","Crime","Action"],"imdb_id":"tt33255286"},{"id":"82596","type":"tv","title":"Emily in Paris","poster":"https://image.tmdb.org/t/p/w342/c0bkO416OU7YGdOFktk45H8REgL.jpg","year":"2025","result":"HD","language":["Hindi"],"country":["US"],"original_language":"en","genres":["Drama","Comedy"],"imdb_id":"tt8962124","latest_uploaded_season":5,"total_uploaded_episodes":41},{"id":"237512","type":"tv","title":"Jurassic World: Chaos Theory","poster":"https://image.tmdb.org/t/p/w342/c2Od0cY2IeayDj5osUxZSAD1QK.jpg","year":"2025","result":"HD","language":["Hindi"],"country":["US"],"original_language":"en","genres":["Animation","Action & Adventure","Sci-Fi & Fantasy","Kids","Family"],"imdb_id":"tt29899148","latest_uploaded_season":4,"total_uploaded_episodes":12},{"id":"1046758","type":"movie","title":"Sew Torn","poster":"https://image.tmdb.org/t/p/w342/6N3bJq0VInPhifYml7cZ0TjRrXb.jpg","year":"2025","result":"HD","language":["Hindi"],"country":["CH","US"],"original_language":"en","genres":["Thriller","Comedy","Crime"],"imdb_id":"tt23157384"},{"id":"1330443","type":"movie","title":"Strange Harvest","poster":"https://image.tmdb.org/t/p/w342/fYe0FNJNy0EIb8q4JUMLbbSmCth.jpg","year":"2025","result":"HD","language":["Hindi"],"country":["US"],"original_language":"en","genres":["Horror","Crime","Mystery"],"imdb_id":"tt33400719"},{"id":"1215798","type":"movie","title":"The Cut","poster":"https://image.tmdb.org/t/p/w342/6iseyProRsPyu3rOCzsXDDnDGrl.jpg","year":"2025","result":"HD","language":["Hindi"],"country":["GB","US"],"original_language":"en","genres":["Thriller","Drama"],"imdb_id":"tt26697087"},{"id":"290276","type":"tv","title":"Unspeakable Sins","poster":"https://image.tmdb.org/t/p/w342/30eSqR2XPGz53eGElt6YAvH7cPX.jpg","year":"2025","result":"HD","language":["Hindi"],"country":["MX"],"original_language":"es","genres":["Drama","Crime"],"imdb_id":"tt37504309","latest_uploaded_season":1,"total_uploaded_episodes":18},{"id":"97085","type":"tv","title":"Van der Valk","poster":"https://image.tmdb.org/t/p/w342/hXhLu31ro2O8C5vRBzLjFP4yACO.jpg","year":"2025","result":"HD","language":["Hindi"],"country":["NL"],"original_language":"en","genres":["Crime","Drama"],"imdb_id":"tt9128874","latest_uploaded_season":4,"total_uploaded_episodes":24},{"id":"1481230","type":"movie","title":"Anaganaga","poster":"https://image.tmdb.org/t/p/w342/ep3Bhk34epfWY1LrRfyqZli07Cl.jpg","year":"2025","result":"HD","language":["Hindi"],"country":["IN"],"original_language":"te","genres":["Drama","Family"],"imdb_id":"tt33254177"},{"id":"682012","type":"movie","title":"Little Amélie or the Character of Rain","poster":"https://image.tmdb.org/t/p/w342/qoqDvTUVPoZJWw24AjGDt3J4tZN.jpg","year":"2025","result":"HD","language":["Hindi"],"country":["FR"],"original_language":"fr","genres":["Animation","Drama","Family"],"imdb_id":"tt29313285"},{"id":"1273783","type":"movie","title":"6 Hours Away","poster":"https://image.tmdb.org/t/p/w342/Aa1RyMKcOhwhfdaW5OVaPxgrkjt.jpg","year":"2025","result":"HD","language":["Hindi"],"country":["MX"],"original_language":"en","genres":["Action","Thriller"],"imdb_id":"tt22897544"},{"id":"111111","type":"tv","title":"Blood of Zeus","poster":"https://image.tmdb.org/t/p/w342/zXRR5tgGLtKrRmuN4ko9SLAdCiZ.jpg","year":"2025","result":"HD","language":["Hindi"],"country":["US"],"original_language":"en","genres":["Animation","Action & Adventure","Sci-Fi & Fantasy"],"imdb_id":"tt10009170","latest_uploaded_season":3,"total_uploaded_episodes":24},{"id":"270605","type":"tv","title":"Every Minute Counts","poster":"https://image.tmdb.org/t/p/w342/f2R98auOoUk43Ub6OOVfV2M1kqo.jpg","year":"2025","result":"HD","language":["Hindi"],"country":["MX"],"original_language":"es","genres":["Drama"],"imdb_id":"tt28329925","latest_uploaded_season":2,"total_uploaded_episodes":20},{"id":"244321","type":"tv","title":"Lockerbie: A Search for Truth","poster":"https://image.tmdb.org/t/p/w342/1N0dY2EIxNyEjSAPyrROsGt9jlR.jpg","year":"2025","result":"HD","language":["Hindi"],"country":["GB"],"original_language":"en","genres":["Drama"],"imdb_id":"tt31029686","latest_uploaded_season":1,"total_uploaded_episodes":5},{"id":"1181704","type":"movie","title":"Earthquake Underground","poster":"https://image.tmdb.org/t/p/w342/eL91oFnvXAdlW4KN6qXAXTG567u.jpg","year":"2025","result":"HD","language":["Hindi"],"country":["US"],"original_language":"en","genres":["Action","Thriller"],"imdb_id":"tt29001749"},{"id":"1200801","type":"movie","title":"F Marry Kill","poster":"https://image.tmdb.org/t/p/w342/v7eHvzCoRFXhqt0XM2d8MQ1FBKa.jpg","year":"2025","result":"HD","language":["Hindi"],"country":["CA","US"],"original_language":"en","genres":["Comedy","Thriller","Horror"],"imdb_id":"tt22528200"},{"id":"1127767","type":"movie","title":"Riff Raff","poster":"https://image.tmdb.org/t/p/w342/xPSur71bxvFVdQ6RdKv0yaVKT2n.jpg","year":"2025","result":"HD","language":["Hindi"],"country":["US"],"original_language":"en","genres":["Comedy","Crime","Drama"],"imdb_id":"tt27775403"},{"id":"1317088","type":"movie","title":"The Assessment","poster":"https://image.tmdb.org/t/p/w342/o1K7be85FAauSbVPzCQ0GjOXUqu.jpg","year":"2025","result":"HD","language":["Hindi"],"country":["DE","GB","US"],"original_language":"en","genres":["Science Fiction","Drama","Thriller"],"imdb_id":"tt32768323"},{"id":"305133","type":"tv","title":"Anusandhan - The Search","poster":"https://image.tmdb.org/t/p/w342/zt4aTHUgCIFO7GkaeA1Kj8MuQCN.jpg","year":"2025","result":"HD","language":["Hindi"],"country":["IN"],"original_language":"bn","genres":["Crime"],"imdb_id":"tt38745313","latest_uploaded_season":1,"total_uploaded_episodes":7},{"id":"135152","type":"tv","title":"Indu / Indrani","poster":"https://image.tmdb.org/t/p/w342/kvV1kn1T7K7Y6gSkH7lmQNsCyFk.jpg","year":"2025","result":"HD","language":["Hindi"],"country":[],"original_language":"en","genres":["Drama","Mystery"],"imdb_id":"tt15502918","latest_uploaded_season":3,"total_uploaded_episodes":9},{"id":"298387","type":"tv","title":"84 Toh Baad","poster":"https://image.tmdb.org/t/p/w342/kTtoAez98Nt6zveNDcEsPCyJNb4.jpg","year":"2025","result":"HD","language":["PUNJABI"],"country":["IN"],"original_language":"pa","genres":["Drama"],"imdb_id":"","latest_uploaded_season":1,"total_uploaded_episodes":1},{"id":"1419903","type":"movie","title":"Akkad Bakkad Bambbe Bo Assi Nabbe Poore So","poster":"https://image.tmdb.org/t/p/w342/nv0TEuZ0SR7Pzg1RlOBJw00qc7F.jpg","year":"2025","result":"HD","language":["PUNJABI"],"country":["IN"],"original_language":"pa","genres":["Comedy","Horror"],"imdb_id":"tt28820711"},{"id":"1439583","type":"movie","title":"Badnaam","poster":"https://image.tmdb.org/t/p/w342/qgEf4jlTkyhcj8cK44gnr36EKeS.jpg","year":"2025","result":"HD","language":["Punjabi"],"country":["IN"],"original_language":"pa","genres":["Drama","Action","Crime"],"imdb_id":"tt34927582"},{"id":"1451523","type":"movie","title":"Challe Yaar Coachella","poster":"https://image.tmdb.org/t/p/w342/wo5Gq7yczRkk5fntrwvXrXFFdSm.jpg","year":"2025","result":"HD","language":["PUNJABI"],"country":[],"original_language":"pa","genres":[],"imdb_id":""},{"id":"1469422","type":"movie","title":"Gangland: The City of Crime","poster":"https://image.tmdb.org/t/p/w342/ebCmlVJXXwTgedVhS647S11Mz7U.jpg","year":"2025","result":"HD","language":["PUNJABI"],"country":["IN"],"original_language":"pa","genres":["Action","Drama"],"imdb_id":"tt36591053"},{"id":"1425640","type":"movie","title":"Illti","poster":"https://image.tmdb.org/t/p/w342/xTg0VOxAiiFUMDchQ0u4YiNnbNn.jpg","year":"2025","result":"HD","language":["PUNJABI"],"country":["IN"],"original_language":"pa","genres":["Comedy","Drama"],"imdb_id":"tt33044997"},{"id":"1438871","type":"movie","title":"Khilre Hoye Warke Kudrat","poster":"https://image.tmdb.org/t/p/w342/4RcHprTptkXOI2fJUPLwAR82LLn.jpg","year":"2025","result":"HD","language":["PUNJABI"],"country":[],"original_language":"pa","genres":["Drama"],"imdb_id":"tt35977316"},{"id":"1568195","type":"movie","title":"Madhaniyan","poster":"https://image.tmdb.org/t/p/w342/oRAnP7qxYjpzOpUbTi081KCsgkR.jpg","year":"2025","result":"HD","language":["PUNJABI"],"country":["IN"],"original_language":"pa","genres":["Romance","Drama"],"imdb_id":"tt34052201"},{"id":"1526240","type":"movie","title":"Main Tenu Phir Milangi","poster":"https://image.tmdb.org/t/p/w342/ssBLKsEpUwh6CNF8mOt4D6GtOTE.jpg","year":"2025","result":"HD","language":["PUNJABI"],"country":[],"original_language":"pa","genres":[],"imdb_id":"tt16733792"},{"id":"1420505","type":"movie","title":"Majhail","poster":"https://image.tmdb.org/t/p/w342/b7OSIqomkkxwnCEVsMSD5M4HT4e.jpg","year":"2025","result":"HD","language":["PUNJABI"],"country":[],"original_language":"pa","genres":["Action","Crime","Drama"],"imdb_id":"tt34615536"},{"id":"1500627","type":"movie","title":"Master Scheme Singh","poster":"https://image.tmdb.org/t/p/w342/heYRiNZxbg3pEmDugALDKchjeBf.jpg","year":"2025","result":"HD","language":["Punjabi"],"country":[],"original_language":"pa","genres":["Comedy","Drama"],"imdb_id":""},{"id":"1488859","type":"movie","title":"Mr & Mrs 420 Again","poster":"https://image.tmdb.org/t/p/w342/aLz55lqo3geX4GP8lmroyYV7ecq.jpg","year":"2025","result":"HD","language":["PUNJABI"],"country":["IN"],"original_language":"pa","genres":["Comedy"],"imdb_id":"tt36109502"},{"id":"1499835","type":"movie","title":"Pinjra","poster":"https://image.tmdb.org/t/p/w342/9yhXyD2MuqXeDrNYLXb8p5vjjRS.jpg","year":"2025","result":"HD","language":["PUNJABI"],"country":[],"original_language":"pa","genres":["Thriller","Crime"],"imdb_id":""}]}