{"page":47,"total_pages":66,"total_items":3272,"items":[{"id":"233629","type":"tv","title":"Bodies","poster":"https://image.tmdb.org/t/p/w342/qWX71nLvoLsBNPEjddZMC75lq6I.jpg","year":"2023","result":"HD","language":["Hindi"],"country":["GB"],"original_language":"en","genres":["Crime","Mystery","Sci-Fi & Fantasy","Drama"],"imdb_id":"tt18347622","latest_uploaded_season":1,"total_uploaded_episodes":8},{"id":"96677","type":"tv","title":"Lupin","poster":"https://image.tmdb.org/t/p/w342/h6Z2oogE4mJk2uffdtIlLhb0EHx.jpg","year":"2023","result":"HD","language":["Hindi"],"country":["FR"],"original_language":"fr","genres":["Crime","Drama","Mystery"],"imdb_id":"tt2531336","latest_uploaded_season":2,"total_uploaded_episodes":17},{"id":"891699","type":"movie","title":"Silent Night","poster":"https://image.tmdb.org/t/p/w342/tlcuhdNMKNGEVpGqBZrAaOOf1A6.jpg","year":"2023","result":"HD","language":["Hindi"],"country":["US"],"original_language":"en","genres":["Action","Thriller","Crime","Drama"],"imdb_id":"tt15799866"},{"id":"1117411","type":"movie","title":"The Kerala Story","poster":"https://image.tmdb.org/t/p/w342/g70f3hwn5jPaNzqPssoa9unlawo.jpg","year":"2023","result":"HD","language":["Hindi"],"country":["IN"],"original_language":"hi","genres":["Crime","Drama"],"imdb_id":"tt24268454"},{"id":"226002","type":"tv","title":"Gen Z","poster":"https://image.tmdb.org/t/p/w342/2C8LwBBCnU3uyKppMxIruEr7Zjp.jpg","year":"2023","result":"HD","language":["Hindi"],"country":["CN"],"original_language":"zh","genres":["Drama"],"imdb_id":"tt27687545","latest_uploaded_season":1,"total_uploaded_episodes":40},{"id":"225178","type":"tv","title":"The Love You Give Me","poster":"https://image.tmdb.org/t/p/w342/qL282eKyVyYanby06A4dzNNWsxK.jpg","year":"2023","result":"HD","language":["Hindi"],"country":["CN"],"original_language":"zh","genres":["Drama"],"imdb_id":"tt27618756","latest_uploaded_season":1,"total_uploaded_episodes":28},{"id":"221923","type":"tv","title":"The Way You Shine","poster":"https://image.tmdb.org/t/p/w342/cuOWj3LT2pBmkg3zzY9rfSRF5SR.jpg","year":"2023","result":"HD","language":["Hindi"],"country":["TW"],"original_language":"zh","genres":["Drama"],"imdb_id":"tt27705687","latest_uploaded_season":1,"total_uploaded_episodes":24},{"id":"958263","type":"movie","title":"Believer 2","poster":"https://image.tmdb.org/t/p/w342/g9aDZSqH5KmsHbMurhni5d2wq6q.jpg","year":"2023","result":"HD","language":["Hindi"],"country":["KR"],"original_language":"ko","genres":["Thriller","Action","Crime"],"imdb_id":"tt26258204"},{"id":"205319","type":"tv","title":"Daily Dose of Sunshine","poster":"https://image.tmdb.org/t/p/w342/d9hIiomaPXu6W9qATzPSqHgxze8.jpg","year":"2023","result":"HD","language":["Hindi"],"country":["KR"],"original_language":"ko","genres":["Drama"],"imdb_id":"tt26258202","latest_uploaded_season":1,"total_uploaded_episodes":12},{"id":"234859","type":"tv","title":"Hello, I'm At Your Service","poster":"https://image.tmdb.org/t/p/w342/vNPq4Ks7PPpTk4DyMG8lMEN3Qk.jpg","year":"2023","result":"HD","language":["Hindi"],"country":["CN"],"original_language":"zh","genres":["Drama"],"imdb_id":"tt29142245","latest_uploaded_season":1,"total_uploaded_episodes":24},{"id":"221993","type":"tv","title":"I Belonged to Your World","poster":"https://image.tmdb.org/t/p/w342/AlFUXp1jorpHacbyIWnhIM3qQ6I.jpg","year":"2023","result":"HD","language":["Hindi"],"country":["CN"],"original_language":"zh","genres":["Drama","Sci-Fi & Fantasy"],"imdb_id":"","latest_uploaded_season":1,"total_uploaded_episodes":20},{"id":"206693","type":"tv","title":"My Dearest","poster":"https://image.tmdb.org/t/p/w342/d00uWx8T84ZRsguQTqITl3HnFJO.jpg","year":"2023","result":"HD","language":["Hindi"],"country":["KR"],"original_language":"ko","genres":["Drama","Mystery"],"imdb_id":"tt26228190","latest_uploaded_season":1,"total_uploaded_episodes":21},{"id":"215320","type":"tv","title":"Numbers","poster":"https://image.tmdb.org/t/p/w342/1aKjOBF9NReK7IQZDRngoQRBwMO.jpg","year":"2023","result":"HD","language":["Hindi"],"country":["KR"],"original_language":"ko","genres":["Drama","Action & Adventure"],"imdb_id":"tt26689977","latest_uploaded_season":1,"total_uploaded_episodes":12},{"id":"753091","type":"movie","title":"The Moon","poster":"https://image.tmdb.org/t/p/w342/8LfXejDvxnOGZ0VEBZMBVekGWgo.jpg","year":"2023","result":"HD","language":["Hindi"],"country":["KR"],"original_language":"ko","genres":["Drama","Adventure","Science Fiction"],"imdb_id":"tt27688034"},{"id":"121659","type":"tv","title":"Yu Yu Hakusho","poster":"https://image.tmdb.org/t/p/w342/t9WiCEnojzksL3crxiCt7HIda8p.jpg","year":"2023","result":"HD","language":["Hindi"],"country":["JP"],"original_language":"ja","genres":["Drama","Sci-Fi & Fantasy","Action & Adventure"],"imdb_id":"tt13664452","latest_uploaded_season":1,"total_uploaded_episodes":5},{"id":"1100668","type":"movie","title":"Nigah Marda Ayi Ve","poster":"https://image.tmdb.org/t/p/w342/f4X8Mup2DOkFxJJ29jWQ0Kt0HzH.jpg","year":"2023","result":"HD","language":["CAM RESULT"],"country":["IN"],"original_language":"pa","genres":["Drama","Romance"],"imdb_id":"tt15422336"},{"id":"215001","type":"tv","title":"Destined with You","poster":"https://image.tmdb.org/t/p/w342/e21UFBbQStpqSkU4iyWwVJsb8DZ.jpg","year":"2023","result":"HD","language":["Hindi"],"country":["KR"],"original_language":"ko","genres":["Drama","Sci-Fi & Fantasy","Comedy"],"imdb_id":"tt27974068","latest_uploaded_season":1,"total_uploaded_episodes":16},{"id":"194797","type":"tv","title":"Doona!","poster":"https://image.tmdb.org/t/p/w342/bQhiOkU3lCu5pwCqPdNVG5GBLlj.jpg","year":"2023","result":"HD","language":["Hindi"],"country":["KR"],"original_language":"ko","genres":["Drama"],"imdb_id":"tt24245988","latest_uploaded_season":1,"total_uploaded_episodes":9},{"id":"715253","type":"movie","title":"Phantom","poster":"https://image.tmdb.org/t/p/w342/n1rxZ4wovf7BYhLNwCqde8I3I2N.jpg","year":"2023","result":"HD","language":["Hindi"],"country":["KR"],"original_language":"ko","genres":["Action","Thriller","Crime"],"imdb_id":"tt25503544"},{"id":"210107","type":"tv","title":"Behind Your Touch","poster":"https://image.tmdb.org/t/p/w342/rmGfPwRBOr8i8zxS0P0XCFJE21W.jpg","year":"2023","result":"HD","language":["Hindi"],"country":["KR"],"original_language":"ko","genres":["Drama","Comedy","Sci-Fi & Fantasy","Mystery"],"imdb_id":"tt26314390","latest_uploaded_season":1,"total_uploaded_episodes":16},{"id":"146176","type":"tv","title":"Berlin","poster":"https://image.tmdb.org/t/p/w342/69YuvoiWTtK6oyYH2Jl4Q6SgZ59.jpg","year":"2023","result":"HD","language":["Hindi"],"country":["ES"],"original_language":"es","genres":["Drama","Action & Adventure","Crime"],"imdb_id":"tt16288804","latest_uploaded_season":1,"total_uploaded_episodes":8},{"id":"1030587","type":"movie","title":"Doraemon the Movie: Nobita's Sky Utopia","poster":"https://image.tmdb.org/t/p/w342/uux6M8z3hxLDkq8LXSzq8528mrq.jpg","year":"2023","result":"HD","language":["Hindi"],"country":["JP"],"original_language":"ja","genres":["Animation","Family","Adventure","Science Fiction","Fantasy"],"imdb_id":"tt21223380"},{"id":"136368","type":"tv","title":"Song of the Bandits","poster":"https://image.tmdb.org/t/p/w342/4lls2JCt9g1YiusX3xLVSdSZ6cO.jpg","year":"2023","result":"HD","language":["Hindi"],"country":["KR"],"original_language":"ko","genres":["Action & Adventure","Drama"],"imdb_id":"tt21627436","latest_uploaded_season":1,"total_uploaded_episodes":9},{"id":"1078642","type":"movie","title":"Bihter: A Forbidden Passion","poster":"https://image.tmdb.org/t/p/w342/80LYrmrs3EcW0hj9aXAwglmXtJF.jpg","year":"2023","result":"HD","language":["Hindi"],"country":["TR"],"original_language":"tr","genres":["Drama","Romance"],"imdb_id":"tt26258488"},{"id":"910571","type":"movie","title":"Fair Play","poster":"https://image.tmdb.org/t/p/w342/tGgojtD6vJKYeCfktAhhA1pmH0n.jpg","year":"2023","result":"HD","language":["Hindi"],"country":["US"],"original_language":"en","genres":["Drama","Thriller","Romance"],"imdb_id":"tt16304446"},{"id":"1027356","type":"movie","title":"Girls on Film","poster":"https://image.tmdb.org/t/p/w342/dsJJtg51dJC3WtRlb1ht5m19xhF.jpg","year":"2023","result":"HD","language":["Hindi"],"country":["US"],"original_language":"en","genres":["Drama","Romance","Thriller"],"imdb_id":"tt28225049"},{"id":"1073079","type":"movie","title":"Kill Her Goats","poster":"https://image.tmdb.org/t/p/w342/mFzyMEQvKwf2rXxB1GsSocJfL11.jpg","year":"2023","result":"HD","language":["Hindi"],"country":["US"],"original_language":"en","genres":["Horror"],"imdb_id":"tt13174108"},{"id":"1010581","type":"movie","title":"My Fault","poster":"https://image.tmdb.org/t/p/w342/w46Vw536HwNnEzOa7J24YH9DPRS.jpg","year":"2023","result":"HD","language":["Hindi"],"country":["ES"],"original_language":"es","genres":["Drama","Romance","Thriller"],"imdb_id":"tt21909764"},{"id":"1057491","type":"movie","title":"Naughty","poster":"https://image.tmdb.org/t/p/w342/9vUEWR3LjQcPqaev2Rfm5uKvV9i.jpg","year":"2023","result":"HD","language":["Hindi"],"country":["RU"],"original_language":"ru","genres":["Drama"],"imdb_id":"tt23806182"},{"id":"979806","type":"movie","title":"Shades of Desire","poster":"https://image.tmdb.org/t/p/w342/qLW0ufxvu4Xl4k1gZXNxiRXnsos.jpg","year":"2023","result":"HD","language":["Hindi"],"country":["GB"],"original_language":"en","genres":["Horror","Thriller"],"imdb_id":"tt27444133"},{"id":"1152306","type":"movie","title":"The Comeback","poster":"https://image.tmdb.org/t/p/w342/hNnrtEEcDE0kHnUzzUmEGzY2eny.jpg","year":"2023","result":"HD","language":["Hindi"],"country":["CN"],"original_language":"zh","genres":["Action","Thriller","Crime"],"imdb_id":"tt28482763"},{"id":"988078","type":"movie","title":"Through My Window: Across the Sea","poster":"https://image.tmdb.org/t/p/w342/3kULr3y7ZhdY3oCHKwwNT2hqys0.jpg","year":"2023","result":"HD","language":["Hindi"],"country":["ES"],"original_language":"es","genres":["Romance","Drama","Comedy"],"imdb_id":"tt21245882"},{"id":"940721","type":"movie","title":"Godzilla Minus One","poster":"https://image.tmdb.org/t/p/w342/2E2WTX0TJEflAged6kzErwqX1kt.jpg","year":"2023","result":"HD","language":["Hindi"],"country":["JP"],"original_language":"ja","genres":["Science Fiction","Horror","Action"],"imdb_id":"tt23289160"},{"id":"221483","type":"tv","title":"Luden","poster":"https://image.tmdb.org/t/p/w342/mGpnSPcWVa7ynIwdNmuwdGWseRh.jpg","year":"2023","result":"HD","language":["Hindi"],"country":["DE"],"original_language":"de","genres":["Drama"],"imdb_id":"tt14136806","latest_uploaded_season":1,"total_uploaded_episodes":6},{"id":"94244","type":"tv","title":"Obliterated","poster":"https://image.tmdb.org/t/p/w342/tWPAKr5RaZCQ1jaO2VRmvcIOrKh.jpg","year":"2023","result":"HD","language":["Hindi"],"country":["US"],"original_language":"en","genres":["Comedy","Action & Adventure","Drama"],"imdb_id":"tt11097240","latest_uploaded_season":1,"total_uploaded_episodes":8},{"id":"223313","type":"tv","title":"Obsession","poster":"https://image.tmdb.org/t/p/w342/8nQmxCYvidrCMxYCPdhuls94cl9.jpg","year":"2023","result":"HD","language":["Hindi"],"country":["GB"],"original_language":"en","genres":["Drama","Mystery"],"imdb_id":"tt18831118","latest_uploaded_season":1,"total_uploaded_episodes":4},{"id":"81356","type":"tv","title":"Sex Education","poster":"https://image.tmdb.org/t/p/w342/bc3bmTdnoKcRuO9xdQKgAbB7Y9Z.jpg","year":"2023","result":"HD","language":["Hindi"],"country":["GB"],"original_language":"en","genres":["Comedy","Drama"],"imdb_id":"tt7767422","latest_uploaded_season":4,"total_uploaded_episodes":32},{"id":"117023","type":"tv","title":"Sky Rojo","poster":"https://image.tmdb.org/t/p/w342/vu2uJEdX3UPcF8NC6wvBXGcsDJ4.jpg","year":"2023","result":"HD","language":["Hindi"],"country":["ES"],"original_language":"es","genres":["Action & Adventure","Crime","Drama"],"imdb_id":"tt8690776","latest_uploaded_season":3,"total_uploaded_episodes":24},{"id":"135251","type":"tv","title":"The Idol","poster":"https://image.tmdb.org/t/p/w342/gO9k7t9jSdkkWVG0deMZDpELZGw.jpg","year":"2023","result":"HD","language":["Hindi"],"country":["US"],"original_language":"en","genres":["Drama"],"imdb_id":"tt14954666","latest_uploaded_season":1,"total_uploaded_episodes":5},{"id":"135814","type":"tv","title":"Lady Voyeur","poster":"https://image.tmdb.org/t/p/w342/5BqzppbUELOLDUSuS8d9mWz97iH.jpg","year":"2023","result":"HD","language":["Hindi"],"country":["BR"],"original_language":"pt","genres":["Drama","Mystery"],"imdb_id":"tt15525658","latest_uploaded_season":1,"total_uploaded_episodes":10},{"id":"1078012","type":"movie","title":"Boonie Bears: Guardian Code","poster":"https://image.tmdb.org/t/p/w342/lIR8h3Os8peWOave8CGE7xsTFoi.jpg","year":"2023","result":"HD","language":["Hindi"],"country":["CN"],"original_language":"zh","genres":["Animation","Comedy","Science Fiction","Family","Adventure"],"imdb_id":"tt25981462"},{"id":"129959","type":"tv","title":"Kung Fu Panda: The Dragon Knight","poster":"https://image.tmdb.org/t/p/w342/7C9TKvU5dNyhvoG9kQvRFsg6vlA.jpg","year":"2023","result":"HD","language":["Hindi"],"country":["US"],"original_language":"en","genres":["Animation","Action & Adventure","Comedy","Kids","Sci-Fi & Fantasy"],"imdb_id":"tt18783984","latest_uploaded_season":3,"total_uploaded_episodes":21},{"id":"848326","type":"movie","title":"Rebel Moon - Part One: A Child of Fire","poster":"https://image.tmdb.org/t/p/w342/ui4DrH1cKk2vkHshcUcGt2lKxCm.jpg","year":"2023","result":"HD","language":["Hindi"],"country":["US"],"original_language":"en","genres":["Science Fiction","Action","Adventure"],"imdb_id":"tt14998742"},{"id":"906126","type":"movie","title":"Society of the Snow","poster":"https://image.tmdb.org/t/p/w342/2e853FDVSIso600RqAMunPxiZjq.jpg","year":"2023","result":"HD","language":["Hindi"],"country":["ES","US"],"original_language":"es","genres":["Drama","History"],"imdb_id":"tt16277242"},{"id":"1109534","type":"movie","title":"The Dive","poster":"https://image.tmdb.org/t/p/w342/1aLFglfGkTFG5p6KQg9o07EN3rl.jpg","year":"2023","result":"HD","language":["Hindi"],"country":["BE","FR","DE","MT","GB"],"original_language":"en","genres":["Thriller","Adventure"],"imdb_id":"tt13566172"},{"id":"1179085","type":"movie","title":"The PA and the Manhattan Prince","poster":"https://image.tmdb.org/t/p/w342/ehAxN7gYBtGkfDLPAMfMuXEL7Uy.jpg","year":"2023","result":"HD","language":["Hindi"],"country":["US"],"original_language":"en","genres":["TV Movie","Comedy","Romance","Family"],"imdb_id":"tt29137326"},{"id":"875188","type":"movie","title":"Kho Gaye Hum Kahan","poster":"https://image.tmdb.org/t/p/w342/WUptEusy1sMh3s46Ik7QbfoKts.jpg","year":"2023","result":"HD","language":["Hindi"],"country":["IN"],"original_language":"hi","genres":["Drama","Comedy"],"imdb_id":"tt15434074"},{"id":"1211409","type":"movie","title":"Kya Masti Kya Dhoom","poster":"https://image.tmdb.org/t/p/w342/zq7nyJ5Egw0T0mmBP723oPtbH0P.jpg","year":"2023","result":"HD","language":["Hindi"],"country":["IN"],"original_language":"hi","genres":["Comedy"],"imdb_id":"tt9286896"},{"id":"1093879","type":"movie","title":"The Keepers of the 5 Kingdoms","poster":"https://image.tmdb.org/t/p/w342/zITBvIWO2LRVAVx8BD1KyMWUx47.jpg","year":"2023","result":"HD","language":["Hindi"],"country":["US"],"original_language":"en","genres":["Adventure","Fantasy","Family"],"imdb_id":"tt8959084"},{"id":"945106","type":"movie","title":"Memories","poster":"https://image.tmdb.org/t/p/w342/jyeiTD4mkQrqtApb5FvcwYgUbHK.jpg","year":"2023","result":"HD","language":["Hindi"],"country":["IN"],"original_language":"ta","genres":["Thriller","Mystery"],"imdb_id":"tt14962838"}]}