{"page":45,"total_pages":66,"total_items":3272,"items":[{"id":"1058537","type":"movie","title":"Angels Fallen: Warriors of Peace","poster":"https://image.tmdb.org/t/p/w342/dKdKUSGQ9E0G73WPr9xIHrofpkT.jpg","year":"2024","result":"HD","language":["Hindi"],"country":["US"],"original_language":"en","genres":["Action","Adventure","Fantasy","Horror"],"imdb_id":"tt20258220"},{"id":"1051891","type":"movie","title":"Thelma","poster":"https://image.tmdb.org/t/p/w342/rUcuageYgv9SsJoWuc0seRWG6JC.jpg","year":"2024","result":"HD","language":["Hindi"],"country":["US","CH"],"original_language":"en","genres":["Action","Comedy","Adventure"],"imdb_id":"tt23778968"},{"id":"1044552","type":"movie","title":"Lal Salaam","poster":"https://image.tmdb.org/t/p/w342/65n64KT32r638HD8WS0mGL0vSGc.jpg","year":"2024","result":"HD","language":["Hindi"],"country":["IN"],"original_language":"ta","genres":["Drama","Action"],"imdb_id":"tt23461428"},{"id":"1035048","type":"movie","title":"Elevation","poster":"https://image.tmdb.org/t/p/w342/tnfc0NJ3BzhJrGJhkkEd6MHBdq5.jpg","year":"2024","result":"HD","language":["Hindi"],"country":["US"],"original_language":"en","genres":["Action","Science Fiction","Thriller"],"imdb_id":"tt23558280"},{"id":"1023922","type":"movie","title":"MaXXXine","poster":"https://image.tmdb.org/t/p/w342/ArvoFK6nlouZRxYmtIOUzKIrg90.jpg","year":"2024","result":"HD","language":["Hindi"],"country":["US"],"original_language":"en","genres":["Horror","Thriller"],"imdb_id":"tt22048412"},{"id":"1017163","type":"movie","title":"The Roundup 4: Punishment","poster":"https://image.tmdb.org/t/p/w342/yk38mNoJpsswmk9o7i7eLhO4mc.jpg","year":"2024","result":"HD","language":["Hindi"],"country":["KR"],"original_language":"ko","genres":["Action","Crime","Thriller","Comedy"],"imdb_id":"tt27811040"},{"id":"1016848","type":"movie","title":"The Front Room","poster":"https://image.tmdb.org/t/p/w342/zjkU6mZH9dMbQK2B622MlsRT8uw.jpg","year":"2024","result":"HD","language":["Hindi"],"country":["GB","US"],"original_language":"en","genres":["Horror"],"imdb_id":"tt21905744"},{"id":"1012201","type":"movie","title":"HAIKYU!! The Dumpster Battle","poster":"https://image.tmdb.org/t/p/w342/ntRU0OA4etGGiMMmH1Yw0bnaMdW.jpg","year":"2024","result":"HD","language":["Hindi"],"country":["JP"],"original_language":"ja","genres":["Animation","Comedy"],"imdb_id":"tt30476486"},{"id":"1010600","type":"movie","title":"The Strangers: Chapter 1","poster":"https://image.tmdb.org/t/p/w342/oYsCNpW4k7Pd7ac3uQfBhr2ihtW.jpg","year":"2024","result":"HD","language":["Hindi"],"country":["GB","US"],"original_language":"en","genres":["Horror","Thriller"],"imdb_id":"tt22050754"},{"id":"1007127","type":"movie","title":"Troll Factory","poster":"https://image.tmdb.org/t/p/w342/1joLg8gwVTZe7tarh0isaWntdhQ.jpg","year":"2024","result":"HD","language":["Hindi"],"country":["KR"],"original_language":"ko","genres":["Crime","Drama"],"imdb_id":"tt31315820"},{"id":"1005076","type":"movie","title":"Duchess","poster":"https://image.tmdb.org/t/p/w342/5TR7JlJbKucNSq84rkbnjLd1JB5.jpg","year":"2024","result":"HD","language":["Hindi"],"country":["GB"],"original_language":"en","genres":["Action","Crime","Thriller"],"imdb_id":"tt18300732"},{"id":"1001311","type":"movie","title":"Under Paris","poster":"https://image.tmdb.org/t/p/w342/qZPLK5ktRKa3CL4sKRZtj8UlPYc.jpg","year":"2024","result":"HD","language":["Hindi"],"country":["FR"],"original_language":"fr","genres":["Action","Horror"],"imdb_id":"tt13964390"},{"id":"999582","type":"movie","title":"Babes","poster":"https://image.tmdb.org/t/p/w342/1Cg4G1iQpisGXmWqns5uo4I6fPk.jpg","year":"2024","result":"HD","language":["Hindi"],"country":["US"],"original_language":"en","genres":["Comedy"],"imdb_id":"tt21276958"},{"id":"997162","type":"movie","title":"Marmalade","poster":"https://image.tmdb.org/t/p/w342/yt66TPbmJn8E4LepeLhBO5V1AED.jpg","year":"2024","result":"HD","language":["Hindi"],"country":["GB","US"],"original_language":"en","genres":["Crime","Thriller","Romance","Drama","Comedy"],"imdb_id":"tt21275544"},{"id":"933088","type":"movie","title":"The Abandon","poster":"https://image.tmdb.org/t/p/w342/vjno0bsWumTvpjQt4D910nUTG3a.jpg","year":"2024","result":"HD","language":["Hindi"],"country":["US"],"original_language":"en","genres":["Science Fiction","Horror","Thriller"],"imdb_id":"tt10273738"},{"id":"931940","type":"movie","title":"The Fix","poster":"https://image.tmdb.org/t/p/w342/vY7bY2xZymoIOti4WM5K29OMzCS.jpg","year":"2024","result":"HD","language":["Hindi"],"country":["ZA"],"original_language":"en","genres":["Science Fiction","Action","Horror"],"imdb_id":"tt10284944"},{"id":"928480","type":"movie","title":"Monster Summer","poster":"https://image.tmdb.org/t/p/w342/zD2UZkh0DwbDEMuOKIR7jgwgulZ.jpg","year":"2024","result":"HD","language":["Hindi"],"country":["US"],"original_language":"en","genres":["Adventure","Fantasy","Mystery","Horror"],"imdb_id":"tt3954936"},{"id":"893591","type":"movie","title":"Nadikar","poster":"https://image.tmdb.org/t/p/w342/oNa0qMQ8KoVZweIz40wQtXBG00z.jpg","year":"2024","result":"HD","language":["Hindi"],"country":["IN"],"original_language":"ml","genres":["Comedy","Drama"],"imdb_id":"tt15816336"},{"id":"838209","type":"movie","title":"Exhuma","poster":"https://image.tmdb.org/t/p/w342/6dasJ58GGFcC62H9KuukAryltUp.jpg","year":"2024","result":"HD","language":["Hindi"],"country":["KR"],"original_language":"ko","genres":["Mystery","Horror","Thriller"],"imdb_id":"tt27802490"},{"id":"832964","type":"movie","title":"Lee","poster":"https://image.tmdb.org/t/p/w342/zdNWyuim8gpJHe1LtKaDrs43dWz.jpg","year":"2024","result":"HD","language":["Hindi"],"country":["AU","US","GB","LU"],"original_language":"en","genres":["History","Drama","War"],"imdb_id":"tt5112584"},{"id":"786892","type":"movie","title":"Furiosa: A Mad Max Saga","poster":"https://image.tmdb.org/t/p/w342/iADOJ8Zymht2JPMoy3R7xceZprc.jpg","year":"2024","result":"HD","language":["Hindi"],"country":["AU","US"],"original_language":"en","genres":["Action","Science Fiction","Adventure"],"imdb_id":"tt12037194"},{"id":"762509","type":"movie","title":"Mufasa: The Lion King","poster":"https://image.tmdb.org/t/p/w342/lurEK87kukWNaHd0zYnsi3yzJrs.jpg","year":"2024","result":"HD","language":["Hindi"],"country":["US"],"original_language":"en","genres":["Adventure","Family","Animation"],"imdb_id":"tt13186482"},{"id":"755388","type":"movie","title":"Ayalaan","poster":"https://image.tmdb.org/t/p/w342/8nryykQqfU7yqTz4FD7uEBjseZp.jpg","year":"2024","result":"HD","language":["Hindi"],"country":["IN"],"original_language":"ta","genres":["Science Fiction","Action","Adventure"],"imdb_id":"tt7892066"},{"id":"743815","type":"movie","title":"Following","poster":"https://image.tmdb.org/t/p/w342/1TSnW71f1J63XgtZIHojLcclm7c.jpg","year":"2024","result":"HD","language":["Hindi"],"country":["KR"],"original_language":"ko","genres":["Thriller","Mystery"],"imdb_id":"tt32220831"},{"id":"720321","type":"movie","title":"Breathe","poster":"https://image.tmdb.org/t/p/w342/wTW2t8ocWDlHns8I7vQxuqkyK58.jpg","year":"2024","result":"HD","language":["Hindi"],"country":["US"],"original_language":"en","genres":["Action","Science Fiction","Mystery","Thriller"],"imdb_id":"tt11540468"},{"id":"719221","type":"movie","title":"Tarot","poster":"https://image.tmdb.org/t/p/w342/gAEUXC37vl1SnM7PXsHTF23I2vq.jpg","year":"2024","result":"HD","language":["Hindi"],"country":["US"],"original_language":"en","genres":["Horror"],"imdb_id":"tt14088510"},{"id":"629078","type":"movie","title":"The Glassworker","poster":"https://image.tmdb.org/t/p/w342/Aj4IhLVphVwKuZrE5EcSGTUMmk2.jpg","year":"2024","result":"HD","language":["Hindi"],"country":["PK"],"original_language":"ur","genres":["Animation","Family","Romance","War"],"imdb_id":"tt5986440"},{"id":"598387","type":"movie","title":"The Tiger's Apprentice","poster":"https://image.tmdb.org/t/p/w342/64ZktFMmTzsm47wdsaMOID0DzcY.jpg","year":"2024","result":"HD","language":["Hindi"],"country":["US"],"original_language":"en","genres":["Animation","Family","Fantasy"],"imdb_id":"tt5834410"},{"id":"402431","type":"movie","title":"Wicked","poster":"https://image.tmdb.org/t/p/w342/xDGbZ0JJ3mYaGKy4Nzd9Kph6M9L.jpg","year":"2024","result":"HD","language":["Hindi"],"country":["US"],"original_language":"en","genres":["Drama","Romance","Fantasy"],"imdb_id":"tt1262426"},{"id":"395817","type":"movie","title":"The Thicket","poster":"https://image.tmdb.org/t/p/w342/jsvk8e0HgITFX0gbDEjj6hOytsP.jpg","year":"2024","result":"HD","language":["Hindi"],"country":["CA","US"],"original_language":"en","genres":["Western","Crime","Thriller"],"imdb_id":"tt4058618"},{"id":"300369","type":"tv","title":"IPC - The Ratnagiri Files","poster":"https://image.tmdb.org/t/p/w342/gLm4yud1TbTNzuvPpdgP00HE0CE.jpg","year":"2024","result":"HD","language":["Hindi"],"country":["IN"],"original_language":"mr","genres":["Drama","Mystery"],"imdb_id":"tt34218696","latest_uploaded_season":1,"total_uploaded_episodes":8},{"id":"278446","type":"tv","title":"Hello Old Friend","poster":"https://image.tmdb.org/t/p/w342/fkKX90TYtlmkMvjYeB90bkYJOS.jpg","year":"2024","result":"HD","language":["Hindi"],"country":["CN"],"original_language":"zh","genres":["Drama"],"imdb_id":"","latest_uploaded_season":1,"total_uploaded_episodes":24},{"id":"275694","type":"tv","title":"The Darkness","poster":"https://image.tmdb.org/t/p/w342/xaPrG1yhXz1SE1cHUu4lmWAlZDR.jpg","year":"2024","result":"HD","language":["Hindi"],"country":["IS"],"original_language":"is","genres":["Crime","Mystery"],"imdb_id":"tt10011518","latest_uploaded_season":1,"total_uploaded_episodes":6},{"id":"274230","type":"tv","title":"Good Doctor","poster":"https://image.tmdb.org/t/p/w342/9RKqT2nKPmGRA9Rx2nIhK4Fi5c5.jpg","year":"2024","result":"HD","language":["Hindi"],"country":["TH"],"original_language":"th","genres":["Drama"],"imdb_id":"tt33417631","latest_uploaded_season":1,"total_uploaded_episodes":20},{"id":"259786","type":"tv","title":"Good Bye, Dragon Life","poster":"https://image.tmdb.org/t/p/w342/n15iwXmYASiAEWUvkfoVKEIoqWq.jpg","year":"2024","result":"HD","language":["Hindi"],"country":["JP"],"original_language":"ja","genres":["Animation","Sci-Fi & Fantasy","Action & Adventure"],"imdb_id":"tt32832435","latest_uploaded_season":1,"total_uploaded_episodes":12},{"id":"259140","type":"tv","title":"Ranma1/2","poster":"https://image.tmdb.org/t/p/w342/cDThx8yRYbdPOSgHbjihS4q7GYc.jpg","year":"2024","result":"HD","language":["Hindi"],"country":["JP"],"original_language":"ja","genres":["Animation","Action & Adventure","Comedy","Sci-Fi & Fantasy"],"imdb_id":"tt32766897","latest_uploaded_season":1,"total_uploaded_episodes":24},{"id":"255008","type":"tv","title":"Present, is Present","poster":"https://image.tmdb.org/t/p/w342/srX5hpFsMhyVMw7zpEXwwg6fwah.jpg","year":"2024","result":"HD","language":["Hindi"],"country":["CN"],"original_language":"zh","genres":["Drama","Mystery"],"imdb_id":"tt32525811","latest_uploaded_season":1,"total_uploaded_episodes":16},{"id":"253767","type":"tv","title":"Smile Code","poster":"https://image.tmdb.org/t/p/w342/bkBU6bt0kYlzEhyPlyXjIsg15zF.jpg","year":"2024","result":"HD","language":["Hindi"],"country":["CN"],"original_language":"zh","genres":["Drama"],"imdb_id":"tt31173610","latest_uploaded_season":1,"total_uploaded_episodes":34},{"id":"252064","type":"tv","title":"Peacock in Wonderland","poster":"https://image.tmdb.org/t/p/w342/iPkB3ZVgWq8VMpj66LChO4ahiQ0.jpg","year":"2024","result":"HD","language":["Hindi"],"country":["CN"],"original_language":"zh","genres":["Sci-Fi & Fantasy"],"imdb_id":"","latest_uploaded_season":1,"total_uploaded_episodes":42},{"id":"249972","type":"tv","title":"Blossom","poster":"https://image.tmdb.org/t/p/w342/38WomXthArq5cKRfkHkxYRo6DLe.jpg","year":"2024","result":"HD","language":["Hindi"],"country":["CN"],"original_language":"zh","genres":["Drama"],"imdb_id":"tt31938763","latest_uploaded_season":1,"total_uploaded_episodes":34},{"id":"249847","type":"tv","title":"Miss Target","poster":"https://image.tmdb.org/t/p/w342/tcKysgvfk1kS84wdxMlJBK6KQIX.jpg","year":"2024","result":"HD","language":["Hindi"],"country":["JP"],"original_language":"ja","genres":["Drama","Comedy"],"imdb_id":"tt32169410","latest_uploaded_season":1,"total_uploaded_episodes":9},{"id":"248817","type":"tv","title":"I'll Become a Villainess Who Goes Down in History","poster":"https://image.tmdb.org/t/p/w342/lTDWs3IjKwiBz00c8bzVmrgLa3A.jpg","year":"2024","result":"HD","language":["Hindi"],"country":["JP"],"original_language":"ja","genres":["Animation","Comedy"],"imdb_id":"tt32812118","latest_uploaded_season":1,"total_uploaded_episodes":13},{"id":"247453","type":"tv","title":"Everyone Loves Me","poster":"https://image.tmdb.org/t/p/w342/sgWR52ebu4rRCgJjYxCliCITh7H.jpg","year":"2024","result":"HD","language":["Hindi"],"country":["CN"],"original_language":"zh","genres":["Comedy","Drama"],"imdb_id":"tt28131856","latest_uploaded_season":1,"total_uploaded_episodes":24},{"id":"244324","type":"tv","title":"Dead and Buried","poster":"https://image.tmdb.org/t/p/w342/mNOtgyHuat5xZWLKl15JjBz8yqQ.jpg","year":"2024","result":"HD","language":["Hindi"],"country":["IE","GB"],"original_language":"en","genres":["Drama"],"imdb_id":"tt31499843","latest_uploaded_season":1,"total_uploaded_episodes":4},{"id":"242983","type":"tv","title":"#90’s - A Middle Class Biopic","poster":"https://image.tmdb.org/t/p/w342/fYKBBcpWMRhMPyeHmDZNLTFyMae.jpg","year":"2024","result":"HD","language":["Hindi"],"country":["IN"],"original_language":"te","genres":["Family","Comedy","Drama"],"imdb_id":"tt29764006","latest_uploaded_season":1,"total_uploaded_episodes":6},{"id":"242143","type":"tv","title":"You are Ms. Servant","poster":"https://image.tmdb.org/t/p/w342/eyFOI6GkIN9JI1qaGLpEkrRlXdc.jpg","year":"2024","result":"HD","language":["Hindi"],"country":["JP"],"original_language":"ja","genres":["Animation","Comedy"],"imdb_id":"tt30689669","latest_uploaded_season":1,"total_uploaded_episodes":12},{"id":"240437","type":"tv","title":"My Boss","poster":"https://image.tmdb.org/t/p/w342/27mXtbvk9lNpq5zC3dRzOX9Zb0c.jpg","year":"2024","result":"HD","language":["Hindi"],"country":["CN"],"original_language":"zh","genres":["Comedy","Drama"],"imdb_id":"tt29363736","latest_uploaded_season":1,"total_uploaded_episodes":36},{"id":"240411","type":"tv","title":"Dan Da Dan","poster":"https://image.tmdb.org/t/p/w342/6qfZAOEUFIrbUH3JvePclx1nXzz.jpg","year":"2024","result":"HD","language":["Hindi"],"country":["JP"],"original_language":"ja","genres":["Animation","Action & Adventure","Comedy","Sci-Fi & Fantasy"],"imdb_id":"tt30217403","latest_uploaded_season":1,"total_uploaded_episodes":24},{"id":"240125","type":"tv","title":"TRILLION GAME","poster":"https://image.tmdb.org/t/p/w342/pL4nFHx4lChRXLrJzRX0sAl8SfG.jpg","year":"2024","result":"HD","language":["Hindi"],"country":["JP"],"original_language":"ja","genres":["Animation","Drama"],"imdb_id":"tt33609048","latest_uploaded_season":1,"total_uploaded_episodes":26},{"id":"239779","type":"tv","title":"True Beauty","poster":"https://image.tmdb.org/t/p/w342/9gpc8kIhNEG7r0VTkyI9aVBxdO3.jpg","year":"2024","result":"HD","language":["Hindi"],"country":["KR"],"original_language":"ko","genres":["Animation","Comedy","Drama"],"imdb_id":"tt33054444","latest_uploaded_season":1,"total_uploaded_episodes":13}]}