{"page":58,"total_pages":66,"total_items":3272,"items":[{"id":"524736","type":"movie","title":"The Chanting: Revisited","poster":"https://image.tmdb.org/t/p/w342/pn3wmdsCTDLukJK1lDF68aJ2wVL.jpg","year":"2018","result":"HD","language":["Hindi"],"country":["ID"],"original_language":"id","genres":["Horror","Comedy"],"imdb_id":"tt8512746"},{"id":"522495","type":"movie","title":"B Tech","poster":"https://image.tmdb.org/t/p/w342/oCK2gixgOBjibqUIPATba2XXDKV.jpg","year":"2018","result":"HD","language":["Hindi"],"country":["IN"],"original_language":"ml","genres":["Comedy","Romance"],"imdb_id":"tt7478160"},{"id":"504056","type":"movie","title":"Big Brother","poster":"https://image.tmdb.org/t/p/w342/z6Y6uQn2fORr7o43EggQrTsp08o.jpg","year":"2018","result":"HD","language":["Hindi"],"country":["CN","HK"],"original_language":"zh","genres":["Action","Drama","Comedy"],"imdb_id":"tt7336572"},{"id":"503346","type":"movie","title":"Occupation","poster":"https://image.tmdb.org/t/p/w342/hr7MFQAmP30IJZP2FXKhPKbe8IW.jpg","year":"2018","result":"HD","language":["Hindi"],"country":["AU"],"original_language":"en","genres":["Action","Science Fiction","Drama"],"imdb_id":"tt6774786"},{"id":"500664","type":"movie","title":"Upgrade","poster":"https://image.tmdb.org/t/p/w342/woLGROUdPWdBnLVFKYdGD3kFkPY.jpg","year":"2018","result":"HD","language":["Hindi"],"country":["AU","US"],"original_language":"en","genres":["Action","Thriller","Science Fiction"],"imdb_id":"tt6499752"},{"id":"496524","type":"movie","title":"Simmba","poster":"https://image.tmdb.org/t/p/w342/ulQO4XJ1xlWdl4vX8Lr3SbWRfZw.jpg","year":"2018","result":"HD","language":["Hindi"],"country":["IN"],"original_language":"hi","genres":["Action","Comedy","Drama"],"imdb_id":"tt7212726"},{"id":"487558","type":"movie","title":"BlacKkKlansman","poster":"https://image.tmdb.org/t/p/w342/8jxqAvSDoneSKRczaK8v9X5gqBp.jpg","year":"2018","result":"HD","language":["Hindi"],"country":["US"],"original_language":"en","genres":["Crime","Comedy","Drama","History"],"imdb_id":"tt7349662"},{"id":"461126","type":"movie","title":"Rangasthalam","poster":"https://image.tmdb.org/t/p/w342/yiEzDgBBFC25Zd6z0r7sMngn5vr.jpg","year":"2018","result":"HD","language":["Hindi"],"country":["IN"],"original_language":"te","genres":["Action","Drama"],"imdb_id":"tt7392212"},{"id":"447743","type":"movie","title":"Inuyashiki","poster":"https://image.tmdb.org/t/p/w342/lyqkQ6y7d4YGVQrRjtmGTRMVcDY.jpg","year":"2018","result":"HD","language":["Hindi"],"country":["JP"],"original_language":"ja","genres":["Action","Adventure","Science Fiction","Fantasy"],"imdb_id":"tt6340500"},{"id":"437557","type":"movie","title":"Blockers","poster":"https://image.tmdb.org/t/p/w342/uvlUQXg0AlpGzKukO11K7QtW3Yu.jpg","year":"2018","result":"HD","language":["Hindi"],"country":["US"],"original_language":"en","genres":["Comedy"],"imdb_id":"tt2531344"},{"id":"425505","type":"movie","title":"Kin","poster":"https://image.tmdb.org/t/p/w342/oPE5GXHaTlu5eRcd4USuOX3A1mf.jpg","year":"2018","result":"HD","language":["Hindi"],"country":["US"],"original_language":"en","genres":["Science Fiction","Action","Adventure","Thriller"],"imdb_id":"tt6017942"},{"id":"385332","type":"movie","title":"Terminal","poster":"https://image.tmdb.org/t/p/w342/xi7pA3lL6Wb78p6Y6PgWoHDMjrM.jpg","year":"2018","result":"HD","language":["Hindi"],"country":["US","GB","HK","IE","HU"],"original_language":"en","genres":["Crime","Drama","Thriller","Action","Comedy","Mystery"],"imdb_id":"tt4463816"},{"id":"346910","type":"movie","title":"The Predator","poster":"https://image.tmdb.org/t/p/w342/a3eWGF6YPF7No5Rbtjc8QpDvz7l.jpg","year":"2018","result":"HD","language":["Hindi"],"country":["US"],"original_language":"en","genres":["Science Fiction","Action","Thriller"],"imdb_id":"tt3829266"},{"id":"340601","type":"movie","title":"Delirium","poster":"https://image.tmdb.org/t/p/w342/j2jIkjrASnjtwCmCNDwh9LDWvq9.jpg","year":"2018","result":"HD","language":["Hindi"],"country":["GB","US"],"original_language":"en","genres":["Horror","Thriller"],"imdb_id":"tt2069797"},{"id":"83140","type":"tv","title":"Mama Fairy and the Woodcutter","poster":"https://image.tmdb.org/t/p/w342/b5oKVV5veLu1ZzpPRlzMqA48I49.jpg","year":"2018","result":"HD","language":["Hindi"],"country":["KR"],"original_language":"ko","genres":["Comedy","Drama"],"imdb_id":"tt8523030","latest_uploaded_season":1,"total_uploaded_episodes":16},{"id":"82237","type":"tv","title":"The Beauty Inside","poster":"https://image.tmdb.org/t/p/w342/u3UGsVYD0nxsucvN7NHLzXP0FHu.jpg","year":"2018","result":"HD","language":["Hindi"],"country":["KR"],"original_language":"ko","genres":["Drama","Comedy","Sci-Fi & Fantasy"],"imdb_id":"tt8801708","latest_uploaded_season":1,"total_uploaded_episodes":16},{"id":"81745","type":"tv","title":"Hide and Seek","poster":"https://image.tmdb.org/t/p/w342/b9gtm0gCYlysKhax6z5tz4nx3y4.jpg","year":"2018","result":"HD","language":["Hindi"],"country":["KR"],"original_language":"ko","genres":["Drama"],"imdb_id":"tt8769302","latest_uploaded_season":1,"total_uploaded_episodes":24},{"id":"80964","type":"tv","title":"Time","poster":"https://image.tmdb.org/t/p/w342/wioiG18yMZ8IIhl1PVi7LkkTWZq.jpg","year":"2018","result":"HD","language":["Hindi"],"country":["KR"],"original_language":"ko","genres":["Drama"],"imdb_id":"tt8487682","latest_uploaded_season":1,"total_uploaded_episodes":32},{"id":"80737","type":"tv","title":"My ID is Gangnam Beauty","poster":"https://image.tmdb.org/t/p/w342/8lj40cE1DhW9jBe07fOI18MDQDK.jpg","year":"2018","result":"HD","language":["Hindi"],"country":["KR"],"original_language":"ko","genres":["Comedy","Drama"],"imdb_id":"tt8585954","latest_uploaded_season":1,"total_uploaded_episodes":16},{"id":"77284","type":"tv","title":"Tempted","poster":"https://image.tmdb.org/t/p/w342/asRKD4SlynwMgvl9XXasNoktZoP.jpg","year":"2018","result":"HD","language":["Hindi"],"country":["KR"],"original_language":"ko","genres":["Drama"],"imdb_id":"tt7923816","latest_uploaded_season":1,"total_uploaded_episodes":32},{"id":"353616","type":"movie","title":"Pitch Perfect 3","poster":"https://image.tmdb.org/t/p/w342/v4tbRRX0OSOHcgz2869rEjcBwOJ.jpg","year":"2017","result":"HD","language":["Hindi"],"country":["US"],"original_language":"en","genres":["Music","Comedy"],"imdb_id":"tt4765284"},{"id":"2288","type":"tv","title":"Prison Break","poster":"https://image.tmdb.org/t/p/w342/wnmNPaLvhnMeOqnWlhNkYCZxtda.jpg","year":"2017","result":"HD","language":["Hindi"],"country":["US"],"original_language":"en","genres":["Action & Adventure","Crime","Drama"],"imdb_id":"tt0455275","latest_uploaded_season":5,"total_uploaded_episodes":88},{"id":"75387","type":"tv","title":"A Love So Beautiful","poster":"https://image.tmdb.org/t/p/w342/8bDIVyoxqOkYbBhzhrjY2F9Wep2.jpg","year":"2017","result":"HD","language":["Hindi"],"country":["CN"],"original_language":"zh","genres":["Comedy","Drama"],"imdb_id":"tt8434720","latest_uploaded_season":1,"total_uploaded_episodes":24},{"id":"71347","type":"tv","title":"My Sassy Girl","poster":"https://image.tmdb.org/t/p/w342/llSHPKnZWaFvvTKqslvUVeyrK4O.jpg","year":"2017","result":"HD","language":["Hindi"],"country":["KR"],"original_language":"ko","genres":["Comedy","Drama"],"imdb_id":"tt6175760","latest_uploaded_season":1,"total_uploaded_episodes":16},{"id":"72487","type":"tv","title":"The King's Woman","poster":"https://image.tmdb.org/t/p/w342/2w4iIlTZWKz10giIjMtgaGIQiZ8.jpg","year":"2017","result":"HD","language":["Hindi"],"country":["CN"],"original_language":"zh","genres":["Drama"],"imdb_id":"tt7516210","latest_uploaded_season":1,"total_uploaded_episodes":48},{"id":"71446","type":"tv","title":"Money Heist","poster":"https://image.tmdb.org/t/p/w342/reEMJA1uzscCbkpeRJeTT2bjqUp.jpg","year":"2017","result":"HD","language":["Hindi"],"country":["ES"],"original_language":"es","genres":["Crime","Drama"],"imdb_id":"tt6468322","latest_uploaded_season":5,"total_uploaded_episodes":48},{"id":"426285","type":"movie","title":"Fullmetal Alchemist","poster":"https://image.tmdb.org/t/p/w342/kWJtS0XFHxH2ADkWX8P7WISDnX3.jpg","year":"2017","result":"HD","language":["Hindi"],"country":["JP"],"original_language":"ja","genres":["Fantasy","Action","Science Fiction","Adventure"],"imdb_id":"tt5607028"},{"id":"70045","type":"tv","title":"The Starry Night, The Starry Sea","poster":"https://image.tmdb.org/t/p/w342/wOCgmU9mW7cfI6fJFgqh4DbhZ2B.jpg","year":"2017","result":"HD","language":["Hindi"],"country":["CN"],"original_language":"zh","genres":["Sci-Fi & Fantasy","Drama"],"imdb_id":"tt5594768","latest_uploaded_season":1,"total_uploaded_episodes":29},{"id":"73921","type":"tv","title":"Borg Mom","poster":"https://image.tmdb.org/t/p/w342/q4YahNUyCcHL9HzvY4lbtsyAmbo.jpg","year":"2017","result":"HD","language":["Hindi"],"country":["KR"],"original_language":"ko","genres":["Comedy"],"imdb_id":"tt7340770","latest_uploaded_season":1,"total_uploaded_episodes":24},{"id":"73669","type":"tv","title":"The Optimists","poster":"https://image.tmdb.org/t/p/w342/de1FeU9LXRKRC37IEIvFoNDmhwD.jpg","year":"2017","result":"HD","language":["Hindi"],"country":["RU"],"original_language":"ru","genres":["Drama","War & Politics"],"imdb_id":"tt5905344","latest_uploaded_season":1,"total_uploaded_episodes":26},{"id":"68250","type":"tv","title":"Tomorrow with You","poster":"https://image.tmdb.org/t/p/w342/d1m1RVnxnHJifBe6ytykc25UPAd.jpg","year":"2017","result":"HD","language":["Hindi"],"country":["KR"],"original_language":"ko","genres":["Drama"],"imdb_id":"tt5994346","latest_uploaded_season":1,"total_uploaded_episodes":16},{"id":"74000","type":"tv","title":"20th Century Boy and Girl","poster":"https://image.tmdb.org/t/p/w342/4Wdz7OvRycgYbd9EHFYdVTcBNJ1.jpg","year":"2017","result":"HD","language":["Hindi"],"country":["KR"],"original_language":"ko","genres":["Comedy"],"imdb_id":"tt7208216","latest_uploaded_season":1,"total_uploaded_episodes":16},{"id":"462677","type":"movie","title":"Doraemon: Nobita's Great Adventure in the Antarctic Kachi Kochi","poster":"https://image.tmdb.org/t/p/w342/hcydn0Lr3DAixZFOaUmjoqoIFU6.jpg","year":"2017","result":"HD","language":["Hindi"],"country":["JP"],"original_language":"ja","genres":["Animation","Adventure","Fantasy","Family","Science Fiction","Comedy"],"imdb_id":"tt5912470"},{"id":"74887","type":"tv","title":"Money Flower","poster":"https://image.tmdb.org/t/p/w342/8Ep2HCbLX7wm1zGt9LJO5rFrNqk.jpg","year":"2017","result":"HD","language":["Hindi"],"country":["KR"],"original_language":"ko","genres":["Drama"],"imdb_id":"tt7521802","latest_uploaded_season":1,"total_uploaded_episodes":48},{"id":"341174","type":"movie","title":"Fifty Shades Darker","poster":"https://image.tmdb.org/t/p/w342/w3qa274gvca9t8pkUoG8nfQgTU3.jpg","year":"2017","result":"HD","language":["Hindi"],"country":["US"],"original_language":"en","genres":["Drama","Romance"],"imdb_id":"tt4465564"},{"id":"443109","type":"movie","title":"Oceans Rising","poster":"https://image.tmdb.org/t/p/w342/3PzeV1qxvSQnu5BdG5tbTmEszDz.jpg","year":"2017","result":"HD","language":["Hindi"],"country":["US"],"original_language":"en","genres":["Action","Science Fiction"],"imdb_id":"tt6215044"},{"id":"452551","type":"movie","title":"The Adventurers","poster":"https://image.tmdb.org/t/p/w342/iVKVucELauvZGsNUd37LgSusQWb.jpg","year":"2017","result":"HD","language":["Hindi"],"country":["CN","CZ","HK","US"],"original_language":"cn","genres":["Action","Crime","Adventure"],"imdb_id":"tt5866930"},{"id":"405815","type":"movie","title":"The Sex Trip","poster":"https://image.tmdb.org/t/p/w342/y0hqdbBvKcDIue4rQLOgzdGqwEA.jpg","year":"2017","result":"HD","language":["Hindi"],"country":["US"],"original_language":"en","genres":["Comedy","Fantasy"],"imdb_id":"tt4357714"},{"id":"469722","type":"movie","title":"Trauma","poster":"https://image.tmdb.org/t/p/w342/wbtU44cXUa57LV4rCIVuFBSBRql.jpg","year":"2017","result":"HD","language":["Hindi"],"country":["CL"],"original_language":"es","genres":["Horror","Thriller","Drama"],"imdb_id":"tt6705640"},{"id":"370663","type":"movie","title":"Below Her Mouth","poster":"https://image.tmdb.org/t/p/w342/tPhBftWySbanfEialbsUzOuccgN.jpg","year":"2017","result":"HD","language":["Hindi"],"country":["CA"],"original_language":"en","genres":["Drama","Romance"],"imdb_id":"tt5073620"},{"id":"335984","type":"movie","title":"Blade Runner 2049","poster":"https://image.tmdb.org/t/p/w342/gajva2L0rPYkEWjzgFlBXCAVBE5.jpg","year":"2017","result":"HD","language":["Hindi"],"country":["CA","GB","US"],"original_language":"en","genres":["Science Fiction","Drama"],"imdb_id":"tt1856101"},{"id":"324852","type":"movie","title":"Despicable Me 3","poster":"https://image.tmdb.org/t/p/w342/6t3YWl7hrr88lCEFlGVqW5yV99R.jpg","year":"2017","result":"HD","language":["Hindi"],"country":["US"],"original_language":"en","genres":["Action","Animation","Comedy","Family","Adventure"],"imdb_id":"tt3469046"},{"id":"453296","type":"movie","title":"The Wrong Babysitter","poster":"https://image.tmdb.org/t/p/w342/doteEUlowLBDOBqA9VBKH1VetJJ.jpg","year":"2017","result":"HD","language":["Hindi"],"country":["US"],"original_language":"en","genres":["TV Movie","Thriller"],"imdb_id":"tt6145232"},{"id":"447305","type":"movie","title":"Too Close","poster":"https://image.tmdb.org/t/p/w342/vufcnEUl0eLICrTda04yq0j6GmO.jpg","year":"2017","result":"HD","language":["Hindi"],"country":["DE"],"original_language":"de","genres":["TV Movie","Drama"],"imdb_id":"tt5964258"},{"id":"496311","type":"movie","title":"Viking Siege","poster":"https://image.tmdb.org/t/p/w342/gc9OwXheYzQbUTG3oe9WHCXrzSm.jpg","year":"2017","result":"HD","language":["Hindi"],"country":["GB"],"original_language":"en","genres":["Action","Adventure"],"imdb_id":"tt5555824"},{"id":"486579","type":"movie","title":"Night Bus","poster":"https://image.tmdb.org/t/p/w342/xz8DoqGevecvAVcbHNa5XiRcj6F.jpg","year":"2017","result":"HD","language":["Hindi"],"country":["ID"],"original_language":"id","genres":["Drama","Thriller","Action","Crime"],"imdb_id":"tt6574480"},{"id":"483839","type":"movie","title":"Vunnadhi Okate Zindagi","poster":"https://image.tmdb.org/t/p/w342/dqY8EprlgK1u4P3rncbNXFJ01Lr.jpg","year":"2017","result":"HD","language":["Hindi"],"country":["IN"],"original_language":"te","genres":["Romance","Drama"],"imdb_id":"tt7322816"},{"id":"472722","type":"movie","title":"Party Boat","poster":"https://image.tmdb.org/t/p/w342/kWk9NJvlEqIcl98wK3nQDYTFmys.jpg","year":"2017","result":"HD","language":["Hindi"],"country":["US"],"original_language":"en","genres":["Comedy"],"imdb_id":"tt6944936"},{"id":"457837","type":"movie","title":"Brotherhood of Blades II: The Infernal Battlefield","poster":"https://image.tmdb.org/t/p/w342/ooC6al3vhhECG998ZivkAZUdgst.jpg","year":"2017","result":"HD","language":["Hindi"],"country":["CN"],"original_language":"zh","genres":["Romance","Action","Drama","History"],"imdb_id":"tt7055592"},{"id":"452068","type":"movie","title":"Drone","poster":"https://image.tmdb.org/t/p/w342/o1Zp7DBOkxDhGCg6fXhuaFaFwsN.jpg","year":"2017","result":"HD","language":["Hindi"],"country":["CA"],"original_language":"en","genres":["Thriller"],"imdb_id":"tt5352846"}]}