{"page":19,"total_pages":66,"total_items":3272,"items":[{"id":"1247528","type":"movie","title":"Ariella","poster":"https://image.tmdb.org/t/p/w342/cksGoj9rd20rH9I43hNd77pWlYR.jpg","year":"2025","result":"HD","language":["Hindi"],"country":["GB"],"original_language":"en","genres":["Drama"],"imdb_id":"tt28131866"},{"id":"1246049","type":"movie","title":"Dracula","poster":"https://image.tmdb.org/t/p/w342/ykyRfv7JDofLxXLAwtLXaSuaFfM.jpg","year":"2025","result":"HD","language":["Hindi"],"country":["FR"],"original_language":"fr","genres":["Horror","Fantasy","Romance"],"imdb_id":"tt31434030"},{"id":"1245993","type":"movie","title":"Caught Stealing","poster":"https://image.tmdb.org/t/p/w342/cvda8s5J8YaHjTyEyXQpvD6f3iV.jpg","year":"2025","result":"HD","language":["Hindi"],"country":["US"],"original_language":"en","genres":["Crime","Thriller","Comedy"],"imdb_id":"tt1493274"},{"id":"1245571","type":"movie","title":"Alappuzha Gymkhana","poster":"https://image.tmdb.org/t/p/w342/q4OwzcY6r2L1M1S6uYzmtzjwAqX.jpg","year":"2025","result":"HD","language":["Hindi"],"country":["IN"],"original_language":"ml","genres":["Action","Drama","Comedy"],"imdb_id":"tt29884526"},{"id":"1245347","type":"movie","title":"Twinless","poster":"https://image.tmdb.org/t/p/w342/9vaw9Az5tPLMjNLj426KgKsp0k8.jpg","year":"2025","result":"HD","language":["Hindi"],"country":["US"],"original_language":"en","genres":["Comedy","Drama"],"imdb_id":"tt31322753"},{"id":"1244953","type":"movie","title":"Trust","poster":"https://image.tmdb.org/t/p/w342/n9GS1mUAVMiC3gBn9rb8jrDoK4D.jpg","year":"2025","result":"HD","language":["Hindi"],"country":["US"],"original_language":"en","genres":["Thriller"],"imdb_id":"tt31314745"},{"id":"1244944","type":"movie","title":"The Woman in the Yard","poster":"https://image.tmdb.org/t/p/w342/n0WS2TsNcS6dtaZKzxipyO7LuCJ.jpg","year":"2025","result":"HD","language":["Hindi"],"country":["US"],"original_language":"en","genres":["Horror","Mystery"],"imdb_id":"tt31314296"},{"id":"1244068","type":"movie","title":"Ponman","poster":"https://image.tmdb.org/t/p/w342/cdXS0DcshLFUpuKQAU5dW7Qk1A2.jpg","year":"2025","result":"HD","language":["Hindi"],"country":["IN"],"original_language":"ml","genres":["Drama","Comedy","Thriller"],"imdb_id":"tt30089457"},{"id":"1242898","type":"movie","title":"Predator: Badlands","poster":"https://image.tmdb.org/t/p/w342/pHpq9yNUIo6aDoCXEBzjSolywgz.jpg","year":"2025","result":"HD","language":["Hindi"],"country":["US"],"original_language":"en","genres":["Action","Science Fiction","Adventure"],"imdb_id":"tt31227572"},{"id":"1242419","type":"movie","title":"Roofman","poster":"https://image.tmdb.org/t/p/w342/wXDFtcnYtevleGzCmAD2ReQnJ4l.jpg","year":"2025","result":"HD","language":["Hindi"],"country":["US"],"original_language":"en","genres":["Crime","Comedy","Drama"],"imdb_id":"tt4627382"},{"id":"1242404","type":"movie","title":"Steve","poster":"https://image.tmdb.org/t/p/w342/wmLoMyofbseLfxiGgk1Iz5H97c3.jpg","year":"2025","result":"HD","language":["Hindi"],"country":["IE"],"original_language":"en","genres":["Drama"],"imdb_id":"tt32985279"},{"id":"1242011","type":"movie","title":"Together","poster":"https://image.tmdb.org/t/p/w342/80slKYVM5teFH3kz6ouWrZXveqj.jpg","year":"2025","result":"HD","language":["Hindi"],"country":["AU","US"],"original_language":"en","genres":["Horror","Romance"],"imdb_id":"tt31184028"},{"id":"1241983","type":"movie","title":"Train Dreams","poster":"https://image.tmdb.org/t/p/w342/wfzYOVdafdbD1d3SxNqiBtV2Yhx.jpg","year":"2025","result":"HD","language":["Hindi"],"country":["US"],"original_language":"en","genres":["Drama"],"imdb_id":"tt29768334"},{"id":"1241921","type":"movie","title":"A Big Bold Beautiful Journey","poster":"https://image.tmdb.org/t/p/w342/uMAkmQlKthQpTMiyPAKOYK3JnMs.jpg","year":"2025","result":"HD","language":["Hindi"],"country":["US","IE"],"original_language":"en","genres":["Romance","Fantasy","Drama"],"imdb_id":"tt13650700"},{"id":"1241725","type":"movie","title":"Jack","poster":"https://image.tmdb.org/t/p/w342/xkat9sykUnlwoeRW59X5mdVKfAi.jpg","year":"2025","result":"HD","language":["Hindi"],"country":["IN"],"original_language":"te","genres":["Comedy","Crime","Romance"],"imdb_id":"tt28622758"},{"id":"1241634","type":"movie","title":"Saiyaara","poster":"https://image.tmdb.org/t/p/w342/hQBIsi3ZfBYEayMc3GhcEmJVkss.jpg","year":"2025","result":"HD","language":["Hindi"],"country":["IN"],"original_language":"hi","genres":["Romance","Drama","Music"],"imdb_id":"tt28037987"},{"id":"1241470","type":"movie","title":"Osiris","poster":"https://image.tmdb.org/t/p/w342/3YtZHtXPNG5AleisgEatEfZOT2w.jpg","year":"2025","result":"HD","language":["Hindi"],"country":["US"],"original_language":"en","genres":["Science Fiction","Action","Horror"],"imdb_id":"tt31179712"},{"id":"1239655","type":"movie","title":"Friendship","poster":"https://image.tmdb.org/t/p/w342/eikAu9gPJTQQmwFwa1zX5Hfz96P.jpg","year":"2025","result":"HD","language":["Hindi"],"country":["US"],"original_language":"en","genres":["Comedy","Drama"],"imdb_id":"tt30505698"},{"id":"1238198","type":"movie","title":"Songs of Paradise","poster":"https://image.tmdb.org/t/p/w342/bnfP3bX21VC536U9vdzDDWQM3pH.jpg","year":"2025","result":"HD","language":["Hindi"],"country":["IN","US"],"original_language":"hi","genres":["Music","Drama","Family"],"imdb_id":"tt6540996"},{"id":"1238170","type":"movie","title":"Aankhon Ki Gustaakhiyan","poster":"https://image.tmdb.org/t/p/w342/bH4aCEYqF6JMAlfulFmmG0pSN8.jpg","year":"2025","result":"HD","language":["Hindi"],"country":["IN"],"original_language":"hi","genres":["Drama","Romance"],"imdb_id":"tt28812582"},{"id":"1238164","type":"movie","title":"Gustaakh Ishq","poster":"https://image.tmdb.org/t/p/w342/eEl28LCW1DsXTRhmdlo2vjuaP5X.jpg","year":"2025","result":"HD","language":["Hindi"],"country":["IN"],"original_language":"hi","genres":["Romance","Drama"],"imdb_id":"tt30007502"},{"id":"1234821","type":"movie","title":"Jurassic World Rebirth","poster":"https://image.tmdb.org/t/p/w342/1RICxzeoNCAO5NpcRMIgg1XT6fm.jpg","year":"2025","result":"HD","language":["Hindi"],"country":["US"],"original_language":"en","genres":["Science Fiction","Adventure","Action"],"imdb_id":"tt31036941"},{"id":"1234731","type":"movie","title":"Anaconda","poster":"https://image.tmdb.org/t/p/w342/qxMv3HwAB3XPuwNLMhVRg795Ktp.jpg","year":"2025","result":"HD","language":["Hindi"],"country":["US"],"original_language":"en","genres":["Adventure","Comedy","Horror"],"imdb_id":"tt33244668"},{"id":"1234603","type":"movie","title":"The Fable","poster":"https://image.tmdb.org/t/p/w342/xpFx3aG0CpK3CMo62BuUlqu5ySD.jpg","year":"2025","result":"HD","language":["Hindi"],"country":["IN","US"],"original_language":"hi","genres":["Drama","Fantasy","Mystery"],"imdb_id":"tt31015496"},{"id":"1232933","type":"movie","title":"Fear Below","poster":"https://image.tmdb.org/t/p/w342/f90xO280gGQArVP2GU4IshAClt.jpg","year":"2025","result":"HD","language":["Hindi"],"country":["AU"],"original_language":"en","genres":["Horror","Action","Adventure","Thriller"],"imdb_id":"tt13098590"},{"id":"1232232","type":"movie","title":"Kannappa","poster":"https://image.tmdb.org/t/p/w342/6LhE7IwhXgaNi33l0ltYahIB91i.jpg","year":"2025","result":"HD","language":["Hindi"],"country":["IN"],"original_language":"te","genres":["Fantasy","History","Drama"],"imdb_id":"tt5306972"},{"id":"1230555","type":"movie","title":"Detective Sherdil","poster":"https://image.tmdb.org/t/p/w342/gqLrdGer0xvG5ezas7Qe3alqMzV.jpg","year":"2025","result":"HD","language":["Hindi"],"country":["IN"],"original_language":"hi","genres":["Comedy","Mystery"],"imdb_id":"tt28076316"},{"id":"1229947","type":"movie","title":"Telusu Kada","poster":"https://image.tmdb.org/t/p/w342/up78q9ZcU4UK45rZ6VxAFvoqPWr.jpg","year":"2025","result":"HD","language":["Hindi"],"country":[],"original_language":"te","genres":["Romance","Drama"],"imdb_id":"tt27881494"},{"id":"1228827","type":"movie","title":"Mastiii 4","poster":"https://image.tmdb.org/t/p/w342/99rpDOk540UDaCMlJSonpSvQCPm.jpg","year":"2025","result":"HD","language":["Hindi"],"country":["IN"],"original_language":"hi","genres":["Comedy"],"imdb_id":"tt30818815"},{"id":"1228246","type":"movie","title":"Five Nights at Freddy's 2","poster":"https://image.tmdb.org/t/p/w342/udAxQEORq2I5wxI97N2TEqdhzBE.jpg","year":"2025","result":"HD","language":["Hindi"],"country":["US"],"original_language":"en","genres":["Horror","Thriller"],"imdb_id":"tt30274401"},{"id":"1227739","type":"movie","title":"Homebound","poster":"https://image.tmdb.org/t/p/w342/vyezjSvSdLO0bvr6jSNuFi6yuiw.jpg","year":"2025","result":"HD","language":["Hindi"],"country":["IN","US","FR"],"original_language":"hi","genres":["Drama"],"imdb_id":"tt26733325"},{"id":"1227128","type":"movie","title":"Raid 2","poster":"https://image.tmdb.org/t/p/w342/562SAxZP1sLuYqDDTuODu3hdGyx.jpg","year":"2025","result":"HD","language":["Hindi"],"country":["IN"],"original_language":"hi","genres":["Crime","Drama","Thriller"],"imdb_id":"tt28089700"},{"id":"1226406","type":"movie","title":"Love Hurts","poster":"https://image.tmdb.org/t/p/w342/skPPVeHoTTVVSJlb0Ib5vrqiuA4.jpg","year":"2025","result":"HD","language":["Hindi"],"country":["US","JP"],"original_language":"en","genres":["Action","Comedy","Romance"],"imdb_id":"tt30788842"},{"id":"1226354","type":"movie","title":"Param Sundari","poster":"https://image.tmdb.org/t/p/w342/4r19exCk9XPSqwVoCgBdpS7Dw8b.jpg","year":"2025","result":"HD","language":["Hindi"],"country":["IN"],"original_language":"hi","genres":["Romance","Drama","Comedy"],"imdb_id":"tt33996113"},{"id":"1225915","type":"movie","title":"Jewel Thief - The Heist Begins","poster":"https://image.tmdb.org/t/p/w342/eujLbO0kf1eqWC8XpHUJdtAVW2J.jpg","year":"2025","result":"HD","language":["Hindi"],"country":["IN"],"original_language":"hi","genres":["Action","Thriller"],"imdb_id":"tt27843798"},{"id":"1224993","type":"movie","title":"Dark Nuns","poster":"https://image.tmdb.org/t/p/w342/2Abt2GgscAGtGAXTrhH44qPhugI.jpg","year":"2025","result":"HD","language":["Hindi"],"country":["KR"],"original_language":"ko","genres":["Horror","Mystery","Thriller","Drama"],"imdb_id":"tt32491690"},{"id":"1223690","type":"movie","title":"Pretty Thing","poster":"https://image.tmdb.org/t/p/w342/xWVbtqUvuhAOYzkZV6YDQOnN5fQ.jpg","year":"2025","result":"HD","language":["Hindi"],"country":["US"],"original_language":"en","genres":["Thriller","Drama"],"imdb_id":"tt29474633"},{"id":"1223601","type":"movie","title":"Sisu: Road to Revenge","poster":"https://image.tmdb.org/t/p/w342/jNsttCWZyPtW66MjhUozBzVsRb7.jpg","year":"2025","result":"HD","language":["Hindi"],"country":["FI","GB"],"original_language":"fi","genres":["Action","War"],"imdb_id":"tt31844586"},{"id":"1222479","type":"movie","title":"Mirai","poster":"https://image.tmdb.org/t/p/w342/gVzWHYThVODV5MgccDoyQxPFXve.jpg","year":"2025","result":"HD","language":["Hindi"],"country":["IN"],"original_language":"te","genres":["Action","Adventure","Fantasy"],"imdb_id":"tt30858568"},{"id":"1221198","type":"movie","title":"Ground Zero","poster":"https://image.tmdb.org/t/p/w342/x5YK8MkjL1vVsXxnGWifEOK2tJl.jpg","year":"2025","result":"HD","language":["Hindi"],"country":["IN"],"original_language":"hi","genres":["Action","Thriller","War"],"imdb_id":"tt28377588"},{"id":"1218925","type":"movie","title":"Chainsaw Man - The Movie: Reze Arc","poster":"https://image.tmdb.org/t/p/w342/pHyxb2RV5wLlboAwm9ZJ9qTVEDw.jpg","year":"2025","result":"HD","language":["Hindi"],"country":["JP"],"original_language":"ja","genres":["Animation","Action","Romance","Fantasy"],"imdb_id":"tt30472557"},{"id":"1218762","type":"movie","title":"Jingle Bell Heist","poster":"https://image.tmdb.org/t/p/w342/rVOQF2Ucekug1B80A9crVx7Jn90.jpg","year":"2025","result":"HD","language":["Hindi"],"country":["US","GB"],"original_language":"en","genres":["Romance","Crime","Comedy"],"imdb_id":"tt24852126"},{"id":"1218602","type":"movie","title":"Sarzameen","poster":"https://image.tmdb.org/t/p/w342/xiO5hTN7X4764Bi0eqXSGUltSbA.jpg","year":"2025","result":"HD","language":["Hindi"],"country":["IN"],"original_language":"hi","genres":["Drama","Thriller","Action","Mystery"],"imdb_id":"tt23865942"},{"id":"1217602","type":"movie","title":"London Calling","poster":"https://image.tmdb.org/t/p/w342/cpQ4VxBJO7vGV3IUdKzSNf4tH9V.jpg","year":"2025","result":"HD","language":["Hindi"],"country":["ZA","US"],"original_language":"en","genres":["Action","Crime","Comedy","Thriller"],"imdb_id":"tt30425872"},{"id":"1216780","type":"movie","title":"Nadaaniyan","poster":"https://image.tmdb.org/t/p/w342/vQsGkLx68lmAdGwNapaaq3qqwKn.jpg","year":"2025","result":"HD","language":["Hindi"],"country":["IN"],"original_language":"hi","genres":["Romance","Comedy","Drama"],"imdb_id":"tt30422937"},{"id":"1214931","type":"movie","title":"Nuremberg","poster":"https://image.tmdb.org/t/p/w342/7cWTGH2svfNHWVRjsfKIBob9pDj.jpg","year":"2025","result":"HD","language":["Hindi"],"country":["US","HU"],"original_language":"en","genres":["History","Drama"],"imdb_id":"tt29567915"},{"id":"1214835","type":"movie","title":"De De Pyaar De 2","poster":"https://image.tmdb.org/t/p/w342/g3J7r2t3L9HEgyWMX0Fki04Swtu.jpg","year":"2025","result":"HD","language":["Hindi"],"country":["IN"],"original_language":"hi","genres":["Comedy","Romance"],"imdb_id":"tt28802657"},{"id":"1213866","type":"movie","title":"Loveyapa","poster":"https://image.tmdb.org/t/p/w342/ohHiDAwaOo6R1ovMgmUhrBuvknU.jpg","year":"2025","result":"HD","language":["Hindi"],"country":["IN"],"original_language":"hi","genres":["Comedy","Drama","Romance"],"imdb_id":"tt25504468"},{"id":"1213777","type":"movie","title":"Dhadak 2","poster":"https://image.tmdb.org/t/p/w342/s3o23GbRXvHPPRm50kqQjjjCoKP.jpg","year":"2025","result":"HD","language":["Hindi"],"country":["IN"],"original_language":"hi","genres":["Romance","Drama"],"imdb_id":"tt13451410"},{"id":"1212742","type":"movie","title":"The Rule of Jenny Pen","poster":"https://image.tmdb.org/t/p/w342/5vqK1wbrgmUvqHn6yPt9b6qT9iL.jpg","year":"2025","result":"HD","language":["Hindi"],"country":["NZ"],"original_language":"en","genres":["Horror","Thriller"],"imdb_id":"tt6874690"}]}