{"page":35,"total_pages":66,"total_items":3272,"items":[{"id":"802219","type":"movie","title":"Bob Marley: One Love","poster":"https://image.tmdb.org/t/p/w342/1lQftpEARVVB9op4TaYiIbactzG.jpg","year":"2024","result":"HD","language":["Hindi"],"country":["US"],"original_language":"en","genres":["Music","History","Drama"],"imdb_id":"tt8521778"},{"id":"937287","type":"movie","title":"Challengers","poster":"https://image.tmdb.org/t/p/w342/H6vke7zGiuLsz4v4RPeReb9rsv.jpg","year":"2024","result":"HD","language":["Hindi"],"country":["IT","US"],"original_language":"en","genres":["Drama","Romance"],"imdb_id":"tt16426418"},{"id":"1231953","type":"movie","title":"Five Blind Dates","poster":"https://image.tmdb.org/t/p/w342/nMFByoqAxTpiY7Irbvq4ugjjC0y.jpg","year":"2024","result":"HD","language":["Hindi"],"country":["AU","US"],"original_language":"en","genres":["Comedy","Romance"],"imdb_id":"tt21236048"},{"id":"1221388","type":"movie","title":"From the Ashes","poster":"https://image.tmdb.org/t/p/w342/8GwRZHBW4YCGhFsDkY7L8OIGW1x.jpg","year":"2024","result":"HD","language":["Hindi"],"country":["SA"],"original_language":"ar","genres":["Thriller","Drama"],"imdb_id":"tt30629563"},{"id":"1232943","type":"movie","title":"Kill Me If You Dare","poster":"https://image.tmdb.org/t/p/w342/wbfDIr5dKx4fri5by7NSIht0Y7M.jpg","year":"2024","result":"HD","language":["Hindi"],"country":["PL"],"original_language":"pl","genres":["Comedy","Romance"],"imdb_id":"tt30959158"},{"id":"1093231","type":"movie","title":"Mother of the Bride","poster":"https://image.tmdb.org/t/p/w342/vdTvwykMWvVgdaViBVRh8IFTku5.jpg","year":"2024","result":"HD","language":["Hindi"],"country":["TH","US"],"original_language":"en","genres":["Romance","Comedy"],"imdb_id":"tt26926267"},{"id":"1039882","type":"movie","title":"My Name Is Loh Kiwan","poster":"https://image.tmdb.org/t/p/w342/x4BkphLO6abbGhceYEMhJERkvHo.jpg","year":"2024","result":"HD","language":["Hindi"],"country":["KR"],"original_language":"ko","genres":["Romance","Drama"],"imdb_id":"tt26672512"},{"id":"1072342","type":"movie","title":"Night Swim","poster":"https://image.tmdb.org/t/p/w342/gSkfBGdxdialBMM7P02V4hcI6Ij.jpg","year":"2024","result":"HD","language":["Hindi"],"country":["US"],"original_language":"en","genres":["Horror","Mystery"],"imdb_id":"tt9682428"},{"id":"1096197","type":"movie","title":"No Way Up","poster":"https://image.tmdb.org/t/p/w342/hu40Uxp9WtpL34jv3zyWLb5zEVY.jpg","year":"2024","result":"HD","language":["Hindi"],"country":["GB"],"original_language":"en","genres":["Thriller","Horror","Action"],"imdb_id":"tt16253418"},{"id":"1192209","type":"movie","title":"Noah's Ark","poster":"https://image.tmdb.org/t/p/w342/x6wH1kowr6uNFJ12CVKsRHzC0cm.jpg","year":"2024","result":"HD","language":["Hindi"],"country":["BR","IN"],"original_language":"pt","genres":["Animation","Music","Comedy","Fantasy","Family"],"imdb_id":"tt8637446"},{"id":"974036","type":"movie","title":"Ordinary Angels","poster":"https://image.tmdb.org/t/p/w342/wdi9kEU4W2UeBTtdqOPZISGMtDR.jpg","year":"2024","result":"HD","language":["Hindi"],"country":["US"],"original_language":"en","genres":["Drama"],"imdb_id":"tt4996328"},{"id":"1139829","type":"movie","title":"Orion and the Dark","poster":"https://image.tmdb.org/t/p/w342/N2ddXhBX5kqwA9flbm2yqFtX6b.jpg","year":"2024","result":"HD","language":["Hindi"],"country":["US"],"original_language":"en","genres":["Animation","Family","Comedy","Fantasy","Adventure"],"imdb_id":"tt28066777"},{"id":"843617","type":"movie","title":"Players","poster":"https://image.tmdb.org/t/p/w342/eA94hAGntLm7Lfol5FQJNxd53Hw.jpg","year":"2024","result":"HD","language":["Hindi"],"country":["US"],"original_language":"en","genres":["Romance","Comedy"],"imdb_id":"tt14833464"},{"id":"1022690","type":"movie","title":"Ricky Stanicky","poster":"https://image.tmdb.org/t/p/w342/oJQdLfrpl4CQsHAKIxd3DJqYTVq.jpg","year":"2024","result":"HD","language":["Hindi"],"country":["AU","GB","US"],"original_language":"en","genres":["Comedy"],"imdb_id":"tt1660648"},{"id":"359410","type":"movie","title":"Road House","poster":"https://image.tmdb.org/t/p/w342/fDEdtS4P0gJsxHDIt8dG8TR5dx1.jpg","year":"2024","result":"HD","language":["Hindi"],"country":["US"],"original_language":"en","genres":["Action","Thriller","Drama"],"imdb_id":"tt3359350"},{"id":"831815","type":"movie","title":"Saving Bikini Bottom: The Sandy Cheeks Movie","poster":"https://image.tmdb.org/t/p/w342/30YnfZdMNIV7noWLdvmcJS0cbnQ.jpg","year":"2024","result":"HD","language":["Hindi"],"country":["US"],"original_language":"en","genres":["Family","Comedy","Adventure","Animation"],"imdb_id":"tt23063732"},{"id":"1083658","type":"movie","title":"Scoop","poster":"https://image.tmdb.org/t/p/w342/ib3H2ZSeVRTAmd7EtGWV31LswaZ.jpg","year":"2024","result":"HD","language":["Hindi"],"country":["GB"],"original_language":"en","genres":["Drama","TV Movie"],"imdb_id":"tt21279806"},{"id":"1255030","type":"movie","title":"Secrets of the Neanderthals","poster":"https://image.tmdb.org/t/p/w342/j0CWLFH50qVjEbPZ1TowFxjOVFW.jpg","year":"2024","result":"HD","language":["Hindi"],"country":["GB"],"original_language":"en","genres":["Documentary","Mystery","History"],"imdb_id":"tt32065103"},{"id":"798612","type":"movie","title":"Shirley","poster":"https://image.tmdb.org/t/p/w342/ooo4D4kyZyFee5aiNfwZ43oKOkc.jpg","year":"2024","result":"HD","language":["Hindi"],"country":["US"],"original_language":"en","genres":["History","Drama"],"imdb_id":"tt14077516"},{"id":"1212073","type":"movie","title":"Sixty Minutes","poster":"https://image.tmdb.org/t/p/w342/jojfbnIHGsRpodIood3OQoqA45Y.jpg","year":"2024","result":"HD","language":["Hindi"],"country":["DE"],"original_language":"de","genres":["Action","Adventure","Crime","Drama","Thriller"],"imdb_id":"tt29538571"},{"id":"978592","type":"movie","title":"Sleeping Dogs","poster":"https://image.tmdb.org/t/p/w342/5DwQhh1HvTo7edaOeMX49NUyZqy.jpg","year":"2024","result":"HD","language":["Hindi"],"country":["US","AU"],"original_language":"en","genres":["Mystery","Thriller","Crime","Drama"],"imdb_id":"tt8542964"},{"id":"1019317","type":"movie","title":"Stolen","poster":"https://image.tmdb.org/t/p/w342/ovUBfip0EgyqHZYhVx4K0ZjFkgn.jpg","year":"2024","result":"HD","language":["Hindi"],"country":["SE"],"original_language":"sv","genres":["Drama","Crime","Thriller"],"imdb_id":"tt21955196"},{"id":"1242384","type":"movie","title":"The Antisocial Network: Memes to Mayhem","poster":"https://image.tmdb.org/t/p/w342/AlJKsIzkSU629hEhbRzRb1cSxA1.jpg","year":"2024","result":"HD","language":["Hindi"],"country":["US"],"original_language":"en","genres":["Documentary"],"imdb_id":"tt31189868"},{"id":"1216512","type":"movie","title":"The Casagrandes Movie","poster":"https://image.tmdb.org/t/p/w342/1ZHetsKD44xB63ZjTjqryC0CtoL.jpg","year":"2024","result":"HD","language":["Hindi"],"country":["US"],"original_language":"en","genres":["Animation","Comedy","Family"],"imdb_id":"tt31123288"},{"id":"746036","type":"movie","title":"The Fall Guy","poster":"https://image.tmdb.org/t/p/w342/e7olqFmzcIX5c23kX4zSmLPJi8c.jpg","year":"2024","result":"HD","language":["Hindi"],"country":["US","AU"],"original_language":"en","genres":["Action","Comedy","Romance"],"imdb_id":"tt1684562"},{"id":"1216268","type":"movie","title":"The Heartbreak Agency","poster":"https://image.tmdb.org/t/p/w342/zkLo1lMjqloUqhnAji4YbnSH2vb.jpg","year":"2024","result":"HD","language":["Hindi"],"country":["DE"],"original_language":"de","genres":["Romance","Drama","Comedy"],"imdb_id":"tt28288477"},{"id":"1175156","type":"movie","title":"The Price of Nonna's Inheritance","poster":"https://image.tmdb.org/t/p/w342/azv9ekvJr1Vz6gNZa6QyaIbeiHG.jpg","year":"2024","result":"HD","language":["Hindi"],"country":["IT"],"original_language":"it","genres":["Comedy","Crime"],"imdb_id":"tt30494321"},{"id":"984324","type":"movie","title":"The Wages of Fear","poster":"https://image.tmdb.org/t/p/w342/jFK2ZLQUzo9pea0jfMCHDfvWsx7.jpg","year":"2024","result":"HD","language":["Hindi"],"country":["BE","FR"],"original_language":"fr","genres":["Action"],"imdb_id":"tt27487473"},{"id":"739547","type":"movie","title":"Thelma the Unicorn","poster":"https://image.tmdb.org/t/p/w342/yutiEZ7taGDNau2jGjKIdDwQpDw.jpg","year":"2024","result":"HD","language":["Hindi"],"country":["US"],"original_language":"en","genres":["Animation","Fantasy","Family"],"imdb_id":"tt10442352"},{"id":"1139566","type":"movie","title":"Through My Window 3: Looking at You","poster":"https://image.tmdb.org/t/p/w342/gwpTgtwVAwmvivBN8rAQABpx9Am.jpg","year":"2024","result":"HD","language":["Hindi"],"country":["ES"],"original_language":"es","genres":["Romance","Drama","Comedy"],"imdb_id":"tt28105944"},{"id":"253913","type":"tv","title":"Toughest Forces on Earth","poster":"https://image.tmdb.org/t/p/w342/4Ncb3dfoJCUNE2UGlmmVZdqeua7.jpg","year":"2024","result":"HD","language":["Hindi"],"country":["GB"],"original_language":"en","genres":["Documentary"],"imdb_id":"tt25166726","latest_uploaded_season":1,"total_uploaded_episodes":1},{"id":"844185","type":"movie","title":"Unfrosted","poster":"https://image.tmdb.org/t/p/w342/zxcpbkiyv81u1frI7b0f6qaYufE.jpg","year":"2024","result":"HD","language":["Hindi"],"country":["US"],"original_language":"en","genres":["Comedy","History"],"imdb_id":"tt14914430"},{"id":"1014590","type":"movie","title":"Upgraded","poster":"https://image.tmdb.org/t/p/w342/uhOXS17gRpTwA85WsZLlYFK3rz0.jpg","year":"2024","result":"HD","language":["Hindi"],"country":["GB","US"],"original_language":"en","genres":["Romance","Comedy"],"imdb_id":"tt21830902"},{"id":"666035","type":"movie","title":"Wanted Man","poster":"https://image.tmdb.org/t/p/w342/pmdgdb8biQLLzTjySZLPdK13KwM.jpg","year":"2024","result":"HD","language":["Hindi"],"country":["US"],"original_language":"en","genres":["Action"],"imdb_id":"tt15791574"},{"id":"1239146","type":"movie","title":"Woody Woodpecker Goes to Camp","poster":"https://image.tmdb.org/t/p/w342/gaINMBMGIow4kd8Dq06aytoomtS.jpg","year":"2024","result":"HD","language":["Hindi"],"country":["US"],"original_language":"en","genres":["Family","Comedy","Animation"],"imdb_id":"tt20221690"},{"id":"114479","type":"tv","title":"The Acolyte","poster":"https://image.tmdb.org/t/p/w342/mztdt3y6GBsJR69zHtszFezTCLT.jpg","year":"2024","result":"HD","language":["Hindi"],"country":["US"],"original_language":"en","genres":["Mystery","Sci-Fi & Fantasy","Action & Adventure"],"imdb_id":"tt12262202","latest_uploaded_season":1,"total_uploaded_episodes":8},{"id":"234034","type":"tv","title":"Bad Boy","poster":"https://image.tmdb.org/t/p/w342/900OfLil2NMGnzvMXmBSEkXVW8Q.jpg","year":"2024","result":"HD","language":["Hindi"],"country":["IL"],"original_language":"he","genres":["Drama"],"imdb_id":"tt28688946","latest_uploaded_season":1,"total_uploaded_episodes":8},{"id":"223785","type":"tv","title":"Billionaire Island","poster":"https://image.tmdb.org/t/p/w342/vZXSWqFklMIncnGCZVuyul9yNgF.jpg","year":"2024","result":"HD","language":["Hindi"],"country":["NO"],"original_language":"no","genres":["Comedy","Drama"],"imdb_id":"tt29306091","latest_uploaded_season":1,"total_uploaded_episodes":6},{"id":"308329","type":"tv","title":"Bleach: Thousand-Year Blood War","poster":"https://image.tmdb.org/t/p/w342/aU88IrxR6FGFYY9U3fGcQ7RQMrN.jpg","year":"2024","result":"HD","language":["Hindi"],"country":["JP"],"original_language":"ja","genres":["Animation"],"imdb_id":"tt14986406","latest_uploaded_season":3,"total_uploaded_episodes":41},{"id":"226905","type":"tv","title":"BUCCHIGIRI?!","poster":"https://image.tmdb.org/t/p/w342/bhtkmLdMleHtGTq267VqhePgp5S.jpg","year":"2024","result":"HD","language":["Hindi"],"country":["JP"],"original_language":"ja","genres":["Animation","Action & Adventure","Comedy","Sci-Fi & Fantasy"],"imdb_id":"tt28454318","latest_uploaded_season":1,"total_uploaded_episodes":12},{"id":"214587","type":"tv","title":"Bye Bye, Earth","poster":"https://image.tmdb.org/t/p/w342/iuo2jor1Hya3bT1imNxEScgoh5o.jpg","year":"2024","result":"HD","language":["Hindi"],"country":["JP"],"original_language":"ja","genres":["Animation","Sci-Fi & Fantasy","Action & Adventure"],"imdb_id":"tt23844810","latest_uploaded_season":1,"total_uploaded_episodes":20},{"id":"214032","type":"tv","title":"Citadel: Diana","poster":"https://image.tmdb.org/t/p/w342/pXfgTz0uYUfYVEiJ0gRra6tKoAp.jpg","year":"2024","result":"HD","language":["Hindi"],"country":["IT","US"],"original_language":"it","genres":["Action & Adventure","Drama"],"imdb_id":"tt22754212","latest_uploaded_season":1,"total_uploaded_episodes":6},{"id":"77169","type":"tv","title":"Cobra Kai","poster":"https://image.tmdb.org/t/p/original/dC88tPr0RwuKe0O16hh8AevlKcO.jpg","year":"2024","result":"HD","language":["Hindi"],"country":["US"],"original_language":"en","genres":["Action & Adventure","Drama","Comedy"],"imdb_id":"tt7221388","latest_uploaded_season":6,"total_uploaded_episodes":65},{"id":"265156","type":"tv","title":"Deceitful Love","poster":"https://image.tmdb.org/t/p/w342/dHFBXB57Zuq0XDUQYEi5qQnUjh8.jpg","year":"2024","result":"HD","language":["Hindi"],"country":["IT"],"original_language":"it","genres":["Drama","Mystery"],"imdb_id":"tt27031470","latest_uploaded_season":1,"total_uploaded_episodes":6},{"id":"1243186","type":"movie","title":"Demise","poster":"https://image.tmdb.org/t/p/w342/3RFkqeMh0lsoBdlsHNmJ2I0uec8.jpg","year":"2024","result":"HD","language":["Hindi"],"country":["US"],"original_language":"en","genres":["Thriller"],"imdb_id":"tt15558362"},{"id":"693134","type":"movie","title":"Dune: Part Two","poster":"https://image.tmdb.org/t/p/w342/1pdfLvkbY9ohJlCjQH2CZjjYVvJ.jpg","year":"2024","result":"HD","language":["Hindi"],"country":["US"],"original_language":"en","genres":["Science Fiction","Adventure"],"imdb_id":"tt15239678"},{"id":"261649","type":"tv","title":"Into the Fire: The Lost Daughter","poster":"https://image.tmdb.org/t/p/w342/mMs6mEHPPtrTQ4mjc6hBHl6bApJ.jpg","year":"2024","result":"HD","language":["Hindi"],"country":["US"],"original_language":"en","genres":["Mystery","Crime","Documentary"],"imdb_id":"tt33163756","latest_uploaded_season":1,"total_uploaded_episodes":2},{"id":"1079091","type":"movie","title":"It Ends with Us","poster":"https://image.tmdb.org/t/p/w342/AjV6jFJ2YFIluYo4GQf13AA1tqu.jpg","year":"2024","result":"HD","language":["Hindi"],"country":["US"],"original_language":"en","genres":["Drama","Romance"],"imdb_id":"tt10655524"},{"id":"1081680","type":"movie","title":"Jackdaw","poster":"https://image.tmdb.org/t/p/w342/m3OwT2vQ468E6b05pNCcCKY0Q7u.jpg","year":"2024","result":"HD","language":["Hindi"],"country":["GB"],"original_language":"en","genres":["Action","Drama","Crime","Thriller"],"imdb_id":"tt26594543"},{"id":"102621","type":"tv","title":"KAOS","poster":"https://image.tmdb.org/t/p/w342/dDBTUSl3tRsOeKC1jZugBSFHy9I.jpg","year":"2024","result":"HD","language":["Hindi"],"country":["GB"],"original_language":"en","genres":["Comedy","Sci-Fi & Fantasy","Drama"],"imdb_id":"tt8550732","latest_uploaded_season":1,"total_uploaded_episodes":8}]}