{"page":30,"total_pages":66,"total_items":3272,"items":[{"id":"1114738","type":"movie","title":"Boneyard","poster":"https://image.tmdb.org/t/p/w342/At4aWmOnKwH9k1ciB5ZNe0dP1jH.jpg","year":"2024","result":"HD","language":["Hindi"],"country":["US"],"original_language":"en","genres":["Thriller"],"imdb_id":"tt10993078"},{"id":"365177","type":"movie","title":"Borderlands","poster":"https://image.tmdb.org/t/p/w342/4JGoZu1ZKFpMJTWAP35PCfkMgu8.jpg","year":"2024","result":"HD","language":["Hindi"],"country":["US","LU"],"original_language":"en","genres":["Action","Science Fiction","Comedy"],"imdb_id":"tt4978420"},{"id":"1078249","type":"movie","title":"Boundless","poster":"https://image.tmdb.org/t/p/w342/bdJaVU8f8OJbz4SqhXx9TiErdDS.jpg","year":"2024","result":"HD","language":["Hindi"],"country":["DK","DE","EE"],"original_language":"da","genres":["Thriller","Crime"],"imdb_id":"tt21909366"},{"id":"616446","type":"movie","title":"Brothers","poster":"https://image.tmdb.org/t/p/w342/Akweo95FGyDpucYVT81h0SbX8Ky.jpg","year":"2024","result":"HD","language":["Hindi"],"country":["US"],"original_language":"en","genres":["Action","Comedy","Crime"],"imdb_id":"tt9860566"},{"id":"1191611","type":"movie","title":"Camp Crasher","poster":"https://image.tmdb.org/t/p/w342/dsLTwYtpi7CtkA8ONH3CuYnjAXj.jpg","year":"2024","result":"HD","language":["Hindi"],"country":["AR"],"original_language":"es","genres":["Comedy","Romance"],"imdb_id":"tt29368988"},{"id":"1116490","type":"movie","title":"Cash Out","poster":"https://image.tmdb.org/t/p/w342/v3youHDLigrtIis1NqTjlY8Sk38.jpg","year":"2024","result":"HD","language":["Hindi"],"country":["US"],"original_language":"en","genres":["Action","Thriller"],"imdb_id":"tt24131288"},{"id":"1361292","type":"movie","title":"Cellar Door","poster":"https://image.tmdb.org/t/p/w342/9vasnPh69RoUg9oUpzXoErMVDB7.jpg","year":"2024","result":"HD","language":["Hindi"],"country":["US"],"original_language":"en","genres":["Horror","Thriller"],"imdb_id":"tt11950888"},{"id":"275571","type":"tv","title":"Churchill at War","poster":"https://image.tmdb.org/t/p/w342/tsgqBgTYMqTlpJZWlJK3mdZMu7I.jpg","year":"2024","result":"HD","language":["Hindi"],"country":["US"],"original_language":"en","genres":["Documentary","War & Politics"],"imdb_id":"tt34379135","latest_uploaded_season":1,"total_uploaded_episodes":4},{"id":"932420","type":"movie","title":"Code 8 Part II","poster":"https://image.tmdb.org/t/p/w342/h89INyaoH16CdlT7q7BtKikIFRy.jpg","year":"2024","result":"HD","language":["Hindi"],"country":["CA","US"],"original_language":"en","genres":["Science Fiction","Action","Crime"],"imdb_id":"tt14764464"},{"id":"228528","type":"tv","title":"Cruel Intentions","poster":"https://image.tmdb.org/t/p/w342/tWtcyehBCO9fksIj30pdtVldntw.jpg","year":"2024","result":"HD","language":["Hindi"],"country":["US"],"original_language":"en","genres":["Drama"],"imdb_id":"tt15532306","latest_uploaded_season":1,"total_uploaded_episodes":8},{"id":"1063877","type":"movie","title":"Don't Move","poster":"https://image.tmdb.org/t/p/w342/cRDJxdnRb7ikKd6fVJTrGeaL34v.jpg","year":"2024","result":"HD","language":["Hindi"],"country":["US"],"original_language":"en","genres":["Horror","Thriller"],"imdb_id":"tt24807110"},{"id":"236994","type":"tv","title":"Dragon Ball DAIMA","poster":"https://image.tmdb.org/t/p/w342/lMULbSFZNXUC87MqOZQ4SSV9DXI.jpg","year":"2024","result":"HD","language":["Hindi"],"country":["JP"],"original_language":"ja","genres":["Animation","Action & Adventure","Comedy","Sci-Fi & Fantasy"],"imdb_id":"tt29485149","latest_uploaded_season":1,"total_uploaded_episodes":20},{"id":"90228","type":"tv","title":"Dune: Prophecy","poster":"https://image.tmdb.org/t/p/w342/oWVohNsxkxA3u92EzRo8fTuXIS0.jpg","year":"2024","result":"HD","language":["Hindi"],"country":["US"],"original_language":"en","genres":["Sci-Fi & Fantasy","Drama","Action & Adventure"],"imdb_id":"tt10466872","latest_uploaded_season":2,"total_uploaded_episodes":14},{"id":"1091181","type":"movie","title":"Family Pack","poster":"https://image.tmdb.org/t/p/w342/uL1dR0L65GZgy3h2gvZcxDu0bRG.jpg","year":"2024","result":"HD","language":["Hindi"],"country":["FR"],"original_language":"fr","genres":["Adventure","Comedy","Fantasy","Action","Family"],"imdb_id":"tt29195603"},{"id":"1142518","type":"movie","title":"Freedom","poster":"https://image.tmdb.org/t/p/w342/b2YL2kncIqlcDcqly78AsOPJi6r.jpg","year":"2024","result":"HD","language":["Hindi"],"country":["FR","BE","US"],"original_language":"fr","genres":["Action","Romance","Drama"],"imdb_id":"tt31917705"},{"id":"826510","type":"movie","title":"Harold and the Purple Crayon","poster":"https://image.tmdb.org/t/p/w342/qtW6bWUEqfPLaD6KnetIlSG4adf.jpg","year":"2024","result":"HD","language":["Hindi"],"country":["US"],"original_language":"en","genres":["Family","Comedy","Adventure","Fantasy"],"imdb_id":"tt1609486"},{"id":"1125311","type":"movie","title":"Imaginary","poster":"https://image.tmdb.org/t/p/w342/bPCxkrCEGJmaYfvdXj0x3mCLbGr.jpg","year":"2024","result":"HD","language":["Hindi"],"country":["US"],"original_language":"en","genres":["Horror","Mystery"],"imdb_id":"tt26658104"},{"id":"1022789","type":"movie","title":"Inside Out 2","poster":"https://image.tmdb.org/t/p/w342/vpnVM9B6NMmQpWeZvzLvDESb2QY.jpg","year":"2024","result":"HD","language":["Hindi"],"country":["US"],"original_language":"en","genres":["Animation","Adventure","Comedy","Family"],"imdb_id":"tt22022452"},{"id":"274023","type":"tv","title":"Investigation Alien","poster":"https://image.tmdb.org/t/p/w342/t2dShYTM1heqVXv4Pjk3mbBqFy2.jpg","year":"2024","result":"HD","language":["Hindi"],"country":["US"],"original_language":"en","genres":["Documentary"],"imdb_id":"tt33840297","latest_uploaded_season":1,"total_uploaded_episodes":6},{"id":"223447","type":"tv","title":"Jentry Chau vs the Underworld","poster":"https://image.tmdb.org/t/p/w342/gCVwVPOajqfILlAUwKGmNwVZofb.jpg","year":"2024","result":"HD","language":["Hindi"],"country":["US"],"original_language":"en","genres":["Animation","Action & Adventure","Sci-Fi & Fantasy","Comedy"],"imdb_id":"tt27368999","latest_uploaded_season":1,"total_uploaded_episodes":13},{"id":"1282138","type":"movie","title":"Justice","poster":"https://image.tmdb.org/t/p/w342/zrzKoiLUdKuKqtYOKS2orLRoUhv.jpg","year":"2024","result":"HD","language":["Hindi"],"country":["PL"],"original_language":"pl","genres":["Crime"],"imdb_id":"tt32245158"},{"id":"128839","type":"tv","title":"La Brea","poster":"https://image.tmdb.org/t/p/w342/wEo5pzSZ3MF4EzNvY2R1OZNX266.jpg","year":"2024","result":"HD","language":["Hindi"],"country":["US"],"original_language":"en","genres":["Sci-Fi & Fantasy","Drama","Action & Adventure"],"imdb_id":"tt11640018","latest_uploaded_season":3,"total_uploaded_episodes":30},{"id":"242977","type":"tv","title":"La Palma","poster":"https://image.tmdb.org/t/p/w342/DqISg7obNu1jUvR6xfFk0fLHfo.jpg","year":"2024","result":"HD","language":["Hindi"],"country":["NO"],"original_language":"no","genres":["Drama"],"imdb_id":"tt30317229","latest_uploaded_season":1,"total_uploaded_episodes":4},{"id":"1214484","type":"movie","title":"Let Go","poster":"https://image.tmdb.org/t/p/w342/hIJRqqAaMUtQ13mZL6lCE6myhXH.jpg","year":"2024","result":"HD","language":["Hindi"],"country":["SE"],"original_language":"sv","genres":["Drama"],"imdb_id":"tt27410895"},{"id":"256116","type":"tv","title":"Like a Dragon: Yakuza","poster":"https://image.tmdb.org/t/p/w342/4uFt0lyo2UrMkTKCXH2VgxWz2jE.jpg","year":"2024","result":"HD","language":["Hindi"],"country":["US"],"original_language":"en","genres":["Action & Adventure","Crime","Drama"],"imdb_id":"tt32536952","latest_uploaded_season":1,"total_uploaded_episodes":6},{"id":"1244492","type":"movie","title":"Look Back","poster":"https://image.tmdb.org/t/p/w342/4f2EcNkp1Mvp9wE5w7HKxcmACWg.jpg","year":"2024","result":"HD","language":["Hindi"],"country":["JP"],"original_language":"ja","genres":["Animation","Drama"],"imdb_id":"tt31711040"},{"id":"1181847","type":"movie","title":"Love at the Bootcamp","poster":"https://image.tmdb.org/t/p/w342/pQCG0RDeU7bmp7ruxbeQaVMM6FK.jpg","year":"2024","result":"HD","language":["Hindi"],"country":["CA"],"original_language":"en","genres":["TV Movie","Comedy","Romance"],"imdb_id":"tt29258958"},{"id":"1330409","type":"movie","title":"Martha","poster":"https://image.tmdb.org/t/p/w342/4WN19oCTXlK8jXC0QZgNkBpcJcw.jpg","year":"2024","result":"HD","language":["Hindi"],"country":["US"],"original_language":"en","genres":["Documentary"],"imdb_id":"tt16227044"},{"id":"1243381","type":"movie","title":"Mary","poster":"https://image.tmdb.org/t/p/w342/wpApuf1xky92ug8n5mP5aP7DiDy.jpg","year":"2024","result":"HD","language":["Hindi"],"country":["US","GB"],"original_language":"en","genres":["Drama","History","Action"],"imdb_id":"tt32084246"},{"id":"814889","type":"movie","title":"Never Let Go","poster":"https://image.tmdb.org/t/p/w342/iwUoM3y77fov7bKyFMwpGMzRHyn.jpg","year":"2024","result":"HD","language":["Hindi"],"country":["US"],"original_language":"en","genres":["Horror"],"imdb_id":"tt14415204"},{"id":"241112","type":"tv","title":"No Good Deed","poster":"https://image.tmdb.org/t/p/w342/4DHRgkvn8nY5yWBcFIu0urJr6bU.jpg","year":"2024","result":"HD","language":["Hindi"],"country":["US"],"original_language":"en","genres":["Drama","Comedy"],"imdb_id":"tt19891306","latest_uploaded_season":1,"total_uploaded_episodes":8},{"id":"1139817","type":"movie","title":"Officer Black Belt","poster":"https://image.tmdb.org/t/p/w342/pWOiCearczq7zmWo4ASbUIF6HYS.jpg","year":"2024","result":"HD","language":["Hindi"],"country":["KR"],"original_language":"ko","genres":["Action","Comedy","Crime"],"imdb_id":"tt28494829"},{"id":"213611","type":"tv","title":"Our Oceans","poster":"https://image.tmdb.org/t/p/w342/5S1xVcfCXPzBeAluiTWKGqwMmRz.jpg","year":"2024","result":"HD","language":["Hindi"],"country":["GB"],"original_language":"en","genres":["Documentary"],"imdb_id":"tt23181400","latest_uploaded_season":1,"total_uploaded_episodes":5},{"id":"1306764","type":"movie","title":"Outside","poster":"https://image.tmdb.org/t/p/w342/e2YYJYZrQkodvMGfgdSUH5LBPpr.jpg","year":"2024","result":"HD","language":["Hindi"],"country":["PH"],"original_language":"tl","genres":["Horror","Thriller"],"imdb_id":"tt32389619"},{"id":"1064375","type":"movie","title":"Paradox Effect","poster":"https://image.tmdb.org/t/p/w342/koJFEW997sLjpu4e7wmFioA2mhL.jpg","year":"2024","result":"HD","language":["Hindi"],"country":["IT","US"],"original_language":"en","genres":["Action","Thriller"],"imdb_id":"tt14416430"},{"id":"934632","type":"movie","title":"Rebel Moon - Part Two: The Scargiver","poster":"https://image.tmdb.org/t/p/w342/95gnJZIk2rEkMO0Ch46x5CVjnms.jpg","year":"2024","result":"HD","language":["Hindi"],"country":["US"],"original_language":"en","genres":["Science Fiction","Action","Adventure"],"imdb_id":"tt23137904"},{"id":"869597","type":"movie","title":"Reunion","poster":"https://image.tmdb.org/t/p/w342/k5XWnBAkMJIOjHbpkYb4ofLRJNy.jpg","year":"2024","result":"HD","language":["Hindi"],"country":["US"],"original_language":"en","genres":["Comedy","Mystery"],"imdb_id":"tt15338966"},{"id":"211039","type":"tv","title":"Senna","poster":"https://image.tmdb.org/t/p/w342/dmRfKme3j8mbTf4iTJd0L8wtaQa.jpg","year":"2024","result":"HD","language":["Hindi"],"country":["BR"],"original_language":"pt","genres":["Drama"],"imdb_id":"tt9145758","latest_uploaded_season":1,"total_uploaded_episodes":6},{"id":"1371727","type":"movie","title":"Sing: Thriller","poster":"https://image.tmdb.org/t/p/w342/zdT3LmTSNL4GAsS3cKjaCBzOrId.jpg","year":"2024","result":"HD","language":["Hindi"],"country":["US"],"original_language":"en","genres":["Animation","Family","Comedy","Music"],"imdb_id":"tt33999453"},{"id":"274558","type":"tv","title":"Sisters' Feud","poster":"https://image.tmdb.org/t/p/w342/uNvHCu79A4hsvX6HkRZK31nO2H8.jpg","year":"2024","result":"HD","language":["Hindi"],"country":["MX"],"original_language":"es","genres":["Drama"],"imdb_id":"tt31226362","latest_uploaded_season":1,"total_uploaded_episodes":20},{"id":"1100782","type":"movie","title":"Smile 2","poster":"https://image.tmdb.org/t/p/w342/ht8Uv9QPv9y7K0RvUyJIaXOZTfd.jpg","year":"2024","result":"HD","language":["Hindi"],"country":["US"],"original_language":"en","genres":["Horror","Music","Mystery","Thriller"],"imdb_id":"tt29268110"},{"id":"592983","type":"movie","title":"Spellbound","poster":"https://image.tmdb.org/t/p/w342/4dSrwXJNKtMtlkwJPgZMkjjuHvD.jpg","year":"2024","result":"HD","language":["Hindi"],"country":["ES","US"],"original_language":"en","genres":["Animation","Fantasy","Family","Adventure","Comedy"],"imdb_id":"tt7215232"},{"id":"202879","type":"tv","title":"Star Wars: Skeleton Crew","poster":"https://image.tmdb.org/t/p/w342/srQbJhLRKoAwRrNN5ga7webPHbC.jpg","year":"2024","result":"HD","language":["Hindi"],"country":["US"],"original_language":"en","genres":["Action & Adventure","Sci-Fi & Fantasy","Family"],"imdb_id":"tt20600980","latest_uploaded_season":1,"total_uploaded_episodes":8},{"id":"1087388","type":"movie","title":"Sting","poster":"https://image.tmdb.org/t/p/w342/97XZtLd461e5e0WBIBJREK1lzqC.jpg","year":"2024","result":"HD","language":["Hindi"],"country":["AU","GB","US"],"original_language":"en","genres":["Horror","Thriller"],"imdb_id":"tt20112746"},{"id":"1029281","type":"movie","title":"Strange Darling","poster":"https://image.tmdb.org/t/p/w342/kWNCRgt3ocv19bYO0sk7TRuZuFY.jpg","year":"2024","result":"HD","language":["Hindi"],"country":["US"],"original_language":"en","genres":["Horror","Thriller"],"imdb_id":"tt22375054"},{"id":"1361048","type":"movie","title":"Sweet Bobby: My Catfish Nightmare","poster":"https://image.tmdb.org/t/p/w342/vOYSWDkW3lKOZNHkR4WdHG0sb8R.jpg","year":"2024","result":"HD","language":["Hindi"],"country":["GB"],"original_language":"en","genres":["Documentary"],"imdb_id":"tt33484071"},{"id":"243396","type":"tv","title":"Territory","poster":"https://image.tmdb.org/t/p/w342/jPoNveBQWYwwWf2UnK27LEtWiqb.jpg","year":"2024","result":"HD","language":["Hindi"],"country":["AU"],"original_language":"en","genres":["Western","Drama","Action & Adventure"],"imdb_id":"tt28703559","latest_uploaded_season":1,"total_uploaded_episodes":6},{"id":"645757","type":"movie","title":"That Christmas","poster":"https://image.tmdb.org/t/p/w342/uR3uhztTAxGGK7Co0yyxVy4Gc7H.jpg","year":"2024","result":"HD","language":["Hindi"],"country":["GB"],"original_language":"en","genres":["Animation","Comedy","Family","Fantasy","Adventure"],"imdb_id":"tt14855468"},{"id":"1180634","type":"movie","title":"The Children's Train","poster":"https://image.tmdb.org/t/p/w342/kfQvaLi9P5JdyWjz0b5IhIjLCu1.jpg","year":"2024","result":"HD","language":["Hindi"],"country":["IT"],"original_language":"it","genres":["Drama"],"imdb_id":"tt29242846"},{"id":"270977","type":"tv","title":"The Comeback: 2004 Boston Red Sox","poster":"https://image.tmdb.org/t/p/w342/uEzoVKUurlDjQ0vyJgAuTXQBZO0.jpg","year":"2024","result":"HD","language":["Hindi"],"country":["US"],"original_language":"en","genres":["Documentary"],"imdb_id":"tt31186041","latest_uploaded_season":1,"total_uploaded_episodes":3}]}