{"page":9,"total_pages":66,"total_items":3272,"items":[{"id":"63926","type":"tv","title":"One-Punch Man","poster":"https://image.tmdb.org/t/p/w342/dT10AxJIXVvRwFAew4tt2RhzJrD.jpg","year":"2025","result":"HD","language":["Hindi"],"country":["JP"],"original_language":"ja","genres":["Animation","Comedy","Action & Adventure","Sci-Fi & Fantasy"],"imdb_id":"tt4508902","latest_uploaded_season":3,"total_uploaded_episodes":36},{"id":"101352","type":"tv","title":"Panchayat","poster":"https://image.tmdb.org/t/p/w342/cPPhduQk1eX0MAE2JDaQRh3UZB5.jpg","year":"2025","result":"HD","language":["Hindi"],"country":["IN"],"original_language":"hi","genres":["Comedy","Drama"],"imdb_id":"tt12004706","latest_uploaded_season":4,"total_uploaded_episodes":32},{"id":"110492","type":"tv","title":"Peacemaker","poster":"https://image.tmdb.org/t/p/w342/eYzbGcYnOUlvj2fa76pTgIXogd7.jpg","year":"2025","result":"HD","language":["Hindi"],"country":["US"],"original_language":"en","genres":["Action & Adventure","Sci-Fi & Fantasy","Drama"],"imdb_id":"tt13146488","latest_uploaded_season":2,"total_uploaded_episodes":16},{"id":"120998","type":"tv","title":"Poker Face","poster":"https://image.tmdb.org/t/p/w342/8Xm5dyMQC9whMJKnGdFugUAW73C.jpg","year":"2025","result":"HD","language":["Hindi"],"country":["US"],"original_language":"en","genres":["Crime","Mystery"],"imdb_id":"tt14269590","latest_uploaded_season":2,"total_uploaded_episodes":22},{"id":"203202","type":"tv","title":"Rana Naidu","poster":"https://image.tmdb.org/t/p/w342/4kUF7cO76W4vEx70KVfwmju6Vud.jpg","year":"2025","result":"HD","language":["Hindi"],"country":["IN"],"original_language":"hi","genres":["Crime","Drama","Mystery"],"imdb_id":"tt15471900","latest_uploaded_season":2,"total_uploaded_episodes":18},{"id":"108978","type":"tv","title":"Reacher","poster":"https://image.tmdb.org/t/p/w342/31GlRQMiDunO8cl3NxTz34U64rf.jpg","year":"2025","result":"HD","language":["Hindi"],"country":["US"],"original_language":"en","genres":["Action & Adventure","Drama","Crime"],"imdb_id":"tt9288030","latest_uploaded_season":3,"total_uploaded_episodes":24},{"id":"207564","type":"tv","title":"Reborn as a Vending Machine, I Now Wander the Dungeon","poster":"https://image.tmdb.org/t/p/w342/bY6oLDoxDyP7JNLVGjeO3udND4g.jpg","year":"2025","result":"HD","language":["Hindi"],"country":["JP"],"original_language":"ja","genres":["Animation","Comedy","Action & Adventure","Sci-Fi & Fantasy"],"imdb_id":"tt28100731","latest_uploaded_season":2,"total_uploaded_episodes":24},{"id":"213249","type":"tv","title":"Sausage Party: Foodtopia","poster":"https://image.tmdb.org/t/p/w342/cPLk5uvh0Am0UQlxRP4xqNcVQD3.jpg","year":"2025","result":"HD","language":["Hindi"],"country":["US"],"original_language":"en","genres":["Animation","Comedy","Action & Adventure","Sci-Fi & Fantasy"],"imdb_id":"tt23036426","latest_uploaded_season":2,"total_uploaded_episodes":16},{"id":"233362","type":"tv","title":"School Friends","poster":"https://image.tmdb.org/t/p/w342/c0XiNTHqk46GdsW1BgGnhHgeKUO.jpg","year":"2025","result":"HD","language":["Hindi"],"country":["IN"],"original_language":"hi","genres":["Comedy","Drama"],"imdb_id":"tt28717624","latest_uploaded_season":3,"total_uploaded_episodes":3},{"id":"502","type":"tv","title":"Sesame Street","poster":"https://image.tmdb.org/t/p/w342/14k9BfZ2p4rQBMeJ5crKTfUZVwD.jpg","year":"2025","result":"HD","language":["Hindi"],"country":["US"],"original_language":"en","genres":["Kids","Comedy"],"imdb_id":"tt0063951","latest_uploaded_season":55,"total_uploaded_episodes":4},{"id":"214332","type":"tv","title":"Sixer","poster":"https://image.tmdb.org/t/p/w342/uD1QfpTKwSksG13pcUOvWzyAeOK.jpg","year":"2025","result":"HD","language":["Hindi"],"country":["IN"],"original_language":"hi","genres":["Drama"],"imdb_id":"tt22185582","latest_uploaded_season":2,"total_uploaded_episodes":11},{"id":"100612","type":"tv","title":"Special Ops","poster":"https://image.tmdb.org/t/p/w342/rTOGcNzVMYGezpx9AxX7ilzLNEp.jpg","year":"2025","result":"HD","language":["Hindi"],"country":["IN"],"original_language":"hi","genres":["Mystery","Drama","Crime"],"imdb_id":"tt11854694","latest_uploaded_season":2,"total_uploaded_episodes":15},{"id":"120089","type":"tv","title":"SPY x FAMILY","poster":"https://image.tmdb.org/t/p/w342/7NAvPYPAu7MeHwP8E9sn81PqsRh.jpg","year":"2025","result":"HD","language":["Hindi"],"country":["JP"],"original_language":"ja","genres":["Animation","Action & Adventure","Comedy"],"imdb_id":"tt13706018","latest_uploaded_season":3,"total_uploaded_episodes":50},{"id":"93405","type":"tv","title":"Squid Game","poster":"https://image.tmdb.org/t/p/w342/1QdXdRYfktUSONkl1oD5gc6Be0s.jpg","year":"2025","result":"HD","language":["Hindi"],"country":["KR"],"original_language":"ko","genres":["Action & Adventure","Mystery","Drama"],"imdb_id":"tt10919420","latest_uploaded_season":3,"total_uploaded_episodes":22},{"id":"103516","type":"tv","title":"Star Trek: Strange New Worlds","poster":"https://image.tmdb.org/t/p/w342/w6KapI2JvrCkOPmQhkwYPJNjqeo.jpg","year":"2025","result":"HD","language":["Hindi"],"country":["US"],"original_language":"en","genres":["Sci-Fi & Fantasy","Drama"],"imdb_id":"tt12327578","latest_uploaded_season":3,"total_uploaded_episodes":30},{"id":"262955","type":"tv","title":"Starting 5","poster":"https://image.tmdb.org/t/p/w342/i6SYNxGbyo9nIg4MugPMnaUHKYR.jpg","year":"2025","result":"HD","language":["Hindi"],"country":["US"],"original_language":"en","genres":["Documentary","Reality"],"imdb_id":"tt33294894","latest_uploaded_season":2,"total_uploaded_episodes":18},{"id":"66732","type":"tv","title":"Stranger Things","poster":"https://image.tmdb.org/t/p/w342/uOOtwVbSr4QDjAGIifLDwpb2Pdl.jpg","year":"2025","result":"HD","language":["Hindi"],"country":["US"],"original_language":"en","genres":["Sci-Fi & Fantasy","Mystery","Action & Adventure"],"imdb_id":"tt4574334","latest_uploaded_season":5,"total_uploaded_episodes":42},{"id":"200861","type":"tv","title":"Suzhal - The Vortex","poster":"https://image.tmdb.org/t/p/w342/z6IJi7xmAMmKdbzSnwguIXLIVjN.jpg","year":"2025","result":"HD","language":["Hindi"],"country":["IN"],"original_language":"ta","genres":["Crime","Mystery"],"imdb_id":"tt20873118","latest_uploaded_season":2,"total_uploaded_episodes":1},{"id":"259730","type":"tv","title":"The Accident","poster":"https://image.tmdb.org/t/p/w342/wMD1rnBwYAUe12JT6NHYaguXofs.jpg","year":"2025","result":"HD","language":["Hindi"],"country":["MX"],"original_language":"es","genres":["Drama"],"imdb_id":"tt30068042","latest_uploaded_season":2,"total_uploaded_episodes":16},{"id":"85077","type":"tv","title":"The Chosen","poster":"https://image.tmdb.org/t/p/w342/dqVUFuNrMFWt7uGNWlpo91VKYOI.jpg","year":"2025","result":"HD","language":["Hindi"],"country":["US"],"original_language":"en","genres":["Action & Adventure","Family","Drama"],"imdb_id":"tt5622316","latest_uploaded_season":5,"total_uploaded_episodes":40},{"id":"203857","type":"tv","title":"The Diplomat","poster":"https://image.tmdb.org/t/p/w342/cOKXV0FalCYixNmZYCfHXgyQ0VX.jpg","year":"2025","result":"HD","language":["Hindi"],"country":["US"],"original_language":"en","genres":["Drama","War & Politics"],"imdb_id":"tt17491088","latest_uploaded_season":3,"total_uploaded_episodes":22},{"id":"212196","type":"tv","title":"The Ex-Wife","poster":"https://image.tmdb.org/t/p/w342/vp5Vs17MUizJ7bQNMRsUcvDVquC.jpg","year":"2025","result":"HD","language":["Hindi"],"country":["GB"],"original_language":"en","genres":["Drama","Mystery"],"imdb_id":"tt13069604","latest_uploaded_season":2,"total_uploaded_episodes":8},{"id":"93352","type":"tv","title":"The Family Man","poster":"https://image.tmdb.org/t/p/w342/tE1NUJqw9gV6AVjQ1GTK78LbWJ9.jpg","year":"2025","result":"HD","language":["Hindi"],"country":["IN"],"original_language":"hi","genres":["Drama","Action & Adventure"],"imdb_id":"tt9544034","latest_uploaded_season":3,"total_uploaded_episodes":26},{"id":"100088","type":"tv","title":"The Last of Us","poster":"https://image.tmdb.org/t/p/w342/dmo6TYuuJgaYinXBPjrgG9mB5od.jpg","year":"2025","result":"HD","language":["Hindi"],"country":["US"],"original_language":"en","genres":["Drama"],"imdb_id":"tt3581920","latest_uploaded_season":2,"total_uploaded_episodes":16},{"id":"117736","type":"tv","title":"The Legend of Hanuman","poster":"https://image.tmdb.org/t/p/w342/5PBsrG43twpomowfSHjNfug7FWF.jpg","year":"2025","result":"HD","language":["Hindi"],"country":["IN"],"original_language":"hi","genres":["Animation","Action & Adventure","Sci-Fi & Fantasy"],"imdb_id":"tt13854248","latest_uploaded_season":6,"total_uploaded_episodes":7},{"id":"235351","type":"tv","title":"The Legend of Heroes","poster":"https://image.tmdb.org/t/p/w342/fVOEMyOJx6pQ3ngacvkxiMZbnMD.jpg","year":"2025","result":"HD","language":["Hindi"],"country":["CN"],"original_language":"zh","genres":["Action & Adventure","Drama"],"imdb_id":"tt28116044","latest_uploaded_season":2,"total_uploaded_episodes":60},{"id":"194766","type":"tv","title":"The Summer I Turned Pretty","poster":"https://image.tmdb.org/t/p/w342/xBIz53wYWsKfFpN0TaizVAjKJ0z.jpg","year":"2025","result":"HD","language":["Hindi"],"country":["US"],"original_language":"en","genres":["Drama"],"imdb_id":"tt14016500","latest_uploaded_season":3,"total_uploaded_episodes":26},{"id":"228718","type":"tv","title":"The Trial","poster":"https://image.tmdb.org/t/p/w342/3IuvPJWRLDsqPjWZu02BLGG38tw.jpg","year":"2025","result":"HD","language":["Hindi"],"country":["IN"],"original_language":"hi","genres":["Drama","Crime","Mystery"],"imdb_id":"tt21975100","latest_uploaded_season":2,"total_uploaded_episodes":14},{"id":"243861","type":"tv","title":"The Vince Staples Show","poster":"https://image.tmdb.org/t/p/w342/gyUKo6ILKVwuiVq4EWv1avEXpBp.jpg","year":"2025","result":"HD","language":["Hindi"],"country":["US"],"original_language":"en","genres":["Drama","Comedy"],"imdb_id":"tt21993130","latest_uploaded_season":2,"total_uploaded_episodes":11},{"id":"71912","type":"tv","title":"The Witcher","poster":"https://image.tmdb.org/t/p/w342/AoGsDM02UVt0npBA8OvpDcZbaMi.jpg","year":"2025","result":"HD","language":["Hindi"],"country":["US"],"original_language":"en","genres":["Drama","Action & Adventure"],"imdb_id":"tt5180504","latest_uploaded_season":4,"total_uploaded_episodes":32},{"id":"95269","type":"tv","title":"Toilet-Bound Hanako-kun","poster":"https://image.tmdb.org/t/p/w342/h1X1G8Q9Ba9Vy1YIgXHduenP8nv.jpg","year":"2025","result":"HD","language":["Hindi"],"country":["JP"],"original_language":"ja","genres":["Animation","Mystery","Sci-Fi & Fantasy"],"imdb_id":"tt10777610","latest_uploaded_season":2,"total_uploaded_episodes":36},{"id":"200709","type":"tv","title":"Weak Hero","poster":"https://image.tmdb.org/t/p/w342/hS9VVF5ffTVWNoC9B48QNsZFGy9.jpg","year":"2025","result":"HD","language":["Hindi"],"country":["KR"],"original_language":"ko","genres":["Action & Adventure","Drama"],"imdb_id":"tt20234568","latest_uploaded_season":2,"total_uploaded_episodes":16},{"id":"119051","type":"tv","title":"Wednesday","poster":"https://image.tmdb.org/t/p/w342/36xXlhEpQqVVPuiZhfoQuaY4OlA.jpg","year":"2025","result":"HD","language":["Hindi"],"country":["US"],"original_language":"en","genres":["Sci-Fi & Fantasy","Mystery","Comedy"],"imdb_id":"tt13443470","latest_uploaded_season":2,"total_uploaded_episodes":16},{"id":"78191","type":"tv","title":"You","poster":"https://image.tmdb.org/t/p/w342/oANi0vEE92nuijiZQgPZ88FSxqQ.jpg","year":"2025","result":"HD","language":["Hindi"],"country":["US"],"original_language":"en","genres":["Mystery","Crime","Drama"],"imdb_id":"tt7335184","latest_uploaded_season":5,"total_uploaded_episodes":50},{"id":"238084","type":"tv","title":"Trigger","poster":"https://image.tmdb.org/t/p/w342/9eDF8Z4iFFCmQROiuej54rSK9LT.jpg","year":"2025","result":"HD","language":["Hindi"],"country":["KR"],"original_language":"ko","genres":["Action & Adventure","Drama","Crime"],"imdb_id":"tt27898511","latest_uploaded_season":1,"total_uploaded_episodes":10},{"id":"224819","type":"tv","title":"Dear Hongrang","poster":"https://image.tmdb.org/t/p/w342/mWGil4jL1jaCoZkZuaNThh0aoVC.jpg","year":"2025","result":"HD","language":["Hindi"],"country":["KR"],"original_language":"ko","genres":["Drama","Mystery"],"imdb_id":"tt27554348","latest_uploaded_season":1,"total_uploaded_episodes":11},{"id":"243964","type":"tv","title":"Melo Movie","poster":"https://image.tmdb.org/t/p/w342/4Aat5liR3Aepisn0fhxegpBSGKF.jpg","year":"2025","result":"HD","language":["Hindi"],"country":["KR"],"original_language":"ko","genres":["Comedy","Drama"],"imdb_id":"tt35450649","latest_uploaded_season":1,"total_uploaded_episodes":10},{"id":"232766","type":"tv","title":"Mercy for None","poster":"https://image.tmdb.org/t/p/w342/AjL335mFBe7LgCqo3w0RNBSbbZU.jpg","year":"2025","result":"HD","language":["Hindi"],"country":["KR"],"original_language":"ko","genres":["Action & Adventure","Drama"],"imdb_id":"tt29650530","latest_uploaded_season":1,"total_uploaded_episodes":7},{"id":"1584813","type":"movie","title":"Usiru","poster":"https://image.tmdb.org/t/p/w342/wGFn6qJWI4VsJQhrVQsNtTESGZj.jpg","year":"2025","result":"HD","language":["Hindi"],"country":[],"original_language":"kn","genres":["Thriller"],"imdb_id":"tt37996122"},{"id":"1454376","type":"movie","title":"Agnyathavasi","poster":"https://image.tmdb.org/t/p/w342/ephTFUQNYhBmYjKqMoMazzHpVqu.jpg","year":"2025","result":"HD","language":["Hindi"],"country":[],"original_language":"kn","genres":["Thriller","Mystery"],"imdb_id":"tt27470862"},{"id":"1059007","type":"movie","title":"Agra","poster":"https://image.tmdb.org/t/p/w342/biX8D3kSh4HuZzf1r0ynRgaEJte.jpg","year":"2025","result":"HD","language":["Hindi"],"country":["FR","IN"],"original_language":"hi","genres":["Drama"],"imdb_id":"tt11112532"},{"id":"1199869","type":"movie","title":"Eye for an Eye","poster":"https://image.tmdb.org/t/p/w342/lpepbfVziHJLhVoxTEKs8ok00iu.jpg","year":"2025","result":"HD","language":["Hindi"],"country":["US","GB"],"original_language":"en","genres":["Horror"],"imdb_id":"tt28088571"},{"id":"1325678","type":"movie","title":"Sarah's Oil","poster":"https://image.tmdb.org/t/p/w342/Av1CK61z33v2OBFLD1yF5rdRxQ1.jpg","year":"2025","result":"HD","language":["Hindi"],"country":["US"],"original_language":"en","genres":["Drama"],"imdb_id":"tt31727267"},{"id":"1687255","type":"movie","title":"Tapak","poster":"https://image.tmdb.org/t/p/w342/rKDlbvmbZOZRkrjAC12bwGjniSs.jpg","year":"2025","result":"HD","language":["Hindi"],"country":[],"original_language":"hi","genres":["Mystery"],"imdb_id":"tt37106680"},{"id":"157744","type":"tv","title":"1923","poster":"https://image.tmdb.org/t/p/w342/zgZRJZvZn5cpsWAB0zMUdad3iZd.jpg","year":"2025","result":"HD","language":["Hindi"],"country":["US"],"original_language":"en","genres":["Drama","Western"],"imdb_id":"tt18335752","latest_uploaded_season":2,"total_uploaded_episodes":15},{"id":"284442","type":"tv","title":"A Gatherer's Adventure in Isekai","poster":"https://image.tmdb.org/t/p/w342/AtpIf9wnT6IaHoG31XsdqZEEf80.jpg","year":"2025","result":"HD","language":["Hindi"],"country":["JP"],"original_language":"ja","genres":["Animation","Action & Adventure","Sci-Fi & Fantasy"],"imdb_id":"tt37430949","latest_uploaded_season":1,"total_uploaded_episodes":12},{"id":"301507","type":"tv","title":"Heated Rivalry","poster":"https://image.tmdb.org/t/p/w342/3YCKbtAkYWCMDLHvkUjGhG7eWoS.jpg","year":"2025","result":"HD","language":["Hindi"],"country":["CA"],"original_language":"en","genres":["Drama"],"imdb_id":"tt35495073","latest_uploaded_season":1,"total_uploaded_episodes":6},{"id":"293010","type":"tv","title":"Let's Play","poster":"https://image.tmdb.org/t/p/w342/tJbyOYE4befDE7SgV03aJzxt8Ja.jpg","year":"2025","result":"HD","language":["Hindi"],"country":["JP"],"original_language":"ja","genres":["Animation","Comedy"],"imdb_id":"tt37532040","latest_uploaded_season":1,"total_uploaded_episodes":12},{"id":"287278","type":"tv","title":"Mechanical Marie","poster":"https://image.tmdb.org/t/p/w342/vsH56qFI4GEjeIPcIFIBEF6aaT9.jpg","year":"2025","result":"HD","language":["Hindi"],"country":["JP"],"original_language":"ja","genres":["Animation","Comedy","Sci-Fi & Fantasy"],"imdb_id":"tt36912922","latest_uploaded_season":1,"total_uploaded_episodes":12},{"id":"1126336","type":"movie","title":"Anniversary","poster":"https://image.tmdb.org/t/p/w342/sSdpXGBNt3mQzjZZVK6eV5NcPdc.jpg","year":"2025","result":"HD","language":["Hindi"],"country":["US","IE"],"original_language":"en","genres":["Thriller","Drama"],"imdb_id":"tt12583926"}]}