{"page":3,"total_pages":66,"total_items":3272,"items":[{"id":"213306","type":"tv","title":"Cross","poster":"https://image.tmdb.org/t/p/w342/6hhKdavCEZi8d584ZtIrQIrBvZI.jpg","year":"2026","result":"HD","language":["Hindi"],"country":["US"],"original_language":"en","genres":["Crime","Drama","Mystery"],"imdb_id":"tt11794812","latest_uploaded_season":2,"total_uploaded_episodes":16},{"id":"85552","type":"tv","title":"Euphoria","poster":"https://image.tmdb.org/t/p/w342/aJrG7OkoTMPWG5c8opz8a93AZPY.jpg","year":"2026","result":"HD","language":["Hindi"],"country":["US"],"original_language":"en","genres":["Drama"],"imdb_id":"tt8772296","latest_uploaded_season":3,"total_uploaded_episodes":24},{"id":"251883","type":"tv","title":"Thank You, Next","poster":"https://image.tmdb.org/t/p/w342/q3tO7n5GbRcnPwnTfbimY4y3yv4.jpg","year":"2026","result":"HD","language":["Hindi"],"country":["TR"],"original_language":"tr","genres":["Drama","Comedy"],"imdb_id":"tt28267514","latest_uploaded_season":3,"total_uploaded_episodes":24},{"id":"116799","type":"tv","title":"The Lincoln Lawyer","poster":"https://image.tmdb.org/t/p/w342/4jSaIqEU8CPBBNn4iVCK6wzPjSx.jpg","year":"2026","result":"HD","language":["Hindi"],"country":["US"],"original_language":"en","genres":["Drama","Crime"],"imdb_id":"tt13833978","latest_uploaded_season":4,"total_uploaded_episodes":40},{"id":"323198","type":"tv","title":"Beinteha - Ek Anokhi Dastaan","poster":"https://image.tmdb.org/t/p/w342/llNcq8gkJfWkJqlrEB5Y009nM67.jpg","year":"2026","result":"HD","language":["Hindi"],"country":["IN"],"original_language":"hi","genres":["Drama"],"imdb_id":"","latest_uploaded_season":1,"total_uploaded_episodes":1},{"id":"1630661","type":"movie","title":"Gaayapadda Simham","poster":"https://image.tmdb.org/t/p/w342/dx40U1uLHwBpdbVxIMC57jyIAaf.jpg","year":"2026","result":"HD","language":["Hindi"],"country":["IN"],"original_language":"te","genres":["Comedy","Drama"],"imdb_id":"tt39708015"},{"id":"1368881","type":"movie","title":"Ladies First","poster":"https://image.tmdb.org/t/p/w342/kjR56Yv17pbjTVBTMjqepvcus4f.jpg","year":"2026","result":"HD","language":["Hindi"],"country":["US"],"original_language":"en","genres":["Comedy"],"imdb_id":"tt34611082"},{"id":"1678386","type":"movie","title":"Lechindi Mahila Lokam","poster":"https://image.tmdb.org/t/p/w342/c2t1rNPSGPZMQKuaNJU6od6QqAU.jpg","year":"2026","result":"HD","language":["Hindi"],"country":[],"original_language":"te","genres":["Comedy","Drama"],"imdb_id":"tt20114020"},{"id":"1561144","type":"movie","title":"Madhuvidhu","poster":"https://image.tmdb.org/t/p/w342/jVSnpXklfxi3FchGqweRMvrC8Gd.jpg","year":"2026","result":"HD","language":["Hindi"],"country":["IN"],"original_language":"ml","genres":["Family","Comedy","Drama"],"imdb_id":"tt38781091"},{"id":"1421552","type":"movie","title":"Panda Plan 2: The Magical Tribe","poster":"https://image.tmdb.org/t/p/w342/asrLPsZMg75SxN1BooggGmpBwRO.jpg","year":"2026","result":"HD","language":["Hindi"],"country":["CN"],"original_language":"zh","genres":["Action","Comedy","Family","Fantasy"],"imdb_id":"tt35514520"},{"id":"323210","type":"tv","title":"Satrangi: Badle Ka Khel","poster":"https://image.tmdb.org/t/p/w342/9Me1JeDK1wPIc8MObq88GSM0VdQ.jpg","year":"2026","result":"HD","language":["Hindi"],"country":["IN"],"original_language":"hi","genres":["Crime","Drama"],"imdb_id":"tt41302276","latest_uploaded_season":1,"total_uploaded_episodes":7},{"id":"1431071","type":"movie","title":"System","poster":"https://image.tmdb.org/t/p/w342/8qrddM5BRcTuqjc9crJY6e3gyE6.jpg","year":"2026","result":"HD","language":["Hindi"],"country":["IN"],"original_language":"hi","genres":["Thriller"],"imdb_id":"tt36201830"},{"id":"224941","type":"tv","title":"The Boroughs","poster":"https://image.tmdb.org/t/p/w342/oKxBWbXmnWFO2Wh1QRTtshdfIRa.jpg","year":"2026","result":"HD","language":["Hindi"],"country":["US"],"original_language":"en","genres":["Sci-Fi & Fantasy","Mystery"],"imdb_id":"tt27557289","latest_uploaded_season":1,"total_uploaded_episodes":8},{"id":"1556783","type":"movie","title":"TN 2026","poster":"https://image.tmdb.org/t/p/w342/mAX1ujOROXtKsOuIg5MbJbotOyD.jpg","year":"2026","result":"HD","language":["Hindi"],"country":["IN"],"original_language":"ta","genres":["Comedy","Drama"],"imdb_id":"tt38489752"},{"id":"1380291","type":"movie","title":"Tom Clancy's Jack Ryan: Ghost War","poster":"https://image.tmdb.org/t/p/w342/8ehYxUh5MWE41AeE9gkHE8DKzvB.jpg","year":"2026","result":"HD","language":["Hindi"],"country":["US"],"original_language":"en","genres":["Action","Thriller","Adventure"],"imdb_id":"tt34378301"},{"id":"1684244","type":"movie","title":"Untold UK: Liverpool's Miracle of Istanbul","poster":"https://image.tmdb.org/t/p/w342/sfYVdE3RyRKA0VAz0I2fdTyscCG.jpg","year":"2026","result":"HD","language":["Hindi"],"country":["GB"],"original_language":"en","genres":["Documentary","History"],"imdb_id":"tt41801280"},{"id":"287230","type":"tv","title":"The Cage","poster":"https://image.tmdb.org/t/p/w342/rO6IPnLOuZdBAYtY9rEoxALH27x.jpg","year":"2026","result":"HD","language":["Hindi"],"country":["GB"],"original_language":"en","genres":["Drama","Crime"],"imdb_id":"tt33995822","latest_uploaded_season":1,"total_uploaded_episodes":5},{"id":"216284","type":"tv","title":"Hasratein","poster":"https://image.tmdb.org/t/p/w342/9ng6iEsgclvmjOYLL0CUC1cjQZw.jpg","year":"2026","result":"HD","language":["Hindi"],"country":["IN"],"original_language":"hi","genres":["Drama"],"imdb_id":"tt24060452","latest_uploaded_season":3,"total_uploaded_episodes":3},{"id":"312139","type":"tv","title":"Khotachi Wadi - Ek Shapit Vaastu","poster":"https://image.tmdb.org/t/p/w342/k1puhJ9DqQYmkggeM1XFjYDdhwC.jpg","year":"2026","result":"HD","language":["Hindi"],"country":["IN"],"original_language":"mr","genres":["Mystery"],"imdb_id":"","latest_uploaded_season":1,"total_uploaded_episodes":1},{"id":"322867","type":"tv","title":"Looteri Dulhan","poster":"https://image.tmdb.org/t/p/w342/qos47zsvVVt8YDGaZhBoJuEdjzJ.jpg","year":"2026","result":"HD","language":["Hindi"],"country":["IN"],"original_language":"hi","genres":["Drama"],"imdb_id":"","latest_uploaded_season":1,"total_uploaded_episodes":1},{"id":"82452","type":"tv","title":"Avatar the Last Airbender","poster":"https://image.tmdb.org/t/p/w342/lzZpWEaqzP0qVA5nkCc5ASbNcSy.jpg","year":"2026","result":"HD","language":["Hindi"],"country":["US"],"original_language":"en","genres":["Action & Adventure","Drama","Family","Sci-Fi & Fantasy"],"imdb_id":"tt9018736","latest_uploaded_season":2,"total_uploaded_episodes":15},{"id":"1422120","type":"movie","title":"Mermaid","poster":"https://image.tmdb.org/t/p/w342/qHpurzepx8ERBtAiGq7bSXpMnDD.jpg","year":"2026","result":"HD","language":["Hindi"],"country":["US"],"original_language":"en","genres":["Drama","Comedy","Horror"],"imdb_id":"tt34435532"},{"id":"236445","type":"tv","title":"Campus Beats","poster":"https://image.tmdb.org/t/p/original/tf8NUHqEw75HyHHbvYZefzKplXf.jpg","year":"2026","result":"HD","language":["Hindi"],"country":["IN"],"original_language":"hi","genres":["Drama"],"imdb_id":"tt29261323","latest_uploaded_season":6,"total_uploaded_episodes":39},{"id":"1371023","type":"movie","title":"Chand Mera Dil","poster":"https://image.tmdb.org/t/p/original/bbUJZtKb7CqoWJvSYf16umiXofI.jpg","year":"2026","result":"HD","language":["CAM RESULT"],"country":["IN"],"original_language":"hi","genres":["Romance","Drama"],"imdb_id":"tt34498111"},{"id":"1522079","type":"movie","title":"Sathi Leelavathi","poster":"https://image.tmdb.org/t/p/w342/povosquaaJWFjgTqd2ObTIvwl8.jpg","year":"2026","result":"HD","language":["Hindi"],"country":["IN"],"original_language":"te","genres":["Comedy","Drama","Romance"],"imdb_id":"tt35027300"},{"id":"218342","type":"tv","title":"A Good Girl's Guide to Murder","poster":"https://image.tmdb.org/t/p/w342/mzkstyDSsTRswCMRvoBD5ULPnIt.jpg","year":"2026","result":"HD","language":["Hindi"],"country":["GB"],"original_language":"en","genres":["Crime","Mystery","Drama"],"imdb_id":"tt28118211","latest_uploaded_season":2,"total_uploaded_episodes":12},{"id":"220102","type":"tv","title":"Spider-Noir","poster":"https://image.tmdb.org/t/p/w342/oD8WSVqz84ZRfelkr7JPeJwR9Iv.jpg","year":"2026","result":"HD","language":["Hindi"],"country":["US"],"original_language":"en","genres":["Action & Adventure","Crime","Mystery"],"imdb_id":"tt30460310","latest_uploaded_season":1,"total_uploaded_episodes":8},{"id":"1268919","type":"movie","title":"The Botanist","poster":"https://image.tmdb.org/t/p/w342/6lBR3uDf0uOHrBmNf4NSaxtkhlX.jpg","year":"2026","result":"HD","language":["Hindi"],"country":["CN"],"original_language":"zh","genres":["Drama","Fantasy"],"imdb_id":"tt28549378"},{"id":"235963","type":"tv","title":"Who's Your Gynac","poster":"https://image.tmdb.org/t/p/w342/vVZRh4ta94udBeoWAm6mzl8q9HT.jpg","year":"2026","result":"HD","language":["Hindi"],"country":["IN"],"original_language":"hi","genres":["Drama","Comedy"],"imdb_id":"tt29261298","latest_uploaded_season":2,"total_uploaded_episodes":6},{"id":"258427","type":"tv","title":"Freedom at Midnight","poster":"https://image.tmdb.org/t/p/w342/gCId3CjVHGePMYtu1pYzhZDXtEc.jpg","year":"2026","result":"HD","language":["Hindi"],"country":["IN"],"original_language":"hi","genres":["Drama","War & Politics"],"imdb_id":"tt28102595","latest_uploaded_season":2,"total_uploaded_episodes":14},{"id":"847742","type":"movie","title":"Drishyam 3","poster":"https://image.tmdb.org/t/p/w342/456FlpiU1iOBnaOxSd783QhZKWw.jpg","year":"2026","result":"HD","language":["CAM RESULT"],"country":["IN"],"original_language":"ml","genres":["Crime","Drama","Thriller"],"imdb_id":"tt14113634"},{"id":"1433117","type":"movie","title":"Kara","poster":"https://image.tmdb.org/t/p/w342/uIrFdMWlJFdc1jPBP9bxeaISCDj.jpg","year":"2026","result":"HD","language":["Hindi"],"country":["IN"],"original_language":"ta","genres":["Crime","Thriller"],"imdb_id":"tt37458112"},{"id":"1631017","type":"movie","title":"Karikaada","poster":"https://image.tmdb.org/t/p/w342/tL0skwRWivuNZHQD89baWynksct.jpg","year":"2026","result":"HD","language":["Hindi"],"country":["IN"],"original_language":"kn","genres":["Action","Comedy"],"imdb_id":"tt37232328"},{"id":"252372","type":"tv","title":"Murder Mindfully","poster":"https://image.tmdb.org/t/p/w342/rt6SspSLBl5PqWXGstR7HlUM3Nj.jpg","year":"2026","result":"HD","language":["Hindi"],"country":["DE"],"original_language":"de","genres":["Drama","Comedy","Crime"],"imdb_id":"tt30217222","latest_uploaded_season":2,"total_uploaded_episodes":16},{"id":"1533735","type":"movie","title":"Nawab Cafe","poster":"https://image.tmdb.org/t/p/w342/318rq88OAqNFlDhlh1HwWnHBTK4.jpg","year":"2026","result":"HD","language":["Hindi"],"country":[],"original_language":"te","genres":["Drama"],"imdb_id":"tt37996604"},{"id":"243316","type":"tv","title":"The Four Seasons","poster":"https://image.tmdb.org/t/p/original/9Jz395MIUXyuglZQj8B98KGYUDs.jpg","year":"2026","result":"HD","language":["Hindi"],"country":["US"],"original_language":"en","genres":["Comedy"],"imdb_id":"tt30826447","latest_uploaded_season":2,"total_uploaded_episodes":16},{"id":"292532","type":"tv","title":"Brazil '70: The Third Star","poster":"https://image.tmdb.org/t/p/w342/u6PBGDVs0CZJsq8IpWI5C4u0eyl.jpg","year":"2026","result":"HD","language":["Hindi"],"country":["BR"],"original_language":"pt","genres":["Drama"],"imdb_id":"tt37041010","latest_uploaded_season":1,"total_uploaded_episodes":5},{"id":"972232","type":"movie","title":"K-Pops!","poster":"https://image.tmdb.org/t/p/w342/72KQHN1xUO6gWHLRRPyJcCQXlve.jpg","year":"2026","result":"HD","language":["Hindi"],"country":["US"],"original_language":"en","genres":["Comedy","Drama","Music"],"imdb_id":"tt19896510"},{"id":"1065834","type":"movie","title":"Kattalan","poster":"https://image.tmdb.org/t/p/w342/53FATyQirV8BuBcrsQMGPvGKgCu.jpg","year":"2026","result":"HD","language":["CAM RESULT"],"country":["IN"],"original_language":"ml","genres":["Action","Thriller"],"imdb_id":"tt35668756"},{"id":"1641319","type":"movie","title":"Sniper: No Nation","poster":"https://image.tmdb.org/t/p/w342/tUmARo0TZEK1EaSuS6dU35FhDyU.jpg","year":"2026","result":"HD","language":["Hindi"],"country":["US","CA","ZA"],"original_language":"en","genres":["Action","Thriller"],"imdb_id":"tt39538786"},{"id":"1653208","type":"movie","title":"The Great Grand Superhero","poster":"https://image.tmdb.org/t/p/w342/6CYmHknTN2UGGhqQUZh4tqQ6fEr.jpg","year":"2026","result":"HD","language":["CAM RESULT"],"country":["IN"],"original_language":"hi","genres":["Comedy","Family","Drama"],"imdb_id":"tt40769151"},{"id":"1704309","type":"movie","title":"Top Cop","poster":"https://image.tmdb.org/t/p/w342/iG8ngSJgIki4bvlEi5XeBRiXBfW.jpg","year":"2026","result":"HD","language":["PUNJABI"],"country":[],"original_language":"pa","genres":["Thriller","Mystery","Crime"],"imdb_id":"tt39781126"},{"id":"1659087","type":"movie","title":"180","poster":"https://image.tmdb.org/t/p/w342/9ISjrhA38HpSSGtfiCk8lpziC3K.jpg","year":"2026","result":"HD","language":["Hindi"],"country":["ZA"],"original_language":"en","genres":["Thriller","Crime","Drama"],"imdb_id":"tt40891145"},{"id":"1659052","type":"movie","title":"Budh Singh","poster":"https://image.tmdb.org/t/p/w342/3pV9tWocNZXtwMUdC2eaNoX1IKi.jpg","year":"2026","result":"HD","language":["Hindi"],"country":[],"original_language":"pa","genres":["Action","Drama"],"imdb_id":"tt27190700"},{"id":"1658804","type":"movie","title":"Repu Udayam 10 Gantalaku","poster":"https://image.tmdb.org/t/p/w342/zbHIXfj0naOErY22dhMc4RiSAK1.jpg","year":"2026","result":"HD","language":["Hindi"],"country":[],"original_language":"te","genres":["Thriller"],"imdb_id":"tt40572898"},{"id":"1658635","type":"movie","title":"Panchhi 2","poster":"https://image.tmdb.org/t/p/w342/SGyMdOlJqhaHjcHnQRlO6Sx45G.jpg","year":"2026","result":"HD","language":["Hindi"],"country":[],"original_language":"pa","genres":["Thriller"],"imdb_id":""},{"id":"1658464","type":"movie","title":"WWE WrestleMania 42 Sunday","poster":"https://image.tmdb.org/t/p/w342/1wA1uEoVY9QL2JGhNSGecue8euP.jpg","year":"2026","result":"HD","language":["Hindi"],"country":["US"],"original_language":"en","genres":["Drama","Action"],"imdb_id":""},{"id":"1658163","type":"movie","title":"Suyodhana","poster":"https://image.tmdb.org/t/p/w342/s56x3fGTN6J1jbBMBDnLY7t4iyU.jpg","year":"2026","result":"HD","language":["Hindi"],"country":[],"original_language":"te","genres":["Family","Thriller","Mystery"],"imdb_id":"tt40744793"},{"id":"1647932","type":"movie","title":"Mission C1000","poster":"https://image.tmdb.org/t/p/w342/jrwKIZR9P7IWkP5oPe5Xlw1j3vH.jpg","year":"2026","result":"CAM","language":["Hindi"],"country":[],"original_language":"te","genres":["Action"],"imdb_id":"tt35022209"},{"id":"1646589","type":"movie","title":"13 Teen","poster":"https://image.tmdb.org/t/p/w342/rpaYcOV8oYOAVQmHyALZNAn3zka.jpg","year":"2026","result":"HD","language":["Hindi"],"country":[],"original_language":"pa","genres":["Drama","Thriller"],"imdb_id":"tt39958734"}]}