{"page":31,"total_pages":66,"total_items":3272,"items":[{"id":"244207","type":"tv","title":"The Helicopter Heist","poster":"https://image.tmdb.org/t/p/w342/fKZyNZJCIrAll8thK4QyNVkRHy5.jpg","year":"2024","result":"HD","language":["Hindi"],"country":["SE"],"original_language":"sv","genres":["Action & Adventure","Drama","Crime"],"imdb_id":"tt20872980","latest_uploaded_season":1,"total_uploaded_episodes":8},{"id":"242879","type":"tv","title":"The Last Night at Tremore Beach","poster":"https://image.tmdb.org/t/p/w342/n1kwsyVHpC46af98UJr4J3MxZdg.jpg","year":"2024","result":"HD","language":["Hindi"],"country":["ES"],"original_language":"es","genres":["Drama","Mystery"],"imdb_id":"tt27349314","latest_uploaded_season":1,"total_uploaded_episodes":8},{"id":"277010","type":"tv","title":"The Later Daters","poster":"https://image.tmdb.org/t/p/w342/9wHrltQGEqaKObKTX5FfOMYzoIJ.jpg","year":"2024","result":"HD","language":["Hindi"],"country":["US"],"original_language":"en","genres":["Reality"],"imdb_id":"tt34599590","latest_uploaded_season":1,"total_uploaded_episodes":8},{"id":"135934","type":"tv","title":"The Legend of Vox Machina","poster":"https://image.tmdb.org/t/p/w342/b5A0qkGrZJTyVv3gT6b8clFEz9R.jpg","year":"2024","result":"HD","language":["Hindi"],"country":["US"],"original_language":"en","genres":["Animation","Sci-Fi & Fantasy"],"imdb_id":"tt11247158","latest_uploaded_season":3,"total_uploaded_episodes":14},{"id":"220056","type":"tv","title":"The Madness","poster":"https://image.tmdb.org/t/p/w342/lASJAqmKLt5xkr3sZZGQUOK5l2e.jpg","year":"2024","result":"HD","language":["Hindi"],"country":["US"],"original_language":"en","genres":["Drama","Crime","Action & Adventure"],"imdb_id":"tt26676489","latest_uploaded_season":1,"total_uploaded_episodes":8},{"id":"1190469","type":"movie","title":"The Man Who Loved UFOs","poster":"https://image.tmdb.org/t/p/w342/9zP65lNbCEiKv4bv0Ieq6zEy6mg.jpg","year":"2024","result":"HD","language":["Hindi"],"country":["AR"],"original_language":"es","genres":["Drama","Comedy","Fantasy"],"imdb_id":"tt33051716"},{"id":"1290486","type":"movie","title":"The Merry Gentlemen","poster":"https://image.tmdb.org/t/p/w342/4t80WORFWqDYf4BRwV2jrXNHJdN.jpg","year":"2024","result":"HD","language":["Hindi"],"country":["US"],"original_language":"en","genres":["Romance","Comedy"],"imdb_id":"tt32368345"},{"id":"256480","type":"tv","title":"The Office","poster":"https://image.tmdb.org/t/p/w342/wVS8a4sJmD9sP4NOo6qr4PTnlF9.jpg","year":"2024","result":"HD","language":["Hindi"],"country":["AU"],"original_language":"en","genres":["Comedy"],"imdb_id":"tt10193026","latest_uploaded_season":1,"total_uploaded_episodes":8},{"id":"1118028","type":"movie","title":"The Red Virgin","poster":"https://image.tmdb.org/t/p/w342/rWI9nlFB1bMWlU7xExJ4WmkQUyV.jpg","year":"2024","result":"HD","language":["Hindi"],"country":["ES","US"],"original_language":"es","genres":["Drama","History","Thriller"],"imdb_id":"tt27599713"},{"id":"1151949","type":"movie","title":"The Shadow Strays","poster":"https://image.tmdb.org/t/p/w342/7UYeDUzFIscGVr0mo7isvnrVYvO.jpg","year":"2024","result":"HD","language":["Hindi"],"country":["ID","US"],"original_language":"id","genres":["Action","Crime","Thriller"],"imdb_id":"tt28349451"},{"id":"1365044","type":"movie","title":"The Snow Sister","poster":"https://image.tmdb.org/t/p/w342/ArMZ9DEw3ajkLYNmj3iXdveO9oQ.jpg","year":"2024","result":"HD","language":["Hindi"],"country":["NO"],"original_language":"no","genres":["Fantasy","Family","Adventure","Drama"],"imdb_id":"tt11092178"},{"id":"197460","type":"tv","title":"The Source","poster":"https://image.tmdb.org/t/p/w342/7T1E4Paj1dt7d8dv1L34lxTryKc.jpg","year":"2024","result":"HD","language":["Hindi"],"country":["FR"],"original_language":"fr","genres":["Action & Adventure","Drama"],"imdb_id":"tt19520308","latest_uploaded_season":1,"total_uploaded_episodes":7},{"id":"197543","type":"tv","title":"The Sticky","poster":"https://image.tmdb.org/t/p/w342/iNy4BMVVaAUt8S32fbotSOh4ka5.jpg","year":"2024","result":"HD","language":["Hindi"],"country":["CA","US"],"original_language":"en","genres":["Comedy","Drama"],"imdb_id":"tt19636984","latest_uploaded_season":1,"total_uploaded_episodes":6},{"id":"1127166","type":"movie","title":"The Tearsmith","poster":"https://image.tmdb.org/t/p/w342/uoBHsxSgfc3PQsSn98RfnbePHOy.jpg","year":"2024","result":"HD","language":["Hindi"],"country":["IT"],"original_language":"it","genres":["Romance","Drama"],"imdb_id":"tt29114029"},{"id":"1184918","type":"movie","title":"The Wild Robot","poster":"https://image.tmdb.org/t/p/w342/eG9lz41mJqsI4J6ubMtVqD26q2J.jpg","year":"2024","result":"HD","language":["Hindi"],"country":["US"],"original_language":"en","genres":["Family","Animation","Science Fiction","Adventure"],"imdb_id":"tt29623480"},{"id":"272299","type":"tv","title":"This Is the Zodiac Speaking","poster":"https://image.tmdb.org/t/p/w342/crvYcZTN7TTEa85nClY3JqL2F0O.jpg","year":"2024","result":"HD","language":["Hindi"],"country":["US"],"original_language":"en","genres":["Documentary","Crime"],"imdb_id":"tt33480540","latest_uploaded_season":1,"total_uploaded_episodes":3},{"id":"827931","type":"movie","title":"Time Cut","poster":"https://image.tmdb.org/t/p/w342/gzMFMmpJHOmOFKsAhSDac62Dyg2.jpg","year":"2024","result":"HD","language":["Hindi"],"country":["US"],"original_language":"en","genres":["Horror","Science Fiction","Thriller"],"imdb_id":"tt14857528"},{"id":"273794","type":"tv","title":"We Are Golden","poster":"https://image.tmdb.org/t/p/w342/s3P2k2pxv6stEynr0uijkH0fRPf.jpg","year":"2024","result":"HD","language":["Hindi"],"country":["MX"],"original_language":"es","genres":["Comedy"],"imdb_id":"tt33499592","latest_uploaded_season":1,"total_uploaded_episodes":7},{"id":"235555","type":"tv","title":"We Were Kings","poster":"https://image.tmdb.org/t/p/w342/xLSsFn2ORlnyu3orvO72Ewu7uHM.jpg","year":"2024","result":"HD","language":["Hindi"],"country":["MX"],"original_language":"es","genres":["Drama","Crime"],"imdb_id":"tt33295797","latest_uploaded_season":1,"total_uploaded_episodes":6},{"id":"1320330","type":"movie","title":"Year 10","poster":"https://image.tmdb.org/t/p/w342/zqeFM6cjHjYmgjqJExjt1NPBPdd.jpg","year":"2024","result":"HD","language":["Hindi"],"country":["GB"],"original_language":"en","genres":["Horror","Science Fiction"],"imdb_id":"tt21154574"},{"id":"974453","type":"movie","title":"Absolution","poster":"https://image.tmdb.org/t/p/w342/gt70JOD9xsPlpJnuBJAWdOT4yRg.jpg","year":"2024","result":"HD","language":["Hindi"],"country":["US"],"original_language":"en","genres":["Action","Crime","Thriller","Mystery"],"imdb_id":"tt8337290"},{"id":"1064213","type":"movie","title":"Anora","poster":"https://image.tmdb.org/t/p/w342/oN0o3owobFjePDc5vMdLRAd0jkd.jpg","year":"2024","result":"HD","language":["Hindi"],"country":["US"],"original_language":"en","genres":["Drama","Comedy","Romance"],"imdb_id":"tt28607951"},{"id":"807339","type":"movie","title":"Apartment 7A","poster":"https://image.tmdb.org/t/p/w342/uipHKJHY1nNEQyprXjfNzH0GIOF.jpg","year":"2024","result":"HD","language":["Hindi"],"country":["US"],"original_language":"en","genres":["Horror","Thriller"],"imdb_id":"tt14371860"},{"id":"1277400","type":"movie","title":"Appu","poster":"https://image.tmdb.org/t/p/w342/zCxIRomxyOrMKsYKIChRlK9HBLO.jpg","year":"2024","result":"HD","language":["Hindi"],"country":["IN"],"original_language":"hi","genres":["Animation","Comedy","Drama","Family"],"imdb_id":"tt32020028"},{"id":"1173019","type":"movie","title":"Assassin's Guild","poster":"https://image.tmdb.org/t/p/w342/zUv8lBLSrr1j2Nfz8NBDeWbuyHn.jpg","year":"2024","result":"HD","language":["Hindi"],"country":["GB"],"original_language":"en","genres":["Fantasy","Action","Adventure"],"imdb_id":"tt29414852"},{"id":"959098","type":"movie","title":"Autumn and the Black Jaguar","poster":"https://image.tmdb.org/t/p/w342/krLaIUZezfBDBSdQA2ChVTg9t3Z.jpg","year":"2024","result":"HD","language":["Hindi"],"country":["FR"],"original_language":"fr","genres":["Adventure","Family"],"imdb_id":"tt16740144"},{"id":"1275945","type":"movie","title":"Avicii - I'm Tim","poster":"https://image.tmdb.org/t/p/w342/bHrkrKQxYKem0ljWHPinIQK2gxy.jpg","year":"2024","result":"HD","language":["Hindi"],"country":["SE"],"original_language":"sv","genres":["Documentary","Music"],"imdb_id":"tt32138523"},{"id":"1029235","type":"movie","title":"Azrael","poster":"https://image.tmdb.org/t/p/w342/qpdFKDvJS7oLKTcBLXOaMwUESbs.jpg","year":"2024","result":"HD","language":["Hindi"],"country":["US"],"original_language":"en","genres":["Action","Horror","Thriller"],"imdb_id":"tt22173666"},{"id":"998846","type":"movie","title":"Back to Black","poster":"https://image.tmdb.org/t/p/w342/xHQEeUT3Ac4fTY72UeNrI75xLtE.jpg","year":"2024","result":"HD","language":["Hindi"],"country":["GB","US"],"original_language":"en","genres":["Music","History","Drama"],"imdb_id":"tt21261712"},{"id":"934866","type":"movie","title":"Bad Genius","poster":"https://image.tmdb.org/t/p/w342/h5hONXZ4hPgniv1DXMB1IZohhpO.jpg","year":"2024","result":"HD","language":["Hindi"],"country":["CA"],"original_language":"en","genres":["Thriller","Drama"],"imdb_id":"tt17717416"},{"id":"882059","type":"movie","title":"Boy Kills World","poster":"https://image.tmdb.org/t/p/w342/25JskXmchcYwj3jHRmcPm738MpB.jpg","year":"2024","result":"HD","language":["Hindi"],"country":["US"],"original_language":"en","genres":["Crime","Thriller","Action"],"imdb_id":"tt13923084"},{"id":"1376704","type":"movie","title":"Buy Now! The Shopping Conspiracy","poster":"https://image.tmdb.org/t/p/w342/n49IHIjqreWrIh6ty0aAxmR6SCs.jpg","year":"2024","result":"HD","language":["Hindi"],"country":["GB"],"original_language":"en","genres":["Documentary"],"imdb_id":"tt34350086"},{"id":"1198754","type":"movie","title":"Carnage","poster":"https://image.tmdb.org/t/p/w342/nWII5qq7VPwgrHI4otsRWLsYyRb.jpg","year":"2024","result":"HD","language":["Hindi"],"country":["FI"],"original_language":"fi","genres":["Action","Crime","Thriller"],"imdb_id":"tt28528526"},{"id":"1005331","type":"movie","title":"Carry-On","poster":"https://image.tmdb.org/t/p/w342/sjMN7DRi4sGiledsmllEw5HJjPy.jpg","year":"2024","result":"HD","language":["Hindi"],"country":["US"],"original_language":"en","genres":["Thriller","Action"],"imdb_id":"tt21382296"},{"id":"1093995","type":"movie","title":"Chief of Station","poster":"https://image.tmdb.org/t/p/w342/bammLc9ixvwx1qFoWdkSK2rIwGT.jpg","year":"2024","result":"HD","language":["Hindi"],"country":["US"],"original_language":"en","genres":["Action","Thriller"],"imdb_id":"tt21301418"},{"id":"834966","type":"movie","title":"Chosen Family","poster":"https://image.tmdb.org/t/p/w342/b6mTPplRvjtWUTwJQf90sZLrOFI.jpg","year":"2024","result":"HD","language":["Hindi"],"country":["US"],"original_language":"en","genres":["Romance","Comedy","Drama"],"imdb_id":"tt27799825"},{"id":"974576","type":"movie","title":"Conclave","poster":"https://image.tmdb.org/t/p/w342/vYEyxF1UT779RiEalpMjUT6kfdf.jpg","year":"2024","result":"HD","language":["Hindi"],"country":["GB","US"],"original_language":"en","genres":["Drama","Thriller"],"imdb_id":"tt20215234"},{"id":"1221404","type":"movie","title":"Crayon Shin-chan the Movie: Our Dinosaur Diary","poster":"https://image.tmdb.org/t/p/w342/n7YcOeqPOmvQ2PUatn4UqV5YStj.jpg","year":"2024","result":"HD","language":["Hindi"],"country":["JP"],"original_language":"ja","genres":["Animation","Adventure","Comedy","Family"],"imdb_id":"tt30400536"},{"id":"1442776","type":"movie","title":"Crazy Lizard","poster":"https://image.tmdb.org/t/p/w342/9TFaFsSXedaALXTzba349euDeoY.jpg","year":"2024","result":"HD","language":["Hindi"],"country":[],"original_language":"zh","genres":["Action","Thriller","Horror"],"imdb_id":"tt32169142"},{"id":"1255020","type":"movie","title":"Cruel War","poster":"https://image.tmdb.org/t/p/w342/AiB6C4ykGUKGFYZqceQo3fK9tHt.jpg","year":"2024","result":"HD","language":["Hindi"],"country":["CN"],"original_language":"zh","genres":["Action","Crime"],"imdb_id":"tt32323733"},{"id":"763215","type":"movie","title":"Damsel","poster":"https://image.tmdb.org/t/p/w342/AgHbB9DCE9aE57zkHjSmseszh6e.jpg","year":"2024","result":"HD","language":["Hindi"],"country":["ES","US"],"original_language":"en","genres":["Fantasy","Action","Adventure"],"imdb_id":"tt13452446"},{"id":"1176166","type":"movie","title":"Dancing Village: The Curse Begins","poster":"https://image.tmdb.org/t/p/w342/A4kY5RKiPJ0sRknU4NojItr93Jr.jpg","year":"2024","result":"HD","language":["Hindi"],"country":["ID"],"original_language":"id","genres":["Horror","Mystery","Thriller"],"imdb_id":"tt28763074"},{"id":"533535","type":"movie","title":"Deadpool & Wolverine","poster":"https://image.tmdb.org/t/p/w342/8cdWjvZQUExUUTzyp4t6EDMubfO.jpg","year":"2024","result":"HD","language":["Hindi"],"country":["US"],"original_language":"en","genres":["Action","Comedy","Science Fiction"],"imdb_id":"tt6263850"},{"id":"1097870","type":"movie","title":"Dear Santa","poster":"https://image.tmdb.org/t/p/w342/fRbDHbGBXg6kwQYr3CRYeKPJW5q.jpg","year":"2024","result":"HD","language":["Hindi"],"country":["US"],"original_language":"en","genres":["Comedy","Fantasy"],"imdb_id":"tt2396431"},{"id":"1043905","type":"movie","title":"Dirty Angels","poster":"https://image.tmdb.org/t/p/w342/1y3TG8N8zwwMxqh0qzdyDs3IyCq.jpg","year":"2024","result":"HD","language":["Hindi"],"country":["US","BG"],"original_language":"en","genres":["Drama","Thriller","War"],"imdb_id":"tt23872640"},{"id":"1331375","type":"movie","title":"Dominique","poster":"https://image.tmdb.org/t/p/w342/jvug7Esd89yNLJwGvUfeQ9j69cE.jpg","year":"2024","result":"HD","language":["Hindi"],"country":["CO","US"],"original_language":"en","genres":["Action","Thriller"],"imdb_id":"tt14972766"},{"id":"1158915","type":"movie","title":"Dìdi (弟弟)","poster":"https://image.tmdb.org/t/p/w342/3UCTNaZgxW6BbeHMMTe6uL07MpV.jpg","year":"2024","result":"HD","language":["Hindi"],"country":["US"],"original_language":"en","genres":["Comedy","Drama"],"imdb_id":"tt30319503"},{"id":"1108828","type":"movie","title":"Girls Will Be Girls","poster":"https://image.tmdb.org/t/p/w342/psklilaTgyczbHidamDlpFWodb0.jpg","year":"2024","result":"HD","language":["Hindi"],"country":["FR","IN","NO"],"original_language":"hi","genres":["Drama","Romance"],"imdb_id":"tt18277182"},{"id":"974250","type":"movie","title":"Greedy People","poster":"https://image.tmdb.org/t/p/w342/aIUZiciO0nMh8MrhmsTaMWZvEWK.jpg","year":"2024","result":"HD","language":["Hindi"],"country":["US"],"original_language":"en","genres":["Comedy","Mystery","Crime"],"imdb_id":"tt20201748"},{"id":"1171640","type":"movie","title":"GTMAX","poster":"https://image.tmdb.org/t/p/w342/exXm4o4ebjGr7besyFjuRfKDoVf.jpg","year":"2024","result":"HD","language":["Hindi"],"country":["BE","FR"],"original_language":"fr","genres":["Action","Crime"],"imdb_id":"tt29260436"}]}