{"page":56,"total_pages":66,"total_items":3272,"items":[{"id":"90407","type":"tv","title":"At Eighteen","poster":"https://image.tmdb.org/t/p/w342/AbEoQOZO6xnXg52Ehrd8aXchpLF.jpg","year":"2019","result":"HD","language":["Hindi"],"country":["KR"],"original_language":"ko","genres":["Drama","Comedy"],"imdb_id":"tt10474124","latest_uploaded_season":1,"total_uploaded_episodes":16},{"id":"89334","type":"tv","title":"Princess Silver","poster":"https://image.tmdb.org/t/p/w342/nGHIcpN52RhRaW4UAb3jU46JSh3.jpg","year":"2019","result":"HD","language":["Hindi"],"country":["CN"],"original_language":"zh","genres":["Drama","Sci-Fi & Fantasy"],"imdb_id":"tt9537300","latest_uploaded_season":1,"total_uploaded_episodes":58},{"id":"575222","type":"movie","title":"Doraemon: Nobita's Chronicle of the Moon Exploration","poster":"https://image.tmdb.org/t/p/w342/zAZ43208e643rB3pcx8jsLqc6B9.jpg","year":"2019","result":"HD","language":["Hindi"],"country":["JP"],"original_language":"ja","genres":["Animation","Adventure","Comedy","Science Fiction","Fantasy","Family"],"imdb_id":"tt9735672"},{"id":"91827","type":"tv","title":"Mistress","poster":"https://image.tmdb.org/t/p/w342/pUSCs1cEoGsUClxqnH5o0kJw0LZ.jpg","year":"2019","result":"HD","language":["Hindi"],"country":["JP"],"original_language":"ja","genres":["Mystery","Drama"],"imdb_id":"tt10552772","latest_uploaded_season":1,"total_uploaded_episodes":12},{"id":"590350","type":"movie","title":"Pati Patni Aur Woh","poster":"https://image.tmdb.org/t/p/w342/9sAegdBnkfucqhrsocR47zCKcez.jpg","year":"2019","result":"HD","language":["Hindi"],"country":["IN"],"original_language":"hi","genres":["Comedy","Romance"],"imdb_id":"tt9680136"},{"id":"537915","type":"movie","title":"After","poster":"https://image.tmdb.org/t/p/w342/u3B2YKUjWABcxXZ6Nm9h10hLUbh.jpg","year":"2019","result":"HD","language":["Hindi"],"country":["US"],"original_language":"en","genres":["Drama","Romance"],"imdb_id":"tt4126476"},{"id":"530385","type":"movie","title":"Midsommar","poster":"https://image.tmdb.org/t/p/w342/7LEI8ulZzO5gy9Ww2NVCrKmHeDZ.jpg","year":"2019","result":"HD","language":["Hindi"],"country":["SE","US"],"original_language":"en","genres":["Horror","Drama","Mystery"],"imdb_id":"tt8772262"},{"id":"487437","type":"movie","title":"White as Snow","poster":"https://image.tmdb.org/t/p/w342/vOo0cXSb5c5B4SJFRJwXosuYpJV.jpg","year":"2019","result":"HD","language":["Hindi"],"country":["FR","BE"],"original_language":"fr","genres":["Comedy","Drama"],"imdb_id":"tt8054066"},{"id":"95259","type":"tv","title":"Dare Me","poster":"https://image.tmdb.org/t/p/w342/eLmQL6gWgWnhgdv0CxHaVQcnYOX.jpg","year":"2019","result":"HD","language":["Hindi"],"country":["US"],"original_language":"en","genres":["Drama","Mystery","Crime"],"imdb_id":"tt2983222","latest_uploaded_season":1,"total_uploaded_episodes":10},{"id":"616979","type":"movie","title":"Tevar","poster":"https://image.tmdb.org/t/p/w342/kOUwqSMoIHGBvoa1Uo6RwA5EFc8.jpg","year":"2019","result":"HD","language":["Hindi"],"country":["PK"],"original_language":"ur","genres":["Action","Thriller"],"imdb_id":""},{"id":"1424","type":"tv","title":"Orange Is the New Black","poster":"https://image.tmdb.org/t/p/w342/ekaa7YjGPTkFLcPhwWXTnARuCEU.jpg","year":"2019","result":"HD","language":["Hindi"],"country":["US"],"original_language":"en","genres":["Drama","Comedy","Crime"],"imdb_id":"tt2372162","latest_uploaded_season":7,"total_uploaded_episodes":91},{"id":"585747","type":"movie","title":"The Woman Who Keeps a Murderer","poster":"https://image.tmdb.org/t/p/w342/kqR0NFQhMC2VFfBgWxQ6drv4bNk.jpg","year":"2019","result":"HD","language":["Hindi"],"country":["JP"],"original_language":"ja","genres":["Thriller","Horror"],"imdb_id":"tt9844358"},{"id":"461130","type":"movie","title":"Code 8","poster":"https://image.tmdb.org/t/p/w342/izGX7npHEopDQvngYcxMJEfcFbj.jpg","year":"2019","result":"HD","language":["Hindi"],"country":["CA","GB","US"],"original_language":"en","genres":["Science Fiction","Action","Crime"],"imdb_id":"tt6259380"},{"id":"82747","type":"tv","title":"Kung Fu Panda: The Paws of Destiny","poster":"https://image.tmdb.org/t/p/w342/x4yvmIVuXxYKfTlgRtSJnGC1Izs.jpg","year":"2019","result":"HD","language":["Hindi"],"country":["US"],"original_language":"en","genres":["Animation","Kids","Family","Action & Adventure","Comedy"],"imdb_id":"tt8271176","latest_uploaded_season":2,"total_uploaded_episodes":26},{"id":"592545","type":"movie","title":"Athiran","poster":"https://image.tmdb.org/t/p/w342/mpcZ49Z4VH5niZVhiY0rwLJDMS0.jpg","year":"2019","result":"HD","language":["Hindi"],"country":["IN"],"original_language":"ml","genres":["Romance","Thriller"],"imdb_id":"tt9793334"},{"id":"591086","type":"movie","title":"Watchman","poster":"https://image.tmdb.org/t/p/w342/9algOEtuBhdvkmyalaeZglxdacb.jpg","year":"2019","result":"HD","language":["Hindi"],"country":["IN"],"original_language":"ta","genres":["Drama","Action","Thriller"],"imdb_id":"tt9378320"},{"id":"641213","type":"movie","title":"The Dunes","poster":"https://image.tmdb.org/t/p/w342/jRNt7YRAPtYrCnd8eqkIsB6Gppd.jpg","year":"2019","result":"HD","language":["Hindi"],"country":["US"],"original_language":"en","genres":["Thriller","Mystery","Drama"],"imdb_id":"tt4681432"},{"id":"114615","type":"tv","title":"Stranger Kim","poster":"https://image.tmdb.org/t/p/w342/I3X4pVqIZsOkP5yX0XpP7KsNKe.jpg","year":"2019","result":"HD","language":["Hindi"],"country":["KR"],"original_language":"ko","genres":["Mystery","Comedy","Sci-Fi & Fantasy"],"imdb_id":"tt32536456","latest_uploaded_season":1,"total_uploaded_episodes":6},{"id":"682641","type":"movie","title":"Blood Hunters: Rise of the Hybrids","poster":"https://image.tmdb.org/t/p/w342/1wNYtbKO5lMYCZEncqI8fZMtvKp.jpg","year":"2019","result":"HD","language":["Hindi"],"country":["PH"],"original_language":"en","genres":["Action","Fantasy","Horror"],"imdb_id":"tt6754712"},{"id":"657853","type":"movie","title":"Mathu Vadalara","poster":"https://image.tmdb.org/t/p/w342/lo0ALsfiSv5sxNBhCNh35AD1p0x.jpg","year":"2019","result":"HD","language":["Hindi"],"country":["IN"],"original_language":"te","genres":["Crime","Comedy","Thriller"],"imdb_id":"tt11469744"},{"id":"619278","type":"movie","title":"Inside Man: Most Wanted","poster":"https://image.tmdb.org/t/p/w342/zcDZisqVQK9akfKgyrB9HYzYuVh.jpg","year":"2019","result":"HD","language":["Hindi"],"country":["US"],"original_language":"en","genres":["Action","Crime","Thriller"],"imdb_id":"tt7832848"},{"id":"617483","type":"movie","title":"Chal Mera Putt","poster":"https://image.tmdb.org/t/p/w342/i4ckFOOeyvU3EGnxbARsoORWbCT.jpg","year":"2019","result":"HD","language":["Hindi"],"country":["IN"],"original_language":"pa","genres":["Comedy","Drama"],"imdb_id":"tt10623524"},{"id":"616449","type":"movie","title":"Intern Detective","poster":"https://image.tmdb.org/t/p/w342/hxySfPUHtsVO2gEdK27yZGMGtHw.jpg","year":"2019","result":"HD","language":["Hindi"],"country":["KR"],"original_language":"ko","genres":["Action","Crime","Drama"],"imdb_id":"tt26599602"},{"id":"613047","type":"movie","title":"Laiye Je Yaarian","poster":"https://image.tmdb.org/t/p/w342/zXRsiwdffZUZceDeaYRerzI2xqP.jpg","year":"2019","result":"HD","language":["Hindi"],"country":[],"original_language":"pa","genres":[],"imdb_id":"tt10356526"},{"id":"599809","type":"movie","title":"Kuntilanak 2","poster":"https://image.tmdb.org/t/p/w342/jll3ab5w5tLNFfJfgDgzsHr4jfo.jpg","year":"2019","result":"HD","language":["Hindi"],"country":["ID"],"original_language":"id","genres":["Horror"],"imdb_id":"tt10276328"},{"id":"594314","type":"movie","title":"Blood Myth","poster":"https://image.tmdb.org/t/p/w342/9qxxgGeBIuiO9V2LE3x3gSwtjXZ.jpg","year":"2019","result":"HD","language":["Hindi"],"country":["GB"],"original_language":"en","genres":["Horror"],"imdb_id":"tt7158904"},{"id":"584044","type":"movie","title":"The Viking War","poster":"https://image.tmdb.org/t/p/w342/7BEY3dAb6ZVHzND1Ewmw2PTAl76.jpg","year":"2019","result":"HD","language":["Hindi"],"country":["GB"],"original_language":"en","genres":["History","Fantasy","Drama"],"imdb_id":"tt8707008"},{"id":"571627","type":"movie","title":"The Divine Fury","poster":"https://image.tmdb.org/t/p/w342/9Z2qT9iZYLzzsCSYu7A4SEQsKX0.jpg","year":"2019","result":"HD","language":["Hindi"],"country":["KR"],"original_language":"ko","genres":["Action","Horror","Thriller"],"imdb_id":"tt10550884"},{"id":"567609","type":"movie","title":"Ready or Not","poster":"https://image.tmdb.org/t/p/w342/oJD9KQFoObZmxAS1je56SIFVNJt.jpg","year":"2019","result":"HD","language":["Hindi"],"country":["US"],"original_language":"en","genres":["Horror","Comedy"],"imdb_id":"tt7798634"},{"id":"561295","type":"movie","title":"Kadaram Kondan","poster":"https://image.tmdb.org/t/p/w342/n6HGrhMvhq6tYJV4nb2ktNZWXCn.jpg","year":"2019","result":"HD","language":["Hindi"],"country":["IN"],"original_language":"ta","genres":["Action","Thriller"],"imdb_id":"tt9239882"},{"id":"531309","type":"movie","title":"Brightburn","poster":"https://image.tmdb.org/t/p/w342/sJWwkYc9ajwnPRSkqj8Aue5JbKz.jpg","year":"2019","result":"HD","language":["Hindi"],"country":["US"],"original_language":"en","genres":["Horror","Science Fiction"],"imdb_id":"tt7752126"},{"id":"528888","type":"movie","title":"Dolemite Is My Name","poster":"https://image.tmdb.org/t/p/w342/uoAqJg7ZSmftnBGOkupU1ySZQU0.jpg","year":"2019","result":"HD","language":["Hindi"],"country":["US"],"original_language":"en","genres":["Drama","Comedy","History"],"imdb_id":"tt8526872"},{"id":"517909","type":"movie","title":"The Laundromat","poster":"https://image.tmdb.org/t/p/w342/hwNMJgbiUUvPCxsnADjbV9ysM5j.jpg","year":"2019","result":"HD","language":["Hindi"],"country":["US"],"original_language":"en","genres":["Crime","Drama","Comedy"],"imdb_id":"tt5865326"},{"id":"512196","type":"movie","title":"Happy Death Day 2U","poster":"https://image.tmdb.org/t/p/w342/4tdnePOkOOzwuGPEOAHp8UA4vqx.jpg","year":"2019","result":"HD","language":["Hindi"],"country":["US","JP"],"original_language":"en","genres":["Comedy","Horror","Science Fiction"],"imdb_id":"tt8155288"},{"id":"504949","type":"movie","title":"The King","poster":"https://image.tmdb.org/t/p/w342/8u0QBGUbZcBW59VEAdmeFl9g98N.jpg","year":"2019","result":"HD","language":["Hindi"],"country":["AU","US"],"original_language":"en","genres":["Drama","History","War"],"imdb_id":"tt7984766"},{"id":"502416","type":"movie","title":"Ma","poster":"https://image.tmdb.org/t/p/w342/6n7ASmQ1wY2cxTubFFGlcvPpyk7.jpg","year":"2019","result":"HD","language":["Hindi"],"country":["US"],"original_language":"en","genres":["Horror","Thriller"],"imdb_id":"tt7958736"},{"id":"496243","type":"movie","title":"Parasite","poster":"https://image.tmdb.org/t/p/w342/7IiTTgloJzvGI1TAYymCfbfl3vT.jpg","year":"2019","result":"HD","language":["Hindi"],"country":["KR"],"original_language":"ko","genres":["Comedy","Thriller","Drama"],"imdb_id":"tt6751668"},{"id":"474350","type":"movie","title":"It Chapter Two","poster":"https://image.tmdb.org/t/p/w342/zfE0R94v1E8cuKAerbskfD3VfUt.jpg","year":"2019","result":"HD","language":["Hindi"],"country":["US"],"original_language":"en","genres":["Horror","Thriller","Drama"],"imdb_id":"tt7349950"},{"id":"431580","type":"movie","title":"Abominable","poster":"https://image.tmdb.org/t/p/w342/20djTLqppfBx5WYA67Y300S6aPD.jpg","year":"2019","result":"HD","language":["Hindi"],"country":["CN","US"],"original_language":"en","genres":["Family","Animation","Adventure","Comedy","Fantasy"],"imdb_id":"tt6324278"},{"id":"420818","type":"movie","title":"The Lion King","poster":"https://image.tmdb.org/t/p/w342/dzBtMocZuJbjLOXvrl4zGYigDzh.jpg","year":"2019","result":"HD","language":["Hindi"],"country":["US"],"original_language":"en","genres":["Adventure","Drama","Family","Animation"],"imdb_id":"tt6105098"},{"id":"399579","type":"movie","title":"Alita: Battle Angel","poster":"https://image.tmdb.org/t/p/w342/xRWht48C2V8XNfzvPehyClOvDni.jpg","year":"2019","result":"HD","language":["Hindi"],"country":["US"],"original_language":"en","genres":["Action","Science Fiction","Adventure"],"imdb_id":"tt0437086"},{"id":"299537","type":"movie","title":"Captain Marvel","poster":"https://image.tmdb.org/t/p/w342/AtsgWhDnHTq68L0lLsUrCnM7TjG.jpg","year":"2019","result":"HD","language":["Hindi"],"country":["US"],"original_language":"en","genres":["Action","Adventure","Science Fiction"],"imdb_id":"tt4154664"},{"id":"138031","type":"tv","title":"Love as You Taste","poster":"https://image.tmdb.org/t/p/w342/rJtx6qze00ypJCLJpM08QakP4VK.jpg","year":"2019","result":"HD","language":["Hindi"],"country":["KR"],"original_language":"ko","genres":[],"imdb_id":"tt15740698","latest_uploaded_season":1,"total_uploaded_episodes":10},{"id":"99351","type":"tv","title":"Kaale Dhande","poster":"https://image.tmdb.org/t/p/w342/b5ydl4JaKNAVdfswAl1kEBnutkj.jpg","year":"2019","result":"HD","language":["Hindi"],"country":[],"original_language":"hi","genres":["Comedy"],"imdb_id":"tt11192308","latest_uploaded_season":1,"total_uploaded_episodes":2},{"id":"95842","type":"tv","title":"Joy of Life","poster":"https://image.tmdb.org/t/p/w342/7NXlOAFSUPBujmWbnUmqnwNZQhO.jpg","year":"2019","result":"HD","language":["Hindi"],"country":["CN"],"original_language":"zh","genres":["Drama","Comedy"],"imdb_id":"tt11273352","latest_uploaded_season":3,"total_uploaded_episodes":83},{"id":"95686","type":"tv","title":"Love is Fate","poster":"https://image.tmdb.org/t/p/w342/lgNnSY78qkwdsNDuXUJWoiHlDte.jpg","year":"2019","result":"HD","language":["Hindi"],"country":["CN"],"original_language":"zh","genres":["Drama"],"imdb_id":"","latest_uploaded_season":1,"total_uploaded_episodes":48},{"id":"94891","type":"tv","title":"Bhram","poster":"https://image.tmdb.org/t/p/w342/36rrCE1dHxrPP9KBJvzIRV6TrvA.jpg","year":"2019","result":"HD","language":["Hindi"],"country":["IN"],"original_language":"hi","genres":["Mystery"],"imdb_id":"tt10845722","latest_uploaded_season":1,"total_uploaded_episodes":8},{"id":"94615","type":"tv","title":"Catch The Ghost","poster":"https://image.tmdb.org/t/p/w342/7CbhB19d9PlcxAW8YRzKSDBK1RG.jpg","year":"2019","result":"HD","language":["Hindi"],"country":["KR"],"original_language":"ko","genres":["Comedy","Crime","Mystery"],"imdb_id":"tt10712926","latest_uploaded_season":1,"total_uploaded_episodes":16},{"id":"92911","type":"tv","title":"Melting Me Softly","poster":"https://image.tmdb.org/t/p/w342/tci1NuarDuRJqCVKYzsX4FVUL91.jpg","year":"2019","result":"HD","language":["Hindi"],"country":["KR"],"original_language":"ko","genres":["Mystery","Comedy","Sci-Fi & Fantasy"],"imdb_id":"tt10656392","latest_uploaded_season":1,"total_uploaded_episodes":16},{"id":"92732","type":"tv","title":"Flower Crew: Joseon Marriage Agency","poster":"https://image.tmdb.org/t/p/w342/aLGLRySmfI8Us6IFOfziT1cQeJF.jpg","year":"2019","result":"HD","language":["Hindi"],"country":["KR"],"original_language":"ko","genres":["Comedy","Drama"],"imdb_id":"tt10614024","latest_uploaded_season":1,"total_uploaded_episodes":16}]}