{"page":16,"total_pages":66,"total_items":3272,"items":[{"id":"1421019","type":"movie","title":"Devil's Double Next Level","poster":"https://image.tmdb.org/t/p/w342/jS8XroVkuvsdXcCNnWUnaxj9XNX.jpg","year":"2025","result":"HD","language":["Hindi"],"country":["IN"],"original_language":"ta","genres":["Horror","Comedy"],"imdb_id":"tt32864330"},{"id":"1419480","type":"movie","title":"Choran Nal Yarian","poster":"https://image.tmdb.org/t/p/w342/AuXuGn62ND4A2cx2t7iOw3jzzXa.jpg","year":"2025","result":"HD","language":["Hindi"],"country":["IN"],"original_language":"pa","genres":["Comedy"],"imdb_id":"tt35165229"},{"id":"1419390","type":"movie","title":"Vash Level 2","poster":"https://image.tmdb.org/t/p/w342/uTZU5eG5Afs0CLO9DlYVDW5pnfS.jpg","year":"2025","result":"HD","language":["Hindi"],"country":["IN"],"original_language":"gu","genres":["Thriller","Horror"],"imdb_id":"tt35529436"},{"id":"1417941","type":"movie","title":"Haq","poster":"https://image.tmdb.org/t/p/w342/tO7OI5MyzPSiVmlXXnlBKlAJH92.jpg","year":"2025","result":"HD","language":["Hindi"],"country":["IN"],"original_language":"hi","genres":["Drama"],"imdb_id":"tt36642456"},{"id":"1417854","type":"movie","title":"Santhana Prapthirasthu","poster":"https://image.tmdb.org/t/p/w342/o35sT4PsRIQthzcNwgRV5uCJVIW.jpg","year":"2025","result":"HD","language":["Hindi"],"country":["IN"],"original_language":"te","genres":["Comedy","Family","Romance"],"imdb_id":"tt33054635"},{"id":"1417846","type":"movie","title":"Mokshapatam","poster":"https://image.tmdb.org/t/p/w342/lzeUUOythIpam7UAAnNtPM4mRGR.jpg","year":"2025","result":"HD","language":["Hindi"],"country":["IN"],"original_language":"te","genres":["Crime","Thriller"],"imdb_id":"tt35380379"},{"id":"1416633","type":"movie","title":"Sri Sri Sri Raja Vaaru","poster":"https://image.tmdb.org/t/p/w342/aSeadehBiCFKQ3c3jKJpmb8kCDS.jpg","year":"2025","result":"HD","language":["Hindi"],"country":["IN"],"original_language":"te","genres":["Action","Romance"],"imdb_id":"tt28359015"},{"id":"1416527","type":"movie","title":"The Rabbit House","poster":"https://image.tmdb.org/t/p/w342/xjJ2FFIlGikLLaSY6kuEftqvJTj.jpg","year":"2025","result":"HD","language":["Hindi"],"country":[],"original_language":"hi","genres":["Mystery","Drama","Thriller"],"imdb_id":"tt30526436"},{"id":"1416501","type":"movie","title":"DNA","poster":"https://image.tmdb.org/t/p/w342/82eWyEvVP01sV5DvBer9QyNgCh2.jpg","year":"2025","result":"HD","language":["Hindi"],"country":["IN"],"original_language":"ta","genres":["Drama"],"imdb_id":"tt29471661"},{"id":"1415974","type":"movie","title":"Raat Akeli Hai - The Bansal Murders","poster":"https://image.tmdb.org/t/p/w342/nBhae2KNhk0R6cvVppoCo389gs6.jpg","year":"2025","result":"HD","language":["Hindi"],"country":["IN"],"original_language":"hi","genres":["Thriller","Mystery","Crime","Drama"],"imdb_id":"tt37443891"},{"id":"1415275","type":"movie","title":"Jilabi","poster":"https://image.tmdb.org/t/p/w342/2YZw0D3wziRjGDi6s3Pphqak3c0.jpg","year":"2025","result":"HD","language":["Hindi"],"country":["IN"],"original_language":"mr","genres":["Crime","Thriller"],"imdb_id":"tt34773331"},{"id":"1413333","type":"movie","title":"Retta Thala","poster":"https://image.tmdb.org/t/p/w342/zlE1oVtfr7MckzDyEMZkF4WIvGG.jpg","year":"2025","result":"HD","language":["Hindi"],"country":["IN"],"original_language":"ta","genres":["Action","Thriller"],"imdb_id":"tt32012416"},{"id":"1412865","type":"movie","title":"Furlow","poster":"https://image.tmdb.org/t/p/w342/sWFqyadJnAUkm0c9it86Kzh4WQN.jpg","year":"2025","result":"HD","language":["Hindi"],"country":["IN"],"original_language":"pa","genres":["Comedy","Drama"],"imdb_id":"tt35058048"},{"id":"1412646","type":"movie","title":"Kesari Veer","poster":"https://image.tmdb.org/t/p/w342/fRNg31Cz03qsx3EteqHhcQgLcTa.jpg","year":"2025","result":"HD","language":["Hindi"],"country":[],"original_language":"hi","genres":["Action","Drama","History"],"imdb_id":"tt32106176"},{"id":"1411393","type":"movie","title":"Evil of the Rat","poster":"https://image.tmdb.org/t/p/w342/mt6ymKwwMbSxcpDFnkgzPpqDXzn.jpg","year":"2025","result":"HD","language":["Hindi"],"country":["CN"],"original_language":"zh","genres":["Action","Thriller","Fantasy","Horror"],"imdb_id":"tt9561744"},{"id":"1410082","type":"movie","title":"Sniper: The Last Stand","poster":"https://image.tmdb.org/t/p/w342/TVvIyCsFCmLk9MRLbAZi4X8f32.jpg","year":"2025","result":"HD","language":["Hindi"],"country":["US","CA","ZA"],"original_language":"en","genres":["Action","Thriller"],"imdb_id":"tt34910018"},{"id":"1407523","type":"movie","title":"Tu Meri Main Tera Main Tera Tu Meri","poster":"https://image.tmdb.org/t/p/w342/uLO7ByOKZbRmA4r9ONEHWHZ6HIX.jpg","year":"2025","result":"HD","language":["Hindi"],"country":["IN"],"original_language":"hi","genres":["Romance","Comedy"],"imdb_id":"tt35146696"},{"id":"1407437","type":"movie","title":"Andhra King Taluka","poster":"https://image.tmdb.org/t/p/w342/e1lNI9dZKar0JN9iNuDeUhCZcwL.jpg","year":"2025","result":"HD","language":["Hindi"],"country":["IN"],"original_language":"te","genres":["Action","Drama","Romance","Family"],"imdb_id":"tt32553651"},{"id":"1407016","type":"movie","title":"Parandhu Po","poster":"https://image.tmdb.org/t/p/w342/p5nQKLilDQtxAOfoKUL6xFrLLtu.jpg","year":"2025","result":"HD","language":["Hindi"],"country":["IN"],"original_language":"ta","genres":["Music","Comedy","Drama"],"imdb_id":"tt36931506"},{"id":"1404864","type":"movie","title":"Inspector Zende","poster":"https://image.tmdb.org/t/p/w342/dHGtwfVfY502veuMojfAkNbIBO9.jpg","year":"2025","result":"HD","language":["Hindi"],"country":["IN"],"original_language":"hi","genres":["Comedy","Drama","Thriller"],"imdb_id":"tt35076553"},{"id":"1404799","type":"movie","title":"Mirage","poster":"https://image.tmdb.org/t/p/w342/yLkc12tgINrE7KzSpjsFJnG0C6d.jpg","year":"2025","result":"HD","language":["Hindi"],"country":["IN"],"original_language":"ml","genres":["Mystery","Thriller"],"imdb_id":"tt35019435"},{"id":"1404404","type":"movie","title":"Crayon Shin-chan the Movie: Super Hot! The Spicy Kasukabe Dancers","poster":"https://image.tmdb.org/t/p/w342/bxLr3VzoSq0G4CSWUCnZBNS8Eeh.jpg","year":"2025","result":"HD","language":["Hindi"],"country":["JP"],"original_language":"ja","genres":["Animation","Adventure","Comedy"],"imdb_id":"tt35009463"},{"id":"1403839","type":"movie","title":"Bad Girl","poster":"https://image.tmdb.org/t/p/w342/1vCLv1AyDP5aeNCMJqw7RVCLkSp.jpg","year":"2025","result":"HD","language":["Hindi"],"country":["IN"],"original_language":"ta","genres":["Romance","Drama"],"imdb_id":"tt35144943"},{"id":"1403039","type":"movie","title":"Maaman","poster":"https://image.tmdb.org/t/p/w342/a0BsRj9qQu8L2arBAHcbbfrVrB7.jpg","year":"2025","result":"HD","language":["Hindi"],"country":["IN"],"original_language":"ta","genres":["Family","Drama","Action"],"imdb_id":"tt33240591"},{"id":"1401778","type":"movie","title":"Turbulence","poster":"https://image.tmdb.org/t/p/w342/jRuiKL4S9UpLma2ZlM47xIu2gbe.jpg","year":"2025","result":"HD","language":["Hindi"],"country":["US","GB"],"original_language":"en","genres":["Thriller","Action","Adventure","Drama","Fantasy"],"imdb_id":"tt33009027"},{"id":"1401318","type":"movie","title":"A Merry Little Ex-Mas","poster":"https://image.tmdb.org/t/p/w342/w4ytu75uJ1b0AgPd0wLm7iZMsWJ.jpg","year":"2025","result":"HD","language":["Hindi"],"country":["US"],"original_language":"en","genres":["Romance","Comedy"],"imdb_id":"tt34992378"},{"id":"1400782","type":"movie","title":"The Perfect Neighbor","poster":"https://image.tmdb.org/t/p/w342/2NE7yN45zo19o4LJr6JFxDWmh2b.jpg","year":"2025","result":"HD","language":["Hindi"],"country":["US"],"original_language":"en","genres":["Crime","Documentary"],"imdb_id":"tt34962891"},{"id":"1400553","type":"movie","title":"Sweet Dreams","poster":"https://image.tmdb.org/t/p/w342/fMsr2NPNghX76VML7xb1FdRzU1P.jpg","year":"2025","result":"HD","language":["Hindi"],"country":["IN"],"original_language":"hi","genres":["Romance","Drama"],"imdb_id":"tt35433415"},{"id":"1399654","type":"movie","title":"Soothravakyam","poster":"https://image.tmdb.org/t/p/w342/fSjfYWfpphuBfKtvGtpw2sHIWrv.jpg","year":"2025","result":"HD","language":["Hindi"],"country":["IN"],"original_language":"ml","genres":["Mystery","Thriller"],"imdb_id":"tt34335405"},{"id":"1398359","type":"movie","title":"Tourist Family","poster":"https://image.tmdb.org/t/p/w342/rEffPihtdQXiXfRdfq7pPM5JDqa.jpg","year":"2025","result":"HD","language":["Hindi"],"country":["IN"],"original_language":"ta","genres":["Comedy","Drama","Family"],"imdb_id":"tt34915705"},{"id":"1396869","type":"movie","title":"Diés Iraé","poster":"https://image.tmdb.org/t/p/w342/123DlTiiezgLaJruVe7RiSi0RFf.jpg","year":"2025","result":"HD","language":["Hindi"],"country":["IN"],"original_language":"ml","genres":["Horror","Thriller"],"imdb_id":"tt36302733"},{"id":"1395534","type":"movie","title":"Am Ah","poster":"https://image.tmdb.org/t/p/w342/lsaplzFtU6dADWG9Sj2aneh2Ymx.jpg","year":"2025","result":"HD","language":["Hindi"],"country":["IN"],"original_language":"ml","genres":["Drama"],"imdb_id":"tt34852931"},{"id":"1395527","type":"movie","title":"Saale Aashiq","poster":"https://image.tmdb.org/t/p/w342/aZG7N30kkZkJ5MANcX578B1D9tj.jpg","year":"2025","result":"HD","language":["Hindi"],"country":["IN"],"original_language":"hi","genres":["Romance","Drama"],"imdb_id":"tt15464150"},{"id":"1392483","type":"movie","title":"Sarkeet","poster":"https://image.tmdb.org/t/p/w342/yruMwNKwObVwS8vbE3N6hriAdYB.jpg","year":"2025","result":"HD","language":["Hindi"],"country":["IN"],"original_language":"ml","genres":["Family","Drama","Comedy"],"imdb_id":"tt34757142"},{"id":"1391013","type":"movie","title":"Aap Jaisa Koi","poster":"https://image.tmdb.org/t/p/w342/qusjoDePti9etsaq9DgyYSj2Sq8.jpg","year":"2025","result":"HD","language":["Hindi"],"country":["IN"],"original_language":"hi","genres":["Romance","Comedy"],"imdb_id":"tt33888131"},{"id":"1389255","type":"movie","title":"The Stranger in My Home","poster":"https://image.tmdb.org/t/p/w342/8rxFUdvtFwAxbyZfSBKPB2Vaal9.jpg","year":"2025","result":"HD","language":["Hindi"],"country":["US"],"original_language":"en","genres":["Thriller","Drama"],"imdb_id":"tt32147653"},{"id":"1389158","type":"movie","title":"Maa","poster":"https://image.tmdb.org/t/p/w342/kc5n7LJUmvBsVxzAla1ONN8kouP.jpg","year":"2025","result":"HD","language":["Hindi"],"country":["IN"],"original_language":"hi","genres":["Horror"],"imdb_id":"tt30496762"},{"id":"1388808","type":"movie","title":"Into the Deep","poster":"https://image.tmdb.org/t/p/w342/qPvw21Y5pxojLQYDrK4ft5IYLlY.jpg","year":"2025","result":"HD","language":["Hindi"],"country":["US"],"original_language":"en","genres":["Horror","Action","Thriller"],"imdb_id":"tt28637027"},{"id":"1388451","type":"movie","title":"Bhairavam","poster":"https://image.tmdb.org/t/p/w342/dT4zhRKIgRLcoSOWbxsA6vMWLxx.jpg","year":"2025","result":"HD","language":["Hindi"],"country":["IN"],"original_language":"te","genres":["Action","Crime","Thriller"],"imdb_id":"tt34442678"},{"id":"1386801","type":"movie","title":"Logout","poster":"https://image.tmdb.org/t/p/w342/iBM6DqjVbuY5y44d96mb9QVcAqr.jpg","year":"2025","result":"HD","language":["Hindi"],"country":["IN"],"original_language":"hi","genres":["Thriller"],"imdb_id":"tt27721892"},{"id":"1383072","type":"movie","title":"Mahavatar Narsimha","poster":"https://image.tmdb.org/t/p/w342/uGTF87VyfjtwwqRlT2apQg5YnEp.jpg","year":"2025","result":"HD","language":["Hindi"],"country":["IN"],"original_language":"hi","genres":["Animation","Action","Fantasy","Drama"],"imdb_id":"tt34365591"},{"id":"1382160","type":"movie","title":"45","poster":"https://image.tmdb.org/t/p/w342/luDTygZ6uAwaknc2isXZcz8YMvE.jpg","year":"2025","result":"HD","language":["Hindi"],"country":["IN"],"original_language":"kn","genres":["Action"],"imdb_id":"tt27263807"},{"id":"1381405","type":"movie","title":"Mass Jathara","poster":"https://image.tmdb.org/t/p/w342/qvSyQdI2Mlpa5X7dRDBmIi30oHT.jpg","year":"2025","result":"HD","language":["Hindi"],"country":["IN"],"original_language":"te","genres":["Action","Crime","Thriller"],"imdb_id":"tt32135720"},{"id":"1380920","type":"movie","title":"Sankranthiki Vasthunam","poster":"https://image.tmdb.org/t/p/w342/gFa07KuR3tWFI6YFTeGz930zeMo.jpg","year":"2025","result":"HD","language":["Hindi"],"country":["IN"],"original_language":"te","genres":["Action","Comedy"],"imdb_id":"tt31226981"},{"id":"1379963","type":"movie","title":"Tell Me Softly","poster":"https://image.tmdb.org/t/p/w342/6Z37lW0JfLdeFcgH9yaTyg6B9A6.jpg","year":"2025","result":"HD","language":["Hindi"],"country":["ES"],"original_language":"es","genres":["Romance","Drama"],"imdb_id":"tt34434461"},{"id":"1379877","type":"movie","title":"Azaad","poster":"https://image.tmdb.org/t/p/w342/yWFpiJcUJfXRbm3om48kNJ0MU7A.jpg","year":"2025","result":"HD","language":["Hindi"],"country":["IN"],"original_language":"hi","genres":["Drama","Action"],"imdb_id":"tt26439870"},{"id":"1377946","type":"movie","title":"Match Fixing - The Nation At Stake","poster":"https://image.tmdb.org/t/p/w342/szmEGYLFC7caihW0qrOoWgcMn5c.jpg","year":"2025","result":"HD","language":["Hindi"],"country":["IN"],"original_language":"hi","genres":["Drama"],"imdb_id":"tt34038181"},{"id":"1376870","type":"movie","title":"Humans in the Loop","poster":"https://image.tmdb.org/t/p/w342/1RzvbwKwkNy5yzA48MGEbh21007.jpg","year":"2025","result":"HD","language":["Hindi"],"country":["IN"],"original_language":"hi","genres":["Drama"],"imdb_id":"tt33581992"},{"id":"1372588","type":"movie","title":"Akhanda 2: Thaandavam","poster":"https://image.tmdb.org/t/p/w342/jo9efbQSGDZNQ6xMocyD1prFjdF.jpg","year":"2025","result":"HD","language":["Hindi"],"country":["IN"],"original_language":"te","genres":["Action","Drama"],"imdb_id":"tt15387182"},{"id":"1371189","type":"movie","title":"Ruth & Boaz","poster":"https://image.tmdb.org/t/p/w342/mtMJEIHjeHcLtvP0tFPAptk1Var.jpg","year":"2025","result":"HD","language":["Hindi"],"country":["US"],"original_language":"en","genres":["Romance","Drama","Music"],"imdb_id":"tt32306048"}]}