{"page":54,"total_pages":66,"total_items":3272,"items":[{"id":"66788","type":"tv","title":"13 Reasons Why","poster":"https://image.tmdb.org/t/p/w342/nel144y4dIOdFFid6twN5mAX9Yd.jpg","year":"2020","result":"HD","language":["Hindi"],"country":["US"],"original_language":"en","genres":["Drama","Mystery"],"imdb_id":"tt1837492","latest_uploaded_season":4,"total_uploaded_episodes":49},{"id":"1429","type":"tv","title":"Attack on Titan","poster":"https://image.tmdb.org/t/p/w342/hTP1DtLGFamjfu8WqjnuQdP1n4i.jpg","year":"2020","result":"HD","language":["Hindi"],"country":["JP"],"original_language":"ja","genres":["Animation","Sci-Fi & Fantasy","Action & Adventure"],"imdb_id":"tt2560140","latest_uploaded_season":4,"total_uploaded_episodes":87},{"id":"70523","type":"tv","title":"Dark","poster":"https://image.tmdb.org/t/p/w342/7CFCzWIZZcnxHke3yAQiGPWXHwF.jpg","year":"2020","result":"HD","language":["Hindi"],"country":["DE"],"original_language":"de","genres":["Crime","Drama","Sci-Fi & Fantasy","Mystery"],"imdb_id":"tt5753856","latest_uploaded_season":3,"total_uploaded_episodes":26},{"id":"91643","type":"tv","title":"Girls' Frontline","poster":"https://image.tmdb.org/t/p/w342/hG7qq8ed3c3CdbybiFRU97O6l5u.jpg","year":"2020","result":"HD","language":["Hindi"],"country":["CN"],"original_language":"zh","genres":["Animation","Comedy","Action & Adventure","Sci-Fi & Fantasy"],"imdb_id":"","latest_uploaded_season":3,"total_uploaded_episodes":36},{"id":"60863","type":"tv","title":"Haikyu!!","poster":"https://image.tmdb.org/t/p/w342/rBXEmHQaYoIAyOWRpu8v3cBGKcT.jpg","year":"2020","result":"HD","language":["Hindi"],"country":["JP"],"original_language":"ja","genres":["Animation","Comedy","Drama"],"imdb_id":"tt3398540","latest_uploaded_season":4,"total_uploaded_episodes":85},{"id":"70593","type":"tv","title":"Kingdom","poster":"https://image.tmdb.org/t/p/w342/AsICtiVtz4icMQQRwDvOzfaTzjK.jpg","year":"2020","result":"HD","language":["Hindi"],"country":["KR"],"original_language":"ko","genres":["Drama","Mystery"],"imdb_id":"tt6611916","latest_uploaded_season":2,"total_uploaded_episodes":12},{"id":"85273","type":"tv","title":"NOS4A2","poster":"https://image.tmdb.org/t/p/w342/gnosVTTRTCqooJuipwU6C0bgOGf.jpg","year":"2020","result":"HD","language":["Hindi"],"country":["US"],"original_language":"en","genres":["Sci-Fi & Fantasy","Drama"],"imdb_id":"tt5194792","latest_uploaded_season":2,"total_uploaded_episodes":20},{"id":"48866","type":"tv","title":"The 100","poster":"https://image.tmdb.org/t/p/w342/wcaDIAG1QdXQLRaj4vC1EFdBT2.jpg","year":"2020","result":"HD","language":["Hindi"],"country":["US"],"original_language":"en","genres":["Sci-Fi & Fantasy","Action & Adventure","Drama","Crime"],"imdb_id":"tt2661044","latest_uploaded_season":7,"total_uploaded_episodes":100},{"id":"100875","type":"tv","title":"Forget You Remember Love","poster":"https://image.tmdb.org/t/p/w342/xyGCFmaJhaZ0ZTGHqmXtihSSRsQ.jpg","year":"2020","result":"HD","language":["Hindi"],"country":["CN"],"original_language":"zh","genres":["Drama"],"imdb_id":"tt5678346","latest_uploaded_season":1,"total_uploaded_episodes":38},{"id":"110573","type":"tv","title":"Love in Time","poster":"https://image.tmdb.org/t/p/w342/76zeQjYfAVXJyEcburN9H4xK0aM.jpg","year":"2020","result":"HD","language":["Hindi"],"country":["CN"],"original_language":"zh","genres":["Comedy","Drama"],"imdb_id":"tt13105700","latest_uploaded_season":1,"total_uploaded_episodes":24},{"id":"108261","type":"tv","title":"Mr. Queen","poster":"https://image.tmdb.org/t/p/w342/ozuyMnOO5pekDklyPpUL1Htkuzy.jpg","year":"2020","result":"HD","language":["Hindi"],"country":["KR"],"original_language":"ko","genres":["Drama","Comedy","Sci-Fi & Fantasy"],"imdb_id":"tt13400006","latest_uploaded_season":1,"total_uploaded_episodes":20},{"id":"103809","type":"tv","title":"My Dear Lady","poster":"https://image.tmdb.org/t/p/w342/fupcFl4ElSFwwFBTf5CqNOn7EVy.jpg","year":"2020","result":"HD","language":["Hindi"],"country":["CN"],"original_language":"zh","genres":["Drama"],"imdb_id":"tt12357102","latest_uploaded_season":1,"total_uploaded_episodes":16},{"id":"108284","type":"tv","title":"Tale of the Nine Tailed","poster":"https://image.tmdb.org/t/p/w342/jXx9vLO9bwKxl81oVQnzEH7960V.jpg","year":"2020","result":"HD","language":["Hindi"],"country":["KR"],"original_language":"ko","genres":["Sci-Fi & Fantasy","Drama","Comedy","Mystery"],"imdb_id":"tt12879418","latest_uploaded_season":1,"total_uploaded_episodes":16},{"id":"109866","type":"tv","title":"Dating in the Kitchen","poster":"https://image.tmdb.org/t/p/w342/8hBqMTAAFkOjg2UJEWce70fKKj.jpg","year":"2020","result":"HD","language":["Hindi"],"country":["CN"],"original_language":"zh","genres":["Drama"],"imdb_id":"tt13085996","latest_uploaded_season":1,"total_uploaded_episodes":24},{"id":"111724","type":"tv","title":"Live On","poster":"https://image.tmdb.org/t/p/w342/dop9lujlpXaIGZImoTgUteHXt7a.jpg","year":"2020","result":"HD","language":["Hindi"],"country":["KR"],"original_language":"ko","genres":["Drama","Comedy"],"imdb_id":"tt13273946","latest_uploaded_season":1,"total_uploaded_episodes":8},{"id":"104798","type":"tv","title":"Lost Romance","poster":"https://image.tmdb.org/t/p/w342/oQSJy0R2qwMuQqX2MK1Uwoy3P0p.jpg","year":"2020","result":"HD","language":["Hindi"],"country":["TW"],"original_language":"zh","genres":["Drama","Comedy","Sci-Fi & Fantasy"],"imdb_id":"tt12495978","latest_uploaded_season":1,"total_uploaded_episodes":31},{"id":"118132","type":"tv","title":"Mister Flower","poster":"https://image.tmdb.org/t/p/w342/pe0pebP9dNmIawHAubhl0uNvEM0.jpg","year":"2020","result":"HD","language":["Hindi"],"country":["SG"],"original_language":"zh","genres":[],"imdb_id":"","latest_uploaded_season":1,"total_uploaded_episodes":20},{"id":"112568","type":"tv","title":"Please Don't Date Him","poster":"https://image.tmdb.org/t/p/w342/sP0ioyDyG1U5P2Bs2ZTc7FNlUIp.jpg","year":"2020","result":"HD","language":["Hindi"],"country":["KR"],"original_language":"ko","genres":["Comedy","Drama","Sci-Fi & Fantasy"],"imdb_id":"tt13394428","latest_uploaded_season":1,"total_uploaded_episodes":10},{"id":"99493","type":"tv","title":"Sweet Munchies","poster":"https://image.tmdb.org/t/p/w342/nPVxUVnGf6jTqoHik14YreBDPQj.jpg","year":"2020","result":"HD","language":["Hindi"],"country":["KR"],"original_language":"ko","genres":["Drama","Comedy"],"imdb_id":"tt12401208","latest_uploaded_season":1,"total_uploaded_episodes":12},{"id":"104431","type":"tv","title":"You Are My Destiny","poster":"https://image.tmdb.org/t/p/w342/a6wdKoGISGiTLkvaCXr2ujGkFJ3.jpg","year":"2020","result":"HD","language":["Hindi"],"country":["CN"],"original_language":"zh","genres":["Drama","Comedy"],"imdb_id":"tt12357958","latest_uploaded_season":1,"total_uploaded_episodes":36},{"id":"106697","type":"tv","title":"Lonely Enough to Love!","poster":"https://image.tmdb.org/t/p/w342/6qhKb5e9olZJ5XilDBkOdZpGXKq.jpg","year":"2020","result":"HD","language":["Hindi"],"country":["KR"],"original_language":"ko","genres":["Drama","Comedy"],"imdb_id":"","latest_uploaded_season":1,"total_uploaded_episodes":20},{"id":"101472","type":"tv","title":"Girlfriend","poster":"https://image.tmdb.org/t/p/w342/9WmZtqgS2uhTbD3HvgkA8Xetl7V.jpg","year":"2020","result":"HD","language":["Hindi"],"country":["CN"],"original_language":"zh","genres":["Drama","Family","Comedy"],"imdb_id":"tt12193174","latest_uploaded_season":1,"total_uploaded_episodes":36},{"id":"103596","type":"tv","title":"Leap Day","poster":"https://image.tmdb.org/t/p/w342/cLSLAtcFMLceRG7VkueNic6Csrn.jpg","year":"2020","result":"HD","language":["Hindi"],"country":["HK"],"original_language":"cn","genres":["Drama","Comedy","Sci-Fi & Fantasy"],"imdb_id":"tt15964514","latest_uploaded_season":1,"total_uploaded_episodes":10},{"id":"99112","type":"tv","title":"A Piece of Your Mind","poster":"https://image.tmdb.org/t/p/w342/u25Bd08J1kdsLXdHymXkFJsseV7.jpg","year":"2020","result":"HD","language":["Hindi"],"country":["KR"],"original_language":"ko","genres":["Drama"],"imdb_id":"tt11505790","latest_uploaded_season":1,"total_uploaded_episodes":12},{"id":"70626","type":"tv","title":"Stranger","poster":"https://image.tmdb.org/t/p/w342/blbbtx7DyvZ3JTGyc9MCArDL79b.jpg","year":"2020","result":"HD","language":["Hindi"],"country":["KR"],"original_language":"ko","genres":["Crime","Drama","Mystery"],"imdb_id":"tt6461346","latest_uploaded_season":2,"total_uploaded_episodes":32},{"id":"110839","type":"tv","title":"Sweet First Love","poster":"https://image.tmdb.org/t/p/w342/g5DcbMk9Tdcqb4XMB5HZdd0kINo.jpg","year":"2020","result":"HD","language":["Hindi"],"country":["CN"],"original_language":"zh","genres":["Drama","Comedy"],"imdb_id":"tt13181770","latest_uploaded_season":1,"total_uploaded_episodes":24},{"id":"103635","type":"tv","title":"The Romance of Tiger and Rose","poster":"https://image.tmdb.org/t/p/w342/mCsidkxf6ji8e71T07dYff3FjCF.jpg","year":"2020","result":"HD","language":["Hindi"],"country":["CN"],"original_language":"zh","genres":["Comedy","Drama"],"imdb_id":"tt12299432","latest_uploaded_season":1,"total_uploaded_episodes":24},{"id":"73031","type":"tv","title":"Tientsin Mystic","poster":"https://image.tmdb.org/t/p/w342/vsJVbT7uc08lGJ5iA7nJpH0H3kE.jpg","year":"2020","result":"HD","language":["Hindi"],"country":["CN"],"original_language":"zh","genres":["Drama","Action & Adventure","Mystery","Sci-Fi & Fantasy"],"imdb_id":"tt7431768","latest_uploaded_season":2,"total_uploaded_episodes":48},{"id":"642889","type":"movie","title":"Psycho","poster":"https://image.tmdb.org/t/p/w342/cTHrUUSqTNc1nyBzVGD4SbpqaIe.jpg","year":"2020","result":"HD","language":["Hindi"],"country":["IN"],"original_language":"ta","genres":["Thriller","Drama"],"imdb_id":"tt9109976"},{"id":"693900","type":"movie","title":"Bodyguard","poster":"https://image.tmdb.org/t/p/w342/rghVxKlNdHgY7r3aDVt3BR6rz5o.jpg","year":"2020","result":"HD","language":["Hindi"],"country":["KR"],"original_language":"ko","genres":["Action","Drama","Crime"],"imdb_id":"tt21362766"},{"id":"104646","type":"tv","title":"Pati Patni Aur Woh","poster":"https://image.tmdb.org/t/p/w342/pcMTwb9b8ZkdU2MvVRFNM89pSKq.jpg","year":"2020","result":"HD","language":["Hindi"],"country":["IN"],"original_language":"hi","genres":["Comedy","Drama"],"imdb_id":"tt12482544","latest_uploaded_season":1,"total_uploaded_episodes":10},{"id":"728754","type":"movie","title":"Stand by Me Doraemon 2","poster":"https://image.tmdb.org/t/p/w342/vBv8iOFPLnXmtELUjcFc7OKHsR4.jpg","year":"2020","result":"HD","language":["Hindi"],"country":["JP"],"original_language":"ja","genres":["Animation","Adventure","Comedy","Science Fiction","Drama","Family","Fantasy"],"imdb_id":"tt13428402"},{"id":"97488","type":"tv","title":"The Cursed","poster":"https://image.tmdb.org/t/p/w342/7ZkWOHIdSDskDhlVthEuX60vWK.jpg","year":"2020","result":"HD","language":["Hindi"],"country":["KR"],"original_language":"ko","genres":["Drama","Mystery","Sci-Fi & Fantasy"],"imdb_id":"tt11841276","latest_uploaded_season":1,"total_uploaded_episodes":12},{"id":"549514","type":"movie","title":"Fatale","poster":"https://image.tmdb.org/t/p/w342/tGFXEyESXIuei5tZWXRkSRSFSxi.jpg","year":"2020","result":"HD","language":["Hindi"],"country":["US"],"original_language":"en","genres":["Drama","Thriller"],"imdb_id":"tt8829830"},{"id":"733049","type":"movie","title":"The Pizzagate Massacre","poster":"https://image.tmdb.org/t/p/w342/4MRYyz3CAzXsuUNDgt6L04GxP8H.jpg","year":"2020","result":"HD","language":["Hindi"],"country":["US"],"original_language":"en","genres":["Comedy","Action","Crime","Horror"],"imdb_id":"tt10725448"},{"id":"87050","type":"tv","title":"Hollywood","poster":"https://image.tmdb.org/t/p/w342/8AvVBcuCpESqdQicuX7s4WOGo1V.jpg","year":"2020","result":"HD","language":["Hindi"],"country":["US"],"original_language":"en","genres":["Drama"],"imdb_id":"tt9827854","latest_uploaded_season":1,"total_uploaded_episodes":7},{"id":"90265","type":"tv","title":"White Lines","poster":"https://image.tmdb.org/t/p/w342/3O1lB4ZhTMZ0Q3VsU7SHtFBDYI1.jpg","year":"2020","result":"HD","language":["Hindi"],"country":["GB"],"original_language":"en","genres":["Drama","Crime","Mystery"],"imdb_id":"tt9073958","latest_uploaded_season":1,"total_uploaded_episodes":10},{"id":"664413","type":"movie","title":"365 Days","poster":"https://image.tmdb.org/t/p/w342/6KwrHucIE3CvNT7kTm2MAlZ4fYF.jpg","year":"2020","result":"HD","language":["Hindi"],"country":["PL"],"original_language":"pl","genres":["Romance","Drama"],"imdb_id":"tt10886166"},{"id":"737586","type":"movie","title":"The Trees Have Eyes","poster":"https://image.tmdb.org/t/p/w342/oPNUbDbRXUbYDQU4hfQNSWkhp3T.jpg","year":"2020","result":"HD","language":["Hindi"],"country":[],"original_language":"en","genres":["Horror"],"imdb_id":"tt2990352"},{"id":"730428","type":"movie","title":"Class of '83","poster":"https://image.tmdb.org/t/p/w342/exlQEMxbolmsCE4D5Ky6u4onnvC.jpg","year":"2020","result":"HD","language":["Hindi"],"country":["IN"],"original_language":"hi","genres":["Action","Crime","Drama"],"imdb_id":"tt10230422"},{"id":"607313","type":"movie","title":"Sarileru Neekevvaru","poster":"https://image.tmdb.org/t/p/w342/66MSawKC7nkqjD1BMlQHXl6y3C.jpg","year":"2020","result":"HD","language":["Hindi"],"country":["IN"],"original_language":"te","genres":["Action"],"imdb_id":"tt10773090"},{"id":"613022","type":"movie","title":"Walter","poster":"https://image.tmdb.org/t/p/w342/9sbshZnFkQrJ9QfFZA1rjnPm2hE.jpg","year":"2020","result":"HD","language":["Hindi"],"country":["IN"],"original_language":"ta","genres":["Action","Thriller","Crime","Drama"],"imdb_id":"tt10300704"},{"id":"117058","type":"tv","title":"7 Days of Romance","poster":"https://image.tmdb.org/t/p/w342/b1zh3YzVTHKLj5iCmUMR5jA1WWg.jpg","year":"2020","result":"HD","language":["Hindi"],"country":["KR"],"original_language":"ko","genres":["Drama"],"imdb_id":"","latest_uploaded_season":2,"total_uploaded_episodes":20},{"id":"790227","type":"movie","title":"Ghost Light","poster":"https://image.tmdb.org/t/p/w342/75UGZrcUCMA1gQAmReapEd73vbz.jpg","year":"2020","result":"HD","language":["Hindi"],"country":["US"],"original_language":"en","genres":["Thriller","Horror"],"imdb_id":"tt10969668"},{"id":"766054","type":"movie","title":"Buoyancy","poster":"https://image.tmdb.org/t/p/w342/oFjdP2L9i9RtcytwChPQOCnIaQs.jpg","year":"2020","result":"HD","language":["Hindi"],"country":["NL"],"original_language":"en","genres":["Thriller"],"imdb_id":"tt8424638"},{"id":"750377","type":"movie","title":"For The New Emperor","poster":"https://image.tmdb.org/t/p/w342/iUQYA0yhRe3k9WGzZxkohAdAPPL.jpg","year":"2020","result":"HD","language":["Hindi"],"country":["KR"],"original_language":"ko","genres":["Action"],"imdb_id":""},{"id":"746817","type":"movie","title":"The Call","poster":"https://image.tmdb.org/t/p/w342/iKmykghTmvQj6zum79TsdUL5mPF.jpg","year":"2020","result":"HD","language":["Hindi"],"country":["CA","US"],"original_language":"en","genres":["Horror","Thriller"],"imdb_id":"tt12971924"},{"id":"745275","type":"movie","title":"Ka/Pae. Ranasingam","poster":"https://image.tmdb.org/t/p/w342/gvNft4f5eXidHf7kTlJv8aP1cHI.jpg","year":"2020","result":"HD","language":["Hindi"],"country":["IN"],"original_language":"ta","genres":["Drama"],"imdb_id":"tt11731768"},{"id":"728552","type":"movie","title":"Side Effect","poster":"https://image.tmdb.org/t/p/w342/6pEnKpR7B08zDctLfpRdFT8hoe6.jpg","year":"2020","result":"HD","language":["Hindi"],"country":["RU"],"original_language":"ru","genres":["Horror","Thriller"],"imdb_id":"tt13616444"},{"id":"682153","type":"movie","title":"Doraemon: Nobita's New Dinosaur","poster":"https://image.tmdb.org/t/p/w342/wxCZmXRJa8hSv1Tpih8TBSR4o6b.jpg","year":"2020","result":"HD","language":["Hindi"],"country":["JP"],"original_language":"ja","genres":["Animation","Adventure","Family","Fantasy","Science Fiction","Comedy"],"imdb_id":"tt10588750"}]}