{"page":50,"total_pages":66,"total_items":3272,"items":[{"id":"132117","type":"tv","title":"Farzi","poster":"https://image.tmdb.org/t/p/w342/cTS86RwEBIDgCgUmjWQTSoPsK6p.jpg","year":"2023","result":"HD","language":["Hindi"],"country":["IN"],"original_language":"hi","genres":["Drama","Crime"],"imdb_id":"tt15477488","latest_uploaded_season":1,"total_uploaded_episodes":8},{"id":"131305","type":"tv","title":"Celebrity","poster":"https://image.tmdb.org/t/p/w342/bYhzribGfkw6eeKkicJHx7U3Bwy.jpg","year":"2023","result":"HD","language":["Hindi"],"country":["KR"],"original_language":"ko","genres":["Drama","Mystery"],"imdb_id":"tt26315488","latest_uploaded_season":1,"total_uploaded_episodes":12},{"id":"95558","type":"tv","title":"The Power","poster":"https://image.tmdb.org/t/p/w342/pTeb4EsTy3hoVFpg9FnLIF3glZ5.jpg","year":"2023","result":"HD","language":["Hindi"],"country":["US"],"original_language":"en","genres":["Sci-Fi & Fantasy","Mystery","Drama"],"imdb_id":"tt10369484","latest_uploaded_season":1,"total_uploaded_episodes":9},{"id":"60059","type":"tv","title":"Better Call Saul","poster":"https://image.tmdb.org/t/p/w342/zjg4jpK1Wp2kiRvtt5ND0kznako.jpg","year":"2022","result":"HD","language":["Hindi"],"country":["US"],"original_language":"en","genres":["Crime","Drama"],"imdb_id":"tt3032476","latest_uploaded_season":6,"total_uploaded_episodes":63},{"id":"90293","type":"tv","title":"Ghost in the Shell: SAC_2045","poster":"https://image.tmdb.org/t/p/w342/tPK8BER0Pyq68IGKHrTemGlxBV4.jpg","year":"2022","result":"HD","language":["Hindi"],"country":["JP"],"original_language":"ja","genres":["Animation","Drama","Action & Adventure","Sci-Fi & Fantasy"],"imdb_id":"tt9466298","latest_uploaded_season":2,"total_uploaded_episodes":24},{"id":"289892","type":"tv","title":"Helluva Boss","poster":"https://image.tmdb.org/t/p/w342/dgtuBsG2F4cGiumtHBKDru7PW9j.jpg","year":"2022","result":"HD","language":["Hindi"],"country":["US"],"original_language":"en","genres":["Animation","Comedy","Drama","Sci-Fi & Fantasy"],"imdb_id":"tt10691770","latest_uploaded_season":2,"total_uploaded_episodes":20},{"id":"83121","type":"tv","title":"Kaguya-sama: Love Is War","poster":"https://image.tmdb.org/t/p/w342/5khbC6AuNgnvnoDbjIMKCOhEtIc.jpg","year":"2022","result":"HD","language":["Hindi"],"country":["JP"],"original_language":"ja","genres":["Comedy","Animation"],"imdb_id":"tt9522300","latest_uploaded_season":3,"total_uploaded_episodes":37},{"id":"64196","type":"tv","title":"Overlord","poster":"https://image.tmdb.org/t/p/w342/K8ZUjxaj9F0t3AwJDz8ypzBynM.jpg","year":"2022","result":"HD","language":["Hindi"],"country":["JP"],"original_language":"ja","genres":["Animation","Sci-Fi & Fantasy","Action & Adventure"],"imdb_id":"tt4869896","latest_uploaded_season":4,"total_uploaded_episodes":52},{"id":"69740","type":"tv","title":"Ozark","poster":"https://image.tmdb.org/t/p/w342/pCGyPVrI9Fzw6rE1Pvi4BIXF6ET.jpg","year":"2022","result":"HD","language":["Hindi"],"country":["US"],"original_language":"en","genres":["Crime","Drama"],"imdb_id":"tt5071412","latest_uploaded_season":4,"total_uploaded_episodes":44},{"id":"96481","type":"tv","title":"Rise of Empires: Ottoman","poster":"https://image.tmdb.org/t/p/w342/nkvdPFYo7o2IQWooJvA9UE0nvAp.jpg","year":"2022","result":"HD","language":["Hindi"],"country":["US"],"original_language":"en","genres":["Documentary","War & Politics","Action & Adventure"],"imdb_id":"tt9244578","latest_uploaded_season":2,"total_uploaded_episodes":12},{"id":"75450","type":"tv","title":"Titans","poster":"https://image.tmdb.org/t/p/w342/8e6QiSexmYKaiHGPvbhaFMmQEhc.jpg","year":"2022","result":"HD","language":["Hindi"],"country":["US"],"original_language":"en","genres":["Drama","Action & Adventure","Sci-Fi & Fantasy"],"imdb_id":"tt1043813","latest_uploaded_season":4,"total_uploaded_episodes":49},{"id":"204254","type":"tv","title":"Love The Way You Are","poster":"https://image.tmdb.org/t/p/w342/1WWAvAHc0ZS0XyHQ7vIoowi3TnG.jpg","year":"2022","result":"HD","language":["Hindi"],"country":["CN"],"original_language":"zh","genres":["Drama"],"imdb_id":"","latest_uploaded_season":1,"total_uploaded_episodes":30},{"id":"214697","type":"tv","title":"Summer Wind","poster":"https://image.tmdb.org/t/p/w342/f8So8pffkCLBRQOdWnvtdK047lg.jpg","year":"2022","result":"HD","language":["Hindi"],"country":["CN"],"original_language":"zh","genres":["Drama"],"imdb_id":"","latest_uploaded_season":1,"total_uploaded_episodes":24},{"id":"136973","type":"tv","title":"The Blue Whisper","poster":"https://image.tmdb.org/t/p/w342/4i3wHI8Gk0Pvvg7UHYPlNS4CSk8.jpg","year":"2022","result":"HD","language":["Hindi"],"country":["CN"],"original_language":"zh","genres":["Drama"],"imdb_id":"tt20602820","latest_uploaded_season":2,"total_uploaded_episodes":42},{"id":"196193","type":"tv","title":"A Robot in the Orange Orchard","poster":"https://image.tmdb.org/t/p/w342/xYezzlasiiwnXR5fgYvDiEgt0b1.jpg","year":"2022","result":"HD","language":["Hindi"],"country":["CN"],"original_language":"zh","genres":["Drama","Comedy","Sci-Fi & Fantasy"],"imdb_id":"tt20204508","latest_uploaded_season":1,"total_uploaded_episodes":30},{"id":"135185","type":"tv","title":"A Romance of the Little Forest","poster":"https://image.tmdb.org/t/p/w342/hXvHtFUV8Nk21RtBQKyi9yk3Qe1.jpg","year":"2022","result":"HD","language":["Hindi"],"country":["CN"],"original_language":"zh","genres":["Comedy","Drama"],"imdb_id":"tt22096832","latest_uploaded_season":1,"total_uploaded_episodes":35},{"id":"214605","type":"tv","title":"Fairy From the Painting","poster":"https://image.tmdb.org/t/p/w342/7N4kRCwfcbjExPKaSW2uhEFWcPi.jpg","year":"2022","result":"HD","language":["Hindi"],"country":["CN"],"original_language":"zh","genres":["Drama","Comedy"],"imdb_id":"","latest_uploaded_season":1,"total_uploaded_episodes":24},{"id":"155300","type":"tv","title":"My Eyes Are Full of You","poster":"https://image.tmdb.org/t/p/w342/1MJZApJJSxoAMNDVzqhErZsKRww.jpg","year":"2022","result":"HD","language":["Hindi"],"country":["CN"],"original_language":"zh","genres":["Comedy","Drama"],"imdb_id":"tt18306798","latest_uploaded_season":1,"total_uploaded_episodes":24},{"id":"206416","type":"tv","title":"Out with a Bang","poster":"https://image.tmdb.org/t/p/w342/vg6pzk1rMeIOJ0lMtHKASEuhxRt.jpg","year":"2022","result":"HD","language":["Hindi"],"country":["CN"],"original_language":"zh","genres":["Drama"],"imdb_id":"tt21617090","latest_uploaded_season":1,"total_uploaded_episodes":24},{"id":"213351","type":"tv","title":"Since I Met U","poster":"https://image.tmdb.org/t/p/w342/j4NLsR6tVCnDyuzKdW91PnfcvQc.jpg","year":"2022","result":"HD","language":["Hindi"],"country":["CN"],"original_language":"zh","genres":["Comedy","Family","Drama"],"imdb_id":"","latest_uploaded_season":1,"total_uploaded_episodes":16},{"id":"211332","type":"tv","title":"Smile to Life","poster":"https://image.tmdb.org/t/p/w342/v068TuyCFAcX6ogN7OGSvba36eb.jpg","year":"2022","result":"HD","language":["Hindi"],"country":["CN"],"original_language":"zh","genres":["Drama"],"imdb_id":"","latest_uploaded_season":1,"total_uploaded_episodes":24},{"id":"95721","type":"tv","title":"Thank You Doctor","poster":"https://image.tmdb.org/t/p/w342/bdjWCS0G08A8jznrv2I8GHz42iQ.jpg","year":"2022","result":"HD","language":["Hindi"],"country":["CN"],"original_language":"zh","genres":["Drama"],"imdb_id":"tt11298622","latest_uploaded_season":1,"total_uploaded_episodes":40},{"id":"205827","type":"tv","title":"I SWIM","poster":"https://image.tmdb.org/t/p/w342/20RGE22EOD6IGhBRwWqqQ2ANJby.jpg","year":"2022","result":"HD","language":["Hindi"],"country":["HK"],"original_language":"cn","genres":["Drama","Comedy"],"imdb_id":"tt16243234","latest_uploaded_season":1,"total_uploaded_episodes":10},{"id":"92779","type":"tv","title":"My Girlfriend is an Alien","poster":"https://image.tmdb.org/t/p/w342/sOtUZ34xeQiEZh6n0tC8vkaTNQF.jpg","year":"2022","result":"HD","language":["Hindi"],"country":["CN"],"original_language":"zh","genres":["Comedy","Sci-Fi & Fantasy","Drama"],"imdb_id":"tt10874298","latest_uploaded_season":2,"total_uploaded_episodes":58},{"id":"214656","type":"tv","title":"Rope a Dope","poster":"https://image.tmdb.org/t/p/w342/48yZCDVUb6zgNADYCbxY0tZDmm5.jpg","year":"2022","result":"HD","language":["Hindi"],"country":["HK"],"original_language":"cn","genres":["Drama"],"imdb_id":"tt29082077","latest_uploaded_season":1,"total_uploaded_episodes":15},{"id":"155459","type":"tv","title":"Unlock My Boss","poster":"https://image.tmdb.org/t/p/w342/8SmsIBU2v4AWNNhFi5qfSUOT4ZN.jpg","year":"2022","result":"HD","language":["Hindi"],"country":["KR"],"original_language":"ko","genres":["Comedy","Drama"],"imdb_id":"tt24082562","latest_uploaded_season":1,"total_uploaded_episodes":12},{"id":"213213","type":"tv","title":"We Got Game","poster":"https://image.tmdb.org/t/p/w342/vfTUUZjQxxhAUGIJW5i5zEP3KmZ.jpg","year":"2022","result":"HD","language":["Hindi"],"country":["HK"],"original_language":"cn","genres":["Drama"],"imdb_id":"tt29387995","latest_uploaded_season":1,"total_uploaded_episodes":15},{"id":"889114","type":"movie","title":"Bhala Thandanana","poster":"https://image.tmdb.org/t/p/w342/egOh0HyQByqfwa1FM6qCZtCwkpZ.jpg","year":"2022","result":"HD","language":["Hindi"],"country":["IN"],"original_language":"te","genres":["Drama","Action"],"imdb_id":"tt14209750"},{"id":"520023","type":"movie","title":"Bodies Bodies Bodies","poster":"https://image.tmdb.org/t/p/w342/hSuTjDmqRdy7Dii8ymnF2WILTeP.jpg","year":"2022","result":"HD","language":["Hindi"],"country":["US","FR"],"original_language":"en","genres":["Horror","Comedy","Mystery","Thriller"],"imdb_id":"tt8110652"},{"id":"960704","type":"movie","title":"Fullmetal Alchemist: The Final Alchemy","poster":"https://image.tmdb.org/t/p/w342/AeyiuQUUs78bPkz18FY3AzNFF8b.jpg","year":"2022","result":"HD","language":["Hindi"],"country":["JP"],"original_language":"ja","genres":["Action","Adventure","Fantasy"],"imdb_id":"tt18671660"},{"id":"960700","type":"movie","title":"Fullmetal Alchemist: The Revenge of Scar","poster":"https://image.tmdb.org/t/p/w342/c5OwwBNyJkwyroIOIJL9IiRjydR.jpg","year":"2022","result":"HD","language":["Hindi"],"country":["JP"],"original_language":"ja","genres":["Fantasy","Action","Adventure"],"imdb_id":"tt18671386"},{"id":"216266","type":"tv","title":"Love At First Bite","poster":"https://image.tmdb.org/t/p/w342/A8S4Btglmw1eJvcNwYoo7VqzLgD.jpg","year":"2022","result":"HD","language":["Hindi"],"country":["SG"],"original_language":"zh","genres":[],"imdb_id":"","latest_uploaded_season":1,"total_uploaded_episodes":20},{"id":"204761","type":"tv","title":"Almost Famous","poster":"https://image.tmdb.org/t/p/w342/eWdHuZZ5OxOlfET3diadgf2Sx1u.jpg","year":"2022","result":"HD","language":["Hindi"],"country":["CN"],"original_language":"zh","genres":["Drama"],"imdb_id":"","latest_uploaded_season":1,"total_uploaded_episodes":24},{"id":"210732","type":"tv","title":"Mr. Bad","poster":"https://image.tmdb.org/t/p/w342/yyIzL3aZ8SqGIrzAeySYqyxIMSq.jpg","year":"2022","result":"HD","language":["Hindi"],"country":["CN"],"original_language":"zh","genres":["Drama","Comedy"],"imdb_id":"","latest_uploaded_season":1,"total_uploaded_episodes":24},{"id":"209408","type":"tv","title":"Bad Prosecutor","poster":"https://image.tmdb.org/t/p/w342/zFH9Ze9RbviL3NcAfhi9DH3nH3W.jpg","year":"2022","result":"HD","language":["Hindi"],"country":["KR"],"original_language":"ko","genres":["Action & Adventure","Drama"],"imdb_id":"tt22353836","latest_uploaded_season":1,"total_uploaded_episodes":12},{"id":"199908","type":"tv","title":"Simmer Down","poster":"https://image.tmdb.org/t/p/w342/n1wjHiqx2rgkNaPRJyOmazBIFyf.jpg","year":"2022","result":"HD","language":["Hindi"],"country":["CN"],"original_language":"zh","genres":["Drama","Family"],"imdb_id":"","latest_uploaded_season":1,"total_uploaded_episodes":40},{"id":"736732","type":"movie","title":"Broker","poster":"https://image.tmdb.org/t/p/w342/x86xaUnxU31JYiwlO35corDEV1i.jpg","year":"2022","result":"HD","language":["Hindi"],"country":["KR"],"original_language":"ko","genres":["Drama"],"imdb_id":"tt13056052"},{"id":"157673","type":"tv","title":"Dine with Love","poster":"https://image.tmdb.org/t/p/w342/wRDGV68FgwH5LxOlKUSyqWKUMOg.jpg","year":"2022","result":"HD","language":["Hindi"],"country":["CN"],"original_language":"zh","genres":["Drama"],"imdb_id":"","latest_uploaded_season":1,"total_uploaded_episodes":16},{"id":"213663","type":"tv","title":"Healing Food, Healing Love","poster":"https://image.tmdb.org/t/p/w342/8APWRcWHVYsDtCdiT74OJ8mgDzo.jpg","year":"2022","result":"HD","language":["Hindi"],"country":["CN"],"original_language":"zh","genres":["Drama"],"imdb_id":"","latest_uploaded_season":1,"total_uploaded_episodes":23},{"id":"216405","type":"tv","title":"Hi Venus","poster":"https://image.tmdb.org/t/p/w342/kU3HwhFCKgCDOD505R9zNvU4vc8.jpg","year":"2022","result":"HD","language":["Hindi"],"country":["CN"],"original_language":"zh","genres":["Drama","Comedy"],"imdb_id":"tt25404536","latest_uploaded_season":1,"total_uploaded_episodes":24},{"id":"1028725","type":"movie","title":"Mutant: Ghost War Girl","poster":"https://image.tmdb.org/t/p/w342/cz5xctdv2a1lfZOTpBs3aLb4q23.jpg","year":"2022","result":"HD","language":["Hindi"],"country":["CN"],"original_language":"zh","genres":["Science Fiction","Action"],"imdb_id":"tt18413900"},{"id":"207586","type":"tv","title":"When We Meet","poster":"https://image.tmdb.org/t/p/w342/niNTNJvZggruRQYStGpMnO4AWj9.jpg","year":"2022","result":"HD","language":["Hindi"],"country":["CN"],"original_language":"zh","genres":["Comedy","Drama","Sci-Fi & Fantasy"],"imdb_id":"","latest_uploaded_season":1,"total_uploaded_episodes":24},{"id":"152296","type":"tv","title":"Love in 40 Days","poster":"https://image.tmdb.org/t/p/w342/bfp9iqf2eh8elqorJZPoCYEdgnM.jpg","year":"2022","result":"HD","language":["Hindi"],"country":["PH"],"original_language":"tl","genres":["Comedy","Sci-Fi & Fantasy"],"imdb_id":"","latest_uploaded_season":1,"total_uploaded_episodes":33},{"id":"214734","type":"tv","title":"Warm Meet You","poster":"https://image.tmdb.org/t/p/w342/uIYyr11DtSiliQqCkwURk3x4Qyq.jpg","year":"2022","result":"HD","language":["Hindi"],"country":["CN"],"original_language":"zh","genres":["Comedy","Drama"],"imdb_id":"tt32035225","latest_uploaded_season":1,"total_uploaded_episodes":24},{"id":"134331","type":"tv","title":"Lighter and Princess","poster":"https://image.tmdb.org/t/p/w342/oFFlFjiMQrOns39k9VbWcrfvbLX.jpg","year":"2022","result":"HD","language":["Hindi"],"country":["CN"],"original_language":"zh","genres":["Drama"],"imdb_id":"tt22460828","latest_uploaded_season":1,"total_uploaded_episodes":36},{"id":"908397","type":"movie","title":"Mili: Confronto Glacial","poster":"https://image.tmdb.org/t/p/w342/eJ36QCd5SPRpivJkVgZMqKyfgCz.jpg","year":"2022","result":"HD","language":["Hindi"],"country":["IN"],"original_language":"hi","genres":["Thriller"],"imdb_id":"tt15257644"},{"id":"829557","type":"movie","title":"365 Days: This Day","poster":"https://image.tmdb.org/t/p/w342/7qU0SOVcQ8BTJLodcAlulUAG16C.jpg","year":"2022","result":"HD","language":["Hindi"],"country":["PL"],"original_language":"pl","genres":["Romance","Drama"],"imdb_id":"tt12996154"},{"id":"619979","type":"movie","title":"Deep Water","poster":"https://image.tmdb.org/t/p/w342/6yRMyWwjuhKg6IU66uiZIGhaSc8.jpg","year":"2022","result":"HD","language":["Hindi"],"country":["US"],"original_language":"en","genres":["Drama","Mystery","Thriller"],"imdb_id":"tt2180339"},{"id":"901454","type":"movie","title":"Dirty Games","poster":"https://image.tmdb.org/t/p/w342/j7bBSUzJq9m6hGEVSqLmyq4ilUw.jpg","year":"2022","result":"HD","language":["Hindi"],"country":["GB"],"original_language":"en","genres":["Romance"],"imdb_id":"tt14421754"},{"id":"758330","type":"movie","title":"Good Luck to You, Leo Grande","poster":"https://image.tmdb.org/t/p/w342/dxxOmTq4LgQxiyU4rW53qdj9FoN.jpg","year":"2022","result":"HD","language":["Hindi"],"country":["GB"],"original_language":"en","genres":["Romance","Drama"],"imdb_id":"tt13352968"}]}