{"page":66,"total_pages":66,"total_items":3272,"items":[{"id":"8810","type":"movie","title":"Mad Max 2","poster":"https://image.tmdb.org/t/p/w342/l1KVEhkGDpWRzQ0VqIhZqDDuOim.jpg","year":"1981","result":"HD","language":["Hindi"],"country":["AU"],"original_language":"en","genres":["Adventure","Action","Thriller","Science Fiction"],"imdb_id":"tt0082694"},{"id":"6399","type":"movie","title":"Who Finds a Friend Finds a Treasure","poster":"https://image.tmdb.org/t/p/w342/8fl6sXVv5fWMpDxFDab54qc71tv.jpg","year":"1981","result":"HD","language":["Hindi"],"country":["IT"],"original_language":"it","genres":["Action","Adventure","Comedy"],"imdb_id":"tt0085327"},{"id":"64789","type":"movie","title":"Doraemon: Nobita's Dinosaur","poster":"https://image.tmdb.org/t/p/w342/oBWtnb9kmROgziBXOh4P3IMXHKz.jpg","year":"1980","result":"HD","language":["Hindi"],"country":["JP"],"original_language":"ja","genres":["Animation","Family","Adventure","Science Fiction","Fantasy"],"imdb_id":"tt1147517"},{"id":"8690","type":"movie","title":"Eaten Alive!","poster":"https://image.tmdb.org/t/p/w342/7h5LH5UNjYO4Hvv2myKqGeoaSo7.jpg","year":"1980","result":"HD","language":["Hindi"],"country":["IT"],"original_language":"it","genres":["Adventure","Horror"],"imdb_id":"tt0081112"},{"id":"42019","type":"movie","title":"Taboo","poster":"https://image.tmdb.org/t/p/w342/fLh69JdW4chwaIOIMX9zLCmfJUy.jpg","year":"1980","result":"HD","language":["Hindi"],"country":["US"],"original_language":"en","genres":["Drama","Romance"],"imdb_id":"tt0081593"},{"id":"9659","type":"movie","title":"Mad Max","poster":"https://image.tmdb.org/t/p/w342/5LrI4GiCSrChgkdskVZiwv643Kg.jpg","year":"1979","result":"HD","language":["Hindi"],"country":["AU"],"original_language":"en","genres":["Adventure","Action","Thriller","Science Fiction"],"imdb_id":"tt0079501"},{"id":"25239","type":"movie","title":"Day of the Woman","poster":"https://image.tmdb.org/t/p/w342/nMCkOo26GtISoxJmpkTAJyMqBO8.jpg","year":"1978","result":"HD","language":["Hindi"],"country":["US"],"original_language":"en","genres":["Horror"],"imdb_id":"tt0077713"},{"id":"215746","type":"movie","title":"Dracula Sucks","poster":"https://image.tmdb.org/t/p/w342/3add7Z5fN6sC4r9LkgXin1UDU2Q.jpg","year":"1978","result":"HD","language":["Hindi"],"country":["US"],"original_language":"en","genres":["Comedy","Horror"],"imdb_id":"tt0079074"},{"id":"10580","type":"movie","title":"Lemon Popsicle","poster":"https://image.tmdb.org/t/p/w342/14tlbgXfd3Q3bGIdAPdBfSAyTM0.jpg","year":"1978","result":"HD","language":["Hindi"],"country":["IL","DE"],"original_language":"he","genres":["Comedy","Romance"],"imdb_id":"tt0079118"},{"id":"26686","type":"movie","title":"California Suite","poster":"https://image.tmdb.org/t/p/w342/2IlgL7m1ByY3RIghbXNGGNvYfEE.jpg","year":"1978","result":"HD","language":["Hindi"],"country":["US"],"original_language":"en","genres":["Comedy","Drama","Romance"],"imdb_id":"tt0077289"},{"id":"10138","type":"tv","title":"James at 16","poster":"https://image.tmdb.org/t/p/w342/w58QId6WdywHpZLdTyIV48Qmkaz.jpg","year":"1977","result":"HD","language":["Hindi"],"country":["US"],"original_language":"en","genres":["Drama"],"imdb_id":"tt0075519","latest_uploaded_season":1,"total_uploaded_episodes":1},{"id":"33301","type":"movie","title":"Confessions of a Driving Instructor","poster":"https://image.tmdb.org/t/p/w342/vMTf2j4cvAOMZU9rgpipqnGoe9O.jpg","year":"1976","result":"HD","language":["Hindi"],"country":["GB"],"original_language":"en","genres":["Comedy"],"imdb_id":"tt0074343"},{"id":"29955","type":"movie","title":"Black Cobra","poster":"https://image.tmdb.org/t/p/w342/wZ2QgscQS7DbrcgRcroryCUskuG.jpg","year":"1976","result":"HD","language":["Hindi"],"country":["IT"],"original_language":"it","genres":["Drama","Thriller","Horror"],"imdb_id":"tt0074501"},{"id":"13282","type":"movie","title":"Death Race 2000","poster":"https://image.tmdb.org/t/p/w342/kwM8kkNGtv62gfPWVhD6qFxjDzg.jpg","year":"1975","result":"HD","language":["Hindi"],"country":["US"],"original_language":"en","genres":["Action","Science Fiction","Comedy"],"imdb_id":"tt0072856"},{"id":"4705","type":"movie","title":"The Sensuous Nurse","poster":"https://image.tmdb.org/t/p/w342/2mfEFL6mTV2ETonE6k8cKFMNQKC.jpg","year":"1975","result":"HD","language":["Hindi"],"country":["IT"],"original_language":"it","genres":["Comedy"],"imdb_id":"tt0074682"},{"id":"240","type":"movie","title":"The Godfather Part II","poster":"https://image.tmdb.org/t/p/w342/hek3koDUyRQk7FIhPXsa6mT2Zc3.jpg","year":"1974","result":"HD","language":["Hindi"],"country":["US"],"original_language":"en","genres":["Drama","Crime"],"imdb_id":"tt0071562"},{"id":"238","type":"movie","title":"The Godfather","poster":"https://image.tmdb.org/t/p/w342/3bhkrj58Vtu7enYsRolD1fZdja1.jpg","year":"1972","result":"HD","language":["Hindi"],"country":["US"],"original_language":"en","genres":["Drama","Crime"],"imdb_id":"tt0068646"},{"id":"805","type":"movie","title":"Rosemary's Baby","poster":"https://image.tmdb.org/t/p/w342/uYgvlHceRFjAFbsNeMInYcLZLUb.jpg","year":"1968","result":"HD","language":["Hindi"],"country":["US"],"original_language":"en","genres":["Drama","Horror","Thriller"],"imdb_id":"tt0063522"},{"id":"33743","type":"movie","title":"The 5,000 Fingers of Dr. T.","poster":"https://image.tmdb.org/t/p/w342/5sAxThhLhsQSf4mjrIGHqfKlaAy.jpg","year":"1953","result":"HD","language":["Hindi"],"country":["US"],"original_language":"en","genres":["Family","Fantasy","Music"],"imdb_id":"tt0045464"},{"id":"1584340","type":"movie","title":"Ekam Singh: A Warrior","poster":"https://image.tmdb.org/t/p/w342/gUS0ejNw8wbUlWSgmCAtqbNp7D2.jpg","year":"","result":"HD","language":["Hindi"],"country":[],"original_language":"pa","genres":[],"imdb_id":"tt38948983"},{"id":"999136","type":"movie","title":"Do Not Enter","poster":"https://image.tmdb.org/t/p/w342/jb9e1Up9W9DQ3n8bwBJACOLHrHY.jpg","year":"","result":"HD","language":["Hindi"],"country":["US"],"original_language":"en","genres":["Horror"],"imdb_id":"tt3515878"},{"id":"784978","type":"movie","title":"Srimati Bhayankari","poster":"https://image.tmdb.org/t/p/w342/dB17LG1LC2CewLR1zzongZdJt3n.jpg","year":"","result":"HD","language":["Hindi"],"country":[],"original_language":"bn","genres":[],"imdb_id":""}]}