{"page":46,"total_pages":66,"total_items":3272,"items":[{"id":"237150","type":"tv","title":"As a Reincarnated Aristocrat, I'll Use My Appraisal Skill to Rise in the World","poster":"https://image.tmdb.org/t/p/w342/kYjQNi15IWz76nbqFBFPlVsO9lL.jpg","year":"2024","result":"HD","language":["Hindi"],"country":["JP"],"original_language":"ja","genres":["Animation","Sci-Fi & Fantasy"],"imdb_id":"tt31975847","latest_uploaded_season":1,"total_uploaded_episodes":24},{"id":"236356","type":"tv","title":"Family Matters","poster":"https://image.tmdb.org/t/p/w342/aQt92o4IOZis7rFRNpo15sflZde.jpg","year":"2024","result":"HD","language":["Hindi"],"country":["KR"],"original_language":"ko","genres":["Drama","Crime","Comedy","Mystery"],"imdb_id":"tt31510539","latest_uploaded_season":1,"total_uploaded_episodes":6},{"id":"235389","type":"tv","title":"Re:Monster","poster":"https://image.tmdb.org/t/p/w342/AmFrA0jX0p9twH1IKfxcGWVz2X3.jpg","year":"2024","result":"HD","language":["Hindi"],"country":["JP"],"original_language":"ja","genres":["Animation","Action & Adventure","Sci-Fi & Fantasy"],"imdb_id":"tt31514720","latest_uploaded_season":2,"total_uploaded_episodes":13},{"id":"234910","type":"tv","title":"Tying the Knot with an Amagami Sister","poster":"https://image.tmdb.org/t/p/w342/werwTXBFyhlhBqDkGQzUaDolHt9.jpg","year":"2024","result":"HD","language":["Hindi"],"country":["JP"],"original_language":"ja","genres":["Animation","Comedy"],"imdb_id":"tt29141921","latest_uploaded_season":1,"total_uploaded_episodes":24},{"id":"232018","type":"tv","title":"Paris Has Fallen","poster":"https://image.tmdb.org/t/p/w342/ei1jnjJ154XN1E4q9JKEpuEImup.jpg","year":"2024","result":"HD","language":["Hindi"],"country":["FR"],"original_language":"fr","genres":["Action & Adventure","War & Politics"],"imdb_id":"tt33184638","latest_uploaded_season":1,"total_uploaded_episodes":8},{"id":"230923","type":"tv","title":"Lovely Runner","poster":"https://image.tmdb.org/t/p/w342/xJQyrif5M4UMoVBrBlwUabtaRxB.jpg","year":"2024","result":"HD","language":["Hindi"],"country":["KR"],"original_language":"ko","genres":["Drama","Sci-Fi & Fantasy","Comedy","Mystery"],"imdb_id":"tt31324295","latest_uploaded_season":1,"total_uploaded_episodes":16},{"id":"230777","type":"tv","title":"The Trunk","poster":"https://image.tmdb.org/t/p/w342/3YQtEqg923Os5w5Qg8sbQL41shw.jpg","year":"2024","result":"HD","language":["Hindi"],"country":["KR"],"original_language":"ko","genres":["Drama","Mystery"],"imdb_id":"tt26773401","latest_uploaded_season":1,"total_uploaded_episodes":8},{"id":"230448","type":"tv","title":"Mr. Plankton","poster":"https://image.tmdb.org/t/p/w342/c31cvdNNiAMvb4XVjAwYLNn3LNO.jpg","year":"2024","result":"HD","language":["Hindi"],"country":["KR"],"original_language":"ko","genres":["Comedy","Drama"],"imdb_id":"tt27539317","latest_uploaded_season":1,"total_uploaded_episodes":10},{"id":"230198","type":"tv","title":"Wedding Impossible","poster":"https://image.tmdb.org/t/p/w342/auP4DnCCUHNH1CBlpL8TWBZya2f.jpg","year":"2024","result":"HD","language":["Hindi"],"country":["KR"],"original_language":"ko","genres":["Drama","Comedy"],"imdb_id":"tt30301176","latest_uploaded_season":1,"total_uploaded_episodes":12},{"id":"229480","type":"tv","title":"No Gain No Love","poster":"https://image.tmdb.org/t/p/w342/jiGxkMP3lzPDaPw4F0EZAEiTSgL.jpg","year":"2024","result":"HD","language":["Hindi"],"country":["KR"],"original_language":"ko","genres":["Drama","Comedy"],"imdb_id":"tt32981987","latest_uploaded_season":1,"total_uploaded_episodes":12},{"id":"229202","type":"tv","title":"The Tale of Rose","poster":"https://image.tmdb.org/t/p/w342/d9M2l1fSFaze3PaHwz19hVrsU1g.jpg","year":"2024","result":"HD","language":["Hindi"],"country":["CN"],"original_language":"zh","genres":["Drama"],"imdb_id":"tt29930328","latest_uploaded_season":1,"total_uploaded_episodes":38},{"id":"224030","type":"tv","title":"High School Return of a Gangster","poster":"https://image.tmdb.org/t/p/w342/bK5kGsWq9vGALbDgPmNiLFNFVI1.jpg","year":"2024","result":"HD","language":["Hindi"],"country":["KR"],"original_language":"ko","genres":["Sci-Fi & Fantasy","Drama"],"imdb_id":"tt32499943","latest_uploaded_season":1,"total_uploaded_episodes":8},{"id":"223500","type":"tv","title":"WIND BREAKER","poster":"https://image.tmdb.org/t/p/w342/3kTFL3PAeTyS8gGZAh0iYG6NNjt.jpg","year":"2024","result":"HD","language":["Hindi"],"country":["JP"],"original_language":"ja","genres":["Animation","Action & Adventure"],"imdb_id":"tt29605391","latest_uploaded_season":1,"total_uploaded_episodes":25},{"id":"219652","type":"tv","title":"The Frog","poster":"https://image.tmdb.org/t/p/w342/uMl2TzRs1LzTR9jyRNHnf5keqMV.jpg","year":"2024","result":"HD","language":["Hindi"],"country":["KR"],"original_language":"ko","genres":["Mystery","Crime","Drama"],"imdb_id":"tt26767508","latest_uploaded_season":1,"total_uploaded_episodes":8},{"id":"217667","type":"tv","title":"Eric","poster":"https://image.tmdb.org/t/p/w342/9OV6McrRh1BAnrak3yVP9xYuUId.jpg","year":"2024","result":"HD","language":["Hindi"],"country":["GB"],"original_language":"en","genres":["Drama","Mystery"],"imdb_id":"tt16283824","latest_uploaded_season":1,"total_uploaded_episodes":6},{"id":"215720","type":"tv","title":"Queen of Tears","poster":"https://image.tmdb.org/t/p/w342/7ZXLZ3KYL3IVvsSHBZaHjcNQzNU.jpg","year":"2024","result":"HD","language":["Hindi"],"country":["KR"],"original_language":"ko","genres":["Drama","Comedy"],"imdb_id":"tt27668559","latest_uploaded_season":1,"total_uploaded_episodes":16},{"id":"214826","type":"tv","title":"Not A Murder Story","poster":"https://image.tmdb.org/t/p/w342/aWgKbHI8GfW63CfLa5BHgDbnMl.jpg","year":"2024","result":"HD","language":["Hindi"],"country":["TW"],"original_language":"zh","genres":["Mystery","Crime"],"imdb_id":"tt23472304","latest_uploaded_season":1,"total_uploaded_episodes":8},{"id":"213830","type":"tv","title":"I Was Reincarnated as the 7th Prince so I Can Take My Time Perfecting My Magical Ability","poster":"https://image.tmdb.org/t/p/w342/ruLkQB8i1yazHgO0QCWpyJRRTs9.jpg","year":"2024","result":"HD","language":["Hindi"],"country":["JP"],"original_language":"ja","genres":["Animation","Sci-Fi & Fantasy"],"imdb_id":"tt31624309","latest_uploaded_season":1,"total_uploaded_episodes":24},{"id":"212588","type":"tv","title":"Furies","poster":"https://image.tmdb.org/t/p/w342/8sHKc6kNKjdhvHBP2c5zoSS16v5.jpg","year":"2024","result":"HD","language":["Hindi"],"country":["FR"],"original_language":"fr","genres":["Action & Adventure","Crime"],"imdb_id":"tt11384300","latest_uploaded_season":1,"total_uploaded_episodes":8},{"id":"212553","type":"tv","title":"The Bequeathed","poster":"https://image.tmdb.org/t/p/w342/iExLDuclzOp06ro9929UTDQRDm1.jpg","year":"2024","result":"HD","language":["Hindi"],"country":["KR"],"original_language":"ko","genres":["Drama","Mystery","Crime"],"imdb_id":"tt28225048","latest_uploaded_season":1,"total_uploaded_episodes":6},{"id":"208825","type":"tv","title":"Parasyte: The Grey","poster":"https://image.tmdb.org/t/p/w342/9UPneQ4NF7g6WDNSFE5qyt88wJn.jpg","year":"2024","result":"HD","language":["Hindi"],"country":["KR"],"original_language":"ko","genres":["Sci-Fi & Fantasy","Action & Adventure","Drama"],"imdb_id":"tt21874396","latest_uploaded_season":1,"total_uploaded_episodes":6},{"id":"207468","type":"tv","title":"Kaiju No. 8","poster":"https://image.tmdb.org/t/p/w342/bJxGs0w5RAhaX4fIUQu511rvm0S.jpg","year":"2024","result":"HD","language":["Hindi"],"country":["JP"],"original_language":"ja","genres":["Animation","Action & Adventure","Sci-Fi & Fantasy"],"imdb_id":"tt21975436","latest_uploaded_season":1,"total_uploaded_episodes":23},{"id":"194764","type":"tv","title":"The Penguin","poster":"https://image.tmdb.org/t/p/w342/vOWcqC4oDQws1doDWLO7d3dh5qc.jpg","year":"2024","result":"HD","language":["Hindi"],"country":["US"],"original_language":"en","genres":["Drama","Crime"],"imdb_id":"tt15435876","latest_uploaded_season":1,"total_uploaded_episodes":8},{"id":"139547","type":"tv","title":"Goodbye Earth","poster":"https://image.tmdb.org/t/p/w342/i1LvLQSKRoGlU5egMHagDtsZ4K1.jpg","year":"2024","result":"HD","language":["Hindi"],"country":["KR"],"original_language":"ko","genres":["Drama"],"imdb_id":"tt17492848","latest_uploaded_season":1,"total_uploaded_episodes":12},{"id":"108545","type":"tv","title":"3 Body Problem","poster":"https://image.tmdb.org/t/p/w342/ykZ7hlShkdRQaL2aiieXdEMmrLb.jpg","year":"2024","result":"HD","language":["Hindi"],"country":["US"],"original_language":"en","genres":["Sci-Fi & Fantasy","Mystery","Drama"],"imdb_id":"tt13016388","latest_uploaded_season":1,"total_uploaded_episodes":8},{"id":"129600","type":"tv","title":"Baki Hanma","poster":"https://image.tmdb.org/t/p/w342/x145FSI9xJ6UbkxfabUsY2SFbu3.jpg","year":"2023","result":"HD","language":["Hindi"],"country":["JP"],"original_language":"ja","genres":["Animation","Action & Adventure","Sci-Fi & Fantasy"],"imdb_id":"tt13357140","latest_uploaded_season":2,"total_uploaded_episodes":26},{"id":"68398","type":"tv","title":"Dr. Romantic","poster":"https://image.tmdb.org/t/p/w342/9fbRJgZ2zDTnSUId1bOwsllHNr7.jpg","year":"2023","result":"HD","language":["Hindi"],"country":["KR"],"original_language":"ko","genres":["Drama"],"imdb_id":"tt6157190","latest_uploaded_season":3,"total_uploaded_episodes":52},{"id":"81500","type":"tv","title":"Fights Break Sphere","poster":"https://image.tmdb.org/t/p/w342/quF64x6cR0dk38v2Y2kTJKJWU1H.jpg","year":"2023","result":"HD","language":["Hindi"],"country":["CN"],"original_language":"zh","genres":["Sci-Fi & Fantasy","Action & Adventure"],"imdb_id":"tt9248626","latest_uploaded_season":2,"total_uploaded_episodes":79},{"id":"126280","type":"tv","title":"Sex/Life","poster":"https://image.tmdb.org/t/p/w342/kfcJl5e8CRWDU7e4vX6uNABPRbS.jpg","year":"2023","result":"HD","language":["Hindi"],"country":["US"],"original_language":"en","genres":["Drama"],"imdb_id":"tt10839422","latest_uploaded_season":2,"total_uploaded_episodes":14},{"id":"88803","type":"tv","title":"Vinland Saga","poster":"https://image.tmdb.org/t/p/w342/vUHlpA5c1NXkds59reY3HMb4Abs.jpg","year":"2023","result":"HD","language":["Hindi"],"country":["JP"],"original_language":"ja","genres":["Animation","War & Politics","Action & Adventure","Drama"],"imdb_id":"tt10233448","latest_uploaded_season":2,"total_uploaded_episodes":48},{"id":"231364","type":"tv","title":"My Lovely Wife","poster":"https://image.tmdb.org/t/p/w342/zPcThOYLsXUZUHY4VhRNCLQuhT0.jpg","year":"2023","result":"HD","language":["Hindi"],"country":["CN"],"original_language":"zh","genres":["Drama","Mystery"],"imdb_id":"","latest_uploaded_season":1,"total_uploaded_episodes":11},{"id":"152551","type":"tv","title":"Rising with the Wind","poster":"https://image.tmdb.org/t/p/w342/cZSb43j1O1pRZIwwn0fgCx5XJIP.jpg","year":"2023","result":"HD","language":["Hindi"],"country":["CN"],"original_language":"zh","genres":["Drama"],"imdb_id":"tt17069404","latest_uploaded_season":1,"total_uploaded_episodes":40},{"id":"228547","type":"tv","title":"When I Fly Towards You","poster":"https://image.tmdb.org/t/p/w342/mjCChwZcEZ9902tUAG1hWZlfOHm.jpg","year":"2023","result":"HD","language":["Hindi"],"country":["CN"],"original_language":"zh","genres":["Drama","Comedy"],"imdb_id":"tt28036189","latest_uploaded_season":1,"total_uploaded_episodes":24},{"id":"231955","type":"tv","title":"You From The Future","poster":"https://image.tmdb.org/t/p/w342/edkdnOZhp0dzG0ltaxmNupVmdbZ.jpg","year":"2023","result":"HD","language":["Hindi"],"country":["CN"],"original_language":"zh","genres":["Drama","Sci-Fi & Fantasy"],"imdb_id":"tt30138533","latest_uploaded_season":1,"total_uploaded_episodes":24},{"id":"229217","type":"tv","title":"Exploration Method of Love","poster":"https://image.tmdb.org/t/p/w342/2DFMf3k5MCs4LTsmLHRzFBybBSq.jpg","year":"2023","result":"HD","language":["Hindi"],"country":["CN"],"original_language":"zh","genres":["Drama","Comedy"],"imdb_id":"tt28131611","latest_uploaded_season":1,"total_uploaded_episodes":22},{"id":"232828","type":"tv","title":"Fake It Till You Make It","poster":"https://image.tmdb.org/t/p/w342/zwypLF3ipPCoow735l3GjM9wkJa.jpg","year":"2023","result":"HD","language":["Hindi"],"country":["CN"],"original_language":"zh","genres":["Drama"],"imdb_id":"tt28667730","latest_uploaded_season":1,"total_uploaded_episodes":20},{"id":"228819","type":"tv","title":"Fish Show You","poster":"https://image.tmdb.org/t/p/w342/oYDUtBGgUnfd3njqR4gxH8wRY2K.jpg","year":"2023","result":"HD","language":["Hindi"],"country":["CN"],"original_language":"zh","genres":["Drama","Sci-Fi & Fantasy"],"imdb_id":"","latest_uploaded_season":1,"total_uploaded_episodes":18},{"id":"220068","type":"tv","title":"Have a Crush On You","poster":"https://image.tmdb.org/t/p/w342/isXUBTFNXyeo1XojeBLZMN4cpnT.jpg","year":"2023","result":"HD","language":["Hindi"],"country":["CN"],"original_language":"zh","genres":["Drama"],"imdb_id":"tt26732402","latest_uploaded_season":1,"total_uploaded_episodes":36},{"id":"227634","type":"tv","title":"Mr. Insomnia Waiting for Love","poster":"https://image.tmdb.org/t/p/w342/wHm0jvUoO6Eg80bqg1ALHlV1NfT.jpg","year":"2023","result":"HD","language":["Hindi"],"country":["CN"],"original_language":"zh","genres":["Drama","Comedy","Sci-Fi & Fantasy"],"imdb_id":"tt28036984","latest_uploaded_season":1,"total_uploaded_episodes":24},{"id":"234243","type":"tv","title":"My Annoying Roommate","poster":"https://image.tmdb.org/t/p/w342/zVv7M140Na7Ttj88GVvIKs7TFhp.jpg","year":"2023","result":"HD","language":["Hindi"],"country":["CN"],"original_language":"zh","genres":["Drama","Family"],"imdb_id":"","latest_uploaded_season":1,"total_uploaded_episodes":12},{"id":"235730","type":"tv","title":"My Precious","poster":"https://image.tmdb.org/t/p/w342/9PEdT20OsmAhKD6i5lzarofd4aX.jpg","year":"2023","result":"HD","language":["Hindi"],"country":["CN"],"original_language":"zh","genres":["Drama","Comedy"],"imdb_id":"tt29363110","latest_uploaded_season":1,"total_uploaded_episodes":40},{"id":"228344","type":"tv","title":"Skip a Beat","poster":"https://image.tmdb.org/t/p/w342/oBjQQ8YWouhZ03iAr0s7kFm5OQO.jpg","year":"2023","result":"HD","language":["Hindi"],"country":["CN"],"original_language":"zh","genres":["Drama"],"imdb_id":"tt28227698","latest_uploaded_season":1,"total_uploaded_episodes":20},{"id":"214582","type":"tv","title":"The Devil's Plan","poster":"https://image.tmdb.org/t/p/w342/jNY6UVgvKz03yrSgCflkF5NF25K.jpg","year":"2023","result":"HD","language":["Hindi"],"country":["KR"],"original_language":"ko","genres":["Reality"],"imdb_id":"tt27995115","latest_uploaded_season":3,"total_uploaded_episodes":24},{"id":"220344","type":"tv","title":"Wenderella's Diary","poster":"https://image.tmdb.org/t/p/w342/zxHS5ZrwXcPfHWJ9tXd80kV0ej4.jpg","year":"2023","result":"HD","language":["Hindi"],"country":["CN"],"original_language":"zh","genres":["Drama","Comedy"],"imdb_id":"tt26733040","latest_uploaded_season":1,"total_uploaded_episodes":24},{"id":"243322","type":"tv","title":"Castle in the Time","poster":"https://image.tmdb.org/t/p/w342/pQcVWrNn19cNV226j2tLjBQgpih.jpg","year":"2023","result":"HD","language":["Hindi"],"country":["CN"],"original_language":"zh","genres":["Drama"],"imdb_id":"tt29723136","latest_uploaded_season":1,"total_uploaded_episodes":38},{"id":"206715","type":"tv","title":"Joseon Attorney: A Morality","poster":"https://image.tmdb.org/t/p/w342/r9s6F4IgFyPyjSh7n7wGMRO6Mp0.jpg","year":"2023","result":"HD","language":["Hindi"],"country":["KR"],"original_language":"ko","genres":["Drama"],"imdb_id":"tt26599669","latest_uploaded_season":1,"total_uploaded_episodes":16},{"id":"940551","type":"movie","title":"Migration","poster":"https://image.tmdb.org/t/p/w342/ldfCF9RhR40mppkzmftxapaHeTo.jpg","year":"2023","result":"HD","language":["Hindi"],"country":["US"],"original_language":"en","genres":["Family","Comedy","Adventure","Animation"],"imdb_id":"tt6495056"},{"id":"225741","type":"tv","title":"Oppa, Saranghae","poster":"https://i.ibb.co/zWDCJB3p/Gemini-Generated-Image-59bnfp59bnfp59bn-1.png","year":"2023","result":"HD","language":["Hindi"],"country":["SG"],"original_language":"zh","genres":[],"imdb_id":"","latest_uploaded_season":1,"total_uploaded_episodes":13},{"id":"864692","type":"movie","title":"Pathaan","poster":"https://image.tmdb.org/t/p/w342/arf00BkwvXo0CFKbaD9OpqdE4Nu.jpg","year":"2023","result":"HD","language":["Hindi"],"country":["IN","IT","ES","TR"],"original_language":"hi","genres":["Action","Adventure","Thriller"],"imdb_id":"tt12844910"},{"id":"155421","type":"tv","title":"All the Light We Cannot See","poster":"https://image.tmdb.org/t/p/w342/5vctOvdEXakZWTJrP8bgPEoCbqS.jpg","year":"2023","result":"HD","language":["Hindi"],"country":["US"],"original_language":"en","genres":["Drama"],"imdb_id":"tt15320362","latest_uploaded_season":1,"total_uploaded_episodes":4}]}