{"page":57,"total_pages":66,"total_items":3272,"items":[{"id":"91284","type":"tv","title":"Coffee & Vanilla","poster":"https://image.tmdb.org/t/p/w342/ofzfbEVT7ayFjoWU31kRPMgeomK.jpg","year":"2019","result":"HD","language":["Hindi"],"country":["JP"],"original_language":"ja","genres":["Drama"],"imdb_id":"tt10495314","latest_uploaded_season":1,"total_uploaded_episodes":10},{"id":"91026","type":"tv","title":"After School Dice Club","poster":"https://image.tmdb.org/t/p/w342/nHVmPRqjGxMi4RNlwgflXA8mvev.jpg","year":"2019","result":"HD","language":["Hindi"],"country":["JP"],"original_language":"ja","genres":["Animation","Comedy"],"imdb_id":"tt11033944","latest_uploaded_season":1,"total_uploaded_episodes":12},{"id":"90706","type":"tv","title":"Doctor John","poster":"https://image.tmdb.org/t/p/w342/2EtZ91FzsFRe3FFtAr29ESgW9QK.jpg","year":"2019","result":"HD","language":["Hindi"],"country":["KR"],"original_language":"ko","genres":["Drama"],"imdb_id":"tt10544464","latest_uploaded_season":1,"total_uploaded_episodes":16},{"id":"90335","type":"tv","title":"Doctor Detective","poster":"https://image.tmdb.org/t/p/w342/693tpPhfqQhlqfw77nQmz9t3299.jpg","year":"2019","result":"HD","language":["Hindi"],"country":["KR"],"original_language":"ko","genres":["Drama","Mystery"],"imdb_id":"tt10473780","latest_uploaded_season":1,"total_uploaded_episodes":32},{"id":"90245","type":"tv","title":"The Lost Tomb 2: Explore with the Note","poster":"https://image.tmdb.org/t/p/w342/m8O09RiqIrIbKwzj4cbmXyASPBb.jpg","year":"2019","result":"HD","language":["Hindi"],"country":["CN"],"original_language":"zh","genres":["Drama","Action & Adventure"],"imdb_id":"tt10433136","latest_uploaded_season":1,"total_uploaded_episodes":24},{"id":"87185","type":"tv","title":"Kill It","poster":"https://image.tmdb.org/t/p/w342/lxTNyRhEUBK6r3o3ZJakcSsvO2b.jpg","year":"2019","result":"HD","language":["Hindi"],"country":["KR"],"original_language":"ko","genres":["Drama","Action & Adventure","Crime","Mystery"],"imdb_id":"tt9772814","latest_uploaded_season":1,"total_uploaded_episodes":12},{"id":"87108","type":"tv","title":"Chernobyl","poster":"https://image.tmdb.org/t/p/w342/hlLXt2tOPT6RRnjiUmoxyG1LTFi.jpg","year":"2019","result":"HD","language":["Hindi"],"country":["US"],"original_language":"en","genres":["Drama"],"imdb_id":"tt7366338","latest_uploaded_season":1,"total_uploaded_episodes":5},{"id":"85404","type":"tv","title":"Touch Your Heart","poster":"https://image.tmdb.org/t/p/w342/kVFflfTOFqFBh34jcVRI1QCWSre.jpg","year":"2019","result":"HD","language":["Hindi"],"country":["KR"],"original_language":"ko","genres":["Comedy","Drama"],"imdb_id":"tt9466990","latest_uploaded_season":1,"total_uploaded_episodes":16},{"id":"82817","type":"tv","title":"Go Go Squid!","poster":"https://image.tmdb.org/t/p/w342/xWnuIoWFejrYJXeEyJYUH4ILlVo.jpg","year":"2019","result":"HD","language":["Hindi"],"country":["CN"],"original_language":"zh","genres":["Drama"],"imdb_id":"tt10369876","latest_uploaded_season":1,"total_uploaded_episodes":41},{"id":"68267","type":"tv","title":"Trollhunters: Tales of Arcadia","poster":"https://image.tmdb.org/t/p/w342/gF03zm8x9B10QyPZyzc8Vgc8lqx.jpg","year":"2018","result":"HD","language":["Hindi"],"country":["US"],"original_language":"en","genres":["Family","Animation","Action & Adventure","Comedy","Sci-Fi & Fantasy"],"imdb_id":"tt1734135","latest_uploaded_season":3,"total_uploaded_episodes":52},{"id":"76557","type":"tv","title":"Welcome to Waikiki","poster":"https://image.tmdb.org/t/p/w342/pggzZamoLNTiRgoYz8WVCISMCqv.jpg","year":"2018","result":"HD","language":["Hindi"],"country":["KR"],"original_language":"ko","genres":["Drama","Comedy"],"imdb_id":"tt7890304","latest_uploaded_season":1,"total_uploaded_episodes":24},{"id":"79434","type":"tv","title":"What's Wrong with Secretary Kim","poster":"https://image.tmdb.org/t/p/w342/qmq7vKRPoK2VHOTeaUdwwe3l5bB.jpg","year":"2018","result":"HD","language":["Hindi"],"country":["KR"],"original_language":"ko","genres":["Comedy","Drama"],"imdb_id":"tt8242904","latest_uploaded_season":1,"total_uploaded_episodes":16},{"id":"79991","type":"tv","title":"Life","poster":"https://image.tmdb.org/t/p/w342/bnZ84kmXw9OlnAaVJlEYKOMlJmt.jpg","year":"2018","result":"HD","language":["Hindi"],"country":["KR"],"original_language":"ko","genres":["Drama"],"imdb_id":"tt8243158","latest_uploaded_season":1,"total_uploaded_episodes":16},{"id":"215984","type":"tv","title":"My Roommate Ghost Diva","poster":"https://i.ibb.co/nMpHW6m2/Gemini-Generated-Image-b15w8wb15w8wb15w-1.png","year":"2018","result":"HD","language":["Hindi"],"country":["KR"],"original_language":"ko","genres":["Drama","Sci-Fi & Fantasy"],"imdb_id":"tt9109028","latest_uploaded_season":1,"total_uploaded_episodes":4},{"id":"78385","type":"tv","title":"Something in the Rain","poster":"https://image.tmdb.org/t/p/w342/sTNXMCASbNn7cSzcQ7DVazixnAc.jpg","year":"2018","result":"HD","language":["Hindi"],"country":["KR"],"original_language":"ko","genres":["Drama"],"imdb_id":"tt8078816","latest_uploaded_season":1,"total_uploaded_episodes":16},{"id":"82642","type":"tv","title":"Sweet and Salty Office","poster":"https://image.tmdb.org/t/p/w342/oTdY3jgmjM8OHA0J41SMnsEKEXO.jpg","year":"2018","result":"HD","language":["Hindi"],"country":["KR"],"original_language":"ko","genres":["Comedy","Drama"],"imdb_id":"tt34422526","latest_uploaded_season":1,"total_uploaded_episodes":20},{"id":"78797","type":"tv","title":"Wok of Love","poster":"https://image.tmdb.org/t/p/w342/dTh81YtdEzacHhnmLw1Tef7cBRl.jpg","year":"2018","result":"HD","language":["Hindi"],"country":["KR"],"original_language":"ko","genres":["Drama","Comedy"],"imdb_id":"tt8236528","latest_uploaded_season":1,"total_uploaded_episodes":19},{"id":"81957","type":"tv","title":"The Ghost Detective","poster":"https://image.tmdb.org/t/p/w342/bbGOIFF4QNyTDygDBqMQSc76Anr.jpg","year":"2018","result":"HD","language":["Hindi"],"country":["KR"],"original_language":"ko","genres":["Action & Adventure","Crime"],"imdb_id":"tt8784636","latest_uploaded_season":1,"total_uploaded_episodes":16},{"id":"80919","type":"tv","title":"Still 17","poster":"https://image.tmdb.org/t/p/w342/rufDz8f0SD86RyFwDNSQUROK51s.jpg","year":"2018","result":"HD","language":["Hindi"],"country":["KR"],"original_language":"ko","genres":["Drama","Comedy","Crime","Mystery"],"imdb_id":"tt8648696","latest_uploaded_season":1,"total_uploaded_episodes":16},{"id":"80331","type":"tv","title":"Dreaming Of You","poster":"https://image.tmdb.org/t/p/w342/iV0o83MRMSECBaXxakQ8UpJVcl4.jpg","year":"2018","result":"HD","language":["Hindi"],"country":["TR"],"original_language":"tr","genres":["Drama","Comedy"],"imdb_id":"tt8586316","latest_uploaded_season":1,"total_uploaded_episodes":35},{"id":"83941","type":"tv","title":"Encounter","poster":"https://image.tmdb.org/t/p/w342/dtP3ZJoMrKYVqPyz6ypHvveaKFo.jpg","year":"2018","result":"HD","language":["Hindi"],"country":["KR"],"original_language":"ko","genres":["Drama"],"imdb_id":"tt8769260","latest_uploaded_season":1,"total_uploaded_episodes":16},{"id":"82714","type":"tv","title":"Room No. 9","poster":"https://image.tmdb.org/t/p/w342/8jCKwe2AoFpnS2uiftmuCMjjdUb.jpg","year":"2018","result":"HD","language":["Hindi"],"country":["KR"],"original_language":"ko","genres":["Drama","Mystery","Sci-Fi & Fantasy"],"imdb_id":"tt8970084","latest_uploaded_season":1,"total_uploaded_episodes":16},{"id":"81271","type":"tv","title":"Sabuesos","poster":"https://image.tmdb.org/t/p/w342/mC5x6sNZr8x9Z7t1umZyoriH0mZ.jpg","year":"2018","result":"HD","language":["Hindi"],"country":["ES"],"original_language":"es","genres":["Action & Adventure","Mystery","Family","Comedy","Crime"],"imdb_id":"tt7090454","latest_uploaded_season":1,"total_uploaded_episodes":10},{"id":"82462","type":"tv","title":"The Third Charm","poster":"https://image.tmdb.org/t/p/w342/80Pauk4xKUzwK9hf94ZJSTpZtBB.jpg","year":"2018","result":"HD","language":["Hindi"],"country":["KR"],"original_language":"ko","genres":["Drama"],"imdb_id":"tt8954026","latest_uploaded_season":1,"total_uploaded_episodes":16},{"id":"78869","type":"tv","title":"Clean with Passion for Now","poster":"https://image.tmdb.org/t/p/w342/6ig2QeFmZuiHi07wpD4OULQiUmx.jpg","year":"2018","result":"HD","language":["Hindi"],"country":["KR"],"original_language":"ko","genres":["Comedy","Drama"],"imdb_id":"tt7981562","latest_uploaded_season":1,"total_uploaded_episodes":16},{"id":"79238","type":"tv","title":"Come and Hug Me","poster":"https://image.tmdb.org/t/p/w342/ph5aNGwzi2ktTcCKBUtr4SIAcTy.jpg","year":"2018","result":"HD","language":["Hindi"],"country":["KR"],"original_language":"ko","genres":["Drama","Mystery"],"imdb_id":"tt8269398","latest_uploaded_season":1,"total_uploaded_episodes":16},{"id":"495925","type":"movie","title":"Doraemon: Nobita's Treasure Island","poster":"https://image.tmdb.org/t/p/w342/t1YkpYAxzD1lxNbjoZBpvYWkucO.jpg","year":"2018","result":"HD","language":["Hindi"],"country":["JP"],"original_language":"ja","genres":["Animation","Adventure","Fantasy","Science Fiction","Comedy","Family"],"imdb_id":"tt8098546"},{"id":"80741","type":"tv","title":"Familiar Wife","poster":"https://image.tmdb.org/t/p/w342/ds84fVavAJX872qh4kUHAfqjp3b.jpg","year":"2018","result":"HD","language":["Hindi"],"country":["KR"],"original_language":"ko","genres":["Drama","Sci-Fi & Fantasy"],"imdb_id":"tt8487786","latest_uploaded_season":1,"total_uploaded_episodes":16},{"id":"84464","type":"tv","title":"My Strange Hero","poster":"https://image.tmdb.org/t/p/w342/p8Uzpksp6TRKwyn6L6EtZd4fJcx.jpg","year":"2018","result":"HD","language":["Hindi"],"country":["KR"],"original_language":"ko","genres":["Drama","Comedy","Mystery"],"imdb_id":"tt9165992","latest_uploaded_season":1,"total_uploaded_episodes":16},{"id":"61889","type":"tv","title":"Marvel's Daredevil","poster":"https://image.tmdb.org/t/p/w342/QWbPaDxiB6LW2LjASknzYBvjMj.jpg","year":"2018","result":"HD","language":["Hindi"],"country":["US"],"original_language":"en","genres":["Crime","Drama","Action & Adventure"],"imdb_id":"tt3322312","latest_uploaded_season":3,"total_uploaded_episodes":17},{"id":"534780","type":"movie","title":"Andhadhun","poster":"https://image.tmdb.org/t/p/w342/dy3K6hNvwE05siGgiLJcEiwgpdO.jpg","year":"2018","result":"HD","language":["Hindi"],"country":["IN"],"original_language":"hi","genres":["Crime","Mystery","Thriller","Comedy"],"imdb_id":"tt8108198"},{"id":"550776","type":"movie","title":"Believe Me: The Abduction of Lisa McVey","poster":"https://image.tmdb.org/t/p/w342/qbJEzCzEKDHPZDiRvSSBiYEKaAH.jpg","year":"2018","result":"HD","language":["Hindi"],"country":["CA"],"original_language":"en","genres":["Drama","TV Movie","Crime"],"imdb_id":"tt9072202"},{"id":"337167","type":"movie","title":"Fifty Shades Freed","poster":"https://image.tmdb.org/t/p/w342/jjPJ4s3DWZZvI4vw8Xfi4Vqa1Q8.jpg","year":"2018","result":"HD","language":["Hindi"],"country":["US"],"original_language":"en","genres":["Drama","Romance"],"imdb_id":"tt4477536"},{"id":"555020","type":"movie","title":"Legend of the Ancient Sword","poster":"https://image.tmdb.org/t/p/w342/1QHwlirJb7MJJcvTICMJvfG3oyh.jpg","year":"2018","result":"HD","language":["Hindi"],"country":["CN"],"original_language":"zh","genres":["Action","Fantasy","Adventure"],"imdb_id":"tt5806792"},{"id":"514885","type":"movie","title":"Strangers of Patience","poster":"https://image.tmdb.org/t/p/w342/yLuHbglmsqvOXCULRTDYTUSAYZm.jpg","year":"2018","result":"HD","language":["Hindi"],"country":["RU"],"original_language":"ru","genres":["Thriller"],"imdb_id":"tt9715742"},{"id":"448358","type":"movie","title":"Darker Shades of Elise","poster":"https://image.tmdb.org/t/p/w342/d2FHfaJ2FM6IRnQbFS0O3hefeZV.jpg","year":"2018","result":"HD","language":["Hindi"],"country":["GB"],"original_language":"en","genres":["Thriller","Drama"],"imdb_id":"tt4208432"},{"id":"592041","type":"movie","title":"Dirty Work","poster":"https://image.tmdb.org/t/p/w342/pLkeHxzyTK5F2TGWruTkebtPKtd.jpg","year":"2018","result":"HD","language":["Hindi"],"country":["GB"],"original_language":"en","genres":["Romance","Drama"],"imdb_id":"tt7243754"},{"id":"517508","type":"movie","title":"Hello Guru Prema Kosame","poster":"https://image.tmdb.org/t/p/w342/7atXs7vvt7P6eHqMkPEjvPcG9af.jpg","year":"2018","result":"HD","language":["Hindi"],"country":["IN"],"original_language":"te","genres":["Romance","Family"],"imdb_id":"tt8072400"},{"id":"483670","type":"movie","title":"Redrum","poster":"https://image.tmdb.org/t/p/w342/pxHVUm1IKRkoffKCuO9Xk90tONL.jpg","year":"2018","result":"HD","language":["Hindi"],"country":[],"original_language":"hi","genres":["Thriller"],"imdb_id":"tt4682128"},{"id":"795746","type":"movie","title":"LUCID","poster":"https://image.tmdb.org/t/p/w342/a8Zr3qJck0QQAKLPM8d6QpfMdtK.jpg","year":"2018","result":"HD","language":["Hindi"],"country":[],"original_language":"en","genres":["Science Fiction"],"imdb_id":"tt8721012"},{"id":"703297","type":"movie","title":"Baby Frankenstein","poster":"https://image.tmdb.org/t/p/w342/suUsjsbWKAOLGhBSJQxrkAYcH9O.jpg","year":"2018","result":"HD","language":["Hindi"],"country":["US"],"original_language":"en","genres":["Horror","Comedy"],"imdb_id":"tt4949388"},{"id":"636372","type":"movie","title":"Oxalis","poster":"https://image.tmdb.org/t/p/w342/xMWaMPYzNEnq2cRLrbos2HWsYVt.jpg","year":"2018","result":"HD","language":["Hindi"],"country":[],"original_language":"en","genres":["Science Fiction"],"imdb_id":"tt4941032"},{"id":"586552","type":"movie","title":"Farzand","poster":"https://image.tmdb.org/t/p/w342/7ImVIuDZbTpueg0yxG9WvzKPEwF.jpg","year":"2018","result":"HD","language":["Hindi"],"country":["IN"],"original_language":"mr","genres":["History","Action"],"imdb_id":"tt8396238"},{"id":"572931","type":"movie","title":"Mulshi Pattern","poster":"https://image.tmdb.org/t/p/w342/dStDErSlgw5oYolA8t0F8o1aZi4.jpg","year":"2018","result":"HD","language":["Hindi"],"country":[],"original_language":"mr","genres":["Crime"],"imdb_id":"tt9310280"},{"id":"557972","type":"movie","title":"Take Point","poster":"https://image.tmdb.org/t/p/w342/fl9VBbIGHUoBY6Ixzt9lEGjhxzs.jpg","year":"2018","result":"HD","language":["Hindi"],"country":["KR"],"original_language":"ko","genres":["Action","Thriller"],"imdb_id":"tt7156436"},{"id":"548928","type":"movie","title":"The Marine 6: Close Quarters","poster":"https://image.tmdb.org/t/p/w342/ApPQa5MVbHkVXNKrXHpHSXd1puu.jpg","year":"2018","result":"HD","language":["Hindi"],"country":["US","GB"],"original_language":"en","genres":["Action"],"imdb_id":"tt7668724"},{"id":"547026","type":"movie","title":"FryDay","poster":"https://image.tmdb.org/t/p/w342/wQ3Vt9lthFqPsCAlt1MmwfoXHYl.jpg","year":"2018","result":"HD","language":["Hindi"],"country":["IN"],"original_language":"hi","genres":["Comedy"],"imdb_id":"tt7526836"},{"id":"541757","type":"movie","title":"Dakuaan Da Munda","poster":"https://image.tmdb.org/t/p/w342/f8hS7PeaDefxFAUdBh6r75rYQN4.jpg","year":"2018","result":"HD","language":["Hindi"],"country":[],"original_language":"pa","genres":["Action","Drama"],"imdb_id":"tt8409498"},{"id":"533238","type":"movie","title":"Kolamavu Kokila","poster":"https://image.tmdb.org/t/p/w342/bnbZ4tscBieDg7f14aUJZekqlZS.jpg","year":"2018","result":"HD","language":["Hindi"],"country":["IN"],"original_language":"ta","genres":["Comedy","Thriller"],"imdb_id":"tt7986222"},{"id":"530254","type":"movie","title":"The Witch: Part 1. The Subversion","poster":"https://image.tmdb.org/t/p/w342/4i2wo2ja5g2PmUxWa1a2eYIboZf.jpg","year":"2018","result":"HD","language":["Hindi"],"country":["HK","KR"],"original_language":"ko","genres":["Action","Mystery","Science Fiction"],"imdb_id":"tt8574252"}]}