{"page":22,"total_pages":66,"total_items":3272,"items":[{"id":"1000520","type":"movie","title":"Midnight Sun","poster":"https://image.tmdb.org/t/p/w342/yn66Fjc25hf0GnFN0CFbBxnAYhD.jpg","year":"2025","result":"HD","language":["Hindi"],"country":["KR"],"original_language":"ko","genres":["Music","Drama","Romance"],"imdb_id":"tt26736926"},{"id":"1000438","type":"movie","title":"Emergency","poster":"https://image.tmdb.org/t/p/w342/yp5eg70g6LaZoBiApOv9oerzvvX.jpg","year":"2025","result":"HD","language":["English"],"country":["IN"],"original_language":"hi","genres":["Drama","History","War"],"imdb_id":"tt21279420"},{"id":"997113","type":"movie","title":"Hedda","poster":"https://image.tmdb.org/t/p/w342/ecflk7AZf0ij205yDswjlvdxlCO.jpg","year":"2025","result":"HD","language":["Hindi"],"country":["US"],"original_language":"en","genres":["Drama","Thriller","Romance"],"imdb_id":"tt27953589"},{"id":"991494","type":"movie","title":"The SpongeBob Movie: Search for SquarePants","poster":"https://image.tmdb.org/t/p/w342/pDWYW9v8fmJdA7N0I1MOdQA3ETq.jpg","year":"2025","result":"HD","language":["Hindi"],"country":["US"],"original_language":"en","genres":["Animation","Family","Comedy","Adventure","Fantasy"],"imdb_id":"tt23572848"},{"id":"986097","type":"movie","title":"HIM","poster":"https://image.tmdb.org/t/p/w342/qPJzcYR2f1O1uynYBCVPPJuOiAH.jpg","year":"2025","result":"HD","language":["Hindi"],"country":["US","JP"],"original_language":"en","genres":["Horror","Mystery"],"imdb_id":"tt20990442"},{"id":"986056","type":"movie","title":"Thunderbolts*","poster":"https://image.tmdb.org/t/p/w342/hqcexYHbiTBfDIdDWxrxPtVndBX.jpg","year":"2025","result":"HD","language":["Hindi"],"country":["US"],"original_language":"en","genres":["Action","Science Fiction","Adventure"],"imdb_id":"tt20969586"},{"id":"985667","type":"movie","title":"Gajaana","poster":"https://image.tmdb.org/t/p/w342/4T15krfH63uSTk9wI4yIN7YcqkZ.jpg","year":"2025","result":"HD","language":["Hindi"],"country":[],"original_language":"ta","genres":["Comedy","Adventure","Fantasy","Thriller"],"imdb_id":"tt31924094"},{"id":"985379","type":"movie","title":"Diesel","poster":"https://image.tmdb.org/t/p/w342/A3jv9cICPkVHx48h2NZXW4c1ZnP.jpg","year":"2025","result":"HD","language":["Hindi"],"country":["IN"],"original_language":"ta","genres":["Action","Romance","Drama"],"imdb_id":"tt28252935"},{"id":"982843","type":"movie","title":"The Great Flood","poster":"https://image.tmdb.org/t/p/w342/1tUOZQDgZaGqZtrB21MieiXARL2.jpg","year":"2025","result":"HD","language":["Hindi"],"country":["KR"],"original_language":"ko","genres":["Science Fiction","Adventure","Drama"],"imdb_id":"tt29927663"},{"id":"967941","type":"movie","title":"Wicked: For Good","poster":"https://image.tmdb.org/t/p/w342/lDL8vPUuJs2LsPHPjAGhkbYTpNX.jpg","year":"2025","result":"HD","language":["Hindi"],"country":["US"],"original_language":"en","genres":["Fantasy","Adventure","Romance"],"imdb_id":"tt19847976"},{"id":"965087","type":"movie","title":"Phule","poster":"https://image.tmdb.org/t/p/w342/A3Jv2F0p56E3XxX8CSRHbgMDEDI.jpg","year":"2025","result":"HD","language":["Hindi"],"country":["IN"],"original_language":"hi","genres":["History","Drama"],"imdb_id":"tt21108804"},{"id":"962851","type":"movie","title":"Kaal Trighori","poster":"https://image.tmdb.org/t/p/w342/bFwWxy1e6FGIoEAh3z4Y7KKwMmT.jpg","year":"2025","result":"HD","language":["Hindi"],"country":["IN"],"original_language":"hi","genres":["Thriller","Horror"],"imdb_id":"tt18815884"},{"id":"957119","type":"movie","title":"Sidelined: The QB and Me","poster":"https://image.tmdb.org/t/p/w342/mSL6truNrWP1Bn9ng1rN0SkMI4f.jpg","year":"2025","result":"HD","language":["Hindi"],"country":["CA"],"original_language":"en","genres":["Comedy","Romance"],"imdb_id":"tt19704542"},{"id":"955496","type":"movie","title":"Fateh","poster":"https://image.tmdb.org/t/p/w342/cw8DitAELYtWSD1P8yd0hzufVHj.jpg","year":"2025","result":"HD","language":["Hindi"],"country":["IN"],"original_language":"hi","genres":["Action","Crime","Thriller"],"imdb_id":"tt27679608"},{"id":"950387","type":"movie","title":"A Minecraft Movie","poster":"https://image.tmdb.org/t/p/w342/yFHHfHcUgGAxziP1C3lLt0q2T4s.jpg","year":"2025","result":"HD","language":["Hindi"],"country":["SE","US"],"original_language":"en","genres":["Family","Fantasy","Comedy","Adventure"],"imdb_id":"tt3566834"},{"id":"949716","type":"movie","title":"Vidaamuyarchi","poster":"https://image.tmdb.org/t/p/w342/yx7AYFLoupzBfdfEAlDFuOiei2A.jpg","year":"2025","result":"HD","language":["Hindi"],"country":["IN"],"original_language":"ta","genres":["Action","Drama","Mystery","Thriller","Crime"],"imdb_id":"tt18926098"},{"id":"949380","type":"movie","title":"Vanangaan","poster":"https://image.tmdb.org/t/p/w342/3L7lr67HqidLP3SYsLmFq3JZ8lR.jpg","year":"2025","result":"HD","language":["Hindi"],"country":["IN"],"original_language":"ta","genres":["Drama","Action"],"imdb_id":"tt15816398"},{"id":"945836","type":"movie","title":"Odum Kuthira Chadum Kuthira","poster":"https://image.tmdb.org/t/p/w342/A7tcEl28jq2dOm3iU2WqGVzGnTP.jpg","year":"2025","result":"HD","language":["Hindi"],"country":["IN"],"original_language":"ml","genres":["Drama","Romance","Comedy"],"imdb_id":"tt22001978"},{"id":"942058","type":"movie","title":"Tehran","poster":"https://image.tmdb.org/t/p/w342/gbz9Y1NwnlE2GxXmgWTKZC1fste.jpg","year":"2025","result":"HD","language":["Hindi"],"country":["IN"],"original_language":"hi","genres":["Action","Thriller"],"imdb_id":"tt21818782"},{"id":"941109","type":"movie","title":"Play Dirty","poster":"https://image.tmdb.org/t/p/w342/ovZ0zq0NwRghtWI1oLaM0lWuoEw.jpg","year":"2025","result":"HD","language":["Hindi"],"country":["US"],"original_language":"en","genres":["Crime","Action","Thriller"],"imdb_id":"tt18392014"},{"id":"936667","type":"movie","title":"Narivetta","poster":"https://image.tmdb.org/t/p/w342/3xhdWk6y5hVUAOhW7MsBMA7wb10.jpg","year":"2025","result":"HD","language":["Hindi"],"country":["IN"],"original_language":"ml","genres":["Drama","Action"],"imdb_id":"tt28479285"},{"id":"936108","type":"movie","title":"Smurfs","poster":"https://image.tmdb.org/t/p/w342/8o6lkhL32xQJeB52IIG1us5BVey.jpg","year":"2025","result":"HD","language":["Hindi"],"country":["US","BE"],"original_language":"en","genres":["Animation","Family","Fantasy"],"imdb_id":"tt18069420"},{"id":"934456","type":"movie","title":"Americana","poster":"https://image.tmdb.org/t/p/w342/83Gis9pOKCvAdaKXCNChey4IZyL.jpg","year":"2025","result":"HD","language":["Hindi"],"country":["LU","CA","US"],"original_language":"en","genres":["Crime","Thriller","Western","Action"],"imdb_id":"tt17676734"},{"id":"927254","type":"movie","title":"The Twits","poster":"https://image.tmdb.org/t/p/w342/zNP1nMRFqa9qAkpCkLeHa1V7kDR.jpg","year":"2025","result":"HD","language":["Hindi"],"country":["GB","US"],"original_language":"en","genres":["Animation","Comedy","Family","Fantasy"],"imdb_id":"tt0498396"},{"id":"927224","type":"movie","title":"Vaamana","poster":"https://image.tmdb.org/t/p/w342/3MoMjkrhqJMKESO2L7SQPghx2uK.jpg","year":"2025","result":"HD","language":["Hindi"],"country":["IN"],"original_language":"kn","genres":["Action"],"imdb_id":"tt21810074"},{"id":"926606","type":"movie","title":"The Home","poster":"https://image.tmdb.org/t/p/w342/r0NUt1M62StNgvSLmLsmJADbHpg.jpg","year":"2025","result":"HD","language":["Hindi"],"country":["US"],"original_language":"en","genres":["Mystery","Horror","Thriller"],"imdb_id":"tt17023012"},{"id":"911430","type":"movie","title":"F1","poster":"https://image.tmdb.org/t/p/w342/vqBmyAj0Xm9LnS1xe1MSlMAJyHq.jpg","year":"2025","result":"HD","language":["Hindi"],"country":["US"],"original_language":"en","genres":["Action","Drama"],"imdb_id":"tt16311594"},{"id":"900838","type":"movie","title":"The Bengal Files","poster":"https://image.tmdb.org/t/p/w342/3gbZh1S735CLz7NwFRb7bycUWkP.jpg","year":"2025","result":"HD","language":["Hindi"],"country":["IN"],"original_language":"hi","genres":["Drama","History","Thriller"],"imdb_id":"tt15416342"},{"id":"896536","type":"movie","title":"The Legend of Ochi","poster":"https://image.tmdb.org/t/p/w342/qYyEelO4JfOwE0Ui5KsrCE0O8UA.jpg","year":"2025","result":"HD","language":["Hindi"],"country":["US","FI"],"original_language":"en","genres":["Family","Fantasy","Adventure"],"imdb_id":"tt8866456"},{"id":"870028","type":"movie","title":"The Accountant²","poster":"https://image.tmdb.org/t/p/w342/lUvfTcOZiK0sdcX0WNLPbMyKjGm.jpg","year":"2025","result":"HD","language":["Hindi"],"country":["US"],"original_language":"en","genres":["Mystery","Crime","Thriller"],"imdb_id":"tt7068946"},{"id":"846422","type":"movie","title":"The Old Guard 2","poster":"https://image.tmdb.org/t/p/w342/wqfu3bPLJaEWJVk3QOm0rKhxf1A.jpg","year":"2025","result":"HD","language":["Hindi"],"country":["US"],"original_language":"en","genres":["Action","Fantasy"],"imdb_id":"tt14961624"},{"id":"845861","type":"movie","title":"Akshardham: Operation Vajra Shakti","poster":"https://image.tmdb.org/t/p/w342/ckghAN8FuYY2icUyJjVkKXiBrek.jpg","year":"2025","result":"HD","language":["Hindi"],"country":["IN"],"original_language":"hi","genres":["Action","Drama"],"imdb_id":"tt37436004"},{"id":"822119","type":"movie","title":"Captain America: Brave New World","poster":"https://image.tmdb.org/t/p/w342/pzIddUEMWhWzfvLI3TwxUG2wGoi.jpg","year":"2025","result":"HD","language":["Hindi"],"country":["US"],"original_language":"en","genres":["Action","Thriller","Science Fiction"],"imdb_id":"tt14513804"},{"id":"812583","type":"movie","title":"Wake Up Dead Man: A Knives Out Mystery","poster":"https://image.tmdb.org/t/p/w342/qCOGGi8JBVEZMc3DVby8rUivyXz.jpg","year":"2025","result":"HD","language":["Hindi"],"country":["US"],"original_language":"en","genres":["Thriller","Mystery","Comedy"],"imdb_id":"tt14364480"},{"id":"811944","type":"movie","title":"Game Changer","poster":"https://image.tmdb.org/t/p/w342/qtOGsZoLW7QceqKmsOy5nSM6Aik.jpg","year":"2025","result":"HD","language":["Hindi"],"country":["IN"],"original_language":"te","genres":["Action","Drama"],"imdb_id":"tt14209618"},{"id":"803796","type":"movie","title":"KPop Demon Hunters","poster":"https://image.tmdb.org/t/p/w342/zT7Lhw3BhJbMkRqm9Zlx2YGMsY0.jpg","year":"2025","result":"HD","language":["Hindi"],"country":["US"],"original_language":"en","genres":["Fantasy","Music","Comedy","Animation"],"imdb_id":"tt14205554"},{"id":"798645","type":"movie","title":"The Running Man","poster":"https://image.tmdb.org/t/p/w342/dKL78O9zxczVgjtNcQ9UkbYLzqX.jpg","year":"2025","result":"HD","language":["Hindi"],"country":["US","GB"],"original_language":"en","genres":["Action","Thriller","Science Fiction"],"imdb_id":"tt14107334"},{"id":"793387","type":"movie","title":"Holy Night: Demon Hunters","poster":"https://image.tmdb.org/t/p/w342/v3Mo77Qjp6pctpD4eJaNT6kFRSB.jpg","year":"2025","result":"HD","language":["Hindi"],"country":["KR"],"original_language":"ko","genres":["Action","Fantasy","Horror","Thriller"],"imdb_id":"tt15766876"},{"id":"792855","type":"movie","title":"Moonwalk","poster":"https://image.tmdb.org/t/p/w342/72UnYskIKh9LTVIIV9wmDjTsB6d.jpg","year":"2025","result":"HD","language":["Hindi"],"country":["IN"],"original_language":"ml","genres":["Drama"],"imdb_id":"tt14177202"},{"id":"787747","type":"movie","title":"Shell","poster":"https://image.tmdb.org/t/p/w342/2XBNS8DxMFP7qOoTOY7cc8OYFwI.jpg","year":"2025","result":"HD","language":["Hindi"],"country":["US"],"original_language":"en","genres":["Horror","Drama","Thriller"],"imdb_id":"tt12706836"},{"id":"777443","type":"movie","title":"The Electric State","poster":"https://image.tmdb.org/t/p/w342/tn6gDIrQMwHSivF01igLfbggmYD.jpg","year":"2025","result":"HD","language":["Hindi"],"country":["US"],"original_language":"en","genres":["Science Fiction","Adventure","Action"],"imdb_id":"tt7766378"},{"id":"766369","type":"movie","title":"Nocturnal","poster":"https://image.tmdb.org/t/p/w342/3C1vdtKVdtBCQaM2SZG9YUe6tuW.jpg","year":"2025","result":"HD","language":["Hindi"],"country":["KR"],"original_language":"ko","genres":["Mystery","Thriller"],"imdb_id":"tt34574758"},{"id":"760329","type":"movie","title":"The Smashing Machine","poster":"https://image.tmdb.org/t/p/w342/mPuBDGrVIBGOymBxR6rO3iIvBSe.jpg","year":"2025","result":"HD","language":["Hindi"],"country":["US"],"original_language":"en","genres":["Drama","History"],"imdb_id":"tt11214558"},{"id":"758923","type":"movie","title":"Baaghi 4","poster":"https://image.tmdb.org/t/p/w342/u2YEFW5o2Y7RAw2K4hSA4TEXF3Q.jpg","year":"2025","result":"HD","language":["Hindi"],"country":["IN"],"original_language":"hi","genres":["Action","Romance","Thriller"],"imdb_id":"tt6203702"},{"id":"757725","type":"movie","title":"Shadow Force","poster":"https://image.tmdb.org/t/p/w342/9LCpHFXZgkqp2AWiYq0mGbfZauk.jpg","year":"2025","result":"HD","language":["Hindi"],"country":["US"],"original_language":"en","genres":["Action","Thriller"],"imdb_id":"tt11092020"},{"id":"744653","type":"movie","title":"The Thursday Murder Club","poster":"https://image.tmdb.org/t/p/w342/jbnazCHr8S2l2glyvjPTpa4NbEw.jpg","year":"2025","result":"HD","language":["Hindi"],"country":["US"],"original_language":"en","genres":["Comedy","Mystery","Crime"],"imdb_id":"tt12001534"},{"id":"729713","type":"movie","title":"Mom","poster":"https://image.tmdb.org/t/p/w342/2830dGe0I5KNBf2VT9h4iKHZQIS.jpg","year":"2025","result":"HD","language":["Hindi"],"country":["CA","US"],"original_language":"en","genres":["Horror","Thriller"],"imdb_id":"tt5923662"},{"id":"727121","type":"movie","title":"Hari Hara Veera Mallu: Part 1 – Sword vs Spirit","poster":"https://image.tmdb.org/t/p/w342/mKM3yC7kepjfs8A723dqd9hOky8.jpg","year":"2025","result":"HD","language":["Hindi"],"country":["IN"],"original_language":"te","genres":["Action","Adventure","Drama"],"imdb_id":"tt2691804"},{"id":"701387","type":"movie","title":"Bugonia","poster":"https://image.tmdb.org/t/p/w342/rSdOua3wKMEaFWDcKAYWRjXQWOt.jpg","year":"2025","result":"HD","language":["Hindi"],"country":["IE","KR","US","CA"],"original_language":"en","genres":["Science Fiction","Thriller","Comedy"],"imdb_id":"tt12300742"},{"id":"668489","type":"movie","title":"Havoc","poster":"https://image.tmdb.org/t/p/w342/ubP2OsF3GlfqYPvXyLw9d78djGX.jpg","year":"2025","result":"HD","language":["Hindi"],"country":["GB","US"],"original_language":"en","genres":["Action","Crime","Thriller","Drama"],"imdb_id":"tt14123284"}]}