{"page":62,"total_pages":66,"total_items":3272,"items":[{"id":"1396","type":"tv","title":"Breaking Bad","poster":"https://image.tmdb.org/t/p/w342/ztkUQFLlC19CCMYHW9o1zWhJRNq.jpg","year":"2012","result":"HD","language":["Hindi"],"country":["US"],"original_language":"en","genres":["Drama","Crime"],"imdb_id":"tt0903747","latest_uploaded_season":5,"total_uploaded_episodes":62},{"id":"43152","type":"tv","title":"Rooftop Prince","poster":"https://image.tmdb.org/t/p/w342/2bHHzWAMPxIVv7e0FgTQDTYd1y5.jpg","year":"2012","result":"HD","language":["Hindi"],"country":["KR"],"original_language":"ko","genres":["Comedy","Drama","Sci-Fi & Fantasy"],"imdb_id":"tt2401162","latest_uploaded_season":1,"total_uploaded_episodes":20},{"id":"75780","type":"movie","title":"Jack Reacher","poster":"https://image.tmdb.org/t/p/w342/uQBbjrLVsUibWxNDGA4Czzo8lwz.jpg","year":"2012","result":"HD","language":["Hindi"],"country":["US"],"original_language":"en","genres":["Crime","Drama","Thriller","Action"],"imdb_id":"tt0790724"},{"id":"160642","type":"movie","title":"Doraemon: Nobita and the Island of Miracles – Animal Adventure","poster":"https://image.tmdb.org/t/p/w342/mUJGtID4UyO6nLE0Ztqq48y4Hdw.jpg","year":"2012","result":"HD","language":["Hindi"],"country":["JP"],"original_language":"ja","genres":["Family","Animation","Adventure","Fantasy","Comedy","Science Fiction"],"imdb_id":"tt2271315"},{"id":"84194","type":"movie","title":"Excision","poster":"https://image.tmdb.org/t/p/w342/3aLgB6FTQlNanER0RpckbKdwyh9.jpg","year":"2012","result":"HD","language":["Hindi"],"country":["US"],"original_language":"en","genres":["Drama","Horror","Comedy"],"imdb_id":"tt1984153"},{"id":"117942","type":"movie","title":"Girls Gone Dead","poster":"https://image.tmdb.org/t/p/w342/h4fkp6KuY55vocpkInbFeXOSrgT.jpg","year":"2012","result":"HD","language":["Hindi"],"country":["US"],"original_language":"en","genres":["Horror","Comedy"],"imdb_id":"tt1884318"},{"id":"73567","type":"movie","title":"Killer Joe","poster":"https://image.tmdb.org/t/p/w342/6Tt1TQeOI4TpXu1cBUgNGNGeznW.jpg","year":"2012","result":"HD","language":["Hindi"],"country":["US"],"original_language":"en","genres":["Crime","Thriller","Drama"],"imdb_id":"tt1726669"},{"id":"84305","type":"movie","title":"Lay the Favorite","poster":"https://image.tmdb.org/t/p/w342/n57AyhFm5Jhe2qu0yuShYlokPmQ.jpg","year":"2012","result":"HD","language":["Hindi"],"country":["FR","GB","US"],"original_language":"en","genres":["Drama","Comedy"],"imdb_id":"tt1132449"},{"id":"94603","type":"movie","title":"Strippers vs. Werewolves","poster":"https://image.tmdb.org/t/p/w342/OscWRpUcnqhgqxMJQCxVCwa5ss.jpg","year":"2012","result":"HD","language":["Hindi"],"country":["GB"],"original_language":"en","genres":["Comedy","Horror","Action","Crime","Fantasy"],"imdb_id":"tt1702009"},{"id":"89492","type":"movie","title":"This Is 40","poster":"https://image.tmdb.org/t/p/w342/mzUuOIFoVkRTHACRb58vm6mkbBN.jpg","year":"2012","result":"HD","language":["Hindi"],"country":["US"],"original_language":"en","genres":["Comedy"],"imdb_id":"tt1758830"},{"id":"122857","type":"movie","title":"Universal Soldier: Day of Reckoning","poster":"https://image.tmdb.org/t/p/w342/4pefZa0U5h0avmdvRwWB4xjMFl6.jpg","year":"2012","result":"HD","language":["Hindi"],"country":["US"],"original_language":"en","genres":["Action","Science Fiction","Thriller"],"imdb_id":"tt1659343"},{"id":"138735","type":"movie","title":"Little Thirteen","poster":"https://image.tmdb.org/t/p/w342/8soOp2XFbOyeFybl6pghZjXJXw0.jpg","year":"2012","result":"HD","language":["Hindi"],"country":["DE"],"original_language":"de","genres":["Drama"],"imdb_id":"tt2215267"},{"id":"76493","type":"movie","title":"The Dictator","poster":"https://image.tmdb.org/t/p/w342/n0W7kajF4GFMRk2c0wWwMQqTaDM.jpg","year":"2012","result":"HD","language":["Hindi"],"country":["US","ES","MA"],"original_language":"en","genres":["Comedy"],"imdb_id":"tt1645170"},{"id":"150584","type":"movie","title":"Clash of the Empires","poster":"https://image.tmdb.org/t/p/w342/wMovcNZDHV5KtEXni3pMWkxG0w9.jpg","year":"2012","result":"HD","language":["Hindi"],"country":["US"],"original_language":"en","genres":["Fantasy","Adventure","Action"],"imdb_id":"tt2456594"},{"id":"150213","type":"movie","title":"Pokémon the Movie: Kyurem vs. the Sword of Justice","poster":"https://image.tmdb.org/t/p/w342/7gQEAR8aaCQRtJi7wq26ST5hukn.jpg","year":"2012","result":"HD","language":["Hindi"],"country":["JP"],"original_language":"ja","genres":["Family","Animation","Action","Adventure","Fantasy","Science Fiction"],"imdb_id":"tt2549540"},{"id":"68721","type":"tv","title":"Wives with Knives","poster":"https://image.tmdb.org/t/p/w342/65Tl0yhwZrOUf55kRdLLdsg0aKC.jpg","year":"2012","result":"HD","language":["Hindi"],"country":[],"original_language":"en","genres":["Documentary","Crime"],"imdb_id":"tt2537956","latest_uploaded_season":1,"total_uploaded_episodes":1},{"id":"49051","type":"movie","title":"The Hobbit: An Unexpected Journey","poster":"https://image.tmdb.org/t/p/w342/yHA9Fc37VmpUA5UncTxxo3rTGVA.jpg","year":"2012","result":"HD","language":["Hindi"],"country":["NZ","US"],"original_language":"en","genres":["Adventure","Fantasy","Action"],"imdb_id":"tt0903624"},{"id":"46435","type":"tv","title":"Robotics;Notes","poster":"https://image.tmdb.org/t/p/w342/iRD5fwcKNqCuu7q6LqwCZP2iHpc.jpg","year":"2012","result":"HD","language":["Hindi"],"country":["JP"],"original_language":"ja","genres":["Animation","Drama","Mystery","Sci-Fi & Fantasy"],"imdb_id":"tt2293974","latest_uploaded_season":1,"total_uploaded_episodes":22},{"id":"43348","type":"tv","title":"Pablo Escobar: The Drug Lord","poster":"https://image.tmdb.org/t/p/w342/5u02bo70uzUFpEV9Pd0lFkLA9Es.jpg","year":"2012","result":"HD","language":["Hindi"],"country":["CO"],"original_language":"es","genres":["Crime","Drama"],"imdb_id":"tt2187850","latest_uploaded_season":1,"total_uploaded_episodes":113},{"id":"35359","type":"tv","title":"My Princess","poster":"https://image.tmdb.org/t/p/w342/le1U5CbfKkOpuk4IIL0jREydXRf.jpg","year":"2011","result":"HD","language":["Hindi"],"country":["KR"],"original_language":"ko","genres":["Comedy","Romance"],"imdb_id":"tt2375282","latest_uploaded_season":1,"total_uploaded_episodes":16},{"id":"51540","type":"movie","title":"Horrible Bosses","poster":"https://image.tmdb.org/t/p/w342/uQkUwgyFHAm0jGQERPG6Z9o9Zbj.jpg","year":"2011","result":"HD","language":["Hindi"],"country":["US"],"original_language":"en","genres":["Comedy","Crime"],"imdb_id":"tt1499658"},{"id":"137227","type":"movie","title":"Doraemon: Nobita and the New Steel Troops: Winged Angels","poster":"https://image.tmdb.org/t/p/w342/57ighjFjXpRwg7VeQ1GN6nf4OZH.jpg","year":"2011","result":"HD","language":["Hindi"],"country":["JP"],"original_language":"ja","genres":["Animation","Adventure","Family","Science Fiction","Fantasy","Comedy"],"imdb_id":"tt1851909"},{"id":"52449","type":"movie","title":"Bad Teacher","poster":"https://image.tmdb.org/t/p/w342/zpIY4qUSX91J9XpPgr0hFrk1eKr.jpg","year":"2011","result":"HD","language":["Hindi"],"country":["US"],"original_language":"en","genres":["Comedy"],"imdb_id":"tt1284575"},{"id":"65347","type":"movie","title":"Cold Fusion","poster":"https://image.tmdb.org/t/p/w342/j7KilE5raWHR58udQnCacFfr1t7.jpg","year":"2011","result":"HD","language":["Hindi"],"country":["US","BG"],"original_language":"en","genres":["Science Fiction","Action","TV Movie"],"imdb_id":"tt1678042"},{"id":"47327","type":"movie","title":"Drive Angry","poster":"https://image.tmdb.org/t/p/w342/nx2pChi41Xv4dsXsfSG3gnKcWaY.jpg","year":"2011","result":"HD","language":["Hindi"],"country":["US"],"original_language":"en","genres":["Fantasy","Thriller","Action","Crime"],"imdb_id":"tt1502404"},{"id":"50544","type":"movie","title":"Friends with Benefits","poster":"https://image.tmdb.org/t/p/w342/nKhhDFCdzxeJ3GUunQ570LDpUkz.jpg","year":"2011","result":"HD","language":["Hindi"],"country":["US"],"original_language":"en","genres":["Romance","Comedy"],"imdb_id":"tt1632708"},{"id":"37958","type":"movie","title":"Immortals","poster":"https://image.tmdb.org/t/p/w342/4SPPX5KIyaQ9O8n5rLvvUIiIhpF.jpg","year":"2011","result":"HD","language":["Hindi"],"country":["US"],"original_language":"en","genres":["Fantasy","Action","Drama"],"imdb_id":"tt1253864"},{"id":"71880","type":"movie","title":"Jack and Jill","poster":"https://image.tmdb.org/t/p/w342/kFeAxmZvu0TE4iuLRHQD6Cej8Wf.jpg","year":"2011","result":"HD","language":["Hindi"],"country":["US"],"original_language":"en","genres":["Comedy","Family"],"imdb_id":"tt0810913"},{"id":"535285","type":"movie","title":"Naked Run","poster":"https://image.tmdb.org/t/p/w342/axPZFjm4R5xiUd9riKMr8afmrcA.jpg","year":"2011","result":"HD","language":["Hindi"],"country":[],"original_language":"en","genres":["Comedy"],"imdb_id":"tt0852986"},{"id":"71325","type":"movie","title":"With Every Heartbeat","poster":"https://image.tmdb.org/t/p/w342/rYThXhsiDKWoFcxqMSvV2jZHSws.jpg","year":"2011","result":"HD","language":["Hindi"],"country":["SE"],"original_language":"sv","genres":["Romance","Drama"],"imdb_id":"tt1859522"},{"id":"41630","type":"movie","title":"No Strings Attached","poster":"https://image.tmdb.org/t/p/w342/9C09L1U9S13J4Ut029Qhu0oLcTQ.jpg","year":"2011","result":"HD","language":["Hindi"],"country":["US"],"original_language":"en","genres":["Comedy","Romance"],"imdb_id":"tt1411238"},{"id":"49444","type":"movie","title":"Kung Fu Panda 2","poster":"https://image.tmdb.org/t/p/w342/mtqqD00vB4PGRt20gWtGqFhrkd0.jpg","year":"2011","result":"HD","language":["Hindi"],"country":["US"],"original_language":"en","genres":["Animation","Family","Comedy","Action"],"imdb_id":"tt1302011"},{"id":"70006","type":"movie","title":"Never Back Down 2: The Beatdown","poster":"https://image.tmdb.org/t/p/w342/7VjtTMQpfy9GxMyjUfuYTfyatZz.jpg","year":"2011","result":"HD","language":["Hindi"],"country":["US"],"original_language":"en","genres":["Drama","Action"],"imdb_id":"tt1754264"},{"id":"64685","type":"movie","title":"Extremely Loud & Incredibly Close","poster":"https://image.tmdb.org/t/p/w342/6pszViNvKr1r31pP7gJNYDHEx5P.jpg","year":"2011","result":"HD","language":["Hindi"],"country":["US"],"original_language":"en","genres":["Drama"],"imdb_id":"tt0477302"},{"id":"58574","type":"movie","title":"Sherlock Holmes: A Game of Shadows","poster":"https://image.tmdb.org/t/p/w342/vskIKrMNUAhns05dx8WYBQfcJEs.jpg","year":"2011","result":"HD","language":["Hindi"],"country":["US"],"original_language":"en","genres":["Adventure","Crime","Mystery","Action"],"imdb_id":"tt1515091"},{"id":"55680","type":"movie","title":"The Craigslist Killer","poster":"https://image.tmdb.org/t/p/w342/6kv8tLMxL3OkotgmESuTVM0ihb5.jpg","year":"2011","result":"HD","language":["Hindi"],"country":["US"],"original_language":"en","genres":["Drama","Thriller"],"imdb_id":"tt1772373"},{"id":"12445","type":"movie","title":"Harry Potter and the Deathly Hallows: Part 2","poster":"https://image.tmdb.org/t/p/w342/c54HpQmuwXjHq2C9wmoACjxoom3.jpg","year":"2011","result":"HD","language":["Hindi"],"country":["GB","US"],"original_language":"en","genres":["Adventure","Fantasy"],"imdb_id":"tt1201607"},{"id":"1771","type":"movie","title":"Captain America: The First Avenger","poster":"https://image.tmdb.org/t/p/w342/vSNxAJTlD0r02V9sPYpOjqDZXUK.jpg","year":"2011","result":"HD","language":["Hindi"],"country":["US"],"original_language":"en","genres":["Action","Adventure","Science Fiction"],"imdb_id":"tt0458339"},{"id":"4607","type":"tv","title":"Lost","poster":"https://image.tmdb.org/t/p/w342/og6S0aTZU6YUJAbqxeKjCa3kY1E.jpg","year":"2010","result":"HD","language":["Hindi"],"country":["US"],"original_language":"en","genres":["Mystery","Action & Adventure","Drama"],"imdb_id":"tt0411008","latest_uploaded_season":6,"total_uploaded_episodes":118},{"id":"45202","type":"movie","title":"The Housemaid","poster":"https://image.tmdb.org/t/p/w342/acrlZuaS7ypiEUb3oZRA28Ox7TV.jpg","year":"2010","result":"HD","language":["Hindi"],"country":["KR"],"original_language":"ko","genres":["Thriller","Drama"],"imdb_id":"tt1314652"},{"id":"10192","type":"movie","title":"Shrek Forever After","poster":"https://image.tmdb.org/t/p/w342/6HrfPZtKcGmX2tUWW3cnciZTaSD.jpg","year":"2010","result":"HD","language":["Hindi"],"country":["US"],"original_language":"en","genres":["Comedy","Adventure","Fantasy","Animation","Family"],"imdb_id":"tt0892791"},{"id":"86184","type":"movie","title":"Doraemon: Nobita's Great Battle of the Mermaid King","poster":"https://image.tmdb.org/t/p/w342/lvi0MjGJvWPAAqQaxCwwMsLqBG8.jpg","year":"2010","result":"HD","language":["Hindi"],"country":["JP"],"original_language":"ja","genres":["Adventure","Family","Animation","Fantasy","Science Fiction"],"imdb_id":"tt1613031"},{"id":"12685","type":"movie","title":"BloodRayne: The Third Reich","poster":"https://image.tmdb.org/t/p/w342/kS48eBvmVXtNJGXWW5QMQmm1JbO.jpg","year":"2010","result":"HD","language":["Hindi"],"country":["CA","DE","US"],"original_language":"en","genres":["Action","Adventure","Fantasy","Horror"],"imdb_id":"tt1153546"},{"id":"44014","type":"movie","title":"Groupie","poster":"https://image.tmdb.org/t/p/w342/nTRKVxWXA1R1xOsKQmVPpN0fUZa.jpg","year":"2010","result":"HD","language":["Hindi"],"country":["US"],"original_language":"en","genres":["Horror","Thriller"],"imdb_id":"tt1422653"},{"id":"43947","type":"movie","title":"I Spit on Your Grave","poster":"https://image.tmdb.org/t/p/w342/xDbNbIqsdA1D0W2gve2QRTp4z83.jpg","year":"2010","result":"HD","language":["Hindi"],"country":["US"],"original_language":"en","genres":["Thriller","Crime","Horror"],"imdb_id":"tt1242432"},{"id":"43593","type":"movie","title":"Piranha 3D","poster":"https://image.tmdb.org/t/p/w342/lMLS2OFBbNYMSB1ZbVp4q2S4zTU.jpg","year":"2010","result":"HD","language":["Hindi"],"country":["US"],"original_language":"en","genres":["Comedy","Horror"],"imdb_id":"tt0464154"},{"id":"50393","type":"movie","title":"Kung Fu Panda Holiday","poster":"https://image.tmdb.org/t/p/w342/vJv3pI8pyS13rLjy0ok7a3BiE0a.jpg","year":"2010","result":"HD","language":["Hindi"],"country":["US"],"original_language":"en","genres":["Animation","Family","TV Movie","Comedy","Fantasy"],"imdb_id":"tt1702433"},{"id":"42966","type":"movie","title":"Once Upon a Time in Mumbaai","poster":"https://image.tmdb.org/t/p/w342/qkPmQx9GMuwTDEuIUMoeN6DEqVA.jpg","year":"2010","result":"HD","language":["Hindi"],"country":["IN"],"original_language":"hi","genres":["Drama","Thriller","Crime"],"imdb_id":"tt1395054"},{"id":"20352","type":"movie","title":"Despicable Me","poster":"https://image.tmdb.org/t/p/w342/b1BT309QWjtFUlJPLmXmrcHOWEL.jpg","year":"2010","result":"HD","language":["Hindi"],"country":["US"],"original_language":"en","genres":["Animation","Comedy","Crime","Family","Science Fiction"],"imdb_id":"tt1323594"},{"id":"45317","type":"movie","title":"The Fighter","poster":"https://image.tmdb.org/t/p/w342/xfsFerGhO1h6rLk8vwLgMyQ8WVJ.jpg","year":"2010","result":"HD","language":["Hindi"],"country":["US"],"original_language":"en","genres":["Drama"],"imdb_id":"tt0964517"}]}