{"page":5,"total_pages":24,"total_items":1166,"items":[{"id":"1533182","type":"movie","title":"Hanji Kaun","poster":"https://image.tmdb.org/t/p/w342/dWEYAaH7n1CxcjkjzZT2fQCTvRl.jpg","year":"2025","result":"HD","language":["PUNJABI"],"country":[],"original_language":"pa","genres":["Drama","Comedy"],"imdb_id":"","backdrop":"https://image.tmdb.org/t/p/original/ktvnu7rz6xXIvq3chm9SDg1poG4.jpg","watch":"<iframe src=\"https://bysebuho.com/e/6xcurgz3jeqc/hanji-kaun-2025-720p-punjabi\" frameborder=\"0\" marginwidth=\"0\" marginheight=\"0\" scrolling=\"no\" width=\"640\" height=\"360\" allowfullscreen></iframe>"},{"id":"284354","type":"tv","title":"Pyar Ka Professor","poster":"https://image.tmdb.org/t/p/w342/iWQILNeiR1scoJpChFeTXrM34Xz.jpg","year":"2025","result":"HD","language":["Hindi"],"country":["IN"],"original_language":"hi","genres":["Comedy","Drama"],"imdb_id":"tt35671338","latest_uploaded_season":1,"total_uploaded_episodes":1,"backdrop":"https://image.tmdb.org/t/p/original/fEaclquZ9cILbtkQNFYhSKizjTN.jpg","seasons":[{"season_number":1,"episodes":[{"episode_number":1,"name":"All Episodes","overview":"","still_path":"https://image.tmdb.org/t/p/w300/xJb31mNCXySqhZk79W9iP62rGhg.jpg","air_date":"2025-02-14","runtime":185,"vote_average":0,"watch":"<iframe src=\"https://bysebuho.com/e/lzmjdsge8z5j/pyar-ka-professor-s01-complete-2024\" frameborder=\"0\" marginwidth=\"0\" marginheight=\"0\" scrolling=\"no\" width=\"640\" height=\"360\" allowfullscreen></iframe>"}]}]},{"id":"1226572","type":"movie","title":"Superboys of Malegaon","poster":"https://image.tmdb.org/t/p/w342/kLMLaZa0Mu4BqPhA2eYbduFjcD0.jpg","year":"2025","result":"HD","language":["Hindi"],"country":["IN"],"original_language":"hi","genres":["Comedy","Drama","History"],"imdb_id":"tt28007064","backdrop":"https://image.tmdb.org/t/p/original/kQ35sVT8EBlsX9yilHi1zP4jd3l.jpg","watch":"<iframe src=\"https://bysebuho.com/e/zjf8g5tlvesz/superboys-of-malegaon-2025-web-dl-720p-hindi\" frameborder=\"0\" marginwidth=\"0\" marginheight=\"0\" scrolling=\"no\" width=\"640\" height=\"360\" allowfullscreen></iframe>"},{"id":"1431530","type":"movie","title":"Woh Kaun Thi","poster":"https://image.tmdb.org/t/p/w342/vfbr07hKqYothqNYbJdofIxA9R7.jpg","year":"2025","result":"HD","language":["Hindi"],"country":["IN"],"original_language":"hi","genres":["Horror"],"imdb_id":"","backdrop":"https://image.tmdb.org/t/p/original/dgg5sR25thwpdVkdwKq7r0rFeri.jpg","watch":"<iframe src=\"https://bysebuho.com/e/lzh2j3w1lj5e/woh-kaun-thi-2024-720p-web-dl-hindi\" frameborder=\"0\" marginwidth=\"0\" marginheight=\"0\" scrolling=\"no\" width=\"640\" height=\"360\" allowfullscreen></iframe>"},{"id":"1592043","type":"movie","title":"Mahasenha","poster":"https://image.tmdb.org/t/p/w342/kQeOxMQ1F8E5vixcLfju3vYRT0U.jpg","year":"2025","result":"HD","language":["Hindi"],"country":["IN"],"original_language":"ta","genres":["Adventure","Action"],"imdb_id":"tt39007848","backdrop":"https://image.tmdb.org/t/p/original/8bcqy8Y8XgZFhW8tCiPeUUWHgYC.jpg","watch":"<iframe src=\"https://bysebuho.com/e/8vvgctgyquds/mahasenha-2025-hindi-tamil-dual-audio-uncut-south-movie-hd\" frameborder=\"0\" marginwidth=\"0\" marginheight=\"0\" scrolling=\"no\" width=\"640\" height=\"360\" allowfullscreen></iframe>"},{"id":"1657598","type":"movie","title":"The Call","poster":"https://image.tmdb.org/t/p/w342/swFLhsK2LrGEWxVD3k4ZYrK9Kj6.jpg","year":"2025","result":"HD","language":["Hindi"],"country":["IN"],"original_language":"hi","genres":["Thriller","Mystery","Drama"],"imdb_id":"","backdrop":"https://image.tmdb.org/t/p/original/j9G6w3NwTBoNGbwybDxmBLY9VPF.jpg","watch":"<iframe src=\"https://bysebuho.com/e/iwp4g92gx0g3/the-call-2025\" frameborder=\"0\" marginwidth=\"0\" marginheight=\"0\" scrolling=\"no\" width=\"640\" height=\"360\" allowfullscreen></iframe>"},{"id":"1603844","type":"movie","title":"Patang","poster":"https://image.tmdb.org/t/p/w342/x4pfUqv2df1SLmHVLMWx5Uav9ew.jpg","year":"2025","result":"HD","language":["Hindi"],"country":["IN"],"original_language":"te","genres":["Drama","Comedy","Romance"],"imdb_id":"tt32334452","backdrop":"https://image.tmdb.org/t/p/original/8UJGvKC7gdXG9F0ukT9Sbb2WCkF.jpg","watch":"<iframe src=\"https://bysebuho.com/e/bo7pcxyulhya/patang-2025-720p-amzn-web-dl-dual-ddp5-1-h-264-daniewatch-is\" frameborder=\"0\" marginwidth=\"0\" marginheight=\"0\" scrolling=\"no\" width=\"640\" height=\"360\" allowfullscreen></iframe>"},{"id":"1602023","type":"movie","title":"Rehna Nahi Bin Tere","poster":"https://image.tmdb.org/t/p/w342/ySousuB9vIjAhSNVd0KKjAXWww.jpg","year":"2025","result":"HD","language":["Hindi"],"country":[],"original_language":"hi","genres":[],"imdb_id":"tt20673370","backdrop":"","watch":"<iframe src=\"https://bysebuho.com/e/yji62p1ak5ml/rehna-nahi-bin-tere-2024-720p-waves-web-dl-aac2-0-h-264-daniewatch-is\" frameborder=\"0\" marginwidth=\"0\" marginheight=\"0\" scrolling=\"no\" width=\"640\" height=\"360\" allowfullscreen></iframe>"},{"id":"1601970","type":"movie","title":"Tu Bol Na","poster":"https://image.tmdb.org/t/p/w342/rvoUkrP7Piw8GBsGTMNU8KldOXR.jpg","year":"2025","result":"HD","language":["Hindi"],"country":[],"original_language":"mr","genres":["Drama","Romance"],"imdb_id":"tt38692696","backdrop":"","watch":"<iframe src=\"https://bysebuho.com/e/zs2gsc8cdati/tu-bol-na-2025-720p-web-dl-marathi-aac5-1-esub-daniewatch-is\" frameborder=\"0\" marginwidth=\"0\" marginheight=\"0\" scrolling=\"no\" width=\"640\" height=\"360\" allowfullscreen></iframe>"},{"id":"1601310","type":"movie","title":"Eesha","poster":"https://image.tmdb.org/t/p/w342/87MhKILHPwcForDY0HxzII4tPvA.jpg","year":"2025","result":"HD","language":["Hindi"],"country":["IN"],"original_language":"te","genres":["Horror","Thriller"],"imdb_id":"tt39109585","backdrop":"https://image.tmdb.org/t/p/original/s9KTqzmvfdGwWKTT46MmcIoPpI3.jpg","watch":"<iframe src=\"https://bysebuho.com/e/9g1o0ul3p86c/isha-2025-720p-amzn-web-dl-dual-ddp5-1-h-264-vegamovies-is\" frameborder=\"0\" marginwidth=\"0\" marginheight=\"0\" scrolling=\"no\" width=\"640\" height=\"360\" allowfullscreen></iframe>"},{"id":"1601101","type":"movie","title":"Not All Movies Are the Same: Dual","poster":"https://image.tmdb.org/t/p/w342/wvHzhN4dSZC9gw66w09GTaf0egx.jpg","year":"2025","result":"HD","language":["Hindi"],"country":["IN"],"original_language":"te","genres":["Science Fiction","Thriller","Horror"],"imdb_id":"tt37671707","backdrop":"https://image.tmdb.org/t/p/original/vzp67r6jkw59gLU20EyOP9N8J7L.jpg","watch":"<iframe src=\"https://bysebuho.com/e/aaj7drhr2i3v/not-all-movies-are-the-same-dual-2025-720p-web-dl-multi-esub-daniewatch-hot\" frameborder=\"0\" marginwidth=\"0\" marginheight=\"0\" scrolling=\"no\" width=\"640\" height=\"360\" allowfullscreen></iframe>"},{"id":"1600883","type":"movie","title":"Dhandoraa","poster":"https://image.tmdb.org/t/p/w342/hs3wQWyXPQEHxnMjXOXRoHY0dOG.jpg","year":"2025","result":"HD","language":["Hindi"],"country":["IN"],"original_language":"te","genres":["Romance","Drama"],"imdb_id":"tt34984715","backdrop":"https://image.tmdb.org/t/p/original/81CU1x2f7hUsZF6WeCo6WQxYx7K.jpg","watch":"<iframe src=\"https://bysebuho.com/e/n5gy00eycwfi/dhandoraa-2025-720p-amzn-web-dl-dual-ddp5-1-h-264-daniewatch-is\" frameborder=\"0\" marginwidth=\"0\" marginheight=\"0\" scrolling=\"no\" width=\"640\" height=\"360\" allowfullscreen></iframe>"},{"id":"1600535","type":"movie","title":"Date with Saie","poster":"https://image.tmdb.org/t/p/w342/x9VjMlxYcBEdzKHkYggH2GbZBR.jpg","year":"2025","result":"HD","language":["Hindi"],"country":["IN"],"original_language":"mr","genres":["Thriller","Drama"],"imdb_id":"","backdrop":"https://image.tmdb.org/t/p/original/zpSeyjrX6Q7FvM5wWKOLIPe89lo.jpg","watch":"<iframe src=\"https://bysebuho.com/e/2z9st07zjz11/date-with-saie-2025-720p-zee5-web-dl-dual-aac2-0-x265-daniewatch-hot\" frameborder=\"0\" marginwidth=\"0\" marginheight=\"0\" scrolling=\"no\" width=\"640\" height=\"360\" allowfullscreen></iframe>"},{"id":"1599346","type":"movie","title":"Tenu Suit Suit Karda","poster":"https://image.tmdb.org/t/p/w342/e4mayAjt1IhJDzNDb4VkIIgvfid.jpg","year":"2025","result":"HD","language":["Hindi"],"country":[],"original_language":"pa","genres":[],"imdb_id":"tt39150156","backdrop":"https://image.tmdb.org/t/p/original/dhQvqnDH8PwUN9RcdXxjSpudvxk.jpg","watch":"<iframe src=\"https://bysebuho.com/e/pg5dzjhit5cp/tenu-suit-suit-karda-2025-720p-web-dl-punjabi-aac-5-1-daniewatch\" frameborder=\"0\" marginwidth=\"0\" marginheight=\"0\" scrolling=\"no\" width=\"640\" height=\"360\" allowfullscreen></iframe>"},{"id":"1598488","type":"movie","title":"Janki","poster":"https://image.tmdb.org/t/p/w342/4ReYtgn50KgHSuNA0QZyz4oG2Q5.jpg","year":"2025","result":"HD","language":["Hindi"],"country":[],"original_language":"hi","genres":["Action","Drama","Romance"],"imdb_id":"tt37186169","backdrop":"https://image.tmdb.org/t/p/original/1CE5hPJlLiyZ2luUFZW80kyMvFd.jpg","watch":"<iframe src=\"https://bysebuho.com/e/fphf3qeazxyf/Janki_2025_Hindi_HDTC_720p_x264_AAC_HC-ESub-DANIEWATCH.mkv\" frameborder=\"0\" marginwidth=\"0\" marginheight=\"0\" scrolling=\"no\" width=\"640\" height=\"360\" allowfullscreen></iframe>"},{"id":"1596151","type":"movie","title":"Mamta Child Factory","poster":"https://image.tmdb.org/t/p/w342/8Jt0Phg221heM8DJtWYyBYPZTr8.jpg","year":"2025","result":"HD","language":["Hindi"],"country":[],"original_language":"hi","genres":[],"imdb_id":"tt32260076","backdrop":"https://image.tmdb.org/t/p/original/xbXY5tXXxRO2YuA4p99oyX5DY8x.jpg","watch":"<iframe src=\"https://bysebuho.com/e/uw754dzmrbu2/Mamta_Child_Factory_2025_720p_UPLAY_WEB-DL_AAC2_0_H_264-DANIEWATCH.mkv\" frameborder=\"0\" marginwidth=\"0\" marginheight=\"0\" scrolling=\"no\" width=\"640\" height=\"360\" allowfullscreen></iframe>"},{"id":"1595286","type":"movie","title":"Yamla","poster":"https://image.tmdb.org/t/p/w342/8R7tsptUZQtpx1Km7s56mESM5JQ.jpg","year":"2025","result":"HD","language":["Hindi"],"country":["IN"],"original_language":"pa","genres":["Drama","Romance"],"imdb_id":"tt39066215","backdrop":"https://image.tmdb.org/t/p/original/5bQ06RC8a9wnCko3ostgeiIByrn.jpg","watch":"<iframe src=\"https://bysebuho.com/e/yzpmt5yc4c5n/yamla-2025-720p-web-hdrip-punjabi-ddp5-1-esub-vegamovies-is\" frameborder=\"0\" marginwidth=\"0\" marginheight=\"0\" scrolling=\"no\" width=\"640\" height=\"360\" allowfullscreen></iframe>"},{"id":"1594317","type":"movie","title":"Durlabh Prasad Ki Dusri Shadi","poster":"https://image.tmdb.org/t/p/w342/ukUnE8AJvt5qnYPsGwzChhFK9Ca.jpg","year":"2025","result":"HD","language":["Hindi"],"country":[],"original_language":"hi","genres":["Comedy","Family"],"imdb_id":"tt31146564","backdrop":"https://image.tmdb.org/t/p/original/2j8rriKUaVAMV51VJjlXQgB3198.jpg","watch":"https://bysebuho.com/d/260wp9p5qrp1/durlabh-prasad-ki-dusari-shadi-2025-720p-jhs-web-dl-hindi-x264-vegamovies-is"},{"id":"1593247","type":"movie","title":"Drive","poster":"https://image.tmdb.org/t/p/w342/lscqFpIx7cpDET9gjZuan5QyURH.jpg","year":"2025","result":"HD","language":["Hindi"],"country":[],"original_language":"te","genres":["Thriller","Drama"],"imdb_id":"tt39109036","backdrop":"https://image.tmdb.org/t/p/original/iL8CLghVjQy0zhZu3l1Y7BuHMeu.jpg","watch":"<iframe src=\"https://bysebuho.com/e/ls0jjtitmq0d/drive-2025-amzn-web-dl-dual-720p-vegamovies-hot\" frameborder=\"0\" marginwidth=\"0\" marginheight=\"0\" scrolling=\"no\" width=\"640\" height=\"360\" allowfullscreen></iframe>"},{"id":"1591399","type":"movie","title":"The Great Shamsuddin Family","poster":"https://image.tmdb.org/t/p/w342/1ZOwQeDMrUStgNEjNTjgyFTq5a2.jpg","year":"2025","result":"HD","language":["Hindi"],"country":["IN"],"original_language":"hi","genres":["Comedy","Drama","Family"],"imdb_id":"tt7944312","backdrop":"https://image.tmdb.org/t/p/original/jOsSikehu2fdurSuB8GWlswi5g3.jpg","watch":"<iframe src=\"https://bysebuho.com/e/v1gdi7go588o/the-great-shamsuddin-family-2025-720p-web-dl-hindi-dd5-1-x264-daniewatch-is\" frameborder=\"0\" marginwidth=\"0\" marginheight=\"0\" scrolling=\"no\" width=\"640\" height=\"360\" allowfullscreen></iframe>"},{"id":"1590920","type":"movie","title":"Me No Pause Me Play","poster":"https://image.tmdb.org/t/p/w342/nMItbnyJaH6mkxxCOpKIcOm18gS.jpg","year":"2025","result":"HD","language":["Hindi"],"country":["IN"],"original_language":"hi","genres":["Drama"],"imdb_id":"tt38672269","backdrop":"https://image.tmdb.org/t/p/original/lcWOH5YqzE6d54kGSsP1npibYcS.jpg","watch":"<iframe src=\"https://bysebuho.com/e/11g8zxgimcrm/me-no-pause-me-play-2025\" frameborder=\"0\" marginwidth=\"0\" marginheight=\"0\" scrolling=\"no\" width=\"640\" height=\"360\" allowfullscreen></iframe>"},{"id":"1590722","type":"movie","title":"GST","poster":"https://image.tmdb.org/t/p/w342/hOzf9I1cXNN6MPeNQ7H35NAMNeh.jpg","year":"2025","result":"HD","language":["Hindi"],"country":["IN"],"original_language":"kn","genres":["Horror","Comedy"],"imdb_id":"tt28718800","backdrop":"https://image.tmdb.org/t/p/original/jf79CFYgrP4J30egHzLfLabkx1r.jpg","watch":"<iframe src=\"https://bysebuho.com/e/vq5z3grk6qwl/gst-2025-720p-amzn-web-dl-dual-ddp2-0-h-264-vegamovies-is\" frameborder=\"0\" marginwidth=\"0\" marginheight=\"0\" scrolling=\"no\" width=\"640\" height=\"360\" allowfullscreen></iframe>"},{"id":"1589598","type":"movie","title":"Yeh Dil Bill","poster":"https://image.tmdb.org/t/p/w342/4Q5NDbi8KaiGTy0XPwIxSldoFD0.jpg","year":"2025","result":"HD","language":["Hindi"],"country":[],"original_language":"hi","genres":["Comedy","Romance"],"imdb_id":"tt38351599","backdrop":"https://image.tmdb.org/t/p/original/gNSFbTTZOqChc4MXOiEx3idGtDK.jpg","watch":"<iframe src=\"https://bysebuho.com/e/gw6h9cab4wf6/Yeh_Dil_Bill_2025_720p_WEB-DL_Hindi_DD2_0_x264-_DANIEWATCH_is.mkv\" frameborder=\"0\" marginwidth=\"0\" marginheight=\"0\" scrolling=\"no\" width=\"640\" height=\"360\" allowfullscreen></iframe>"},{"id":"1585219","type":"movie","title":"Paanch Minar","poster":"https://image.tmdb.org/t/p/w342/iq7WEDY0iBTf6UglfmvGXycxp9L.jpg","year":"2025","result":"HD","language":["Hindi"],"country":[],"original_language":"te","genres":["Comedy","Thriller","Crime"],"imdb_id":"tt36188425","backdrop":"https://image.tmdb.org/t/p/original/5E8ewc2EFM75AI8SZEtyS93S60R.jpg","watch":"<iframe src=\"https://bysebuho.com/e/nn10pezcfgzm/paanch-minar-2025-720p-amzn-web-dl-hindi-telugu-ddp5-1-h-264-vegamovies-is\" frameborder=\"0\" marginwidth=\"0\" marginheight=\"0\" scrolling=\"no\" width=\"640\" height=\"360\" allowfullscreen></iframe>"},{"id":"1585058","type":"movie","title":"Dining with the Kapoors","poster":"https://image.tmdb.org/t/p/w342/pdgk3I0JOnU4YZmhGfWtf2Ln5XY.jpg","year":"2025","result":"HD","language":["Hindi"],"country":["IN"],"original_language":"hi","genres":["Documentary","Family"],"imdb_id":"tt35665487","backdrop":"https://image.tmdb.org/t/p/original/exq4Twtx4bEVaDb2BE3xhYXNAdx.jpg","watch":"<iframe src=\"https://bysebuho.com/e/037z91b0zaro/Dining_With_The_Kapoors_2025_720p_NF_WEB-DL_DUAL_AAC5_1_x264-DANIEWATCH.mkv\" frameborder=\"0\" marginwidth=\"0\" marginheight=\"0\" scrolling=\"no\" width=\"640\" height=\"360\" allowfullscreen></iframe>"},{"id":"1584542","type":"movie","title":"Main Tere Qurbaan","poster":"https://image.tmdb.org/t/p/w342/dYiByJNOXVE8Im2EmS5eXuIq87i.jpg","year":"2025","result":"HD","language":["Hindi"],"country":[],"original_language":"pa","genres":[],"imdb_id":"tt35769322","backdrop":"https://image.tmdb.org/t/p/original/ipYRYhLzsQaZrAwwZ6tW4GDyYeL.jpg","watch":"<iframe src=\"https://bysebuho.com/e/48upy43u4z6m/Main_Tere_Qurbaan_2025_1080p_WEB-DL_Punjabi_DD2_0_x264-DANIEWATCH.mkv\" frameborder=\"0\" marginwidth=\"0\" marginheight=\"0\" scrolling=\"no\" width=\"640\" height=\"360\" allowfullscreen></iframe>"},{"id":"1582440","type":"movie","title":"Hi Zindagi","poster":"https://image.tmdb.org/t/p/w342/x3XPkTJrHjTajEYjurdgeWkSAEv.jpg","year":"2025","result":"HD","language":["Hindi"],"country":["IN"],"original_language":"hi","genres":["Drama","Comedy"],"imdb_id":"tt38509022","backdrop":"https://image.tmdb.org/t/p/original/tVodayzf54rXJUENzm6N8NPdANg.jpg","watch":"<iframe src=\"https://bysebuho.com/e/kp1wqkgswnsd/Hi_Zindagi_2025_Hindi_HDTC_720p_x264_AAC_DANIEWATCH\" frameborder=\"0\" marginwidth=\"0\" marginheight=\"0\" scrolling=\"no\" width=\"640\" height=\"360\" allowfullscreen></iframe>"},{"id":"1581326","type":"movie","title":"Love U Muddu","poster":"https://image.tmdb.org/t/p/w342/1c400UHZu3aqRPqOZlcHm7crliB.jpg","year":"2025","result":"HD","language":["Hindi"],"country":["IN"],"original_language":"kn","genres":["Romance","Drama"],"imdb_id":"tt38428491","backdrop":"https://image.tmdb.org/t/p/original/3rQj2EGEPk821lxqxyRV6qk7jID.jpg","watch":"<iframe src=\"https://bysebuho.com/e/hre0zc7v40cf/love-u-muddu-2025-720p-amzn-web-dl-dual-ddp2-0-h-264-daniewatch-is\" frameborder=\"0\" marginwidth=\"0\" marginheight=\"0\" scrolling=\"no\" width=\"640\" height=\"360\" allowfullscreen></iframe>"},{"id":"1580775","type":"movie","title":"Gatha Vaibhava","poster":"https://image.tmdb.org/t/p/w342/aacJ77PR6wx1KE6MQN9IUeytg2J.jpg","year":"2025","result":"HD","language":["Hindi"],"country":["IN"],"original_language":"kn","genres":["Fantasy","Romance","Comedy"],"imdb_id":"tt38755084","backdrop":"https://image.tmdb.org/t/p/original/zpkxU2dOfy32kBJ60Zwkv4h6FKB.jpg","watch":"<iframe src=\"https://bysebuho.com/e/tfc8cm20w1h6/gatha-vaibhava-2025\" frameborder=\"0\" marginwidth=\"0\" marginheight=\"0\" scrolling=\"no\" width=\"640\" height=\"360\" allowfullscreen></iframe>"},{"id":"1580286","type":"movie","title":"Nishaanchi 2","poster":"https://image.tmdb.org/t/p/w342/xUayFrF27SdDZYlKQBUlqxUOxcB.jpg","year":"2025","result":"HD","language":["Hindi"],"country":["IN"],"original_language":"hi","genres":["Drama","Crime"],"imdb_id":"tt38948631","backdrop":"https://image.tmdb.org/t/p/original/rhA68OHeW7pkyVnwpU8vJjsQvuw.jpg","watch":"<iframe src=\"https://bysebuho.com/e/d4km5fe1nbrc/Nishaanchi_2_2025_720p_AMZN_WEB_DL_H_264-DANIEWATCH\" frameborder=\"0\" marginwidth=\"0\" marginheight=\"0\" scrolling=\"no\" width=\"640\" height=\"360\" allowfullscreen></iframe>"},{"id":"1575785","type":"movie","title":"Badaa Karara Pudna","poster":"https://image.tmdb.org/t/p/w342/qJ4WBgDJNXXARfHi0as7Od2hn0R.jpg","year":"2025","result":"HD","language":["Hindi"],"country":["IN"],"original_language":"pa","genres":["Drama"],"imdb_id":"tt38598593","backdrop":"https://image.tmdb.org/t/p/original/cBTefiOLbr3SFNv0rmt8U8nk2C1.jpg","watch":"<iframe src=\"https://bysebuho.com/e/qosu265u0766/Badaa_Karara_Pudna_2025_720p_HDTC_Hindi_AAC2_0_x264_DANIEWATCH\" frameborder=\"0\" marginwidth=\"0\" marginheight=\"0\" scrolling=\"no\" width=\"640\" height=\"360\" allowfullscreen></iframe>"},{"id":"1575782","type":"movie","title":"I Am God","poster":"https://image.tmdb.org/t/p/w342/2fOSXmOiA9Fqt06ESJbFXsUGX3.jpg","year":"2025","result":"HD","language":["Hindi"],"country":["IN"],"original_language":"kn","genres":["Romance","Thriller"],"imdb_id":"tt38775702","backdrop":"https://image.tmdb.org/t/p/original/igkhKVfCPFvI3mmm3mF9Y5rf14a.jpg","watch":"<iframe src=\"https://bysebuho.com/e/m5box4sw5rrc/i-am-god-2025-720p-amzn-web-dl-dual-ddp5-1-h-264-vegamovies-is\" frameborder=\"0\" marginwidth=\"0\" marginheight=\"0\" scrolling=\"no\" width=\"640\" height=\"360\" allowfullscreen></iframe>"},{"id":"1572107","type":"movie","title":"Brat","poster":"https://image.tmdb.org/t/p/w342/y6NVUbgHIz3SmrRSLU4xlfzL2Mi.jpg","year":"2025","result":"HD","language":["Hindi"],"country":[],"original_language":"kn","genres":["Action","Thriller","Comedy"],"imdb_id":"tt35064377","backdrop":"https://image.tmdb.org/t/p/original/2TO6lV2qCgSi86Yod1nojO5dudn.jpg","watch":"<iframe src=\"https://bysebuho.com/e/cgsubkrhvrop/brat-2025-720p-amzn-web-dl-dual-ddp2-0-h-264-daniewatch-is\" frameborder=\"0\" marginwidth=\"0\" marginheight=\"0\" scrolling=\"no\" width=\"640\" height=\"360\" allowfullscreen></iframe>"},{"id":"1571782","type":"movie","title":"Rangbaaz: The Bihar Chapter","poster":"https://image.tmdb.org/t/p/w342/quV0VvQ2y78PeQvUMLgXGof8gNF.jpg","year":"2025","result":"HD","language":["Hindi"],"country":["IN"],"original_language":"hi","genres":["Action","Crime"],"imdb_id":"tt38813422","backdrop":"https://image.tmdb.org/t/p/original/rJQenqQFAOjrwbIzHaIAP9aaCXd.jpg","watch":"<iframe src=\"https://bysebuho.com/e/qu058vnjgezg/Rangbaaz_The_Bihar_Chapter_2025_720p_ZEE5_WEB-DL_Multi_AAC2_0_H_264-_DANIEWATCH.mkv\" width=\"640\" height=\"360\" frameborder=\"0\" allowfullscreen></iframe>"},{"id":"1570904","type":"movie","title":"Happy Khush Ho Gaya","poster":"https://image.tmdb.org/t/p/w342/ewm3xpq1jf9Yy3dV9FAHcaHInpj.jpg","year":"2025","result":"HD","language":["Hindi"],"country":["IN"],"original_language":"pa","genres":["Comedy"],"imdb_id":"tt37896655","backdrop":"https://image.tmdb.org/t/p/original/ZVi7OIwdr8gXI0ZvLqp8LcndQB.jpg","watch":"<iframe src=\"https://bysebuho.com/e/uuekdq6mlel6/Happy_Khush_Ho_Gaya_2025_720p_HDTC_Punjabi_AAC2_0_x264-DANIEWATCH\" frameborder=\"0\" marginwidth=\"0\" marginheight=\"0\" scrolling=\"no\" width=\"640\" height=\"360\" allowfullscreen></iframe>"},{"id":"1569849","type":"movie","title":"The Error","poster":"https://image.tmdb.org/t/p/w342/kgXYHZP7VPsoAw6GxjxX5ANyH3V.jpg","year":"2025","result":"HD","language":["Hindi"],"country":[],"original_language":"pa","genres":["Crime","Drama"],"imdb_id":"tt38689817","backdrop":"https://image.tmdb.org/t/p/original/tUU0FoPuFunnyqaeuOyMt4WFI4Z.jpg","watch":"<iframe src=\"https://bysebuho.com/e/nmxkq4ozsojm/The_Error_2025_720p_WEB-HDRip_Punjabi_DDP2_0_x264_ESub_DANIEWATCH.mkv\" width=\"640\" height=\"360\" frameborder=\"0\" allowfullscreen></iframe>"},{"id":"1569820","type":"movie","title":"Ik Chithi Dard Bhari","poster":"https://image.tmdb.org/t/p/w342/a5KjjKMNY9TmDDXwS1Jmv7xL5HU.jpg","year":"2025","result":"HD","language":["Hindi"],"country":[],"original_language":"pa","genres":["Drama","Family"],"imdb_id":"","backdrop":"https://image.tmdb.org/t/p/original/zH5bZrLVkjbdXdUTl8x2HGkuoa9.jpg","watch":"<iframe src=\"https://bysebuho.com/e/q7s953h965ie/Ik.Chithi.Dard.Bhari.2025.720p.WEB-DL.Punjabi.x264-DANIEWATCH.is.mkv\" width=\"640\" height=\"360\" frameborder=\"0\" allowfullscreen></iframe>"},{"id":"1567645","type":"movie","title":"Laalo: Krishna Sada Sahaayate","poster":"https://image.tmdb.org/t/p/w342/tViDPmnjZG7MHFssC2duXjOgxd4.jpg","year":"2025","result":"HD","language":["Hindi"],"country":["IN"],"original_language":"gu","genres":["Family","Drama"],"imdb_id":"tt37956153","backdrop":"https://image.tmdb.org/t/p/original/2UkPzslRKYdExioA4ASjWDtYGdt.jpg","watch":"<iframe src=\"https://bysebuho.com/e/8130t0p61k2b/laalo-krishna-sada-sahaayate-2025-720p-hdtc-hindi-aac2-0-daniewatch-is\" frameborder=\"0\" marginwidth=\"0\" marginheight=\"0\" scrolling=\"no\" width=\"640\" height=\"360\" allowfullscreen></iframe>"},{"id":"1564181","type":"movie","title":"Soulmates","poster":"https://image.tmdb.org/t/p/w342/3nDCYVmxFpQ1MAbdcn61x75m1xw.jpg","year":"2025","result":"HD","language":["Hindi"],"country":["IN"],"original_language":"hi","genres":["Romance","Comedy","Drama"],"imdb_id":"tt38782916","backdrop":"https://image.tmdb.org/t/p/original/j5yrBAfA5DRQsyO4HGvXOIyruzZ.jpg","watch":"<iframe src=\"https://bysebuho.com/e/ajeojso8ovd4/soulmates-2025-hindi-it-web-dl-720p-daniewatch-is\" frameborder=\"0\" marginwidth=\"0\" marginheight=\"0\" scrolling=\"no\" width=\"640\" height=\"360\" allowfullscreen></iframe>"},{"id":"1563575","type":"movie","title":"Rajdhani Punjab","poster":"https://image.tmdb.org/t/p/w342/g0Srs4aCYeoCawDokvuyuDV1gXE.jpg","year":"2025","result":"HD","language":["Hindi"],"country":[],"original_language":"pa","genres":[],"imdb_id":"tt38691549","backdrop":"","watch":"<iframe src=\"https://bysebuho.com/e/c2l42mz28boi/Rajdhani_Punjab_2025_720p_WEB-DL_Punjabi_DDP5_1_x264_ESub_DANIEWATCH.mkv\" width=\"640\" height=\"360\" frameborder=\"0\" allowfullscreen></iframe>"},{"id":"1563109","type":"movie","title":"Greater Kalesh","poster":"https://image.tmdb.org/t/p/w342/pGJ5NNMFENxOekN0Irrsq9Cd7PL.jpg","year":"2025","result":"HD","language":["Hindi"],"country":["IN"],"original_language":"hi","genres":["Drama","Family"],"imdb_id":"tt38672425","backdrop":"https://image.tmdb.org/t/p/original/FwMMeZr9NAc1QBTdSbIVTjDNkE.jpg","watch":"<iframe src=\"https://bysebuho.com/e/vpb9xbdxdi8l/Greater_Kalesh_2025_720p_NF_WEB-DL_AAC5_1_x264-DANIEWATCH.mkv\" width=\"640\" height=\"360\" frameborder=\"0\" allowfullscreen></iframe>"},{"id":"1562241","type":"movie","title":"Jassi Weds Jassi","poster":"https://image.tmdb.org/t/p/w342/rIHbBEnJ1SE1y3RdTA7VKc6LLMV.jpg","year":"2025","result":"HD","language":["Hindi"],"country":[],"original_language":"hi","genres":["Comedy"],"imdb_id":"tt37538305","backdrop":"https://image.tmdb.org/t/p/original/jU6dWI6sukWWYl0MtMms9vBZVB7.jpg","watch":"<iframe src=\"https://bysebuho.com/e/cz2zwucq7vs2/Jassi_Weds_Jassi_2025_720p_HDTS_Hindi_AAC2_0_x264-DANIEWATCH\" frameborder=\"0\" marginwidth=\"0\" marginheight=\"0\" scrolling=\"no\" width=\"640\" height=\"360\" allowfullscreen></iframe>"},{"id":"1561969","type":"movie","title":"Baramulla","poster":"https://image.tmdb.org/t/p/w342/xm5ER19nTk7iuWFaiNRUYe3Zlz.jpg","year":"2025","result":"HD","language":["Hindi"],"country":["IN"],"original_language":"hi","genres":["Horror"],"imdb_id":"tt29247040","backdrop":"https://image.tmdb.org/t/p/original/fbTRgh6moAvhlkB4wPjswP9EdWz.jpg","watch":"<iframe src=\"https://bysebuho.com/e/a8k97x6qrpe3/Baramulla_2025_720p_NF_WEB-DL_Hindi_AAC5_1_x264-DANIEWATCH\" frameborder=\"0\" marginwidth=\"0\" marginheight=\"0\" scrolling=\"no\" width=\"640\" height=\"360\" allowfullscreen></iframe>"},{"id":"1561955","type":"movie","title":"Stephen","poster":"https://image.tmdb.org/t/p/w342/yUURUJzeSTc47T2VeNw7nZwZ8VJ.jpg","year":"2025","result":"HD","language":["Hindi"],"country":["IN"],"original_language":"ta","genres":["Thriller","Mystery"],"imdb_id":"tt38681567","backdrop":"https://image.tmdb.org/t/p/original/7cQjb8cRbRjF5tM5gOCnqsvC0iT.jpg","watch":"<iframe src=\"https://bysebuho.com/e/egp40yw6xsfi/stephen-2025-720p-10bit-hevc-web-dl-hindi-malayalam-kannada-aac-esub-x265-daniewatch\" frameborder=\"0\" marginwidth=\"0\" marginheight=\"0\" scrolling=\"no\" width=\"640\" height=\"360\" allowfullscreen></iframe>"},{"id":"1561205","type":"movie","title":"Controll","poster":"https://image.tmdb.org/t/p/w342/x4D59ZzGcaROt2ZGtSNCsvslM8F.jpg","year":"2025","result":"HD","language":["Hindi"],"country":["IN"],"original_language":"hi","genres":["Action","Thriller"],"imdb_id":"tt27678883","backdrop":"https://image.tmdb.org/t/p/original/l6KeC0gjFtEDDthUo5eVlOxDcEZ.jpg","watch":"<iframe src=\"https://bysebuho.com/e/ntu043pls502/Controll_2025_Hindi_HDTC_720p_x264_AAC_DANIEWATCH.mkv\" width=\"640\" height=\"360\" frameborder=\"0\" allowfullscreen></iframe>"},{"id":"1561142","type":"movie","title":"Saira Khan Case","poster":"https://image.tmdb.org/t/p/w342/83E4KIt9dANAlTjEMJp8ZZsGUZH.jpg","year":"2025","result":"HD","language":["Hindi"],"country":["IN"],"original_language":"hi","genres":["Crime"],"imdb_id":"tt38346232","backdrop":"","watch":"<iframe src=\"https://bysebuho.com/e/b7k8z4s5xs7n/Saira_Khan_Case_2025_Hindi_HDTC_720p_x264-DANIEWATCH.mkv\" width=\"640\" height=\"360\" frameborder=\"0\" allowfullscreen></iframe>"},{"id":"1560100","type":"movie","title":"Farmhouse","poster":"https://image.tmdb.org/t/p/w342/3UsMp8ZCAIRT7l2BVECSYgFOdvS.jpg","year":"2025","result":"HD","language":["Hindi"],"country":["IN"],"original_language":"pa","genres":["Thriller"],"imdb_id":"tt38608144","backdrop":"","watch":"<iframe src=\"https://bysebuho.com/e/ujg0jbababxs/Farmhouse_2025_720p_WEB-DL_Punjabi_x264-DANIEWATCH.mkv\" width=\"640\" height=\"360\" frameborder=\"0\" allowfullscreen></iframe>"},{"id":"1560093","type":"movie","title":"Soch Toh Parey","poster":"https://image.tmdb.org/t/p/w342/eTRNXLeLFBcLAB8ZB3STlrNz7Nm.jpg","year":"2025","result":"HD","language":["Hindi"],"country":[],"original_language":"pa","genres":["Drama"],"imdb_id":"","backdrop":"https://image.tmdb.org/t/p/original/qbqIp8ock611V8CXlpOz5S8brPn.jpg","watch":"<iframe src=\"https://bysebuho.com/e/y8td1zjw2rfc/Soch_Toh_Parey_2025_720p_WEB-HDRip_Punjabi_DDP5_1_x264_ESub_DANIEWATCH.mkv\" width=\"640\" height=\"360\" frameborder=\"0\" allowfullscreen></iframe>"},{"id":"1558468","type":"movie","title":"Shambhala","poster":"https://image.tmdb.org/t/p/w342/toCKv7aKlAzYh0vyrrBZjuWGIMD.jpg","year":"2025","result":"HD","language":["Cam"],"country":["IN"],"original_language":"te","genres":["Action","Horror","Thriller"],"imdb_id":"tt34159694","backdrop":"https://image.tmdb.org/t/p/original/1zo8aW25goAHkFB9DaWHp0aYb2v.jpg","watch":"<iframe src=\"https://bysebuho.com/e/pza2l3px2za3/aadi-shambhala-2025-720p-aha-web-dl-hindi-cleaned-aac2-0-telugu-ddp5-1-h-264-vegamovies-is\" frameborder=\"0\" marginwidth=\"0\" marginheight=\"0\" scrolling=\"no\" width=\"640\" height=\"360\" allowfullscreen></iframe>"},{"id":"1557961","type":"movie","title":"Bank Of Bhagyalakshmi","poster":"https://image.tmdb.org/t/p/w342/k3ZkowkAPpfLwhD8eV3OhFooYgo.jpg","year":"2025","result":"HD","language":["Hindi"],"country":["IN"],"original_language":"kn","genres":["Comedy","Action","Crime","Thriller"],"imdb_id":"tt32447918","backdrop":"https://image.tmdb.org/t/p/original/prYwnqHuSdWlBjce6tGOK5KDgqh.jpg","watch":"<iframe src=\"https://bysebuho.com/e/jdiv2dspixul/bank-of-bhagyalakshmi-2025-720p-web-dl-hindi-kannada-x264-daniewatch-is\" frameborder=\"0\" marginwidth=\"0\" marginheight=\"0\" scrolling=\"no\" width=\"640\" height=\"360\" allowfullscreen></iframe>"}]}