{"page":61,"total_pages":66,"total_items":3272,"items":[{"id":"265712","type":"movie","title":"Stand by Me Doraemon","poster":"https://image.tmdb.org/t/p/w342/wc7XQbfx6EIQqCuvmBMt3aisb2Y.jpg","year":"2014","result":"HD","language":["Hindi"],"country":["JP"],"original_language":"ja","genres":["Animation","Adventure","Science Fiction","Drama","Family","Fantasy"],"imdb_id":"tt3331846"},{"id":"253046","type":"movie","title":"Jailbait","poster":"https://image.tmdb.org/t/p/w342/bNaKWcYARKnvDBCFEIc0uOQxX2v.jpg","year":"2014","result":"HD","language":["Hindi"],"country":["US"],"original_language":"en","genres":["Crime","Drama","Thriller"],"imdb_id":"tt3290276"},{"id":"321015","type":"movie","title":"Name Me","poster":"https://image.tmdb.org/t/p/w342/kWXcLTt0Qn9iQ1nppTkjbHlg92r.jpg","year":"2014","result":"HD","language":["Hindi"],"country":["RU"],"original_language":"ru","genres":["Drama","Adventure"],"imdb_id":"tt4058346"},{"id":"225886","type":"movie","title":"Sex Tape","poster":"https://image.tmdb.org/t/p/w342/pFdS7SIdjcrYXtf141dabWVly9B.jpg","year":"2014","result":"HD","language":["Hindi"],"country":["US"],"original_language":"en","genres":["Comedy"],"imdb_id":"tt1956620"},{"id":"286554","type":"movie","title":"Two Night Stand","poster":"https://image.tmdb.org/t/p/w342/rz0YnlHieXP9SBuJU4ANBW8ttIw.jpg","year":"2014","result":"HD","language":["Hindi"],"country":["US"],"original_language":"en","genres":["Romance","Comedy"],"imdb_id":"tt2140619"},{"id":"255495","type":"movie","title":"Heartless","poster":"https://image.tmdb.org/t/p/w342/7CUulfSpqAvNtemgO4ZiNf6zy3s.jpg","year":"2014","result":"HD","language":["Hindi"],"country":["IN"],"original_language":"hi","genres":["Drama","Family","Romance"],"imdb_id":"tt3334348"},{"id":"284296","type":"movie","title":"Top Five","poster":"https://image.tmdb.org/t/p/w342/nM5zWv6zpWHsrKNMrPKg23UHZCA.jpg","year":"2014","result":"HD","language":["Hindi"],"country":["US"],"original_language":"en","genres":["Drama","Comedy","Romance"],"imdb_id":"tt2784678"},{"id":"284293","type":"movie","title":"Still Alice","poster":"https://image.tmdb.org/t/p/w342/jJiGGbuLW8IkEnh5073maEmIr7V.jpg","year":"2014","result":"HD","language":["Hindi"],"country":["FR","GB","US"],"original_language":"en","genres":["Drama"],"imdb_id":"tt3316960"},{"id":"99838","type":"tv","title":"Qaatil Hasina","poster":"https://m.media-amazon.com/images/M/MV5BYmJmNWI0NmItNGUyNi00MTM1LTg4N2UtZGU5ZDAxYzE3MzU0XkEyXkFqcGc@._V1_FMjpg_UX1000_.jpg","year":"2014","result":"HD","language":["Hindi"],"country":["IN"],"original_language":"hi","genres":["Drama","Soap"],"imdb_id":"tt7263828","latest_uploaded_season":1,"total_uploaded_episodes":1},{"id":"284536","type":"movie","title":"The Gambler","poster":"https://image.tmdb.org/t/p/w342/hIgU3cxn7Y87joQGM3srofnXOm5.jpg","year":"2014","result":"HD","language":["Hindi"],"country":["US"],"original_language":"en","genres":["Thriller","Crime","Drama"],"imdb_id":"tt2039393"},{"id":"279254","type":"movie","title":"Ghost in the Shell: Arise - Border 4: Ghost Stands Alone","poster":"https://image.tmdb.org/t/p/w342/dNlPBbpsyZCHDbYa4VxZOCj3RiI.jpg","year":"2014","result":"HD","language":["Hindi"],"country":["JP"],"original_language":"ja","genres":["Action","Animation","Science Fiction","Crime"],"imdb_id":"tt4016942"},{"id":"277685","type":"movie","title":"Unfriended","poster":"https://image.tmdb.org/t/p/w342/8byPxREr3BqBNyyij5WHVSOVtYk.jpg","year":"2014","result":"HD","language":["Hindi"],"country":["US"],"original_language":"en","genres":["Horror","Mystery"],"imdb_id":"tt3713166"},{"id":"240341","type":"movie","title":"Ghost in the Shell: Arise - Border 3: Ghost Tears","poster":"https://image.tmdb.org/t/p/w342/nrMr4ht4CgX4tyseN1uYVHXENJN.jpg","year":"2014","result":"HD","language":["Hindi"],"country":["JP"],"original_language":"ja","genres":["Action","Animation","Science Fiction"],"imdb_id":"tt3579524"},{"id":"196867","type":"movie","title":"Annie","poster":"https://image.tmdb.org/t/p/w342/aKAM9V0izx4VhsdyAdBvAB26UCZ.jpg","year":"2014","result":"HD","language":["Hindi"],"country":["US"],"original_language":"en","genres":["Comedy","Drama","Family"],"imdb_id":"tt1823664"},{"id":"157336","type":"movie","title":"Interstellar","poster":"https://image.tmdb.org/t/p/w342/gEU2QniE6E77NI6lCU6MxlNBvIx.jpg","year":"2014","result":"HD","language":["Hindi"],"country":["GB","US"],"original_language":"en","genres":["Adventure","Drama","Science Fiction"],"imdb_id":"tt0816692"},{"id":"144336","type":"movie","title":"Sabotage","poster":"https://image.tmdb.org/t/p/w342/ygG17WukZCidKm7wGM3Zzrr5WRi.jpg","year":"2014","result":"HD","language":["Hindi"],"country":["US"],"original_language":"en","genres":["Action","Drama","Thriller","Crime"],"imdb_id":"tt1742334"},{"id":"122917","type":"movie","title":"The Hobbit: The Battle of the Five Armies","poster":"https://image.tmdb.org/t/p/w342/xT98tLqatZPQApyRmlPL12LtiWp.jpg","year":"2014","result":"HD","language":["Hindi"],"country":["NZ","US"],"original_language":"en","genres":["Action","Adventure","Fantasy"],"imdb_id":"tt2310332"},{"id":"100402","type":"movie","title":"Captain America: The Winter Soldier","poster":"https://image.tmdb.org/t/p/w342/tVFRpFw3xTedgPGqxW0AOI8Qhh0.jpg","year":"2014","result":"HD","language":["Hindi"],"country":["US"],"original_language":"en","genres":["Action","Adventure","Science Fiction"],"imdb_id":"tt1843866"},{"id":"61663","type":"tv","title":"Your Lie in April","poster":"https://image.tmdb.org/t/p/w342/rRjfH3ckTYz8z8aSkJshFL4VyK9.jpg","year":"2014","result":"HD","language":["Hindi"],"country":["JP"],"original_language":"ja","genres":["Animation","Comedy","Drama"],"imdb_id":"tt3895150","latest_uploaded_season":1,"total_uploaded_episodes":22},{"id":"61611","type":"tv","title":"Pinocchio","poster":"https://image.tmdb.org/t/p/w342/i97YOqvylMMkiNzi4l5yyEVbYQi.jpg","year":"2014","result":"HD","language":["Hindi"],"country":["KR"],"original_language":"ko","genres":["Drama","Comedy","Mystery"],"imdb_id":"tt4201628","latest_uploaded_season":1,"total_uploaded_episodes":20},{"id":"61606","type":"tv","title":"Birth of a Beauty","poster":"https://image.tmdb.org/t/p/w342/6z9mEvrF6g9UPTan7xhWq9ssE5Y.jpg","year":"2014","result":"HD","language":["Hindi"],"country":["KR"],"original_language":"ko","genres":["Comedy"],"imdb_id":"tt4269776","latest_uploaded_season":1,"total_uploaded_episodes":21},{"id":"56559","type":"tv","title":"Theatre of Darkness: Yamishibai","poster":"https://image.tmdb.org/t/p/w342/coYJ1i9QLlHZTanckLZ4iceptlj.jpg","year":"2013","result":"HD","language":["Hindi"],"country":["JP"],"original_language":"ja","genres":["Animation"],"imdb_id":"tt3111906","latest_uploaded_season":1,"total_uploaded_episodes":13},{"id":"214910","type":"movie","title":"Hwayi: A Monster Boy","poster":"https://image.tmdb.org/t/p/w342/cDffUvnm2TaLxQYWTy0PnohSGNP.jpg","year":"2013","result":"HD","language":["Hindi"],"country":["KR"],"original_language":"ko","genres":["Action","Thriller","Crime"],"imdb_id":"tt2972362"},{"id":"138832","type":"movie","title":"We're the Millers","poster":"https://image.tmdb.org/t/p/w342/qF2LJ0jwWrtXSuT4AFD5OS2IqaT.jpg","year":"2013","result":"HD","language":["Hindi"],"country":["GB","US"],"original_language":"en","genres":["Comedy","Crime"],"imdb_id":"tt1723121"},{"id":"209247","type":"movie","title":"The Art of the Steal","poster":"https://image.tmdb.org/t/p/w342/4R6ojBfyO8fj3WszLE9rog5qR4W.jpg","year":"2013","result":"HD","language":["Hindi"],"country":["CA","US"],"original_language":"en","genres":["Comedy","Crime"],"imdb_id":"tt2172985"},{"id":"109443","type":"movie","title":"Anchorman 2: The Legend Continues","poster":"https://image.tmdb.org/t/p/w342/BAdmxMdCqzjs6hx3KuEtnoWP8d.jpg","year":"2013","result":"HD","language":["Hindi"],"country":["US"],"original_language":"en","genres":["Comedy"],"imdb_id":"tt1229340"},{"id":"218726","type":"movie","title":"Doraemon: Nobita's Secret Gadget Museum","poster":"https://image.tmdb.org/t/p/w342/cOPhayPb0YzO8GfC4sNmntV9FWE.jpg","year":"2013","result":"HD","language":["Hindi"],"country":["JP"],"original_language":"ja","genres":["Adventure","Family","Animation","Comedy","Fantasy","Science Fiction"],"imdb_id":"tt2768084"},{"id":"207768","type":"movie","title":"I Spit on Your Grave 2","poster":"https://image.tmdb.org/t/p/w342/wit1VRI9sAbCstuwm3KPgxfYYqo.jpg","year":"2013","result":"HD","language":["Hindi"],"country":["US"],"original_language":"en","genres":["Thriller","Horror","Crime"],"imdb_id":"tt2537176"},{"id":"77805","type":"movie","title":"Lovelace","poster":"https://image.tmdb.org/t/p/w342/ibt7chnBsaDbE6ZVwyneuZwYfsC.jpg","year":"2013","result":"HD","language":["Hindi"],"country":["US"],"original_language":"en","genres":["Drama"],"imdb_id":"tt1426329"},{"id":"251783","type":"movie","title":"Pleasure or Pain","poster":"https://image.tmdb.org/t/p/w342/hPsB2NZozctyxl9juWPZzdIpHxa.jpg","year":"2013","result":"HD","language":["Hindi"],"country":["US"],"original_language":"en","genres":["Drama","Thriller"],"imdb_id":"tt2091327"},{"id":"106646","type":"movie","title":"The Wolf of Wall Street","poster":"https://image.tmdb.org/t/p/w342/kW9LmvYHAaS9iA0tHmZVq8hQYoq.jpg","year":"2013","result":"HD","language":["Hindi"],"country":["US"],"original_language":"en","genres":["Crime","Drama","Comedy"],"imdb_id":"tt0993846"},{"id":"138697","type":"movie","title":"Don Jon","poster":"https://image.tmdb.org/t/p/w342/uh8bwvgGXeUKzdL4oSul9zxyTcd.jpg","year":"2013","result":"HD","language":["Hindi"],"country":["US"],"original_language":"en","genres":["Romance","Comedy","Drama"],"imdb_id":"tt2229499"},{"id":"93456","type":"movie","title":"Despicable Me 2","poster":"https://image.tmdb.org/t/p/w342/5Fh4NdoEnCjCK9wLjdJ9DJNFl2b.jpg","year":"2013","result":"HD","language":["Hindi"],"country":["US"],"original_language":"en","genres":["Animation","Comedy","Family"],"imdb_id":"tt1690953"},{"id":"245597","type":"movie","title":"Steal My Heart","poster":"https://image.tmdb.org/t/p/w342/8mYVIXA4S84mGISc3McjxYYeZj2.jpg","year":"2013","result":"HD","language":["Hindi"],"country":["KR"],"original_language":"ko","genres":["Comedy","Romance"],"imdb_id":"tt3694790"},{"id":"174645","type":"movie","title":"Java Heat","poster":"https://image.tmdb.org/t/p/w342/3jQZRqGnqTlwomPZyGziTSSIy6H.jpg","year":"2013","result":"HD","language":["Hindi"],"country":["US"],"original_language":"en","genres":["Action","Crime","Drama","Thriller"],"imdb_id":"tt2083231"},{"id":"289214","type":"movie","title":"Disaster Wars: Earthquake vs. Tsunami","poster":"https://image.tmdb.org/t/p/w342/aCtAi8znKbrTm2vTePXi76zYyDc.jpg","year":"2013","result":"HD","language":["Hindi"],"country":["US"],"original_language":"en","genres":["Thriller","Action","Drama","Science Fiction"],"imdb_id":"tt2571362"},{"id":"230846","type":"movie","title":"Fandry","poster":"https://image.tmdb.org/t/p/w342/zCeFTfyKDITgfYFg2gEyzubhOD9.jpg","year":"2013","result":"HD","language":["Hindi"],"country":["IN"],"original_language":"mr","genres":["Drama","Family"],"imdb_id":"tt2827320"},{"id":"218381","type":"movie","title":"Extraction","poster":"https://image.tmdb.org/t/p/w342/aAU27tuWBrIcOhxLyxd1QgFgXSi.jpg","year":"2013","result":"HD","language":["Hindi"],"country":["US"],"original_language":"en","genres":["Action"],"imdb_id":"tt2823574"},{"id":"212168","type":"movie","title":"Ghost in the Shell: Arise - Border 2: Ghost Whispers","poster":"https://image.tmdb.org/t/p/w342/eC8babU050Nwnss5CnAJyymGkB.jpg","year":"2013","result":"HD","language":["Hindi"],"country":["JP"],"original_language":"ja","genres":["Action","Animation","Science Fiction","Thriller"],"imdb_id":"tt3017864"},{"id":"196750","type":"movie","title":"Ghost in the Shell: Arise - Border 1: Ghost Pain","poster":"https://image.tmdb.org/t/p/w342/p0kHK9nJoLzpqa6tqOzPgPkdxYN.jpg","year":"2013","result":"HD","language":["Hindi"],"country":["JP"],"original_language":"ja","genres":["Action","Animation","Crime","Science Fiction"],"imdb_id":"tt2636124"},{"id":"169934","type":"movie","title":"Iron Man: Rise of Technovore","poster":"https://image.tmdb.org/t/p/w342/eHDez1uN5X2ZAq4niX7HvhyZIIO.jpg","year":"2013","result":"HD","language":["Hindi"],"country":["JP"],"original_language":"ja","genres":["Science Fiction","Animation","Action"],"imdb_id":"tt2654124"},{"id":"129139","type":"movie","title":"The To Do List","poster":"https://image.tmdb.org/t/p/w342/vSVYCcvDJljrESZo1jJyXPVvwfk.jpg","year":"2013","result":"HD","language":["Hindi"],"country":["US"],"original_language":"en","genres":["Comedy","Romance"],"imdb_id":"tt1758795"},{"id":"100542","type":"movie","title":"Vikingdom","poster":"https://image.tmdb.org/t/p/w342/mllJZUdy0LVD7MabX1bHlDDIqI6.jpg","year":"2013","result":"HD","language":["Hindi"],"country":["MY"],"original_language":"en","genres":["Adventure"],"imdb_id":"tt1785669"},{"id":"61148","type":"tv","title":"Empress Ki","poster":"https://image.tmdb.org/t/p/w342/cH9PMmBkhtVMlCdi8fgvMqekNKi.jpg","year":"2013","result":"HD","language":["Hindi"],"country":["KR"],"original_language":"ko","genres":["Drama","War & Politics"],"imdb_id":"tt3322566","latest_uploaded_season":1,"total_uploaded_episodes":51},{"id":"60957","type":"tv","title":"My Love from the Star","poster":"https://image.tmdb.org/t/p/w342/o5EYVYCVtDUdajP4rWfv6q0BTmm.jpg","year":"2013","result":"HD","language":["Hindi"],"country":["KR"],"original_language":"ko","genres":["Comedy","Drama"],"imdb_id":"tt3469052","latest_uploaded_season":1,"total_uploaded_episodes":21},{"id":"57158","type":"movie","title":"The Hobbit: The Desolation of Smaug","poster":"https://image.tmdb.org/t/p/w342/xQYiXsheRCDBA39DOrmaw1aSpbk.jpg","year":"2013","result":"HD","language":["Hindi"],"country":["NZ","US"],"original_language":"en","genres":["Fantasy","Adventure","Action"],"imdb_id":"tt1170358"},{"id":"108739","type":"movie","title":"Making Off","poster":"https://image.tmdb.org/t/p/w342/qHt2txXAA167PnFXgRJht5pGvQE.jpg","year":"2012","result":"HD","language":["Hindi"],"country":["FR"],"original_language":"fr","genres":["Horror","Crime","Comedy"],"imdb_id":"tt3561490"},{"id":"114150","type":"movie","title":"Pitch Perfect","poster":"https://image.tmdb.org/t/p/w342/gsFoJk9g8W3zgaipRrrURk7LbiF.jpg","year":"2012","result":"HD","language":["Hindi"],"country":["US"],"original_language":"en","genres":["Comedy","Music","Romance"],"imdb_id":"tt1981677"},{"id":"134597","type":"movie","title":"The Collection","poster":"https://image.tmdb.org/t/p/w342/qbhJiXi48fRQevHf56i2JmYqyJ7.jpg","year":"2012","result":"HD","language":["Hindi"],"country":["US"],"original_language":"en","genres":["Horror","Thriller"],"imdb_id":"tt1748227"},{"id":"57165","type":"movie","title":"Wrath of the Titans","poster":"https://image.tmdb.org/t/p/w342/b9n2R3xZWQ8MVZgndQoV34stS0h.jpg","year":"2012","result":"HD","language":["Hindi"],"country":["ES","US"],"original_language":"en","genres":["Fantasy","Adventure","Action"],"imdb_id":"tt1646987"}]}