{"page":60,"total_pages":66,"total_items":3272,"items":[{"id":"271110","type":"movie","title":"Captain America: Civil War","poster":"https://image.tmdb.org/t/p/w342/rAGiXaUfPzY7CDEyNKUofk3Kw2e.jpg","year":"2016","result":"HD","language":["Hindi"],"country":["US"],"original_language":"en","genres":["Adventure","Action","Science Fiction"],"imdb_id":"tt3498820"},{"id":"213681","type":"movie","title":"Masterminds","poster":"https://image.tmdb.org/t/p/w342/4CXgye1p8Vr7taDG389QhhHDUZ4.jpg","year":"2016","result":"HD","language":["Hindi"],"country":["US"],"original_language":"en","genres":["Action","Comedy","Crime"],"imdb_id":"tt2461150"},{"id":"168098","type":"movie","title":"Cell","poster":"https://image.tmdb.org/t/p/w342/c5N6Pw3P6TqQnGcqiVkhO9u85KB.jpg","year":"2016","result":"HD","language":["Hindi"],"country":["US"],"original_language":"en","genres":["Horror","Science Fiction","Thriller"],"imdb_id":"tt0775440"},{"id":"146198","type":"movie","title":"Triple 9","poster":"https://image.tmdb.org/t/p/w342/q2kIq9yzEkOVhl1aeo0alJHtdfz.jpg","year":"2016","result":"HD","language":["Hindi"],"country":["US"],"original_language":"en","genres":["Action","Crime","Adventure","Thriller"],"imdb_id":"tt1712261"},{"id":"67915","type":"tv","title":"Goblin","poster":"https://image.tmdb.org/t/p/w342/sPkxHNw5BFvuCFGWw825TS7n6X3.jpg","year":"2016","result":"HD","language":["Hindi"],"country":["KR"],"original_language":"ko","genres":["Drama","Sci-Fi & Fantasy","Comedy"],"imdb_id":"tt5994364","latest_uploaded_season":1,"total_uploaded_episodes":16},{"id":"67391","type":"tv","title":"The K2","poster":"https://image.tmdb.org/t/p/w342/egziV2hfeNcDTQwZCGgtbKfUEpD.jpg","year":"2016","result":"HD","language":["Hindi"],"country":["KR"],"original_language":"ko","genres":["Action & Adventure","Drama","Crime"],"imdb_id":"tt5966882","latest_uploaded_season":1,"total_uploaded_episodes":16},{"id":"67014","type":"tv","title":"Hello, My Twenties!","poster":"https://image.tmdb.org/t/p/w342/4MdSbKFGAzgFhF407e9fcZreqvm.jpg","year":"2016","result":"HD","language":["Hindi"],"country":["KR"],"original_language":"ko","genres":["Comedy","Drama"],"imdb_id":"tt5858892","latest_uploaded_season":1,"total_uploaded_episodes":12},{"id":"66082","type":"tv","title":"Another Miss Oh","poster":"https://image.tmdb.org/t/p/w342/8lTp5kfcd61qFWwHhjwTE8a09OQ.jpg","year":"2016","result":"HD","language":["Hindi"],"country":["KR"],"original_language":"ko","genres":["Comedy","Drama"],"imdb_id":"tt5679572","latest_uploaded_season":1,"total_uploaded_episodes":18},{"id":"65942","type":"tv","title":"Re:ZERO -Starting Life in Another World-","poster":"https://image.tmdb.org/t/p/w342/aRwmcX36r1ZpR5Xq5mmFcpUDQ8J.jpg","year":"2016","result":"HD","language":["Hindi"],"country":["JP"],"original_language":"ja","genres":["Animation","Action & Adventure","Sci-Fi & Fantasy","Mystery"],"imdb_id":"tt5607616","latest_uploaded_season":3,"total_uploaded_episodes":54},{"id":"65143","type":"tv","title":"Descendants of the Sun","poster":"https://image.tmdb.org/t/p/w342/s1zXuYyMMrgpet6BBrMqGlHnvc8.jpg","year":"2016","result":"HD","language":["Hindi"],"country":["KR"],"original_language":"ko","genres":["Drama","Action & Adventure"],"imdb_id":"tt4925000","latest_uploaded_season":1,"total_uploaded_episodes":16},{"id":"64448","type":"tv","title":"Madame Antoine: The Love Therapist","poster":"https://image.tmdb.org/t/p/w342/vArW0WiXx0Rdf5pzVxuISR2led6.jpg","year":"2016","result":"HD","language":["Hindi"],"country":["KR"],"original_language":"ko","genres":["Comedy","Romance","Drama"],"imdb_id":"tt5332172","latest_uploaded_season":1,"total_uploaded_episodes":16},{"id":"254470","type":"movie","title":"Pitch Perfect 2","poster":"https://image.tmdb.org/t/p/w342/oFBQUufCV4c8WZoNhtGM17p884H.jpg","year":"2015","result":"HD","language":["Hindi"],"country":["US"],"original_language":"en","genres":["Comedy","Music"],"imdb_id":"tt2848292"},{"id":"62838","type":"tv","title":"My Love Eun Dong","poster":"https://image.tmdb.org/t/p/w342/1g7DQDoPgguyJC41NMweMtQsHly.jpg","year":"2015","result":"HD","language":["Hindi"],"country":["KR"],"original_language":"ko","genres":["Drama","Romance"],"imdb_id":"tt4791426","latest_uploaded_season":1,"total_uploaded_episodes":16},{"id":"61890","type":"tv","title":"Hyde, Jekyll, Me","poster":"https://image.tmdb.org/t/p/w342/pSus8FBfnEAGkrVNDkAW4L1qB5Y.jpg","year":"2015","result":"HD","language":["Hindi"],"country":["KR"],"original_language":"ko","genres":["Comedy","Drama"],"imdb_id":"tt4357294","latest_uploaded_season":1,"total_uploaded_episodes":20},{"id":"366654","type":"movie","title":"The Magician","poster":"https://image.tmdb.org/t/p/w342/mlvCpomcyFB4OyYjUIAvJgZhtHV.jpg","year":"2015","result":"HD","language":["Hindi"],"country":["KR"],"original_language":"ko","genres":["Drama","Romance","Fantasy"],"imdb_id":"tt4471636"},{"id":"62925","type":"tv","title":"The Time We Were Not in Love","poster":"https://image.tmdb.org/t/p/w342/kcmzZ5MI0f4NGaYOcHfHBQaIlio.jpg","year":"2015","result":"HD","language":["Hindi"],"country":["KR"],"original_language":"ko","genres":["Drama","Romance"],"imdb_id":"tt4817002","latest_uploaded_season":1,"total_uploaded_episodes":16},{"id":"340912","type":"movie","title":"Enemies In-Law","poster":"https://image.tmdb.org/t/p/w342/xe2q5puzmFogp2i3fVla9Xcloc1.jpg","year":"2015","result":"HD","language":["Hindi"],"country":["KR"],"original_language":"ko","genres":["Romance","Comedy"],"imdb_id":"tt5449088"},{"id":"350650","type":"movie","title":"Doraemon: Nobita and the Space Heroes","poster":"https://image.tmdb.org/t/p/w342/pYVJgcuCU9swa7GEujygsRdkSQd.jpg","year":"2015","result":"HD","language":["Hindi"],"country":["JP"],"original_language":"ja","genres":["Comedy","Animation","Family","Adventure","Science Fiction","Fantasy"],"imdb_id":"tt4788602"},{"id":"63106","type":"tv","title":"The Scholar Who Walks the Night","poster":"https://image.tmdb.org/t/p/w342/aTTgLKamVYRFbD9CTr4ZzErlNzQ.jpg","year":"2015","result":"HD","language":["Hindi"],"country":["KR"],"original_language":"ko","genres":["Drama","Mystery"],"imdb_id":"tt4846958","latest_uploaded_season":1,"total_uploaded_episodes":40},{"id":"361539","type":"movie","title":"Deep Trap","poster":"https://image.tmdb.org/t/p/w342/3kmLrAWu0qgBRoNviC52DKEkHcl.jpg","year":"2015","result":"HD","language":["Hindi"],"country":["KR"],"original_language":"ko","genres":["Thriller","Drama","Crime","Horror"],"imdb_id":"tt4922028"},{"id":"216015","type":"movie","title":"Fifty Shades of Grey","poster":"https://image.tmdb.org/t/p/w342/63kGofUkt1Mx0SIL4XI4Z5AoSgt.jpg","year":"2015","result":"HD","language":["Hindi"],"country":["US"],"original_language":"en","genres":["Drama","Romance","Thriller"],"imdb_id":"tt2322441"},{"id":"357096","type":"movie","title":"I Spit on Your Grave III: Vengeance Is Mine","poster":"https://image.tmdb.org/t/p/w342/qosIFCddpZjoMdsrkcQWB4UGm3o.jpg","year":"2015","result":"HD","language":["Hindi"],"country":["US"],"original_language":"en","genres":["Horror"],"imdb_id":"tt4530884"},{"id":"241251","type":"movie","title":"The Boy Next Door","poster":"https://image.tmdb.org/t/p/w342/gicmSeLG6Uh7BF1r1mxZHUQ8r26.jpg","year":"2015","result":"HD","language":["Hindi"],"country":["US"],"original_language":"en","genres":["Thriller"],"imdb_id":"tt3181822"},{"id":"343701","type":"movie","title":"Bunny the Killer Thing","poster":"https://image.tmdb.org/t/p/w342/pShIldQSNMulPnvp6dlfSzMzW2w.jpg","year":"2015","result":"HD","language":["Hindi"],"country":["FI"],"original_language":"fi","genres":["Action","Comedy","Horror"],"imdb_id":"tt3375286"},{"id":"263472","type":"movie","title":"Knock Knock","poster":"https://image.tmdb.org/t/p/w342/cUC4rUb1Cs2KMaZ6RD4uYUEEwls.jpg","year":"2015","result":"HD","language":["Hindi"],"country":["CL","DE","US"],"original_language":"en","genres":["Horror","Thriller","Crime"],"imdb_id":"tt3605418"},{"id":"330414","type":"movie","title":"10 Endrathukulla","poster":"https://image.tmdb.org/t/p/w342/jZx7x4JUadJBa8AFZYsc5gN5k8E.jpg","year":"2015","result":"HD","language":["Hindi"],"country":["IN"],"original_language":"ta","genres":["Action","Romance"],"imdb_id":"tt5128266"},{"id":"332832","type":"movie","title":"Surya Vs Surya","poster":"https://image.tmdb.org/t/p/w342/uzVRWHPmZ8hM4NIgCZBKJ8KVCDI.jpg","year":"2015","result":"HD","language":["Hindi"],"country":["IN"],"original_language":"te","genres":["Romance","Drama"],"imdb_id":"tt4505168"},{"id":"351694","type":"movie","title":"Monkey King: Hero Is Back","poster":"https://image.tmdb.org/t/p/w342/xHme10Y5jVdH8KeSGgStndjatF5.jpg","year":"2015","result":"HD","language":["Hindi"],"country":["CN"],"original_language":"zh","genres":["Fantasy","Animation","Comedy"],"imdb_id":"tt4644382"},{"id":"341420","type":"movie","title":"Demonte Colony","poster":"https://image.tmdb.org/t/p/w342/4v0rLDCAV0CuZTAoeu8CDPBkksB.jpg","year":"2015","result":"HD","language":["Hindi"],"country":["IN"],"original_language":"ta","genres":["Horror"],"imdb_id":"tt4701688"},{"id":"1157408","type":"movie","title":"Ghost in the Shell: Arise - Border 5: Pyrophoric Cult","poster":"https://image.tmdb.org/t/p/w342/tPuRZltk87r9oP8pSNjJLMsHVMV.jpg","year":"2015","result":"HD","language":["Hindi"],"country":["JP"],"original_language":"ja","genres":["Action","Animation","Science Fiction","Crime"],"imdb_id":""},{"id":"338729","type":"movie","title":"The Beauty Inside","poster":"https://image.tmdb.org/t/p/w342/z5gpjqQwo0h8rMvBLedRXfHHDKb.jpg","year":"2015","result":"HD","language":["Hindi"],"country":["KR"],"original_language":"ko","genres":["Fantasy","Romance"],"imdb_id":"tt4273886"},{"id":"334376","type":"movie","title":"Ghost in the Shell: The New Movie","poster":"https://image.tmdb.org/t/p/w342/eLd31emY3jann7JV0AkSPJ06Xep.jpg","year":"2015","result":"HD","language":["Hindi"],"country":["JP"],"original_language":"ja","genres":["Science Fiction","Animation"],"imdb_id":"tt4337072"},{"id":"332976","type":"movie","title":"Absolution","poster":"https://image.tmdb.org/t/p/w342/582SiBOAYRk17fou5lgOjdW7zNi.jpg","year":"2015","result":"HD","language":["Hindi"],"country":["US"],"original_language":"en","genres":["Action","Thriller","Adventure","Crime"],"imdb_id":"tt3503840"},{"id":"332177","type":"movie","title":"Vendetta","poster":"https://image.tmdb.org/t/p/w342/7hfZbdtuxmbDbXZocYOVQNmUeXy.jpg","year":"2015","result":"HD","language":["Hindi"],"country":["US"],"original_language":"en","genres":["Action","Drama"],"imdb_id":"tt3746298"},{"id":"328589","type":"movie","title":"The Lady in the Van","poster":"https://image.tmdb.org/t/p/w342/sqz4CGInI1bysFH674HYWtQSmYn.jpg","year":"2015","result":"HD","language":["Hindi"],"country":["GB"],"original_language":"en","genres":["Comedy","Drama"],"imdb_id":"tt3722070"},{"id":"316654","type":"movie","title":"Bombay Velvet","poster":"https://image.tmdb.org/t/p/w342/pLd96xMgrwNBNRnBaTa1h0bgeSS.jpg","year":"2015","result":"HD","language":["Hindi"],"country":["IN"],"original_language":"hi","genres":["Crime","Thriller"],"imdb_id":"tt2979920"},{"id":"301728","type":"movie","title":"Infini","poster":"https://image.tmdb.org/t/p/w342/3RpZabrzEKiwoG5Y74HkX4rMQHM.jpg","year":"2015","result":"HD","language":["Hindi"],"country":["AU"],"original_language":"en","genres":["Horror","Science Fiction","Thriller"],"imdb_id":"tt3327624"},{"id":"76341","type":"movie","title":"Mad Max: Fury Road","poster":"https://image.tmdb.org/t/p/w342/hA2ple9q4qnwxp3hKVNhroipsir.jpg","year":"2015","result":"HD","language":["Hindi"],"country":["AU","US"],"original_language":"en","genres":["Action","Adventure","Science Fiction"],"imdb_id":"tt1392190"},{"id":"64592","type":"tv","title":"The Lost Tomb","poster":"https://image.tmdb.org/t/p/w342/uqOqVGdNheWAXUhZcybOGA7aPuT.jpg","year":"2015","result":"HD","language":["Hindi"],"country":["CN"],"original_language":"zh","genres":["Action & Adventure","Mystery"],"imdb_id":"tt4219438","latest_uploaded_season":1,"total_uploaded_episodes":12},{"id":"62952","type":"tv","title":"Hidden Identity","poster":"https://image.tmdb.org/t/p/w342/cwn8rIJO4Oad4ECkgJAzAeb59U2.jpg","year":"2015","result":"HD","language":["Hindi"],"country":["KR"],"original_language":"ko","genres":["Crime"],"imdb_id":"tt4780416","latest_uploaded_season":1,"total_uploaded_episodes":16},{"id":"62511","type":"tv","title":"Who Are You: School 2015","poster":"https://image.tmdb.org/t/p/w342/snrF3YkSzsmUacDUtURKzZYZOfh.jpg","year":"2015","result":"HD","language":["Hindi"],"country":["KR"],"original_language":"ko","genres":["Drama","Mystery"],"imdb_id":"tt5087824","latest_uploaded_season":1,"total_uploaded_episodes":16},{"id":"62266","type":"tv","title":"Kill Me, Heal Me","poster":"https://image.tmdb.org/t/p/w342/dNH6NO0akHMIqbq5EC4qnCeeuC6.jpg","year":"2015","result":"HD","language":["Hindi"],"country":["KR"],"original_language":"ko","genres":["Comedy","Drama","Mystery"],"imdb_id":"tt4339192","latest_uploaded_season":1,"total_uploaded_episodes":20},{"id":"168530","type":"movie","title":"Ride Along","poster":"https://image.tmdb.org/t/p/w342/qrt65VVaP5DEEBZgB5XYctA82Qv.jpg","year":"2014","result":"HD","language":["Hindi"],"country":["US"],"original_language":"en","genres":["Action","Comedy"],"imdb_id":"tt1408253"},{"id":"61786","type":"tv","title":"Pride and Prejudice","poster":"https://image.tmdb.org/t/p/w342/9ai6t3XlWg5VoLTqYx2DP4JplgL.jpg","year":"2014","result":"HD","language":["Hindi"],"country":["KR"],"original_language":"ko","genres":["Crime","Drama"],"imdb_id":"tt4284162","latest_uploaded_season":1,"total_uploaded_episodes":21},{"id":"61197","type":"tv","title":"Emergency Couple","poster":"https://image.tmdb.org/t/p/w342/pvk9IYxxLNgsdXDhA1is3LFKeCC.jpg","year":"2014","result":"HD","language":["Hindi"],"country":["KR"],"original_language":"ko","genres":["Comedy","Drama"],"imdb_id":"tt3530644","latest_uploaded_season":1,"total_uploaded_episodes":21},{"id":"287767","type":"movie","title":"Mardaani","poster":"https://image.tmdb.org/t/p/w342/fD1zfYXgMbDkgIt9ZrHfte6mWHE.jpg","year":"2014","result":"HD","language":["Hindi"],"country":["IN"],"original_language":"hi","genres":["Action","Crime","Drama","Thriller"],"imdb_id":"tt3495000"},{"id":"63435","type":"tv","title":"Silver Spoon","poster":"https://image.tmdb.org/t/p/w342/kDEpaBqnD40tI7XpRDUFWn4JWcA.jpg","year":"2014","result":"HD","language":["Hindi"],"country":["RU"],"original_language":"ru","genres":["Drama","Crime"],"imdb_id":"tt4426042","latest_uploaded_season":1,"total_uploaded_episodes":12},{"id":"61670","type":"tv","title":"Healer","poster":"https://image.tmdb.org/t/p/w342/4Zc0XtzXasrfgOyCH7wX8stqkEu.jpg","year":"2014","result":"HD","language":["Hindi"],"country":["KR"],"original_language":"ko","genres":["Comedy","Action & Adventure","Mystery","Drama"],"imdb_id":"tt4284216","latest_uploaded_season":1,"total_uploaded_episodes":20},{"id":"60956","type":"tv","title":"Doctor Stranger","poster":"https://image.tmdb.org/t/p/w342/odH9cebqUNHKh1p6BKVSs0gsD34.jpg","year":"2014","result":"HD","language":["Hindi"],"country":["KR"],"original_language":"ko","genres":["Drama","Crime"],"imdb_id":"tt3693414","latest_uploaded_season":1,"total_uploaded_episodes":20},{"id":"285812","type":"movie","title":"Doraemon: New Nobita's Great Demon - Peko and the Exploration Party of Five","poster":"https://image.tmdb.org/t/p/w342/xKGMXQFGca4nKcO308aZ6nWz0Gc.jpg","year":"2014","result":"HD","language":["Hindi"],"country":["JP"],"original_language":"ja","genres":["Family","Animation","Adventure","Fantasy","Comedy","Science Fiction"],"imdb_id":"tt3949650"}]}