{"page":29,"total_pages":66,"total_items":3272,"items":[{"id":"1319968","type":"movie","title":"Millers in Marriage","poster":"https://image.tmdb.org/t/p/w342/z7UvGuQ8pSs0JJP3QYCAIsNzYXI.jpg","year":"2024","result":"HD","language":["Hindi"],"country":["US"],"original_language":"en","genres":["Drama"],"imdb_id":"tt32499895"},{"id":"989730","type":"movie","title":"Mononoke the Movie: The Phantom in the Rain","poster":"https://image.tmdb.org/t/p/w342/s0apanRsR8mIp9jU9WJt9dgdt7Y.jpg","year":"2024","result":"HD","language":["Hindi"],"country":["JP"],"original_language":"ja","genres":["Animation","Fantasy","Mystery"],"imdb_id":"tt32574149"},{"id":"1159311","type":"movie","title":"My Hero Academia: You're Next","poster":"https://image.tmdb.org/t/p/w342/tTrI6PwqzxkgO3dvQ7BEKXM7SYR.jpg","year":"2024","result":"HD","language":["Hindi"],"country":["JP"],"original_language":"ja","genres":["Animation","Action","Adventure","Science Fiction"],"imdb_id":"tt32176689"},{"id":"1159799","type":"movie","title":"My Penguin Friend","poster":"https://image.tmdb.org/t/p/w342/65ll0fwaCMDHuD5XMJk4f4Olc5b.jpg","year":"2024","result":"HD","language":["Hindi"],"country":["BR","US"],"original_language":"en","genres":["Family","Adventure","Drama"],"imdb_id":"tt8609660"},{"id":"205743","type":"tv","title":"No Longer Allowed in Another World","poster":"https://image.tmdb.org/t/p/w342/mKOeQuH7BRrd6Fu4Exx2r0rJF5b.jpg","year":"2024","result":"HD","language":["Hindi"],"country":["JP"],"original_language":"ja","genres":["Animation","Comedy","Drama","Sci-Fi & Fantasy"],"imdb_id":"tt31186547","latest_uploaded_season":1,"total_uploaded_episodes":12},{"id":"1216103","type":"movie","title":"Out Come the Wolves","poster":"https://image.tmdb.org/t/p/w342/kDijoX2DQlymtUL44lCxJ1JLsGL.jpg","year":"2024","result":"HD","language":["Hindi"],"country":["CA"],"original_language":"en","genres":["Thriller","Action","Horror"],"imdb_id":"tt4853290"},{"id":"845781","type":"movie","title":"Red One","poster":"https://image.tmdb.org/t/p/w342/cdqLnri3NEGcmfnqwk2TSIYtddg.jpg","year":"2024","result":"HD","language":["Hindi"],"country":["US"],"original_language":"en","genres":["Action","Comedy","Fantasy"],"imdb_id":"tt14948432"},{"id":"991197","type":"movie","title":"Rob N Roll","poster":"https://image.tmdb.org/t/p/w342/3yZx8wV4YtrgJI6O0vPtDKIDXWh.jpg","year":"2024","result":"HD","language":["Hindi"],"country":["HK"],"original_language":"cn","genres":["Action","Comedy","Crime"],"imdb_id":"tt30958950"},{"id":"229926","type":"tv","title":"Suicide Squad Isekai","poster":"https://image.tmdb.org/t/p/w342/AbVwsBJnLoqJzPJn8dlGFSGfygy.jpg","year":"2024","result":"HD","language":["Hindi"],"country":["US"],"original_language":"en","genres":["Animation","Action & Adventure","Sci-Fi & Fantasy"],"imdb_id":"tt28279848","latest_uploaded_season":1,"total_uploaded_episodes":10},{"id":"158141","type":"tv","title":"Supacell","poster":"https://image.tmdb.org/t/p/w342/vHtNgRLWdMk7wIV2WbqkOzU7HHI.jpg","year":"2024","result":"HD","language":["Hindi"],"country":["GB"],"original_language":"en","genres":["Action & Adventure","Sci-Fi & Fantasy","Drama"],"imdb_id":"tt16283758","latest_uploaded_season":2,"total_uploaded_episodes":7},{"id":"211079","type":"tv","title":"Supersex","poster":"https://image.tmdb.org/t/p/w342/9tSS4VeR5lYzny2c6Fj6lgYszRP.jpg","year":"2024","result":"HD","language":["Hindi"],"country":["IT"],"original_language":"it","genres":["Drama"],"imdb_id":"tt22325774","latest_uploaded_season":1,"total_uploaded_episodes":7},{"id":"1383321","type":"movie","title":"Swap","poster":"https://image.tmdb.org/t/p/w342/bVr21IBRc8HW1zRcKKGensPldFz.jpg","year":"2024","result":"HD","language":["Hindi"],"country":["US"],"original_language":"en","genres":["Horror","Romance","Thriller"],"imdb_id":"tt13358302"},{"id":"78204","type":"tv","title":"Sword Art Online Alternative: Gun Gale Online","poster":"https://image.tmdb.org/t/p/w342/1EBk96E3cVVOEVlx2z744oEuFQk.jpg","year":"2024","result":"HD","language":["Hindi"],"country":["JP"],"original_language":"ja","genres":["Animation","Action & Adventure","Sci-Fi & Fantasy"],"imdb_id":"tt7978710","latest_uploaded_season":2,"total_uploaded_episodes":24},{"id":"1174481","type":"movie","title":"The 47","poster":"https://image.tmdb.org/t/p/w342/gPEvUtPn4ohYMWavYRK7kAbQ8Zw.jpg","year":"2024","result":"HD","language":["Hindi"],"country":["ES"],"original_language":"ca","genres":["Drama"],"imdb_id":"tt27751957"},{"id":"1365401","type":"movie","title":"The Adventures of Jurassic Pet: Return to the Wild","poster":"https://image.tmdb.org/t/p/w342/c8uz2Mn44ha8tkso9uCc12poYmr.jpg","year":"2024","result":"HD","language":["Hindi"],"country":["US"],"original_language":"en","genres":["Adventure","Family","Science Fiction","Comedy"],"imdb_id":"tt27562836"},{"id":"1327843","type":"movie","title":"The Death Game","poster":"https://image.tmdb.org/t/p/w342/7Fsu6TmpagdSOXVsIFONLpY5sBQ.jpg","year":"2024","result":"HD","language":["Hindi"],"country":["CN"],"original_language":"zh","genres":["Adventure","Action","History"],"imdb_id":"tt33143839"},{"id":"222623","type":"tv","title":"The Elusive Samurai","poster":"https://image.tmdb.org/t/p/w342/wVJjyUbns2USXo1bolF2vGanvf6.jpg","year":"2024","result":"HD","language":["Hindi"],"country":["JP"],"original_language":"ja","genres":["Animation","Action & Adventure"],"imdb_id":"tt27187054","latest_uploaded_season":2,"total_uploaded_episodes":12},{"id":"1277172","type":"movie","title":"The Magician's Raincoat","poster":"https://image.tmdb.org/t/p/w342/2sepxjUsrL265MGxu43CPbMZgxe.jpg","year":"2024","result":"HD","language":["Hindi"],"country":["US"],"original_language":"en","genres":["Family","Fantasy","Adventure","Comedy"],"imdb_id":"tt26445481"},{"id":"216760","type":"tv","title":"The Many Sides of Voice Actor Radio","poster":"https://image.tmdb.org/t/p/w342/733lDek9YYMfxplg0ELoi3mkRuH.jpg","year":"2024","result":"HD","language":["Hindi"],"country":["JP"],"original_language":"ja","genres":["Animation","Comedy","Drama"],"imdb_id":"tt31940035","latest_uploaded_season":1,"total_uploaded_episodes":12},{"id":"865910","type":"movie","title":"The Plot","poster":"https://image.tmdb.org/t/p/w342/pBZ1N68Ral2rtNzeQAmGFhDadq0.jpg","year":"2024","result":"HD","language":["Hindi"],"country":["KR"],"original_language":"ko","genres":["Crime","Thriller"],"imdb_id":"tt26591189"},{"id":"1047373","type":"movie","title":"The Silent Hour","poster":"https://image.tmdb.org/t/p/w342/j736cRzBtEPCm0nHnpRN1prqiqj.jpg","year":"2024","result":"HD","language":["Hindi"],"country":["US","MT"],"original_language":"en","genres":["Crime","Thriller","Action"],"imdb_id":"tt22874848"},{"id":"1128936","type":"movie","title":"The Train of Death","poster":"https://image.tmdb.org/t/p/w342/entDxWSkkzcutRm5S9pRWNmvyOJ.jpg","year":"2024","result":"HD","language":["Hindi"],"country":["ID"],"original_language":"id","genres":["Horror","Thriller"],"imdb_id":"tt29545351"},{"id":"1231828","type":"movie","title":"The Witch. Revenge","poster":"https://image.tmdb.org/t/p/w342/4Y9BXbNJ5vgIXhKpGpJXxTygngD.jpg","year":"2024","result":"HD","language":["Hindi"],"country":["UA"],"original_language":"uk","genres":["Horror","Fantasy","War","Drama"],"imdb_id":"tt32200215"},{"id":"46648","type":"tv","title":"True Detective","poster":"https://image.tmdb.org/t/p/w342/zYqVTiHK5ZajYcNzAW7qWte5NWS.jpg","year":"2024","result":"HD","language":["Hindi"],"country":["US"],"original_language":"en","genres":["Drama","Mystery"],"imdb_id":"tt2356777","latest_uploaded_season":4,"total_uploaded_episodes":30},{"id":"718821","type":"movie","title":"Twisters","poster":"https://image.tmdb.org/t/p/w342/pjnD08FlMAIXsfOLKQbvmO0f0MD.jpg","year":"2024","result":"HD","language":["Hindi"],"country":["US"],"original_language":"en","genres":["Action","Thriller"],"imdb_id":"tt12584954"},{"id":"1155058","type":"movie","title":"Watchmen: Chapter I","poster":"https://image.tmdb.org/t/p/w342/tE2vZ6HdlmKaBh0wpsvHCf7HJKo.jpg","year":"2024","result":"HD","language":["Hindi"],"country":["US"],"original_language":"en","genres":["Animation","Drama","Science Fiction"],"imdb_id":"tt32627540"},{"id":"1299652","type":"movie","title":"Watchmen: Chapter II","poster":"https://image.tmdb.org/t/p/w342/apzbE0pcmKz4RTWFVP7XXdg3VCZ.jpg","year":"2024","result":"HD","language":["Hindi"],"country":["US"],"original_language":"en","genres":["Animation","Mystery","Science Fiction","Drama"],"imdb_id":"tt32627545"},{"id":"244672","type":"tv","title":"Why Does Nobody Remember Me in This World?","poster":"https://image.tmdb.org/t/p/w342/u9C9lYBA6dujAaYXjxlgcEqVc1d.jpg","year":"2024","result":"HD","language":["Hindi"],"country":["JP"],"original_language":"ja","genres":["Animation","Drama","Sci-Fi & Fantasy","Action & Adventure","Mystery"],"imdb_id":"tt31844529","latest_uploaded_season":1,"total_uploaded_episodes":12},{"id":"1241894","type":"movie","title":"Woodwalkers","poster":"https://image.tmdb.org/t/p/w342/bC1r04ohuxv5feaGDzQ0lXz7Bbl.jpg","year":"2024","result":"HD","language":["Hindi"],"country":["AT","DE","IT"],"original_language":"de","genres":["Fantasy","Family"],"imdb_id":"tt30398905"},{"id":"1305016","type":"movie","title":"Chef Chidambara","poster":"https://image.tmdb.org/t/p/w342/iAqYULyRX4yTEXkoM9erpVyeKnh.jpg","year":"2024","result":"HD","language":["Hindi"],"country":[],"original_language":"kn","genres":["Comedy"],"imdb_id":"tt28613886"},{"id":"246293","type":"tv","title":"Chemistry Mashi","poster":"https://image.tmdb.org/t/p/w342/z6fSok7ZKs7Q7diFTRifhv5C81D.jpg","year":"2024","result":"HD","language":["Hindi"],"country":["IN"],"original_language":"bn","genres":["Drama"],"imdb_id":"tt30834994","latest_uploaded_season":1,"total_uploaded_episodes":6},{"id":"154084","type":"tv","title":"Citadel Honey Bunny","poster":"https://image.tmdb.org/t/p/w342/lzZ9J2FOsaq1DCuD7k2f4ogbXdD.jpg","year":"2024","result":"HD","language":["Hindi"],"country":["US"],"original_language":"en","genres":["Action & Adventure","Drama","Sci-Fi & Fantasy"],"imdb_id":"tt27111295","latest_uploaded_season":1,"total_uploaded_episodes":6},{"id":"622792","type":"movie","title":"Kanguva","poster":"https://image.tmdb.org/t/p/w342/lycbTFBXqFN1kMdPEsnAFutKEEy.jpg","year":"2024","result":"HD","language":["Hindi"],"country":["IN"],"original_language":"ta","genres":["Action","Thriller","Fantasy"],"imdb_id":"tt22036406"},{"id":"233953","type":"tv","title":"My Special Girl","poster":"https://image.tmdb.org/t/p/w342/rQ82k06SNo2XcJujqCWkDOXnk4t.jpg","year":"2024","result":"HD","language":["Hindi"],"country":["CN"],"original_language":"zh","genres":["Drama","Comedy"],"imdb_id":"tt31108369","latest_uploaded_season":1,"total_uploaded_episodes":24},{"id":"71790","type":"tv","title":"S.W.A.T.","poster":"https://image.tmdb.org/t/p/w342/ttzrYMdsKWR8PTRLw7uo4noqaOJ.jpg","year":"2024","result":"HD","language":["Hindi"],"country":["US"],"original_language":"en","genres":["Crime","Action & Adventure","Drama"],"imdb_id":"tt6111130","latest_uploaded_season":8,"total_uploaded_episodes":163},{"id":"225467","type":"tv","title":"1992","poster":"https://image.tmdb.org/t/p/w342/brg7JhfiUDZWsKCMLi7nQK4rAi3.jpg","year":"2024","result":"HD","language":["Hindi"],"country":["ES"],"original_language":"es","genres":["Drama","Mystery"],"imdb_id":"tt27787158","latest_uploaded_season":1,"total_uploaded_episodes":6},{"id":"230189","type":"tv","title":"365 Days to the Wedding","poster":"https://image.tmdb.org/t/p/w342/lMVkOrMaWEkHZLdPksKGcdi6hJg.jpg","year":"2024","result":"HD","language":["Hindi"],"country":["JP"],"original_language":"ja","genres":["Animation","Comedy"],"imdb_id":"tt27497575","latest_uploaded_season":1,"total_uploaded_episodes":12},{"id":"1173894","type":"movie","title":"A Bestselling Kind of Love","poster":"https://image.tmdb.org/t/p/w342/At4KSxIl6s4GSlrMAtVHDmTWJCJ.jpg","year":"2024","result":"HD","language":["Hindi"],"country":["CA"],"original_language":"en","genres":["Romance","Comedy","TV Movie"],"imdb_id":"tt28795995"},{"id":"1200894","type":"movie","title":"A Conflict of Love Interest","poster":"https://image.tmdb.org/t/p/w342/qoMabYjnDcukmGmWBxnAbbGbEmg.jpg","year":"2024","result":"HD","language":["Hindi"],"country":["US"],"original_language":"en","genres":["TV Movie","Comedy","Romance"],"imdb_id":"tt29602974"},{"id":"138501","type":"tv","title":"Agatha All Along","poster":"https://image.tmdb.org/t/p/w342/mGsxKwXUjojitRv2E9qMTbxbBRd.jpg","year":"2024","result":"HD","language":["Hindi"],"country":["US"],"original_language":"en","genres":["Sci-Fi & Fantasy","Mystery"],"imdb_id":"tt15571732","latest_uploaded_season":1,"total_uploaded_episodes":9},{"id":"945961","type":"movie","title":"Alien: Romulus","poster":"https://image.tmdb.org/t/p/w342/2uSWRTtCG336nuBiG8jOTEUKSy8.jpg","year":"2024","result":"HD","language":["Hindi"],"country":["US"],"original_language":"en","genres":["Horror","Science Fiction"],"imdb_id":"tt18412256"},{"id":"1248753","type":"movie","title":"Amber Alert","poster":"https://image.tmdb.org/t/p/w342/sI0WxsgVFE5RkPA7G6PznWRxBEW.jpg","year":"2024","result":"HD","language":["Hindi"],"country":["US"],"original_language":"en","genres":["Thriller","Drama"],"imdb_id":"tt31450182"},{"id":"1118031","type":"movie","title":"Apocalypse Z: The Beginning of the End","poster":"https://image.tmdb.org/t/p/w342/wIGJnIFQlESkC2rLpfA8EDHqk4g.jpg","year":"2024","result":"HD","language":["Hindi"],"country":["ES"],"original_language":"es","genres":["Drama","Action","Horror"],"imdb_id":"tt27599851"},{"id":"274955","type":"tv","title":"Asaf","poster":"https://image.tmdb.org/t/p/w342/zlBMoPwyGOalN0Bu8H6ylsfaYHf.jpg","year":"2024","result":"HD","language":["Hindi"],"country":["TR"],"original_language":"tr","genres":["Drama","Crime"],"imdb_id":"tt23480510","latest_uploaded_season":1,"total_uploaded_episodes":6},{"id":"978796","type":"movie","title":"Bagman","poster":"https://image.tmdb.org/t/p/w342/53IK9rlZJbwFYbNnJZiLq7UWxkT.jpg","year":"2024","result":"HD","language":["Hindi"],"country":["US"],"original_language":"en","genres":["Horror","Thriller"],"imdb_id":"tt21201300"},{"id":"236449","type":"tv","title":"Bank Under Siege","poster":"https://image.tmdb.org/t/p/w342/6QeR0OoO8lqsLG2c6hzVPSu9bVF.jpg","year":"2024","result":"HD","language":["Hindi"],"country":["ES"],"original_language":"es","genres":["Crime","Drama","Action & Adventure"],"imdb_id":"tt29386497","latest_uploaded_season":1,"total_uploaded_episodes":5},{"id":"225168","type":"tv","title":"BARTENDER Glass of God","poster":"https://image.tmdb.org/t/p/w342/aefIsbDvm2kDkZGEllkYWoMONrl.jpg","year":"2024","result":"HD","language":["Hindi"],"country":["JP"],"original_language":"ja","genres":["Animation","Drama"],"imdb_id":"tt29233201","latest_uploaded_season":1,"total_uploaded_episodes":12},{"id":"1391409","type":"movie","title":"Biggest Heist Ever","poster":"https://image.tmdb.org/t/p/w342/wIS7g0i09afNbHQ9VHRnP8PErTs.jpg","year":"2024","result":"HD","language":["Hindi"],"country":["US"],"original_language":"en","genres":["Documentary","Crime"],"imdb_id":"tt18224682"},{"id":"225385","type":"tv","title":"Black Doves","poster":"https://image.tmdb.org/t/p/w342/uoXtkm2P4HPPL8T3IBJ02G3hCC4.jpg","year":"2024","result":"HD","language":["Hindi"],"country":["GB"],"original_language":"en","genres":["Action & Adventure","Mystery","Crime"],"imdb_id":"tt27995113","latest_uploaded_season":1,"total_uploaded_episodes":6},{"id":"1362101","type":"movie","title":"Blue Cave","poster":"https://image.tmdb.org/t/p/w342/32hWYgxMOudSgA6tR8nlVTUtoOi.jpg","year":"2024","result":"HD","language":["Hindi"],"country":["TR"],"original_language":"tr","genres":["Drama","Romance"],"imdb_id":"tt32313870"}]}