{"page":51,"total_pages":66,"total_items":3272,"items":[{"id":"772445","type":"movie","title":"Jezabel","poster":"https://image.tmdb.org/t/p/w342/4zBkbAXsx5IUx97ndJm18UoxIKd.jpg","year":"2022","result":"HD","language":["Hindi"],"country":["MX","VE"],"original_language":"es","genres":["Thriller","Crime","Mystery","Science Fiction"],"imdb_id":"tt9339850"},{"id":"814338","type":"movie","title":"Lady Chatterley's Lover","poster":"https://image.tmdb.org/t/p/w342/aSgl2DxPG3DuQXoaHr500KeULmT.jpg","year":"2022","result":"HD","language":["Hindi"],"country":["GB","US"],"original_language":"en","genres":["Drama","Romance"],"imdb_id":"tt14369780"},{"id":"829560","type":"movie","title":"The Next 365 Days","poster":"https://image.tmdb.org/t/p/w342/8AWm7iMcsCI3DdGz4YEJtiMDp8Z.jpg","year":"2022","result":"HD","language":["Hindi"],"country":["PL"],"original_language":"pl","genres":["Romance","Drama"],"imdb_id":"tt21106646"},{"id":"818647","type":"movie","title":"Through My Window","poster":"https://image.tmdb.org/t/p/w342/jmkpZvMVIRrMFevxzOubSBfG0s0.jpg","year":"2022","result":"HD","language":["Hindi"],"country":["ES"],"original_language":"es","genres":["Romance","Drama","Comedy"],"imdb_id":"tt14463484"},{"id":"105214","type":"tv","title":"Dark Desire","poster":"https://image.tmdb.org/t/p/w342/uxFNAo2A6ZRcgNASLk02hJUbybn.jpg","year":"2022","result":"HD","language":["Hindi"],"country":["MX"],"original_language":"es","genres":["Mystery","Drama"],"imdb_id":"tt12540080","latest_uploaded_season":2,"total_uploaded_episodes":33},{"id":"844075","type":"movie","title":"New Gods: Yang Jian","poster":"https://image.tmdb.org/t/p/w342/tW5dFOemV4d7hxTcVI2bu4u0C9z.jpg","year":"2022","result":"HD","language":["Hindi"],"country":["CN","US"],"original_language":"zh","genres":["Animation","Adventure","Fantasy","Comedy"],"imdb_id":"tt19757204"},{"id":"196847","type":"tv","title":"Guilty Minds","poster":"https://image.tmdb.org/t/p/w342/pgRxgC8NU0rbtSP3TLnfELIWhJI.jpg","year":"2022","result":"HD","language":["Hindi"],"country":["IN"],"original_language":"hi","genres":["Drama","Mystery"],"imdb_id":"tt19355272","latest_uploaded_season":1,"total_uploaded_episodes":10},{"id":"1555258","type":"movie","title":"Asi Desi","poster":"https://image.tmdb.org/t/p/w342/gRMgtKMtYUukEkOWfKJKoFfgqqB.jpg","year":"2022","result":"HD","language":["PUNJABI"],"country":["IN"],"original_language":"pa","genres":["Drama"],"imdb_id":""},{"id":"1144071","type":"movie","title":"Ek Anjaan Rishtey Ka Guilt 2","poster":"https://image.tmdb.org/t/p/w342/eiNAriQ1KCeu8IjF7tZ5i4M9YcE.jpg","year":"2022","result":"HD","language":["Hindi"],"country":["IN"],"original_language":"hi","genres":["Drama","Romance"],"imdb_id":""},{"id":"863931","type":"movie","title":"GodFather","poster":"https://image.tmdb.org/t/p/w342/im4u5huiePz0PKFWF4Thb7Tc3db.jpg","year":"2022","result":"HD","language":["Hindi"],"country":["IN"],"original_language":"te","genres":["Action","Drama"],"imdb_id":"tt13130308"},{"id":"1024989","type":"movie","title":"Kotha Kothaga","poster":"https://image.tmdb.org/t/p/w342/nw7eV7hsqCA2DsBD6XidPmDHNgw.jpg","year":"2022","result":"HD","language":["Hindi"],"country":[],"original_language":"te","genres":["Romance","Family","Drama"],"imdb_id":"tt21908892"},{"id":"988716","type":"movie","title":"Naadi Dosh","poster":"https://image.tmdb.org/t/p/w342/bDR3HJIXSOgUFLxRIU4eDLEQmcz.jpg","year":"2022","result":"HD","language":["Hindi"],"country":["IN"],"original_language":"gu","genres":["Drama","Family","Romance"],"imdb_id":"tt20251716"},{"id":"858080","type":"movie","title":"Sardar","poster":"https://image.tmdb.org/t/p/w342/q6wfuQWN9QjUu3j63FAZ3uFL5pO.jpg","year":"2022","result":"HD","language":["Hindi"],"country":["IN"],"original_language":"ta","genres":["Thriller","Action"],"imdb_id":"tt14526318"},{"id":"957997","type":"movie","title":"Saunkan Saunkne","poster":"https://image.tmdb.org/t/p/w342/rMAreVJF8PxvKFSUNsTYyCuJdTi.jpg","year":"2022","result":"HD","language":["PUNJABI"],"country":["IN"],"original_language":"pa","genres":["Comedy","Drama","Romance"],"imdb_id":"tt14230846"},{"id":"869626","type":"movie","title":"Marcel the Shell with Shoes On","poster":"https://image.tmdb.org/t/p/w342/jaYmP4Ct8YLnxWAW2oYkUjeXtzm.jpg","year":"2022","result":"HD","language":["Hindi"],"country":["US"],"original_language":"en","genres":["Animation","Comedy","Drama","Family"],"imdb_id":"tt15339456"},{"id":"994052","type":"movie","title":"Romance in Style","poster":"https://image.tmdb.org/t/p/w342/gYcVRws4Hu5B36ji7BheKDnSbfP.jpg","year":"2022","result":"HD","language":["Hindi"],"country":["CA","US"],"original_language":"en","genres":["TV Movie","Comedy","Romance"],"imdb_id":"tt21653744"},{"id":"812025","type":"movie","title":"The Silent Twins","poster":"https://image.tmdb.org/t/p/w342/44zhSoVvpLDye6rJmU63TIpasUg.jpg","year":"2022","result":"HD","language":["Hindi"],"country":["GB","PL","US"],"original_language":"en","genres":["Drama"],"imdb_id":"tt11052678"},{"id":"651534","type":"movie","title":"Ladki: Dragon Girl","poster":"https://image.tmdb.org/t/p/w342/tV69fiUL9oCtWItvHmUYEr3WXPG.jpg","year":"2022","result":"HD","language":["Hindi"],"country":["IN"],"original_language":"hi","genres":["Action"],"imdb_id":"tt11924110"},{"id":"1162786","type":"movie","title":"4554","poster":"https://image.tmdb.org/t/p/w342/6sJwyJP7MdTZ7pJTYV5cPD3m5NA.jpg","year":"2022","result":"HD","language":["Hindi"],"country":[],"original_language":"ta","genres":["Drama","Thriller"],"imdb_id":"tt23221336"},{"id":"1012910","type":"movie","title":"PR: Permanent Resident","poster":"https://image.tmdb.org/t/p/w342/uNn4AufR3i8GVaO2ssphMQeTtJi.jpg","year":"2022","result":"HD","language":["Hindi"],"country":[],"original_language":"en","genres":["Drama"],"imdb_id":"tt13161934"},{"id":"979971","type":"movie","title":"Dakuaan Da Munda 2","poster":"https://image.tmdb.org/t/p/w342/aBaBWIkMm6QIa4kee5zB1YRh5tW.jpg","year":"2022","result":"HD","language":["Hindi"],"country":["US"],"original_language":"pa","genres":["Action","Crime"],"imdb_id":"tt14888342"},{"id":"968609","type":"movie","title":"Top Gear","poster":"https://image.tmdb.org/t/p/w342/8affaLEiqDfbYns0UvUhUJsW1QN.jpg","year":"2022","result":"HD","language":["Hindi"],"country":["IN"],"original_language":"te","genres":["Action","Romance","Comedy"],"imdb_id":"tt23644054"},{"id":"959558","type":"movie","title":"Moloch","poster":"https://image.tmdb.org/t/p/w342/3jVzYOnylmvo7ZnGerjfoRj2wFz.jpg","year":"2022","result":"HD","language":["Hindi"],"country":["NL"],"original_language":"nl","genres":["Horror","Mystery","Thriller"],"imdb_id":"tt14412446"},{"id":"949909","type":"movie","title":"Kuntilanak 3","poster":"https://image.tmdb.org/t/p/w342/s0MJ12Lf412G3KD3VkNGplHtK48.jpg","year":"2022","result":"HD","language":["Hindi"],"country":["ID"],"original_language":"id","genres":["Horror"],"imdb_id":"tt18750866"},{"id":"926899","type":"movie","title":"The House","poster":"https://image.tmdb.org/t/p/w342/xhE1EYcD6U7m5R8AT7yf29CCxia.jpg","year":"2022","result":"HD","language":["Hindi"],"country":["GB"],"original_language":"en","genres":["Animation","Drama","Comedy","Horror","Fantasy"],"imdb_id":"tt11703050"},{"id":"916224","type":"movie","title":"Suzume","poster":"https://image.tmdb.org/t/p/w342/yStW1TXF5s7Tbtu9KjIZEaWl6HL.jpg","year":"2022","result":"HD","language":["Hindi"],"country":["JP"],"original_language":"ja","genres":["Animation","Drama","Adventure","Fantasy"],"imdb_id":"tt16428256"},{"id":"894169","type":"movie","title":"Vendetta","poster":"https://image.tmdb.org/t/p/w342/bvhmqU6GUkigo6SSYL3ttkBhNER.jpg","year":"2022","result":"HD","language":["Hindi"],"country":["US"],"original_language":"en","genres":["Action","Crime"],"imdb_id":"tt14849038"},{"id":"888479","type":"movie","title":"Game of Love","poster":"https://image.tmdb.org/t/p/w342/slLGOl6rTiMVySAYesYUFnJaaTf.jpg","year":"2022","result":"HD","language":["Hindi"],"country":["IT","US"],"original_language":"en","genres":["Romance","Drama"],"imdb_id":"tt15397918"},{"id":"851644","type":"movie","title":"20th Century Girl","poster":"https://image.tmdb.org/t/p/w342/od22ftNnyag0TTxcnJhlsu3aLoU.jpg","year":"2022","result":"HD","language":["Hindi"],"country":["KR"],"original_language":"ko","genres":["Romance","Drama"],"imdb_id":"tt15340724"},{"id":"800623","type":"movie","title":"Vendhu Thanindhathu Kaadu","poster":"https://image.tmdb.org/t/p/w342/7z2D25a4h4hs8PHrTia8pPkHijE.jpg","year":"2022","result":"HD","language":["Hindi"],"country":["IN"],"original_language":"ta","genres":["Drama","Thriller","Crime"],"imdb_id":"tt14182646"},{"id":"800345","type":"movie","title":"Carter","poster":"https://image.tmdb.org/t/p/w342/uzAh3Ub2YttCz13cnyB9PvhpmIL.jpg","year":"2022","result":"HD","language":["Hindi"],"country":["KR"],"original_language":"ko","genres":["Action","Thriller","Crime"],"imdb_id":"tt21237030"},{"id":"736526","type":"movie","title":"Troll","poster":"https://image.tmdb.org/t/p/w342/ulgKdif3ubMACDltr8VZy6fyVjW.jpg","year":"2022","result":"HD","language":["Hindi"],"country":["NO"],"original_language":"no","genres":["Fantasy","Action","Adventure"],"imdb_id":"tt11116912"},{"id":"698948","type":"movie","title":"Thirteen Lives","poster":"https://image.tmdb.org/t/p/w342/yi5KcJqFxy0D6yP8nCfcF8gJGg5.jpg","year":"2022","result":"HD","language":["Hindi"],"country":["GB","US"],"original_language":"en","genres":["Drama","Thriller","History"],"imdb_id":"tt12262116"},{"id":"673764","type":"movie","title":"Thurthu Nirgamana","poster":"https://image.tmdb.org/t/p/w342/5DLVucAGkA8WhgsyaSTcIentB5U.jpg","year":"2022","result":"HD","language":["Hindi"],"country":["IN"],"original_language":"kn","genres":["Comedy","Thriller","Science Fiction","Fantasy"],"imdb_id":"tt8646748"},{"id":"639933","type":"movie","title":"The Northman","poster":"https://image.tmdb.org/t/p/w342/aSSJMnHknzKjlZ6zybwD7eyJ4Po.jpg","year":"2022","result":"HD","language":["Hindi"],"country":["US"],"original_language":"en","genres":["Action","Adventure","Fantasy"],"imdb_id":"tt11138512"},{"id":"629176","type":"movie","title":"Samaritan","poster":"https://image.tmdb.org/t/p/w342/zgH8Ej50n2cvJCMJrxd4twEwSqz.jpg","year":"2022","result":"HD","language":["Hindi"],"country":["US"],"original_language":"en","genres":["Science Fiction","Crime","Action"],"imdb_id":"tt5500218"},{"id":"619803","type":"movie","title":"The Roundup 2","poster":"https://image.tmdb.org/t/p/w342/aTogcymFfYXYb2sx950ntIpgOJe.jpg","year":"2022","result":"HD","language":["Hindi"],"country":["KR"],"original_language":"ko","genres":["Action","Crime","Thriller","Adventure"],"imdb_id":"tt15838850"},{"id":"615173","type":"movie","title":"The Witch: Part 2. The Other One","poster":"https://image.tmdb.org/t/p/w342/9YTuscJXmr9Iua62amCgGSU8PDW.jpg","year":"2022","result":"HD","language":["Hindi"],"country":["KR"],"original_language":"ko","genres":["Action","Mystery","Thriller","Science Fiction"],"imdb_id":"tt13721828"},{"id":"599333","type":"movie","title":"Hot Blooded","poster":"https://image.tmdb.org/t/p/w342/81D9Cvl8JbMJixD9ii9puwqyXK4.jpg","year":"2022","result":"HD","language":["Hindi"],"country":["KR"],"original_language":"ko","genres":["Crime","Action","Thriller"],"imdb_id":"tt18250780"},{"id":"292540","type":"tv","title":"Qubool Hai?","poster":"https://image.tmdb.org/t/p/w342/u4zK7eqMYZSlQyECgiA9VcaBS7D.jpg","year":"2022","result":"HD","language":["Hindi"],"country":["US"],"original_language":"en","genres":[],"imdb_id":"tt18556364","latest_uploaded_season":1,"total_uploaded_episodes":1},{"id":"278821","type":"tv","title":"Doosri Maa","poster":"https://image.tmdb.org/t/p/w342/ifxqx7irxHjn2G5Myn2k4PABrQD.jpg","year":"2022","result":"HD","language":["Hindi"],"country":["IN"],"original_language":"hi","genres":["Drama"],"imdb_id":"","latest_uploaded_season":1,"total_uploaded_episodes":1},{"id":"216003","type":"tv","title":"First Love","poster":"https://image.tmdb.org/t/p/w342/lYj5Y2kz34Qn0VfXB2F1m57C3Ng.jpg","year":"2022","result":"HD","language":["Hindi"],"country":["CN"],"original_language":"zh","genres":["Drama","Comedy"],"imdb_id":"tt24133542","latest_uploaded_season":1,"total_uploaded_episodes":24},{"id":"201146","type":"tv","title":"Love in Contract","poster":"https://image.tmdb.org/t/p/w342/6tMIhH0T5JYJwypWy2K7zTJiboZ.jpg","year":"2022","result":"HD","language":["Hindi"],"country":["KR"],"original_language":"ko","genres":["Drama","Comedy"],"imdb_id":"tt22189294","latest_uploaded_season":1,"total_uploaded_episodes":16},{"id":"198194","type":"tv","title":"Love in a Loop","poster":"https://image.tmdb.org/t/p/w342/l88ZG1hftMlb6DEn2OgfytcMrs8.jpg","year":"2022","result":"HD","language":["Hindi"],"country":["CN"],"original_language":"zh","genres":["Drama","Sci-Fi & Fantasy","Comedy"],"imdb_id":"","latest_uploaded_season":1,"total_uploaded_episodes":24},{"id":"198009","type":"tv","title":"Don't Be Shy","poster":"https://image.tmdb.org/t/p/w342/qqwkes8GEno52oewIF1rTE0jSA4.jpg","year":"2022","result":"HD","language":["Hindi"],"country":["CN"],"original_language":"zh","genres":["Comedy","Sci-Fi & Fantasy","Drama"],"imdb_id":"","latest_uploaded_season":1,"total_uploaded_episodes":12},{"id":"197084","type":"tv","title":"Gaus Electronics","poster":"https://image.tmdb.org/t/p/w342/gKPLyIu0TQo3tkV9cgl9mT5GuC7.jpg","year":"2022","result":"HD","language":["Hindi"],"country":["KR"],"original_language":"ko","genres":["Drama","Comedy"],"imdb_id":"tt22873700","latest_uploaded_season":1,"total_uploaded_episodes":12},{"id":"197078","type":"tv","title":"Summer Strike","poster":"https://image.tmdb.org/t/p/w342/ge4M0QHCfegOETAkjAKZroo82Rr.jpg","year":"2022","result":"HD","language":["Hindi"],"country":["KR"],"original_language":"ko","genres":["Drama"],"imdb_id":"tt23788642","latest_uploaded_season":1,"total_uploaded_episodes":12},{"id":"197067","type":"tv","title":"Extraordinary Attorney Woo","poster":"https://image.tmdb.org/t/p/w342/zuNOQVI4rEaqwknrfQUVKtlKE2C.jpg","year":"2022","result":"HD","language":["Hindi"],"country":["KR"],"original_language":"ko","genres":["Drama"],"imdb_id":"tt20869502","latest_uploaded_season":1,"total_uploaded_episodes":16},{"id":"196539","type":"tv","title":"Brilliant Class 8","poster":"https://image.tmdb.org/t/p/w342/jzSrugWVQIZ2rDvdRtfX1m00Cf7.jpg","year":"2022","result":"HD","language":["Hindi"],"country":["CN"],"original_language":"zh","genres":["Drama"],"imdb_id":"","latest_uploaded_season":1,"total_uploaded_episodes":40},{"id":"195627","type":"tv","title":"Mental Coach Jegal","poster":"https://image.tmdb.org/t/p/w342/3aPmsRyHCOpL8itZZxYVcZng8ga.jpg","year":"2022","result":"HD","language":["Hindi"],"country":["KR"],"original_language":"ko","genres":["Drama"],"imdb_id":"tt23033870","latest_uploaded_season":1,"total_uploaded_episodes":16}]}