{"page":21,"total_pages":66,"total_items":3272,"items":[{"id":"1115982","type":"movie","title":"Everything's Going to Be Great","poster":"https://image.tmdb.org/t/p/w342/v64pw0k8FvWb7fvfpWCNj8il8Ei.jpg","year":"2025","result":"HD","language":["Hindi"],"country":["US","CA"],"original_language":"en","genres":["Comedy","Drama"],"imdb_id":"tt27560723"},{"id":"1112417","type":"movie","title":"Test","poster":"https://image.tmdb.org/t/p/w342/8jZaBr3dTIW8N4D6F4Cprssfm7V.jpg","year":"2025","result":"HD","language":["Hindi"],"country":["IN"],"original_language":"ta","genres":["Drama","Thriller"],"imdb_id":"tt27477888"},{"id":"1109086","type":"movie","title":"War 2","poster":"https://image.tmdb.org/t/p/w342/fxxVbjhIOl8ZPS69dH8xeeuxvmh.jpg","year":"2025","result":"HD","language":["Hindi"],"country":["IN"],"original_language":"hi","genres":["Action","Adventure","Thriller"],"imdb_id":"tt27425164"},{"id":"1107325","type":"movie","title":"Witchboard","poster":"https://image.tmdb.org/t/p/w342/8RcN5FHkJVNJdOaL6WtTePU7CyF.jpg","year":"2025","result":"HD","language":["Hindi"],"country":["US"],"original_language":"en","genres":["Horror"],"imdb_id":"tt2256055"},{"id":"1107216","type":"movie","title":"Pets on a Train","poster":"https://image.tmdb.org/t/p/w342/b10qy1KwrfmH0MGS2rBUJ0BxgYB.jpg","year":"2025","result":"HD","language":["Hindi"],"country":["FR","US"],"original_language":"fr","genres":["Animation","Comedy","Adventure","Thriller"],"imdb_id":"tt36424914"},{"id":"1106382","type":"movie","title":"Bau, Artist at War","poster":"https://image.tmdb.org/t/p/w342/pMLKb0U2XctHx7xAeMxdko4kpCD.jpg","year":"2025","result":"HD","language":["Hindi"],"country":["US"],"original_language":"en","genres":["Drama","History","Romance"],"imdb_id":"tt8839576"},{"id":"1106289","type":"movie","title":"The Pickup","poster":"https://image.tmdb.org/t/p/w342/vFWvWhfAvij8UIngg2Vf6JV95Cr.jpg","year":"2025","result":"HD","language":["Hindi"],"country":["US"],"original_language":"en","genres":["Action","Comedy","Crime"],"imdb_id":"tt30445556"},{"id":"1103756","type":"movie","title":"Aghathiyaa","poster":"https://image.tmdb.org/t/p/w342/gCXjEAJRaZZi5bMowWJQxK0827c.jpg","year":"2025","result":"HD","language":["Hindi"],"country":["IN"],"original_language":"ta","genres":["Fantasy","Horror","Adventure"],"imdb_id":"tt27217053"},{"id":"1100988","type":"movie","title":"28 Years Later","poster":"https://image.tmdb.org/t/p/w342/n5FygjEppOvac6yEaowi26nTyw3.jpg","year":"2025","result":"HD","language":["Hindi"],"country":["GB","US"],"original_language":"en","genres":["Horror","Thriller","Science Fiction"],"imdb_id":"tt10548174"},{"id":"1093237","type":"movie","title":"Hurry Up Tomorrow","poster":"https://image.tmdb.org/t/p/w342/9W44XSMYbjXdlXcQhD104zPhhhJ.jpg","year":"2025","result":"HD","language":["Hindi"],"country":["US"],"original_language":"en","genres":["Music","Thriller","Drama"],"imdb_id":"tt26927452"},{"id":"1090991","type":"movie","title":"Thanal","poster":"https://image.tmdb.org/t/p/w342/5CVSHJZBlTG5xF7UqrWTHquBLtX.jpg","year":"2025","result":"HD","language":["Hindi"],"country":["IN"],"original_language":"ta","genres":["Action","Crime","Thriller"],"imdb_id":"tt11923962"},{"id":"1088166","type":"movie","title":"Relay","poster":"https://image.tmdb.org/t/p/w342/mpwccO2L8LUVtVTJTdgUVgoQqAo.jpg","year":"2025","result":"HD","language":["Hindi"],"country":["US","GB"],"original_language":"en","genres":["Action","Drama","Thriller"],"imdb_id":"tt11539996"},{"id":"1087192","type":"movie","title":"How to Train Your Dragon","poster":"https://image.tmdb.org/t/p/w342/53dsJ3oEnBhTBVMigWJ9tkA5bzJ.jpg","year":"2025","result":"HD","language":["Hindi"],"country":["US"],"original_language":"en","genres":["Fantasy","Family","Action","Adventure"],"imdb_id":"tt26743210"},{"id":"1084242","type":"movie","title":"Zootopia 2","poster":"https://image.tmdb.org/t/p/w342/oJ7g2CifqpStmoYQyaLQgEU32qO.jpg","year":"2025","result":"HD","language":["Hindi"],"country":["US","CA"],"original_language":"en","genres":["Animation","Family","Mystery","Adventure","Comedy"],"imdb_id":"tt26443597"},{"id":"1084031","type":"movie","title":"Chhorii 2","poster":"https://image.tmdb.org/t/p/w342/mCgKANxZJW645pXdmJdBb4ysRPk.jpg","year":"2025","result":"HD","language":["Hindi"],"country":["IN"],"original_language":"hi","genres":["Horror","Drama"],"imdb_id":"tt16436848"},{"id":"1083968","type":"movie","title":"Locked","poster":"https://image.tmdb.org/t/p/w342/hhkiqXpfpufwxVrdSftzeKIANl3.jpg","year":"2025","result":"HD","language":["Hindi"],"country":["US","CA","CZ"],"original_language":"en","genres":["Horror","Thriller"],"imdb_id":"tt26671996"},{"id":"1083637","type":"movie","title":"Kantara - A Legend: Chapter 1","poster":"https://image.tmdb.org/t/p/w342/ehQPboTPaIMkMUOoNOh8e7pZ5Rp.jpg","year":"2025","result":"HD","language":["Hindi"],"country":["IN"],"original_language":"kn","genres":["Action","Drama","Fantasy"],"imdb_id":"tt26439764"},{"id":"1083433","type":"movie","title":"I Know What You Did Last Summer","poster":"https://image.tmdb.org/t/p/w342/A06yXys3hrCWu8xiNoHCFLTG5SH.jpg","year":"2025","result":"HD","language":["Hindi"],"country":["US","AU"],"original_language":"en","genres":["Horror","Thriller","Mystery"],"imdb_id":"tt4045450"},{"id":"1080365","type":"movie","title":"They Call Him OG","poster":"https://image.tmdb.org/t/p/w342/oWOJ4VMyF92IEcTmrQO0xFDqeyk.jpg","year":"2025","result":"HD","language":["Hindi"],"country":["IN"],"original_language":"te","genres":["Action","Thriller"],"imdb_id":"tt24060892"},{"id":"1078605","type":"movie","title":"Weapons","poster":"https://image.tmdb.org/t/p/w342/cpf7vsRZ0MYRQcnLWteD5jK9ymT.jpg","year":"2025","result":"HD","language":["Hindi"],"country":["US"],"original_language":"en","genres":["Horror","Mystery"],"imdb_id":"tt26581740"},{"id":"1078600","type":"movie","title":"Marked Men: Rule + Shaw","poster":"https://image.tmdb.org/t/p/w342/gZQU8BtCH2IbMZq6QETiU4HXQSR.jpg","year":"2025","result":"HD","language":["Hindi"],"country":["US"],"original_language":"en","genres":["Romance","Drama"],"imdb_id":"tt26452781"},{"id":"1074619","type":"movie","title":"Suryapet Junction","poster":"https://image.tmdb.org/t/p/w342/sjswv9mQvvETJdtRHKakEIPav8Y.jpg","year":"2025","result":"HD","language":["Hindi"],"country":["IN"],"original_language":"te","genres":["Action","Drama"],"imdb_id":"tt26095500"},{"id":"1071585","type":"movie","title":"M3GAN 2.0","poster":"https://image.tmdb.org/t/p/w342/oekamLQrwlJjRNmfaBE4llIvkir.jpg","year":"2025","result":"HD","language":["Hindi"],"country":["US"],"original_language":"en","genres":["Action","Science Fiction","Thriller"],"imdb_id":"tt26342662"},{"id":"1070186","type":"movie","title":"Eko","poster":"https://image.tmdb.org/t/p/w342/tXdFEmtqLm8tewIErDJgnbTS9qs.jpg","year":"2025","result":"HD","language":["Hindi"],"country":["IN"],"original_language":"ml","genres":["Drama","Mystery"],"imdb_id":"tt36616410"},{"id":"1069905","type":"movie","title":"Jay Kelly","poster":"https://image.tmdb.org/t/p/w342/lEXYpY9X17pGC7xYYy17Guv0L3J.jpg","year":"2025","result":"HD","language":["Hindi"],"country":["US","GB"],"original_language":"en","genres":["Drama","Comedy"],"imdb_id":"tt30446847"},{"id":"1065426","type":"movie","title":"Metro... In Dino","poster":"https://image.tmdb.org/t/p/w342/AlmzM8CNm2fRJQW2iA9Ittwv0ig.jpg","year":"2025","result":"HD","language":["Hindi"],"country":["IN"],"original_language":"hi","genres":["Drama","Romance","Comedy"],"imdb_id":"tt24225606"},{"id":"1062722","type":"movie","title":"Frankenstein","poster":"https://image.tmdb.org/t/p/w342/g4JtvGlQO7DByTI6frUobqvSL3R.jpg","year":"2025","result":"HD","language":["Hindi"],"country":["US","CA"],"original_language":"en","genres":["Drama","Fantasy","Horror"],"imdb_id":"tt1312221"},{"id":"1062715","type":"movie","title":"Sabdham","poster":"https://image.tmdb.org/t/p/w342/A9iUVHhwIIg2UaOF08x6FNVNTCH.jpg","year":"2025","result":"HD","language":["Hindi"],"country":["IN"],"original_language":"ta","genres":["Thriller","Horror"],"imdb_id":"tt24330430"},{"id":"1062033","type":"movie","title":"Kaliyugam","poster":"https://image.tmdb.org/t/p/w342/hRKMtcIFzJyi59PtULiKQT4vPoA.jpg","year":"2025","result":"HD","language":["Hindi"],"country":["IN"],"original_language":"ta","genres":["Thriller","Science Fiction"],"imdb_id":"tt36855758"},{"id":"1061474","type":"movie","title":"Superman","poster":"https://image.tmdb.org/t/p/w342/wPLysNDLffQLOVebZQCbXJEv6E6.jpg","year":"2025","result":"HD","language":["Hindi"],"country":["US"],"original_language":"en","genres":["Science Fiction","Adventure","Action"],"imdb_id":"tt5950044"},{"id":"1060046","type":"movie","title":"HIT: The Third Case","poster":"https://image.tmdb.org/t/p/w342/wT9tGyFol4RBwkjESXUWeBdnLJn.jpg","year":"2025","result":"HD","language":["Hindi"],"country":["IN"],"original_language":"te","genres":["Crime","Thriller","Action"],"imdb_id":"tt23804696"},{"id":"1054626","type":"movie","title":"The Bhootnii","poster":"https://image.tmdb.org/t/p/w342/7hY958sJ5xfXSBS3hiBtMxpOqRK.jpg","year":"2025","result":"HD","language":["Hindi"],"country":["IN"],"original_language":"hi","genres":["Comedy","Horror","Romance"],"imdb_id":"tt27162102"},{"id":"1049942","type":"movie","title":"Bambi: The Reckoning","poster":"https://image.tmdb.org/t/p/w342/8oBbWxWDJrrDtNkmd0OzZpPFFUR.jpg","year":"2025","result":"HD","language":["Hindi"],"country":["GB"],"original_language":"en","genres":["Horror","Thriller"],"imdb_id":"tt23621682"},{"id":"1045021","type":"movie","title":"Thug Life","poster":"https://image.tmdb.org/t/p/w342/DmBbUtbA3T9sdVXDgIJ8bsIDw0.jpg","year":"2025","result":"HD","language":["Hindi"],"country":["IN"],"original_language":"ta","genres":["Action","Crime","Drama"],"imdb_id":"tt23398540"},{"id":"1044944","type":"movie","title":"JSK - Janaki V vs State of Kerala","poster":"https://image.tmdb.org/t/p/w342/s5aKJoOSv3D8snq3Y2N3APeK5vz.jpg","year":"2025","result":"HD","language":["Hindi"],"country":["IN"],"original_language":"ml","genres":["Drama","Thriller"],"imdb_id":"tt23458804"},{"id":"1043887","type":"movie","title":"Badass Ravi Kumar","poster":"https://image.tmdb.org/t/p/w342/kqdb3ffSsyRlRjddG0XPpssy5ok.jpg","year":"2025","result":"HD","language":["Hindi"],"country":["IN"],"original_language":"hi","genres":["Action","Music","Comedy"],"imdb_id":"tt23220552"},{"id":"1042834","type":"movie","title":"Eden","poster":"https://image.tmdb.org/t/p/w342/jbFEESMVbpJU8IjZBjiWGJdEsxR.jpg","year":"2025","result":"HD","language":["Hindi"],"country":["US"],"original_language":"en","genres":["Thriller","Drama"],"imdb_id":"tt23149780"},{"id":"1038392","type":"movie","title":"The Conjuring: Last Rites","poster":"https://image.tmdb.org/t/p/w342/byWgphT74ClOVa8EOGzYDkl8DVL.jpg","year":"2025","result":"HD","language":["Hindi"],"country":["US"],"original_language":"en","genres":["Horror"],"imdb_id":"tt22898462"},{"id":"1035259","type":"movie","title":"The Naked Gun","poster":"https://image.tmdb.org/t/p/w342/rmwQ8GsdQ1M3LtemNWLErle2nBU.jpg","year":"2025","result":"HD","language":["Hindi"],"country":["US"],"original_language":"en","genres":["Action","Comedy","Crime"],"imdb_id":"tt3402138"},{"id":"1022787","type":"movie","title":"Elio","poster":"https://image.tmdb.org/t/p/w342/7z8jDiTZZco9moIKpTUImFtTy7o.jpg","year":"2025","result":"HD","language":["Hindi"],"country":["US"],"original_language":"en","genres":["Animation","Family","Science Fiction","Adventure","Comedy"],"imdb_id":"tt4900148"},{"id":"1022074","type":"movie","title":"Maareesan","poster":"https://image.tmdb.org/t/p/w342/c7JGfFgMnNuyF2Q4FSu7Kgip3mK.jpg","year":"2025","result":"HD","language":["Hindi"],"country":["IN"],"original_language":"ta","genres":["Thriller","Drama","Action"],"imdb_id":"tt29383191"},{"id":"1015981","type":"movie","title":"Jolly LLB 3","poster":"https://image.tmdb.org/t/p/w342/bwRoU9p5GvjxgPfmIgsfcJ4ydng.jpg","year":"2025","result":"HD","language":["Hindi"],"country":["IN"],"original_language":"hi","genres":["Drama","Comedy"],"imdb_id":"tt27996020"},{"id":"1012180","type":"movie","title":"Identity","poster":"https://image.tmdb.org/t/p/w342/hrusjWrcRuClY6PNooSZiKL6gqv.jpg","year":"2025","result":"HD","language":["Hindi"],"country":["IN"],"original_language":"ml","genres":["Action","Thriller","Mystery"],"imdb_id":"tt27436132"},{"id":"1010756","type":"movie","title":"The Strangers: Chapter 2","poster":"https://image.tmdb.org/t/p/w342/aEk9jLbiKTVssdATbrF879NvyyJ.jpg","year":"2025","result":"HD","language":["Hindi"],"country":["GB","US"],"original_language":"en","genres":["Horror","Thriller"],"imdb_id":"tt28671344"},{"id":"1007734","type":"movie","title":"Nobody 2","poster":"https://image.tmdb.org/t/p/w342/iyxwxDZCpIm0vIORaHpmgJv2BGF.jpg","year":"2025","result":"HD","language":["Hindi"],"country":["US"],"original_language":"en","genres":["Action","Thriller"],"imdb_id":"tt28996126"},{"id":"1006780","type":"movie","title":"Daksha: The Deadly Conspiracy","poster":"https://image.tmdb.org/t/p/w342/z3hsuvJJdokjTlm28wcELuFDjdC.jpg","year":"2025","result":"HD","language":["Hindi"],"country":["IN"],"original_language":"te","genres":["Crime","Thriller","Drama"],"imdb_id":"tt36242375"},{"id":"1005156","type":"movie","title":"Nikita Roy","poster":"https://image.tmdb.org/t/p/w342/aFJQSWies9Qw2NwBORneBCgFlG3.jpg","year":"2025","result":"HD","language":["Hindi"],"country":["IN"],"original_language":"hi","genres":["Mystery","Horror"],"imdb_id":"tt18939362"},{"id":"1001414","type":"movie","title":"Fear Street: Prom Queen","poster":"https://image.tmdb.org/t/p/w342/gevScWYkF8l5i9NjFSXo8HfPNyy.jpg","year":"2025","result":"HD","language":["Hindi"],"country":["US"],"original_language":"en","genres":["Horror","Mystery"],"imdb_id":"tt31433402"},{"id":"1001270","type":"movie","title":"The Things You Kill","poster":"https://image.tmdb.org/t/p/w342/kR8CHANk8KwQLWarMIQsk2mthhW.jpg","year":"2025","result":"HD","language":["Hindi"],"country":["CA","FR","PL","TR","SG"],"original_language":"tr","genres":["Thriller","Drama"],"imdb_id":"tt32367116"},{"id":"1000990","type":"movie","title":"Mrs.","poster":"https://image.tmdb.org/t/p/original/yeT4UPyP4Y1QS1sMlGnAXtfAyS4.jpg","year":"2025","result":"HD","language":["Hindi"],"country":["FR","BE"],"original_language":"fr","genres":["Drama"],"imdb_id":""}]}