{"page":64,"total_pages":66,"total_items":3272,"items":[{"id":"17124","type":"movie","title":"Wild Things: Diamonds in the Rough","poster":"https://image.tmdb.org/t/p/w342/1O01MpwB6eV0ars0Jxk0yh4x5ED.jpg","year":"2005","result":"HD","language":["Hindi"],"country":["US"],"original_language":"en","genres":["Crime","Drama","Mystery"],"imdb_id":"tt0448179"},{"id":"14174","type":"movie","title":"Lie with Me","poster":"https://image.tmdb.org/t/p/w342/qG2KYlTxTZbKcXJHMe1OG7aI4un.jpg","year":"2005","result":"HD","language":["Hindi"],"country":["CA"],"original_language":"en","genres":["Drama"],"imdb_id":"tt0418832"},{"id":"127711","type":"movie","title":"Sueno","poster":"https://image.tmdb.org/t/p/w342/huJxYV08PB3uxrBNbhE2e5msT4f.jpg","year":"2005","result":"HD","language":["Hindi"],"country":["US"],"original_language":"en","genres":["Drama","Comedy","Romance"],"imdb_id":"tt0383648"},{"id":"19495","type":"movie","title":"Nomad: The Warrior","poster":"https://image.tmdb.org/t/p/w342/vLHtz57xpPBrIl9YAhEgC29LCyk.jpg","year":"2005","result":"HD","language":["Hindi"],"country":["FR","KZ","RU","US"],"original_language":"ru","genres":["Action","History","War"],"imdb_id":"tt0374089"},{"id":"8699","type":"movie","title":"Anchorman: The Legend of Ron Burgundy","poster":"https://image.tmdb.org/t/p/w342/mhZIcRePT7U8viFQVjt1ZjYIsR4.jpg","year":"2004","result":"HD","language":["Hindi"],"country":["US"],"original_language":"en","genres":["Comedy"],"imdb_id":"tt0357413"},{"id":"5460","type":"movie","title":"Cruel Intentions 3","poster":"https://image.tmdb.org/t/p/w342/pxjJf3QnZxe3EO8NuwEeK0Yldcd.jpg","year":"2004","result":"HD","language":["Hindi"],"country":["US"],"original_language":"en","genres":["Drama"],"imdb_id":"tt0391891"},{"id":"34601","type":"movie","title":"Three Way","poster":"https://image.tmdb.org/t/p/w342/4sDNvHPwnCy6dQBU4FjSawNhrow.jpg","year":"2004","result":"HD","language":["Hindi"],"country":["US"],"original_language":"en","genres":["Crime","Drama","Thriller"],"imdb_id":"tt0368343"},{"id":"17209","type":"movie","title":"Madhouse","poster":"https://image.tmdb.org/t/p/w342/ug2DwSZ5WCgMUJcWfEPn7wIHtpn.jpg","year":"2004","result":"HD","language":["Hindi"],"country":["US","GB","RO"],"original_language":"en","genres":["Horror","Thriller"],"imdb_id":"tt0363276"},{"id":"39291","type":"movie","title":"Motives","poster":"https://image.tmdb.org/t/p/w342/sqGiAqnPgW6XUv7oYRiahKnCxXo.jpg","year":"2004","result":"HD","language":["Hindi"],"country":["US"],"original_language":"en","genres":["Drama","Thriller","Mystery","Romance"],"imdb_id":"tt0365519"},{"id":"8080","type":"movie","title":"Suspect Zero","poster":"https://image.tmdb.org/t/p/w342/sIIahTE5sfOJtieytf252kB9RcS.jpg","year":"2004","result":"HD","language":["Hindi"],"country":["DE","GB","US"],"original_language":"en","genres":["Crime","Thriller"],"imdb_id":"tt0324127"},{"id":"1538","type":"movie","title":"Collateral","poster":"https://image.tmdb.org/t/p/w342/nV5316WUsVij8sVXLCF1g7TFitg.jpg","year":"2004","result":"HD","language":["Hindi"],"country":["US"],"original_language":"en","genres":["Drama","Crime","Thriller"],"imdb_id":"tt0369339"},{"id":"1693","type":"movie","title":"Monster Man","poster":"https://image.tmdb.org/t/p/w342/iFCta7mFC7aVTPMA3opH8Vq62Pn.jpg","year":"2003","result":"HD","language":["Hindi"],"country":["GB"],"original_language":"en","genres":["Horror","Comedy"],"imdb_id":"tt0365513"},{"id":"98613","type":"movie","title":"Doraemon: Nobita and the Windmasters","poster":"https://image.tmdb.org/t/p/w342/kdBLKFviJckRXOCgPqkTQK16Rq0.jpg","year":"2003","result":"HD","language":["Hindi"],"country":["JP"],"original_language":"ja","genres":["Animation","Fantasy","Adventure","Family","Science Fiction"],"imdb_id":"tt0473474"},{"id":"302","type":"movie","title":"Swimming Pool","poster":"https://image.tmdb.org/t/p/w342/10xMAznUxI0LZPYyPxA9WjJsThr.jpg","year":"2003","result":"HD","language":["Hindi"],"country":["FR","GB"],"original_language":"en","genres":["Crime","Thriller"],"imdb_id":"tt0324133"},{"id":"11820","type":"movie","title":"Mona Lisa Smile","poster":"https://image.tmdb.org/t/p/w342/bg0VKsXnLjIZ0cHmZHZLs9gzrvm.jpg","year":"2003","result":"HD","language":["Hindi"],"country":["US"],"original_language":"en","genres":["Drama","History","Romance"],"imdb_id":"tt0304415"},{"id":"10601","type":"movie","title":"Peter Pan","poster":"https://image.tmdb.org/t/p/w342/6QdU3TZZrIvXFzoHOwafZAynFjB.jpg","year":"2003","result":"HD","language":["Hindi"],"country":["GB","US","AU"],"original_language":"en","genres":["Adventure","Fantasy","Family"],"imdb_id":"tt0316396"},{"id":"670","type":"movie","title":"Oldboy","poster":"https://image.tmdb.org/t/p/w342/pWDtjs568ZfOTMbURQBYuT4Qxka.jpg","year":"2003","result":"HD","language":["Hindi"],"country":["KR"],"original_language":"ko","genres":["Drama","Thriller","Mystery","Action"],"imdb_id":"tt0364569"},{"id":"333","type":"tv","title":"Jewel in the Palace","poster":"https://image.tmdb.org/t/p/w342/oiDr9sZPluqKJH8o0vuX5Dh61dh.jpg","year":"2003","result":"HD","language":["Hindi"],"country":["KR"],"original_language":"ko","genres":["Drama"],"imdb_id":"tt0409546","latest_uploaded_season":1,"total_uploaded_episodes":54},{"id":"14365","type":"movie","title":"Killing Me Softly","poster":"https://image.tmdb.org/t/p/w342/pgfFJw7mqAmJdZizrJ6oOK0ejOZ.jpg","year":"2002","result":"HD","language":["Hindi"],"country":["GB","US"],"original_language":"en","genres":["Thriller","Crime"],"imdb_id":"tt0250468"},{"id":"9884","type":"movie","title":"Collateral Damage","poster":"https://image.tmdb.org/t/p/w342/rALb2pU8QQGIlYdHezB2F5kwecI.jpg","year":"2002","result":"HD","language":["Hindi"],"country":["US"],"original_language":"en","genres":["Action","Thriller","Drama"],"imdb_id":"tt0233469"},{"id":"7451","type":"movie","title":"xXx","poster":"https://image.tmdb.org/t/p/w342/xeEw3eLeSFmJgXZzmF2Efww0q3s.jpg","year":"2002","result":"HD","language":["Hindi"],"country":["US"],"original_language":"en","genres":["Action","Adventure","Thriller","Crime","Drama"],"imdb_id":"tt0295701"},{"id":"65","type":"movie","title":"8 Mile","poster":"https://image.tmdb.org/t/p/w342/7BmQj8qE1FLuLTf7Xjf9sdIHzoa.jpg","year":"2002","result":"HD","language":["Hindi"],"country":["DE","US"],"original_language":"en","genres":["Drama","Music"],"imdb_id":"tt0298203"},{"id":"2770","type":"movie","title":"American Pie 2","poster":"https://image.tmdb.org/t/p/w342/854ZZxXdeabAs90mrV72NqShJqR.jpg","year":"2001","result":"HD","language":["Hindi"],"country":["US"],"original_language":"en","genres":["Comedy","Romance"],"imdb_id":"tt0252866"},{"id":"808","type":"movie","title":"Shrek","poster":"https://image.tmdb.org/t/p/w342/iB64vpL3dIObOtMZgX3RqdVdQDc.jpg","year":"2001","result":"HD","language":["Hindi"],"country":["US"],"original_language":"en","genres":["Animation","Comedy","Fantasy","Adventure","Family"],"imdb_id":"tt0126029"},{"id":"11397","type":"movie","title":"Not Another Teen Movie","poster":"https://image.tmdb.org/t/p/w342/9ZaGxvj1mqdKVLpSloq4mzS7SK6.jpg","year":"2001","result":"HD","language":["Hindi"],"country":["US"],"original_language":"en","genres":["Comedy"],"imdb_id":"tt0277371"},{"id":"4248","type":"movie","title":"Scary Movie 2","poster":"https://image.tmdb.org/t/p/w342/7Eb1JWK0Cb0rbfsYjwfc9g0PbQH.jpg","year":"2001","result":"HD","language":["Hindi"],"country":["US"],"original_language":"en","genres":["Comedy"],"imdb_id":"tt0257106"},{"id":"80847","type":"movie","title":"Women of the Night","poster":"https://image.tmdb.org/t/p/w342/2NpJtHSK5EOhS9L8Bu0xGJXbPc7.jpg","year":"2001","result":"HD","language":["Hindi"],"country":["US"],"original_language":"en","genres":["Thriller","Romance"],"imdb_id":"tt0177997"},{"id":"4435","type":"movie","title":"Aśoka","poster":"https://image.tmdb.org/t/p/w342/ckFDMqLjhsYo2kH3X5auV1NnjPM.jpg","year":"2001","result":"HD","language":["Hindi"],"country":["IN"],"original_language":"hi","genres":["Action","Adventure","Drama","History","Romance","War"],"imdb_id":"tt0249371"},{"id":"9378","type":"movie","title":"Thir13en Ghosts","poster":"https://image.tmdb.org/t/p/w342/6yrrddjIjx0ElCRZp5pTZeqrj3k.jpg","year":"2001","result":"HD","language":["Hindi"],"country":["US"],"original_language":"en","genres":["Horror","Thriller"],"imdb_id":"tt0245674"},{"id":"129","type":"movie","title":"Spirited Away","poster":"https://image.tmdb.org/t/p/w342/39wmItIWsg5sZMyRUHLkWBcuVCM.jpg","year":"2001","result":"HD","language":["Hindi"],"country":["JP"],"original_language":"ja","genres":["Animation","Family","Fantasy"],"imdb_id":"tt0245429"},{"id":"120","type":"movie","title":"The Lord of the Rings: The Fellowship of the Ring","poster":"https://image.tmdb.org/t/p/w342/6oom5QYQ2yQTMJIbnvbkBL9cHo6.jpg","year":"2001","result":"HD","language":["Hindi"],"country":["NZ","US"],"original_language":"en","genres":["Adventure","Fantasy","Action"],"imdb_id":"tt0120737"},{"id":"31352","type":"movie","title":"Doraemon: Nobita and the Legend of the Sun King","poster":"https://image.tmdb.org/t/p/w342/aBPaU4bnqrnKrKe0gi6nC9qvlLj.jpg","year":"2000","result":"HD","language":["Hindi"],"country":["JP"],"original_language":"ja","genres":["Animation","Adventure","Fantasy","Science Fiction","Family"],"imdb_id":"tt1147513"},{"id":"19576","type":"movie","title":"One Piece: The Movie","poster":"https://image.tmdb.org/t/p/w342/6QOrTYafoqzXPWLnR2K8129jTHH.jpg","year":"2000","result":"HD","language":["Hindi"],"country":["JP"],"original_language":"ja","genres":["Action","Animation","Adventure","Comedy","Fantasy"],"imdb_id":"tt0814243"},{"id":"6282","type":"movie","title":"Coyote Ugly","poster":"https://image.tmdb.org/t/p/w342/xYM0laKrEqjiRSQNvqRrXPXN3iL.jpg","year":"2000","result":"HD","language":["Hindi"],"country":["US"],"original_language":"en","genres":["Comedy","Drama","Music","Romance"],"imdb_id":"tt0200550"},{"id":"5458","type":"movie","title":"Cruel Intentions 2","poster":"https://image.tmdb.org/t/p/w342/soO0nrnh9lEdTgGFBT0IIvejwcK.jpg","year":"2000","result":"HD","language":["Hindi"],"country":["US"],"original_language":"en","genres":["Drama"],"imdb_id":"tt0196267"},{"id":"64883","type":"movie","title":"Faust: Love of the Damned","poster":"https://image.tmdb.org/t/p/w342/qewddAmFcD2XoGc4w1YwNdw8YXy.jpg","year":"2000","result":"HD","language":["Hindi"],"country":["ES"],"original_language":"en","genres":["Horror","Fantasy","Action"],"imdb_id":"tt0223268"},{"id":"10867","type":"movie","title":"Malena","poster":"https://image.tmdb.org/t/p/w342/3OyQTl0IGkbnjDxd3MhztfPE34g.jpg","year":"2000","result":"HD","language":["Hindi"],"country":["IT","US"],"original_language":"it","genres":["Drama"],"imdb_id":"tt0213847"},{"id":"11398","type":"movie","title":"The Art of War","poster":"https://image.tmdb.org/t/p/w342/9fbStI2ht3gMgsVRusqoBDWeK9c.jpg","year":"2000","result":"HD","language":["Hindi"],"country":["US"],"original_language":"en","genres":["Action","Thriller","Crime"],"imdb_id":"tt0160009"},{"id":"796","type":"movie","title":"Cruel Intentions","poster":"https://image.tmdb.org/t/p/w342/76cCsRtQ5MJBAqoigojXsLXLJwh.jpg","year":"1999","result":"HD","language":["Hindi"],"country":["US"],"original_language":"en","genres":["Drama","Romance"],"imdb_id":"tt0139134"},{"id":"497","type":"movie","title":"The Green Mile","poster":"https://image.tmdb.org/t/p/w342/8VG8fDNiy50H4FedGwdSVUPoaJe.jpg","year":"1999","result":"HD","language":["Hindi"],"country":["US"],"original_language":"en","genres":["Fantasy","Drama","Crime"],"imdb_id":"tt0120689"},{"id":"105444","type":"movie","title":"Doraemon: Nobita's Great Adventure in the South Seas","poster":"https://image.tmdb.org/t/p/w342/4gGIYi40x3G6UPm1IMGqdseK0Ro.jpg","year":"1998","result":"HD","language":["Hindi"],"country":["JP"],"original_language":"ja","genres":["Animation","Family","Adventure","Comedy","Fantasy","Science Fiction"],"imdb_id":"tt1147519"},{"id":"67395","type":"movie","title":"L.E.T.H.A.L. Ladies: Return to Savage Beach","poster":"https://image.tmdb.org/t/p/w342/9z3hdYnDdfWGKD55kdDmshDojeP.jpg","year":"1998","result":"HD","language":["Hindi"],"country":["US"],"original_language":"en","genres":["Action","Thriller"],"imdb_id":"tt0127759"},{"id":"18167","type":"movie","title":"Another 9 1/2 Weeks","poster":"https://image.tmdb.org/t/p/w342/lbQjiB1KTCX1Tmrby7CV7tP5Yq5.jpg","year":"1997","result":"HD","language":["Hindi"],"country":["FR","GB","US"],"original_language":"en","genres":["Drama","Romance"],"imdb_id":"tt0119576"},{"id":"21915","type":"movie","title":"Booty Call","poster":"https://image.tmdb.org/t/p/w342/1pQpHVm3AXIwbBUnwGEQ0q95E0L.jpg","year":"1997","result":"HD","language":["Hindi"],"country":["US"],"original_language":"en","genres":["Comedy"],"imdb_id":"tt0118750"},{"id":"327358","type":"movie","title":"Kiss of Death","poster":"https://image.tmdb.org/t/p/w342/35Y9TVqqYkB4hHzZw00Okp7fF9S.jpg","year":"1997","result":"HD","language":["Hindi"],"country":["US"],"original_language":"en","genres":["Thriller"],"imdb_id":"tt0403203"},{"id":"637","type":"movie","title":"Life Is Beautiful","poster":"https://image.tmdb.org/t/p/w342/mfnkSeeVOBVheuyn2lo4tfmOPQb.jpg","year":"1997","result":"HD","language":["Hindi"],"country":["IT"],"original_language":"it","genres":["Comedy","Drama"],"imdb_id":"tt0118799"},{"id":"106164","type":"movie","title":"Doraemon: Nobita and the Galaxy Super-express","poster":"https://image.tmdb.org/t/p/w342/moqO24uCB0k6q4qPyAwb7O0xeWM.jpg","year":"1996","result":"HD","language":["Hindi"],"country":["JP"],"original_language":"ja","genres":["Animation","Science Fiction","Action","Family","Adventure","Fantasy"],"imdb_id":"tt1147522"},{"id":"279576","type":"movie","title":"Body of Influence 2","poster":"https://image.tmdb.org/t/p/w342/wiWaTOWmVrr9XmK0uNAvnKtmXQu.jpg","year":"1996","result":"HD","language":["Hindi"],"country":["US"],"original_language":"en","genres":["Thriller"],"imdb_id":"tt0115723"},{"id":"191561","type":"movie","title":"Yu Pui Tsuen III","poster":"https://image.tmdb.org/t/p/w342/5QpANxhTL0xpQ7JAIttQasZdF9u.jpg","year":"1996","result":"HD","language":["Hindi"],"country":["HK"],"original_language":"zh","genres":["Drama"],"imdb_id":"tt0118208"},{"id":"162069","type":"movie","title":"Doraemon: Nobita's Diary on the Creation of the World","poster":"https://image.tmdb.org/t/p/w342/qemtaCXwo9sP6bYO8Hqc0o96JIy.jpg","year":"1995","result":"HD","language":["Hindi"],"country":["JP"],"original_language":"ja","genres":["Animation","Science Fiction","Fantasy","Adventure","Family","Comedy"],"imdb_id":"tt1147512"}]}