{"page":63,"total_pages":66,"total_items":3272,"items":[{"id":"59421","type":"movie","title":"Bedevilled","poster":"https://image.tmdb.org/t/p/w342/3ZgFJY1kje1XhXPvC8UtRKA2tX.jpg","year":"2010","result":"HD","language":["Hindi"],"country":["KR"],"original_language":"ko","genres":["Thriller","Crime","Drama","Horror"],"imdb_id":"tt1646959"},{"id":"35687","type":"movie","title":"LSD: Love, Sex aur Dhokha","poster":"https://image.tmdb.org/t/p/w342/cGB0TZ27GXUTaBIxhf7IBPiHXzr.jpg","year":"2010","result":"HD","language":["Hindi"],"country":["IN"],"original_language":"hi","genres":["Drama","Crime","Comedy"],"imdb_id":"tt1608777"},{"id":"34851","type":"movie","title":"Predators","poster":"https://image.tmdb.org/t/p/w342/wdniP8NDaJIydi1hMxhpbJMUfr6.jpg","year":"2010","result":"HD","language":["Hindi"],"country":["US"],"original_language":"en","genres":["Science Fiction","Action","Thriller"],"imdb_id":"tt1424381"},{"id":"26389","type":"movie","title":"From Paris with Love","poster":"https://image.tmdb.org/t/p/w342/2nD0RAWVOccomLp1iToVJn6KC2a.jpg","year":"2010","result":"HD","language":["Hindi"],"country":["GB","FR"],"original_language":"en","genres":["Action","Crime","Thriller"],"imdb_id":"tt1179034"},{"id":"12444","type":"movie","title":"Harry Potter and the Deathly Hallows: Part 1","poster":"https://image.tmdb.org/t/p/w342/iGoXIpQb7Pot00EEdwpwPajheZ5.jpg","year":"2010","result":"HD","language":["Hindi"],"country":["GB","US"],"original_language":"en","genres":["Adventure","Fantasy"],"imdb_id":"tt0926084"},{"id":"20453","type":"movie","title":"3 Idiots","poster":"https://image.tmdb.org/t/p/w342/66A9MqXOyVFCssoloscw79z8Tew.jpg","year":"2009","result":"HD","language":["Hindi"],"country":["IN"],"original_language":"hi","genres":["Drama","Comedy"],"imdb_id":"tt1187043"},{"id":"26123","type":"movie","title":"American Pie Presents: The Book of Love","poster":"https://image.tmdb.org/t/p/w342/hwP0GEP0zy8ar965Xaht19SmMd3.jpg","year":"2009","result":"HD","language":["Hindi"],"country":["US"],"original_language":"en","genres":["Comedy"],"imdb_id":"tt1407050"},{"id":"44114","type":"movie","title":"3some","poster":"https://image.tmdb.org/t/p/w342/h61c54Dc5Ax6PbCVNxr3aIywKLA.jpg","year":"2009","result":"HD","language":["Hindi"],"country":["ES"],"original_language":"es","genres":["Romance","Drama"],"imdb_id":"tt1188985"},{"id":"15092","type":"movie","title":"Crank: High Voltage","poster":"https://image.tmdb.org/t/p/w342/tzTC4EEvF0OPL63frEiogxL2T8M.jpg","year":"2009","result":"HD","language":["Hindi"],"country":["US"],"original_language":"en","genres":["Action","Thriller","Crime"],"imdb_id":"tt1121931"},{"id":"17609","type":"movie","title":"Antichrist","poster":"https://image.tmdb.org/t/p/w342/ge7zbYvpfsDP3luKi0iSpzOgncM.jpg","year":"2009","result":"HD","language":["Hindi"],"country":["DK","FR","DE","IT","PL","SE"],"original_language":"en","genres":["Drama","Horror","Thriller"],"imdb_id":"tt0870984"},{"id":"34496","type":"movie","title":"Storage","poster":"https://image.tmdb.org/t/p/w342/31Yi65s8gdhBpjfbrIbpXCPyVvP.jpg","year":"2009","result":"HD","language":["Hindi"],"country":["AU"],"original_language":"en","genres":["Crime","Thriller"],"imdb_id":"tt1223893"},{"id":"32985","type":"movie","title":"Solomon Kane","poster":"https://image.tmdb.org/t/p/w342/jwwVNuGRUBXcudG6wOKP9U60BzU.jpg","year":"2009","result":"HD","language":["Hindi"],"country":["CZ","FR","GB","US"],"original_language":"en","genres":["Adventure","Fantasy","Action"],"imdb_id":"tt0970452"},{"id":"24756","type":"movie","title":"The Art of War III: Retribution","poster":"https://image.tmdb.org/t/p/w342/igxwKUqgGh5gD1Z2TzVmW1f4DZQ.jpg","year":"2009","result":"HD","language":["Hindi"],"country":["US"],"original_language":"en","genres":["Action","Adventure","Thriller"],"imdb_id":"tt0878647"},{"id":"19995","type":"movie","title":"Avatar","poster":"https://image.tmdb.org/t/p/w342/gKY6q7SjCkAU6FqvqWybDYgUKIF.jpg","year":"2009","result":"HD","language":["Hindi"],"country":["US","GB"],"original_language":"en","genres":["Science Fiction","Action","Adventure"],"imdb_id":"tt0499549"},{"id":"10528","type":"movie","title":"Sherlock Holmes","poster":"https://image.tmdb.org/t/p/w342/zz0vClg5NdYbhpqaEGyJENrGVSw.jpg","year":"2009","result":"HD","language":["Hindi"],"country":["US","DE","GB"],"original_language":"en","genres":["Adventure","Crime","Mystery","Action"],"imdb_id":"tt0988045"},{"id":"7980","type":"movie","title":"The Lovely Bones","poster":"https://image.tmdb.org/t/p/w342/sn0iDphRxQ7I6aLd9igIgACITak.jpg","year":"2009","result":"HD","language":["Hindi"],"country":["GB","NZ","US"],"original_language":"en","genres":["Fantasy","Drama"],"imdb_id":"tt0380510"},{"id":"8247","type":"movie","title":"Jumper","poster":"https://image.tmdb.org/t/p/w342/3pPZ9JhNz3VMmASVir5SMHvTDUU.jpg","year":"2008","result":"HD","language":["Hindi"],"country":["US"],"original_language":"en","genres":["Action","Adventure","Science Fiction"],"imdb_id":"tt0489099"},{"id":"136686","type":"movie","title":"Doraemon: Nobita and the Green Giant Legend","poster":"https://image.tmdb.org/t/p/w342/jY2c8s4s8YyGxuxX8ymmzGUdnwZ.jpg","year":"2008","result":"HD","language":["Hindi"],"country":["JP"],"original_language":"ja","genres":["Adventure","Animation","Family","Comedy","Science Fiction","Fantasy"],"imdb_id":"tt1180304"},{"id":"14503","type":"movie","title":"Bachelor Party 2: The Last Temptation","poster":"https://image.tmdb.org/t/p/w342/5jYCn53G4oqNnGLh6TThQduJqxT.jpg","year":"2008","result":"HD","language":["Hindi"],"country":["US"],"original_language":"en","genres":["Comedy"],"imdb_id":"tt0954541"},{"id":"45722","type":"movie","title":"Don't Look Down","poster":"https://image.tmdb.org/t/p/w342/s7igxMxtKQKHdnDxnSAJej7RTGp.jpg","year":"2008","result":"HD","language":["Hindi"],"country":["AR","FR"],"original_language":"es","genres":["Drama","Romance"],"imdb_id":"tt1233487"},{"id":"17166","type":"movie","title":"Insanitarium","poster":"https://image.tmdb.org/t/p/w342/osefLZ4RWntoKHbut9bwphsCRDX.jpg","year":"2008","result":"HD","language":["Hindi"],"country":["US"],"original_language":"en","genres":["Horror","Thriller"],"imdb_id":"tt1103984"},{"id":"6968","type":"movie","title":"The Baader Meinhof Complex","poster":"https://image.tmdb.org/t/p/w342/36Y0UT6bXnkHBGmmVFWGEnEh8nI.jpg","year":"2008","result":"HD","language":["Hindi"],"country":["CZ","FR","DE"],"original_language":"de","genres":["Action","Crime","Drama","History","Thriller"],"imdb_id":"tt0765432"},{"id":"13009","type":"movie","title":"Zombie Strippers!","poster":"https://image.tmdb.org/t/p/w342/iQcOzXCpewM9pbEwLoIrHLjpMvB.jpg","year":"2008","result":"HD","language":["Hindi"],"country":["US"],"original_language":"en","genres":["Comedy","Horror","Science Fiction"],"imdb_id":"tt0960890"},{"id":"9502","type":"movie","title":"Kung Fu Panda","poster":"https://image.tmdb.org/t/p/w342/wWt4JYXTg5Wr3xBW2phBrMKgp3x.jpg","year":"2008","result":"HD","language":["Hindi"],"country":["US"],"original_language":"en","genres":["Action","Animation","Comedy","Family"],"imdb_id":"tt0441773"},{"id":"14212","type":"movie","title":"Pulse 2: Afterlife","poster":"https://image.tmdb.org/t/p/w342/z0SGvrvvTlGosfA16yPmp4HpfWg.jpg","year":"2008","result":"HD","language":["Hindi"],"country":["US"],"original_language":"en","genres":["Drama","Horror","Science Fiction"],"imdb_id":"tt1038072"},{"id":"13988","type":"movie","title":"The Art of War II: Betrayal","poster":"https://image.tmdb.org/t/p/w342/gJmkrZSJmPckuB3uwhZTOqZIRDo.jpg","year":"2008","result":"HD","language":["Hindi"],"country":["CA"],"original_language":"en","genres":["Action","Thriller"],"imdb_id":"tt1233571"},{"id":"13460","type":"movie","title":"Doomsday","poster":"https://image.tmdb.org/t/p/w342/cKUmTyXgmhv8cMRCY9RYTKcAeTn.jpg","year":"2008","result":"HD","language":["Hindi"],"country":["DE","GB","US","ZA"],"original_language":"en","genres":["Action","Thriller","Science Fiction"],"imdb_id":"tt0483607"},{"id":"8456","type":"movie","title":"Never Back Down","poster":"https://image.tmdb.org/t/p/w342/8oRUTyP1QAtGDMvRpKZyuyFPG0U.jpg","year":"2008","result":"HD","language":["Hindi"],"country":["US"],"original_language":"en","genres":["Drama","Action"],"imdb_id":"tt1023111"},{"id":"1726","type":"movie","title":"Iron Man","poster":"https://image.tmdb.org/t/p/w342/78lPtwv72eTNqFW9COBYI0dWDJa.jpg","year":"2008","result":"HD","language":["Hindi"],"country":["US"],"original_language":"en","genres":["Action","Science Fiction","Adventure"],"imdb_id":"tt0371746"},{"id":"155","type":"movie","title":"The Dark Knight","poster":"https://image.tmdb.org/t/p/w342/qJ2tW6WMUDux911r6m7haRef0WH.jpg","year":"2008","result":"HD","language":["Hindi"],"country":["GB","US"],"original_language":"en","genres":["Action","Crime","Thriller"],"imdb_id":"tt0468569"},{"id":"8277","type":"movie","title":"American Pie Presents: Beta House","poster":"https://image.tmdb.org/t/p/w342/j7eGbwVb9hTaRFWMlSa7C1OYp3T.jpg","year":"2007","result":"HD","language":["Hindi"],"country":["US","CA"],"original_language":"en","genres":["Comedy"],"imdb_id":"tt0974959"},{"id":"810","type":"movie","title":"Shrek the Third","poster":"https://image.tmdb.org/t/p/w342/n4SexGGQzI26E269tfpa80MZaGV.jpg","year":"2007","result":"HD","language":["Hindi"],"country":["US"],"original_language":"en","genres":["Fantasy","Adventure","Animation","Comedy","Family"],"imdb_id":"tt0413267"},{"id":"70024","type":"movie","title":"Bats: Human Harvest","poster":"https://image.tmdb.org/t/p/w342/ykRiMerjJPWeVlPamivyWhBgnM0.jpg","year":"2007","result":"HD","language":["Hindi"],"country":["US","BG"],"original_language":"en","genres":["Horror"],"imdb_id":"tt0482163"},{"id":"14144","type":"movie","title":"Daddy Day Camp","poster":"https://image.tmdb.org/t/p/w342/fhuhSVb3j8SShe6FhnVUAfSRg6h.jpg","year":"2007","result":"HD","language":["Hindi"],"country":["US"],"original_language":"en","genres":["Family","Comedy"],"imdb_id":"tt0462244"},{"id":"4556","type":"movie","title":"Nightwatching","poster":"https://image.tmdb.org/t/p/w342/vcwa1RqvoYLQIKOA4EjjPNhrkJx.jpg","year":"2007","result":"HD","language":["Hindi"],"country":["CA","NL","PL","GB"],"original_language":"en","genres":["Drama","History"],"imdb_id":"tt0446750"},{"id":"1691","type":"movie","title":"Hostel: Part II","poster":"https://image.tmdb.org/t/p/w342/qB20aiY8Ah3pQikkBxm3j7jQVc8.jpg","year":"2007","result":"HD","language":["Hindi"],"country":["US","CZ"],"original_language":"en","genres":["Horror"],"imdb_id":"tt0498353"},{"id":"4588","type":"movie","title":"Lust, Caution","poster":"https://image.tmdb.org/t/p/w342/6c1tqfJEBuIyhQC19SLlLQAUAvJ.jpg","year":"2007","result":"HD","language":["Hindi"],"country":["CN","HK","TW","US"],"original_language":"zh","genres":["Action","Drama","Romance","Thriller"],"imdb_id":"tt0808357"},{"id":"20223","type":"movie","title":"Charm School","poster":"https://image.tmdb.org/t/p/w342/1tnxyJ18qmSfafLOpS3cRXVsAym.jpg","year":"2007","result":"HD","language":["Hindi"],"country":["MX"],"original_language":"es","genres":["Comedy"],"imdb_id":"tt0806940"},{"id":"1991","type":"movie","title":"Death Proof","poster":"https://image.tmdb.org/t/p/w342/vtu6H4NWnQVqEp3aanUq3hNeeot.jpg","year":"2007","result":"HD","language":["Hindi"],"country":["US"],"original_language":"en","genres":["Action","Thriller"],"imdb_id":"tt1028528"},{"id":"8275","type":"movie","title":"American Pie Presents: The Naked Mile","poster":"https://image.tmdb.org/t/p/w342/6CPJVJrqVjibP5Uub8yCg4FKtJi.jpg","year":"2006","result":"HD","language":["Hindi"],"country":["US"],"original_language":"en","genres":["Comedy"],"imdb_id":"tt0808146"},{"id":"8997","type":"movie","title":"Hollow Man II","poster":"https://image.tmdb.org/t/p/w342/c6Ga1AUGPe3GwlpX3qDYrD9y3EZ.jpg","year":"2006","result":"HD","language":["Hindi"],"country":["US"],"original_language":"en","genres":["Horror","Thriller","Science Fiction"],"imdb_id":"tt0469916"},{"id":"15420","type":"movie","title":"The Plague","poster":"https://image.tmdb.org/t/p/w342/oC1IDjpUXbWwmJnWGb9FBldinoG.jpg","year":"2006","result":"HD","language":["Hindi"],"country":["US"],"original_language":"en","genres":["Thriller","Horror"],"imdb_id":"tt0479125"},{"id":"53335","type":"movie","title":"Candy Stripers","poster":"https://image.tmdb.org/t/p/w342/6RtNbXjAm6MAPaGz0JtlzPrwOU4.jpg","year":"2006","result":"HD","language":["Hindi"],"country":["US"],"original_language":"en","genres":["Horror"],"imdb_id":"tt0463935"},{"id":"1690","type":"movie","title":"Hostel","poster":"https://image.tmdb.org/t/p/w342/dDrtuWUKhgUGp12kgUWuP0NpTdF.jpg","year":"2006","result":"HD","language":["Hindi"],"country":["US","CZ"],"original_language":"en","genres":["Horror"],"imdb_id":"tt0450278"},{"id":"19976","type":"movie","title":"The Exterminating Angels","poster":"https://image.tmdb.org/t/p/w342/oYx8T7LeALZcdGF0JhshWDZxeoH.jpg","year":"2006","result":"HD","language":["Hindi"],"country":["FR"],"original_language":"fr","genres":["Drama","Fantasy"],"imdb_id":"tt0792948"},{"id":"13916","type":"tv","title":"Death Note","poster":"https://image.tmdb.org/t/p/w342/tCZFfYTIwrR7n94J6G14Y4hAFU6.jpg","year":"2006","result":"HD","language":["Hindi"],"country":["JP"],"original_language":"ja","genres":["Animation","Mystery","Sci-Fi & Fantasy"],"imdb_id":"tt0877057","latest_uploaded_season":1,"total_uploaded_episodes":37},{"id":"8975","type":"movie","title":"The Marine","poster":"https://image.tmdb.org/t/p/w342/pONyvBJwHNg5CWu7mtsv4qaq75C.jpg","year":"2006","result":"HD","language":["Hindi"],"country":["AU","US"],"original_language":"en","genres":["Action"],"imdb_id":"tt0419946"},{"id":"8274","type":"movie","title":"American Pie Presents: Band Camp","poster":"https://image.tmdb.org/t/p/w342/6BgKeWEGROpWwEWvpw7vwfTCr9C.jpg","year":"2005","result":"HD","language":["Hindi"],"country":["US"],"original_language":"en","genres":["Comedy"],"imdb_id":"tt0436058"},{"id":"7295","type":"movie","title":"8MM 2","poster":"https://image.tmdb.org/t/p/w342/bSikt4O0ZrR8xVrsP8wliGybZwU.jpg","year":"2005","result":"HD","language":["Hindi"],"country":["HU","US"],"original_language":"en","genres":["Thriller","Mystery","Drama"],"imdb_id":"tt0448172"},{"id":"206013","type":"movie","title":"Spirit Bear: The Simon Jackson Story","poster":"https://image.tmdb.org/t/p/w342/qHUUEa0pfeSAnqqzVihke8unuQj.jpg","year":"2005","result":"HD","language":["Hindi"],"country":[],"original_language":"en","genres":["Drama","Family","Adventure"],"imdb_id":"tt0432088"}]}