{"page":44,"total_pages":66,"total_items":3272,"items":[{"id":"1322813","type":"movie","title":"To Live Through Death","poster":"https://image.tmdb.org/t/p/w342/uXw9aAAlMdAIwJKZsxFeFTPJUQq.jpg","year":"2024","result":"HD","language":["Hindi"],"country":[],"original_language":"zh","genres":["Action","Crime"],"imdb_id":"tt33089386"},{"id":"1321700","type":"movie","title":"Daaru Na Peenda Hove","poster":"https://image.tmdb.org/t/p/w342/jGzjAvwUkvTMEN8Yn0E1opHd4vM.jpg","year":"2024","result":"HD","language":["Hindi"],"country":["CA","IN"],"original_language":"pa","genres":["Comedy","Drama","Family"],"imdb_id":"tt27736430"},{"id":"1315143","type":"movie","title":"Darling","poster":"https://image.tmdb.org/t/p/w342/qY4Xwbq0NnwErp2sPZOaQwpSGMv.jpg","year":"2024","result":"HD","language":["Hindi"],"country":["IN"],"original_language":"te","genres":["Romance","Comedy"],"imdb_id":"tt32199626"},{"id":"1306486","type":"movie","title":"Mr Shudai","poster":"https://image.tmdb.org/t/p/w342/4sfkXIyIgdDbCDJb1eYadfMEJFp.jpg","year":"2024","result":"HD","language":["Hindi"],"country":["IN"],"original_language":"pa","genres":["Comedy","Drama","Fantasy"],"imdb_id":"tt32415485"},{"id":"1296170","type":"movie","title":"The Akaali","poster":"https://image.tmdb.org/t/p/w342/tP2PeEBybZC8orlVve96DeS7DcY.jpg","year":"2024","result":"HD","language":["Hindi"],"country":["IN"],"original_language":"ta","genres":["Thriller"],"imdb_id":"tt31913643"},{"id":"1287717","type":"movie","title":"Do Not Enter","poster":"https://image.tmdb.org/t/p/w342/1l6eDcH11b9aRmmd4a9WWwhVJ5T.jpg","year":"2024","result":"HD","language":["Hindi"],"country":["AR","PY"],"original_language":"es","genres":["Horror"],"imdb_id":"tt27155283"},{"id":"1286981","type":"movie","title":"Gadera","poster":"https://image.tmdb.org/t/p/w342/vqdfPNWgMeRAa3MA7tQ6RjOFPgB.jpg","year":"2024","result":"HD","language":["Hindi"],"country":[],"original_language":"hi","genres":["Drama","History","Thriller"],"imdb_id":"tt14088270"},{"id":"1277697","type":"movie","title":"Prathinidhi 2","poster":"https://image.tmdb.org/t/p/w342/qSXmUTXfRaJxfQ1r5qPbPFqUT4A.jpg","year":"2024","result":"HD","language":["Hindi"],"country":[],"original_language":"te","genres":["Drama"],"imdb_id":"tt28479388"},{"id":"1277572","type":"movie","title":"Vallavan Vaguthathada","poster":"https://image.tmdb.org/t/p/w342/iCqNGLSR5RHJg6YcnsXCnioSuK1.jpg","year":"2024","result":"HD","language":["Hindi"],"country":[],"original_language":"ta","genres":["Crime","Drama","Thriller"],"imdb_id":"tt31494567"},{"id":"1263421","type":"movie","title":"Baki Hanma VS Kengan Ashura","poster":"https://image.tmdb.org/t/p/w342/etbHJxil0wHvYOCmibzFLsMcl2C.jpg","year":"2024","result":"HD","language":["Hindi"],"country":["JP"],"original_language":"ja","genres":["Animation","Action","Fantasy"],"imdb_id":"tt31869664"},{"id":"1262530","type":"movie","title":"The Mehta Boys","poster":"https://image.tmdb.org/t/p/w342/4fDGHQLhauxRAzProug4AspfYwQ.jpg","year":"2024","result":"HD","language":["Hindi"],"country":["IN"],"original_language":"hi","genres":["Comedy","Drama","Family"],"imdb_id":"tt31897917"},{"id":"1257416","type":"movie","title":"Idi Minnal Kadhal","poster":"https://image.tmdb.org/t/p/w342/1q1y0rutBM12M6KZXJczmPymNFv.jpg","year":"2024","result":"HD","language":["Hindi"],"country":["IN"],"original_language":"ta","genres":["Action","Drama"],"imdb_id":"tt31646764"},{"id":"1251687","type":"movie","title":"Don't Tell Mom the Babysitter's Dead","poster":"https://image.tmdb.org/t/p/w342/aMLrX8qaagRUESyPSJCARNlT8Xd.jpg","year":"2024","result":"HD","language":["Hindi"],"country":["US"],"original_language":"en","genres":["Comedy"],"imdb_id":"tt12444168"},{"id":"1249902","type":"movie","title":"Mathu Vadalara 2","poster":"https://image.tmdb.org/t/p/w342/7gDzqf5tSwnwfREEVJeTAZtK64F.jpg","year":"2024","result":"HD","language":["Hindi"],"country":["IN"],"original_language":"te","genres":["Comedy","Crime","Thriller"],"imdb_id":"tt33291871"},{"id":"1249812","type":"movie","title":"Checkmate","poster":"https://image.tmdb.org/t/p/w342/2hUTyzhfB0CUo43p7udAqL7Rkh8.jpg","year":"2024","result":"HD","language":["Hindi"],"country":["IN","US"],"original_language":"ml","genres":["Crime","Thriller"],"imdb_id":"tt28213147"},{"id":"1244361","type":"movie","title":"Operation Undead","poster":"https://image.tmdb.org/t/p/w342/rs10lMBnJFnJX1Y7MYpyB8JiNAF.jpg","year":"2024","result":"HD","language":["Hindi"],"country":["SG","TH"],"original_language":"th","genres":["Horror","Action","Thriller","War"],"imdb_id":"tt32750439"},{"id":"1243485","type":"movie","title":"Bhoothaddam Bhaskar Narayana","poster":"https://image.tmdb.org/t/p/w342/1V2XNaIrEUm6j5CKcW45gxF4nTO.jpg","year":"2024","result":"HD","language":["Hindi"],"country":[],"original_language":"te","genres":["Thriller","Fantasy","Crime"],"imdb_id":"tt21437674"},{"id":"1240592","type":"movie","title":"The Wild Blade of Strangers","poster":"https://image.tmdb.org/t/p/w342/9DZOU5qibB8WeXtzQ00Nl6tiqfw.jpg","year":"2024","result":"HD","language":["Hindi"],"country":["CN"],"original_language":"zh","genres":["Action","Drama"],"imdb_id":"tt31494700"},{"id":"1239991","type":"movie","title":"Hello Mummy","poster":"https://image.tmdb.org/t/p/w342/u6VU1xfyIce7yZtO4pNNauMPnOx.jpg","year":"2024","result":"HD","language":["Hindi"],"country":["IN"],"original_language":"ml","genres":["Fantasy","Comedy"],"imdb_id":"tt31702438"},{"id":"1235922","type":"movie","title":"I Am Nevenka","poster":"https://image.tmdb.org/t/p/w342/aE2lnlUhXaD3enmbxAmgGjb3MPS.jpg","year":"2024","result":"HD","language":["Hindi"],"country":["ES"],"original_language":"es","genres":["Drama","History"],"imdb_id":"tt30973261"},{"id":"1235623","type":"movie","title":"Eye for an Eye 2","poster":"https://image.tmdb.org/t/p/w342/mkfznkTshGBp88SFQQAGsr3R62z.jpg","year":"2024","result":"HD","language":["Hindi"],"country":["CN"],"original_language":"zh","genres":["Action","Drama"],"imdb_id":"tt30972810"},{"id":"1227842","type":"movie","title":"Danny Jigar - Ek Matra","poster":"https://image.tmdb.org/t/p/w342/qbBtkgD3XERaaNHat3A24lcHc9j.jpg","year":"2024","result":"HD","language":["Hindi"],"country":["IN"],"original_language":"gu","genres":["Comedy","Action"],"imdb_id":""},{"id":"1223371","type":"movie","title":"Accident or Conspiracy: Godhra","poster":"https://image.tmdb.org/t/p/w342/7qhCjhhUcoQg7gqB2Q5N5IAZh6J.jpg","year":"2024","result":"HD","language":["Hindi"],"country":["IN"],"original_language":"hi","genres":["History","Crime","Drama","Thriller"],"imdb_id":"tt27866501"},{"id":"1222306","type":"movie","title":"Saali Mohabbat","poster":"https://image.tmdb.org/t/p/w342/7VUvNkXT1HuNeA4tudFVGzFpQlo.jpg","year":"2024","result":"HD","language":["Hindi"],"country":["IN"],"original_language":"hi","genres":["Drama"],"imdb_id":"tt23988936"},{"id":"1216385","type":"movie","title":"Toofan","poster":"https://image.tmdb.org/t/p/w342/5TS3piPf3ZqISbRSrJ8lYeGQvfQ.jpg","year":"2024","result":"HD","language":["Hindi"],"country":["BD"],"original_language":"bn","genres":["Crime","Action"],"imdb_id":"tt30415138"},{"id":"1213742","type":"movie","title":"Tyler Perry's Divorce in the Black","poster":"https://image.tmdb.org/t/p/w342/d5X03SA51Ezd02iF9BCjWXC9X9F.jpg","year":"2024","result":"HD","language":["Hindi"],"country":["US"],"original_language":"en","genres":["Drama","Thriller"],"imdb_id":"tt28248897"},{"id":"1211242","type":"movie","title":"Vadda Ghar","poster":"https://image.tmdb.org/t/p/w342/f1mYUS35jHgWOtFPxG5PoI8UKX3.jpg","year":"2024","result":"HD","language":["Hindi"],"country":["IN"],"original_language":"pa","genres":["Comedy","Drama"],"imdb_id":"tt26249690"},{"id":"1210465","type":"movie","title":"Shahkot","poster":"https://image.tmdb.org/t/p/w342/81jPpZNvBP4t1mFXiZSBfC0pcpN.jpg","year":"2024","result":"HD","language":["Hindi"],"country":["IN"],"original_language":"pa","genres":["Drama"],"imdb_id":"tt29549471"},{"id":"1208831","type":"movie","title":"Rode College","poster":"https://image.tmdb.org/t/p/w342/aQ1VjUhn0wXpdS0mjqSTvgMvCKC.jpg","year":"2024","result":"HD","language":["Hindi"],"country":["IN"],"original_language":"pa","genres":["Drama","Comedy"],"imdb_id":"tt28350704"},{"id":"1189826","type":"movie","title":"Little Hearts","poster":"https://image.tmdb.org/t/p/w342/58Ib9F5MH7ES8urjp6OSAcBV2nb.jpg","year":"2024","result":"HD","language":["Hindi"],"country":["IN"],"original_language":"ml","genres":["Romance","Comedy"],"imdb_id":"tt29456979"},{"id":"1183761","type":"movie","title":"Here Now","poster":"https://image.tmdb.org/t/p/w342/gVL8eoeI5BgWbFi7E1GGlbrEg5y.jpg","year":"2024","result":"HD","language":["Hindi"],"country":["IT"],"original_language":"it","genres":["Thriller","Crime","Romance"],"imdb_id":"tt29293152"},{"id":"1170784","type":"movie","title":"Qaid: No Wayyy Out","poster":"https://image.tmdb.org/t/p/w342/jcCeHn4AlEvQ1RtiUFIPlr4sKkm.jpg","year":"2024","result":"HD","language":["Hindi"],"country":["GB"],"original_language":"hi","genres":["Thriller"],"imdb_id":"tt15484752"},{"id":"1168528","type":"movie","title":"Jai Ganesh","poster":"https://image.tmdb.org/t/p/w342/5t06YuOR93cqD2egserG91MhD4X.jpg","year":"2024","result":"HD","language":["Hindi"],"country":["IN"],"original_language":"ml","genres":["Drama","Thriller"],"imdb_id":"tt28755837"},{"id":"1167271","type":"movie","title":"Weekend in Taipei","poster":"https://image.tmdb.org/t/p/w342/qSc0AUvs8mRy00R9y8QYEHWIAQ9.jpg","year":"2024","result":"HD","language":["Hindi"],"country":["FR","US"],"original_language":"en","genres":["Action","Adventure","Thriller"],"imdb_id":"tt28142896"},{"id":"1160956","type":"movie","title":"Panda Plan","poster":"https://image.tmdb.org/t/p/w342/8iMPQl13q89jQhaA5nXb6UiT0t0.jpg","year":"2024","result":"HD","language":["Hindi"],"country":["CN"],"original_language":"zh","genres":["Action","Comedy"],"imdb_id":"tt28630624"},{"id":"1156593","type":"movie","title":"Your Fault","poster":"https://image.tmdb.org/t/p/w342/1sQA7lfcF9yUyoLYC0e6Zo3jmxE.jpg","year":"2024","result":"HD","language":["Hindi"],"country":["ES","US"],"original_language":"es","genres":["Drama","Romance"],"imdb_id":"tt28510079"},{"id":"1148677","type":"movie","title":"Doraemon the Movie: Nobita's Earth Symphony","poster":"https://image.tmdb.org/t/p/w342/1W5Kg4K27U3dx9Kxb8DaE6WFLHI.jpg","year":"2024","result":"HD","language":["Hindi"],"country":["JP"],"original_language":"ja","genres":["Animation","Family","Fantasy","Music","Adventure","Comedy","Science Fiction"],"imdb_id":"tt29402528"},{"id":"1147710","type":"movie","title":"Hijack 1971","poster":"https://image.tmdb.org/t/p/w342/68jNkFi61MQjrJEqj2up5wZ4w5R.jpg","year":"2024","result":"HD","language":["Hindi"],"country":["KR"],"original_language":"ko","genres":["Action","Thriller","Crime"],"imdb_id":"tt31624258"},{"id":"1144911","type":"movie","title":"Skincare","poster":"https://image.tmdb.org/t/p/w342/ikPzv7el0RcBhtXj3ElCoH54icd.jpg","year":"2024","result":"HD","language":["Hindi"],"country":["FR","IT","US"],"original_language":"en","genres":["Thriller","Drama","Comedy","Mystery"],"imdb_id":"tt28223926"},{"id":"1144161","type":"movie","title":"Lipstick","poster":"https://image.tmdb.org/t/p/w342/tASMoXVdgO4YNltpa1Kyhwxmvls.jpg","year":"2024","result":"HD","language":["Hindi"],"country":["BD"],"original_language":"bn","genres":["Action","Thriller"],"imdb_id":"tt31969078"},{"id":"1132491","type":"movie","title":"Triggered","poster":"https://image.tmdb.org/t/p/w342/50g702Thykuc49lhVpz4zMSpPtL.jpg","year":"2024","result":"HD","language":["Hindi"],"country":["PH"],"original_language":"tl","genres":["Action","Thriller","Crime"],"imdb_id":"tt23182472"},{"id":"1122418","type":"movie","title":"This Time Next Year","poster":"https://image.tmdb.org/t/p/w342/ckLPzRl9ZDHzNt4tDjkTGUyCYg7.jpg","year":"2024","result":"HD","language":["Hindi"],"country":["GB","DE","IT"],"original_language":"en","genres":["Romance","Comedy"],"imdb_id":"tt16301164"},{"id":"1105407","type":"movie","title":"Damaged","poster":"https://image.tmdb.org/t/p/w342/tMO0YLXgJZBnIAjoTSz26zE33YN.jpg","year":"2024","result":"HD","language":["Hindi"],"country":["GB","US"],"original_language":"en","genres":["Action","Drama","Thriller","Crime"],"imdb_id":"tt27304026"},{"id":"1102353","type":"movie","title":"Mechanic Rocky","poster":"https://image.tmdb.org/t/p/w342/muEYTKq3R4aQd44aa3GxcTM5taF.jpg","year":"2024","result":"HD","language":["Hindi"],"country":["IN"],"original_language":"te","genres":["Action","Drama"],"imdb_id":"tt27191250"},{"id":"1100099","type":"movie","title":"We Live in Time","poster":"https://image.tmdb.org/t/p/w342/oeDNBgnlGF6rnyX1P1K8Vl2f3lW.jpg","year":"2024","result":"HD","language":["Hindi"],"country":["GB"],"original_language":"en","genres":["Romance","Drama"],"imdb_id":"tt27131358"},{"id":"1088410","type":"movie","title":"Bhairathi Ranagal","poster":"https://image.tmdb.org/t/p/w342/ghA56IEkZ1FwJVDWWEihtVnRYvZ.jpg","year":"2024","result":"HD","language":["Hindi"],"country":["IN"],"original_language":"kn","genres":["Action","Drama"],"imdb_id":"tt15056920"},{"id":"1086726","type":"movie","title":"LSD 2: Love, Sex aur Dhokha 2","poster":"https://image.tmdb.org/t/p/w342/ywUtbLJngSqykpxiIHIqJNA06EX.jpg","year":"2024","result":"HD","language":["Hindi"],"country":["IN"],"original_language":"hi","genres":["Drama","Comedy","Crime"],"imdb_id":"tt14398312"},{"id":"1084736","type":"movie","title":"The Count of Monte Cristo","poster":"https://image.tmdb.org/t/p/w342/sAT1P3FGhtJ68anUyJScnMu8t1l.jpg","year":"2024","result":"HD","language":["Hindi"],"country":["FR","BE"],"original_language":"fr","genres":["Adventure","Action","Drama"],"imdb_id":"tt26446278"},{"id":"1084514","type":"movie","title":"Rob Peace","poster":"https://image.tmdb.org/t/p/w342/1BwKbTidW5QaEKb1pVY3p4u9cVg.jpg","year":"2024","result":"HD","language":["Hindi"],"country":["US"],"original_language":"en","genres":["Drama","History"],"imdb_id":"tt10740926"},{"id":"1064486","type":"movie","title":"Memoir of a Snail","poster":"https://image.tmdb.org/t/p/w342/woaN8CbloH0akyX0E72ayxlJAB4.jpg","year":"2024","result":"HD","language":["Hindi"],"country":["AU","GB","FR"],"original_language":"en","genres":["Animation","Drama","Comedy"],"imdb_id":"tt23770030"}]}