{"page":23,"total_pages":66,"total_items":3272,"items":[{"id":"628847","type":"movie","title":"Trap House","poster":"https://image.tmdb.org/t/p/w342/6tpAPeuuqbVnYWWPoOLEDLSBU7a.jpg","year":"2025","result":"HD","language":["Hindi"],"country":["GB","US"],"original_language":"en","genres":["Action","Crime","Thriller"],"imdb_id":"tt10799690"},{"id":"627336","type":"movie","title":"L2: Empuraan","poster":"https://image.tmdb.org/t/p/w342/dfaZipN3Aw5BK85nEvfr2FNg4EW.jpg","year":"2025","result":"HD","language":["Hindi"],"country":["IN"],"original_language":"ml","genres":["Action","Crime","Thriller"],"imdb_id":"tt10505918"},{"id":"617126","type":"movie","title":"The Fantastic 4: First Steps","poster":"https://image.tmdb.org/t/p/w342/abqOz6EL3yXyOOafCPZxjL1M5bQ.jpg","year":"2025","result":"HD","language":["Hindi"],"country":["US"],"original_language":"en","genres":["Science Fiction","Adventure","Action"],"imdb_id":"tt10676052"},{"id":"607141","type":"movie","title":"Be Happy","poster":"https://image.tmdb.org/t/p/w342/6bvW47MtJKo2ipPYJ2xDvdf4zbz.jpg","year":"2025","result":"HD","language":["Hindi"],"country":["IN","US"],"original_language":"hi","genres":["Drama","Music","Family"],"imdb_id":"tt6649234"},{"id":"586369","type":"movie","title":"28 Degree Celsius","poster":"https://image.tmdb.org/t/p/w342/9uh1vtpaSAc8geSdnJ8SciiH0LS.jpg","year":"2025","result":"HD","language":["Hindi"],"country":["IN"],"original_language":"te","genres":["Thriller","Mystery","Drama"],"imdb_id":"tt12740666"},{"id":"575265","type":"movie","title":"Mission: Impossible - The Final Reckoning","poster":"https://image.tmdb.org/t/p/w342/z53D72EAOxGRqdr7KXXWp9dJiDe.jpg","year":"2025","result":"HD","language":["Hindi"],"country":["US"],"original_language":"en","genres":["Action","Thriller","Adventure"],"imdb_id":"tt9603208"},{"id":"574475","type":"movie","title":"Final Destination Bloodlines","poster":"https://image.tmdb.org/t/p/w342/6WxhEvFsauuACfv8HyoVX6mZKFj.jpg","year":"2025","result":"HD","language":["Hindi"],"country":["US"],"original_language":"en","genres":["Horror","Mystery"],"imdb_id":"tt9619824"},{"id":"552524","type":"movie","title":"Lilo & Stitch","poster":"https://image.tmdb.org/t/p/w342/ckQzKpQJO4ZQDCN5evdpKcfm7Ys.jpg","year":"2025","result":"HD","language":["Hindi"],"country":["US"],"original_language":"en","genres":["Family","Science Fiction","Comedy"],"imdb_id":"tt11655566"},{"id":"548437","type":"movie","title":"Trending","poster":"https://image.tmdb.org/t/p/w342/y6V1mmiMzoLjn4kW05LZ2Rqt3J2.jpg","year":"2025","result":"HD","language":["Hindi"],"country":["IN"],"original_language":"ta","genres":["Drama","Thriller"],"imdb_id":"tt35279943"},{"id":"541671","type":"movie","title":"Ballerina","poster":"https://image.tmdb.org/t/p/w342/2VUmvqsHb6cEtdfscEA6fqqVzLg.jpg","year":"2025","result":"HD","language":["Hindi"],"country":["US"],"original_language":"en","genres":["Action","Thriller","Crime"],"imdb_id":"tt7181546"},{"id":"533533","type":"movie","title":"TRON: Ares","poster":"https://image.tmdb.org/t/p/w342/chpWmskl3aKm1aTZqUHRCtviwPy.jpg","year":"2025","result":"HD","language":["Hindi"],"country":["US"],"original_language":"en","genres":["Science Fiction","Adventure","Action"],"imdb_id":"tt6604188"},{"id":"507244","type":"movie","title":"Afterburn","poster":"https://image.tmdb.org/t/p/w342/hrze9JXp2QJpc2WjLfSUtRxyYSb.jpg","year":"2025","result":"HD","language":["Hindi"],"country":["US","GB"],"original_language":"en","genres":["Action","Science Fiction","Comedy"],"imdb_id":"tt1210027"},{"id":"338969","type":"movie","title":"The Toxic Avenger Unrated","poster":"https://image.tmdb.org/t/p/w342/cCWojb6N9UcTzNVtS4bOM3vQ30x.jpg","year":"2025","result":"HD","language":["Hindi"],"country":["US"],"original_language":"en","genres":["Action","Comedy","Science Fiction"],"imdb_id":"tt1633359"},{"id":"311171","type":"tv","title":"Bhootiyapa","poster":"https://image.tmdb.org/t/p/w342/4NGdzyuffqhb1jMEvTfri3jn5Fj.jpg","year":"2025","result":"HD","language":["Hindi"],"country":["IN"],"original_language":"bn","genres":["Comedy"],"imdb_id":"","latest_uploaded_season":1,"total_uploaded_episodes":5},{"id":"309456","type":"tv","title":"Jackpot","poster":"https://image.tmdb.org/t/p/w342/9XwGhP2FQxOTqbU1Sm8C9jAb7gt.jpg","year":"2025","result":"HD","language":["Hindi"],"country":["IN"],"original_language":"hi","genres":["Drama"],"imdb_id":"tt35674414","latest_uploaded_season":1,"total_uploaded_episodes":9},{"id":"309081","type":"tv","title":"Let's Play Blind Har Chaal Ek Dhokha","poster":"https://image.tmdb.org/t/p/w342/eEMaz3jBAf069hyAwfEN5mmDQXD.jpg","year":"2025","result":"HD","language":["Hindi"],"country":["US"],"original_language":"en","genres":[],"imdb_id":"tt37895286","latest_uploaded_season":1,"total_uploaded_episodes":6},{"id":"308923","type":"tv","title":"Line Cross","poster":"https://image.tmdb.org/t/p/w342/4hYXpHDu1wHalTNibyJ97mdG41d.jpg","year":"2025","result":"HD","language":["Hindi"],"country":["IN"],"original_language":"hi","genres":[],"imdb_id":"","latest_uploaded_season":1,"total_uploaded_episodes":5},{"id":"308113","type":"tv","title":"Vinny Ki Kitaab","poster":"https://i.ibb.co/HDHJ6dvm/Gemini-Generated-Image-8m0o2i8m0o2i8m0o.avif","year":"2025","result":"HD","language":["Hindi"],"country":["IN"],"original_language":"hi","genres":["Drama"],"imdb_id":"tt39161477","latest_uploaded_season":1,"total_uploaded_episodes":1},{"id":"308053","type":"tv","title":"Bhay: The Gaurav Tiwari Story","poster":"https://image.tmdb.org/t/p/w342/nERRTZKsieX3v3IhHPCviegcxaR.jpg","year":"2025","result":"HD","language":["Hindi"],"country":["IN"],"original_language":"hi","genres":["Drama","Mystery"],"imdb_id":"tt35674970","latest_uploaded_season":1,"total_uploaded_episodes":8},{"id":"307609","type":"tv","title":"Rasmalai","poster":"https://image.tmdb.org/t/p/w342/tK65NmtV9Yhe4A5AN3PgZ31s280.jpg","year":"2025","result":"HD","language":["Hindi"],"country":["IN"],"original_language":"pa","genres":["Drama"],"imdb_id":"","latest_uploaded_season":1,"total_uploaded_episodes":5},{"id":"307385","type":"tv","title":"Aukaat Ke Bahar","poster":"https://image.tmdb.org/t/p/w342/ig2tPrzG4WVSeypRWsQbftjQ5OV.jpg","year":"2025","result":"HD","language":["Hindi"],"country":["IN"],"original_language":"hi","genres":["Comedy"],"imdb_id":"tt39028852","latest_uploaded_season":1,"total_uploaded_episodes":15},{"id":"307004","type":"tv","title":"Real Kashmir Football Club","poster":"https://image.tmdb.org/t/p/w342/zsoQmFWqLuCzpNvyeIrggUsoc9I.jpg","year":"2025","result":"HD","language":["Hindi"],"country":["IN"],"original_language":"hi","genres":["Drama"],"imdb_id":"tt38236377","latest_uploaded_season":1,"total_uploaded_episodes":8},{"id":"306974","type":"tv","title":"Perfect Family","poster":"https://image.tmdb.org/t/p/w342/4HZCp7StTidUMJvty4fZ2VJaQgm.jpg","year":"2025","result":"HD","language":["Hindi"],"country":["IN"],"original_language":"hi","genres":["Family","Drama"],"imdb_id":"tt31702041","latest_uploaded_season":1,"total_uploaded_episodes":1},{"id":"306886","type":"tv","title":"Firottiye","poster":"https://image.tmdb.org/t/p/w342/mbgkVypbw7RaOWdYA8TSTjycpHB.jpg","year":"2025","result":"HD","language":["Hindi"],"country":["IN"],"original_language":"pa","genres":["Action & Adventure"],"imdb_id":"tt38454779","latest_uploaded_season":1,"total_uploaded_episodes":5},{"id":"306825","type":"tv","title":"Regai","poster":"https://image.tmdb.org/t/p/w342/c7qJEHPMhc2rrx5k7HRJs6jIGjE.jpg","year":"2025","result":"HD","language":["Hindi"],"country":["IN"],"original_language":"ta","genres":["Crime","Mystery"],"imdb_id":"tt38984146","latest_uploaded_season":1,"total_uploaded_episodes":6},{"id":"306517","type":"tv","title":"Members Only: Palm Beach","poster":"https://image.tmdb.org/t/p/w342/shteveRMvIbcdlPsMVqqQeCIGOS.jpg","year":"2025","result":"HD","language":["Hindi"],"country":["US"],"original_language":"en","genres":["Reality"],"imdb_id":"tt37677376","latest_uploaded_season":1,"total_uploaded_episodes":8},{"id":"306142","type":"tv","title":"Ziddi Ishq","poster":"https://image.tmdb.org/t/p/w342/wta6iL1GEMnV4Wzl7fKoopXFcCi.jpg","year":"2025","result":"HD","language":["Hindi"],"country":["IN"],"original_language":"hi","genres":["Drama"],"imdb_id":"tt38866463","latest_uploaded_season":1,"total_uploaded_episodes":7},{"id":"306089","type":"tv","title":"CO-ED","poster":"https://image.tmdb.org/t/p/w342/yszfk2In6I82bQIhrNijsoZkoiz.jpg","year":"2025","result":"HD","language":["Hindi"],"country":["IN"],"original_language":"hi","genres":["Drama","Comedy"],"imdb_id":"tt38947670","latest_uploaded_season":1,"total_uploaded_episodes":6},{"id":"305995","type":"tv","title":"What's in the Box?","poster":"https://image.tmdb.org/t/p/w342/riwRl7TPRH8OqMmleaPGtL1VBDC.jpg","year":"2025","result":"HD","language":["Hindi"],"country":["GB"],"original_language":"en","genres":["Reality"],"imdb_id":"tt37507058","latest_uploaded_season":1,"total_uploaded_episodes":6},{"id":"305735","type":"tv","title":"Dirty Scams","poster":"https://image.tmdb.org/t/p/w342/lVuEI5JhV5O8PmhXj6SATPCTCfd.jpg","year":"2025","result":"HD","language":["Hindi"],"country":["IN"],"original_language":"hi","genres":[],"imdb_id":"","latest_uploaded_season":1,"total_uploaded_episodes":5},{"id":"305449","type":"tv","title":"Madam Sarpanch","poster":"https://image.tmdb.org/t/p/w342/iOhUbUhrpWPmqJL0kDYYjL4LRIw.jpg","year":"2025","result":"HD","language":["Hindi"],"country":["IN"],"original_language":"hi","genres":["Drama"],"imdb_id":"","latest_uploaded_season":1,"total_uploaded_episodes":1},{"id":"305307","type":"tv","title":"Sweat Aur Secrets","poster":"https://image.tmdb.org/t/p/w342/vE7YROgIOCqx2iiUBMOqFxvTRH1.jpg","year":"2025","result":"HD","language":["Hindi"],"country":["IN"],"original_language":"hi","genres":["Crime","Drama"],"imdb_id":"","latest_uploaded_season":1,"total_uploaded_episodes":1},{"id":"305017","type":"tv","title":"Thode Door Thode Paas","poster":"https://image.tmdb.org/t/p/w342/sJZ2JrdwCAGfTaKlW2kVmLhuz5t.jpg","year":"2025","result":"HD","language":["Hindi"],"country":["IN"],"original_language":"hi","genres":["Drama","Family"],"imdb_id":"tt36150795","latest_uploaded_season":1,"total_uploaded_episodes":5},{"id":"304419","type":"tv","title":"Deewangi","poster":"https://image.tmdb.org/t/p/w342/gKrrOEqrkl7nz4KEzucWPvRTvnO.jpg","year":"2025","result":"HD","language":["Hindi"],"country":["IN"],"original_language":"hi","genres":["Drama","Mystery"],"imdb_id":"","latest_uploaded_season":1,"total_uploaded_episodes":7},{"id":"303851","type":"tv","title":"Lakadbaggey","poster":"https://image.tmdb.org/t/p/w342/vb3DHIO9RIw47cX9p3BJc8xZ600.jpg","year":"2025","result":"HD","language":["Hindi"],"country":["IN"],"original_language":"pa","genres":["Drama"],"imdb_id":"tt35678103","latest_uploaded_season":1,"total_uploaded_episodes":6},{"id":"303410","type":"tv","title":"Pitch To Get Rich","poster":"https://image.tmdb.org/t/p/w342/6pESMJE9AgbmMJt7a0iYcFCFBQj.jpg","year":"2025","result":"HD","language":["Hindi"],"country":["IN"],"original_language":"hi","genres":["Reality"],"imdb_id":"","latest_uploaded_season":1,"total_uploaded_episodes":8},{"id":"303173","type":"tv","title":"MARINES","poster":"https://image.tmdb.org/t/p/w342/rpXGvTyNT6Crsu5ZzCy1h1SgRep.jpg","year":"2025","result":"HD","language":["Hindi"],"country":["US"],"original_language":"en","genres":["Documentary"],"imdb_id":"tt38696262","latest_uploaded_season":1,"total_uploaded_episodes":4},{"id":"302622","type":"tv","title":"Shaadi Ke Side Effects","poster":"https://image.tmdb.org/t/p/w342/gQ5rRQT6ID6yFitmE6nacYeKFae.jpg","year":"2025","result":"HD","language":["Hindi"],"country":["IN"],"original_language":"hi","genres":["Drama","Comedy"],"imdb_id":"","latest_uploaded_season":1,"total_uploaded_episodes":7},{"id":"302540","type":"tv","title":"The Bad Guys: Breaking In","poster":"https://image.tmdb.org/t/p/w342/12ybD4BvgSpmhSjknFPvf1Nu7CC.jpg","year":"2025","result":"HD","language":["Hindi"],"country":["US"],"original_language":"en","genres":["Animation","Crime","Comedy","Family"],"imdb_id":"tt31392119","latest_uploaded_season":1,"total_uploaded_episodes":9},{"id":"302199","type":"tv","title":"Yeh Hai Sanak","poster":"https://image.tmdb.org/t/p/w342/9eQfMPokSgWBc6XDnd15qvLiuKR.jpg","year":"2025","result":"HD","language":["Hindi"],"country":["IN"],"original_language":"hi","genres":["Drama"],"imdb_id":"","latest_uploaded_season":1,"total_uploaded_episodes":6},{"id":"301940","type":"tv","title":"Kuttram Purindhavan","poster":"https://image.tmdb.org/t/p/w342/2ELw8en4H2PayT6B80kPAUGULXt.jpg","year":"2025","result":"HD","language":["Hindi"],"country":["IN"],"original_language":"ta","genres":["Crime","Mystery"],"imdb_id":"tt38568136","latest_uploaded_season":1,"total_uploaded_episodes":7},{"id":"301907","type":"tv","title":"13th: Some Lessons Aren't Taught in Classrooms","poster":"https://image.tmdb.org/t/p/w342/tnX7FsJBDZ6xmS8YuUnz2FLpwGl.jpg","year":"2025","result":"HD","language":["Hindi"],"country":["IN"],"original_language":"hi","genres":["Drama"],"imdb_id":"tt33028833","latest_uploaded_season":1,"total_uploaded_episodes":5},{"id":"301586","type":"tv","title":"Search: The Naina Murder Case","poster":"https://image.tmdb.org/t/p/w342/dsYE7oJoJ9sz93uXbAVHAuynre4.jpg","year":"2025","result":"HD","language":["Hindi"],"country":["IN"],"original_language":"hi","genres":["Crime","Mystery"],"imdb_id":"tt38509140","latest_uploaded_season":1,"total_uploaded_episodes":6},{"id":"301547","type":"tv","title":"Janaawar - The Beast Within","poster":"https://image.tmdb.org/t/p/w342/s1yubL1BWB8vCpGAoQ7plRit5bQ.jpg","year":"2025","result":"HD","language":["Hindi"],"country":["IN"],"original_language":"hi","genres":["Drama","Crime","Action & Adventure"],"imdb_id":"tt38390994","latest_uploaded_season":1,"total_uploaded_episodes":7},{"id":"301498","type":"tv","title":"Mob War: Philadelphia vs. the Mafia","poster":"https://image.tmdb.org/t/p/w342/5vtAydTEQuOVj144b3ob80KUryg.jpg","year":"2025","result":"HD","language":["Hindi"],"country":["US"],"original_language":"en","genres":["Documentary","Crime"],"imdb_id":"tt38501655","latest_uploaded_season":1,"total_uploaded_episodes":3},{"id":"301120","type":"tv","title":"Personal Trainer","poster":"https://image.tmdb.org/t/p/w342/jgQ8dkVJQkrbKYy4Qj2jIVl4lHk.jpg","year":"2025","result":"HD","language":["Hindi"],"country":["IN"],"original_language":"hi","genres":[],"imdb_id":"tt35629486","latest_uploaded_season":1,"total_uploaded_episodes":6},{"id":"301070","type":"tv","title":"Police Police","poster":"https://image.tmdb.org/t/p/w342/6R2yp5gnbyDBHoMChjTG5Uli5fC.jpg","year":"2025","result":"HD","language":["Hindi"],"country":["IN"],"original_language":"ta","genres":["Comedy","Drama"],"imdb_id":"tt37803840","latest_uploaded_season":1,"total_uploaded_episodes":8},{"id":"301001","type":"tv","title":"Mrs Playmen","poster":"https://image.tmdb.org/t/p/w342/aLwRvsuKhMjrCrAUUuw61cSuiOi.jpg","year":"2025","result":"HD","language":["Hindi"],"country":["IT"],"original_language":"it","genres":["Drama"],"imdb_id":"tt31078757","latest_uploaded_season":1,"total_uploaded_episodes":7},{"id":"300999","type":"tv","title":"True Haunting","poster":"https://image.tmdb.org/t/p/w342/8XK4kBkP7QVIPnl6dFfdPSCICs6.jpg","year":"2025","result":"HD","language":["Hindi"],"country":["US"],"original_language":"en","genres":["Documentary","Mystery"],"imdb_id":"tt38362312","latest_uploaded_season":1,"total_uploaded_episodes":5},{"id":"300894","type":"tv","title":"Kurukshetra","poster":"https://image.tmdb.org/t/p/w342/amNFukSD0hpj5omLkikfaNw42sp.jpg","year":"2025","result":"HD","language":["Hindi"],"country":["IN"],"original_language":"hi","genres":["Action & Adventure","Drama","Animation"],"imdb_id":"tt38235589","latest_uploaded_season":1,"total_uploaded_episodes":18}]}