{"page":52,"total_pages":66,"total_items":3272,"items":[{"id":"157383","type":"tv","title":"The Golden Spoon","poster":"https://image.tmdb.org/t/p/w342/1fJcOnUsRlpiCSt3J35T1Ga9UHV.jpg","year":"2022","result":"HD","language":["Hindi"],"country":["KR"],"original_language":"ko","genres":["Drama","Mystery","Sci-Fi & Fantasy"],"imdb_id":"tt22248234","latest_uploaded_season":1,"total_uploaded_episodes":16},{"id":"156103","type":"tv","title":"Shining For One Thing","poster":"https://image.tmdb.org/t/p/w342/1J4cANgkYDHsC6etlwMLatUDUWN.jpg","year":"2022","result":"HD","language":["Hindi"],"country":["CN"],"original_language":"zh","genres":["Mystery","Drama"],"imdb_id":"tt17506818","latest_uploaded_season":1,"total_uploaded_episodes":24},{"id":"155229","type":"tv","title":"Cheer Up","poster":"https://image.tmdb.org/t/p/w342/agyQFkNKBExKYiIealedXNDIDqn.jpg","year":"2022","result":"HD","language":["Hindi"],"country":["KR"],"original_language":"ko","genres":["Drama","Mystery","Comedy"],"imdb_id":"tt22789182","latest_uploaded_season":1,"total_uploaded_episodes":16},{"id":"155226","type":"tv","title":"Big Mouth","poster":"https://image.tmdb.org/t/p/w342/gJDvYUJcPEDJzB3SnQokifPUtRF.jpg","year":"2022","result":"HD","language":["Hindi"],"country":["KR"],"original_language":"ko","genres":["Mystery","Drama","Crime"],"imdb_id":"tt21195490","latest_uploaded_season":1,"total_uploaded_episodes":16},{"id":"152471","type":"tv","title":"Ghost Doctor","poster":"https://image.tmdb.org/t/p/w342/1TWwuZR398ytSZX0RdsOyECu9sC.jpg","year":"2022","result":"HD","language":["Hindi"],"country":["KR"],"original_language":"ko","genres":["Comedy","Drama","Sci-Fi & Fantasy"],"imdb_id":"tt16493854","latest_uploaded_season":1,"total_uploaded_episodes":16},{"id":"138882","type":"tv","title":"Shoot! Goal to the Future","poster":"https://image.tmdb.org/t/p/w342/3jMImKHLU9zoB2K2hDEe6fu1Emn.jpg","year":"2022","result":"HD","language":["Hindi"],"country":["JP"],"original_language":"ja","genres":["Animation"],"imdb_id":"tt16148546","latest_uploaded_season":1,"total_uploaded_episodes":13},{"id":"136732","type":"tv","title":"Shooting Stars","poster":"https://image.tmdb.org/t/p/w342/wH8ZDJLFEIPsDHanefBEbt8FS3A.jpg","year":"2022","result":"HD","language":["Hindi"],"country":["KR"],"original_language":"ko","genres":["Comedy","Drama"],"imdb_id":"tt19800324","latest_uploaded_season":1,"total_uploaded_episodes":16},{"id":"136699","type":"tv","title":"Glitch","poster":"https://image.tmdb.org/t/p/w342/kJEYfQSnnFSn8DY9vdNQ9UQ9QSg.jpg","year":"2022","result":"HD","language":["Hindi"],"country":["KR"],"original_language":"ko","genres":["Drama","Comedy","Mystery","Sci-Fi & Fantasy"],"imdb_id":"tt14735382","latest_uploaded_season":1,"total_uploaded_episodes":10},{"id":"136283","type":"tv","title":"The Glory","poster":"https://image.tmdb.org/t/p/w342/uUM4LVlPgIrww07OoEKrGWlS1Ej.jpg","year":"2022","result":"HD","language":["Hindi"],"country":["KR"],"original_language":"ko","genres":["Drama"],"imdb_id":"tt21344706","latest_uploaded_season":1,"total_uploaded_episodes":16},{"id":"133953","type":"tv","title":"Be My Princess","poster":"https://image.tmdb.org/t/p/w342/kTrjTRp9kZgkiri64ccibBic6bK.jpg","year":"2022","result":"HD","language":["Hindi"],"country":["CN"],"original_language":"zh","genres":["Drama","Sci-Fi & Fantasy"],"imdb_id":"","latest_uploaded_season":1,"total_uploaded_episodes":30},{"id":"123249","type":"tv","title":"My Dress-Up Darling","poster":"https://image.tmdb.org/t/p/w342/A6mxBwvvv63JXZm3xXKv4SugE0L.jpg","year":"2022","result":"HD","language":["Hindi"],"country":["JP"],"original_language":"ja","genres":["Animation","Comedy","Drama"],"imdb_id":"tt15765670","latest_uploaded_season":1,"total_uploaded_episodes":24},{"id":"112836","type":"tv","title":"Money Heist: Korea - Joint Economic Area","poster":"https://image.tmdb.org/t/p/w342/bnfTPTTytrZZ9Aw6hoOQdojiaKo.jpg","year":"2022","result":"HD","language":["Hindi"],"country":["KR"],"original_language":"ko","genres":["Action & Adventure","Crime","Drama","Mystery"],"imdb_id":"tt13696452","latest_uploaded_season":1,"total_uploaded_episodes":12},{"id":"99966","type":"tv","title":"All of Us Are Dead","poster":"https://image.tmdb.org/t/p/w342/pTEFqAjLd5YTsMD6NSUxV6Dq7A6.jpg","year":"2022","result":"HD","language":["Hindi"],"country":["KR"],"original_language":"ko","genres":["Action & Adventure","Drama","Sci-Fi & Fantasy"],"imdb_id":"tt14169960","latest_uploaded_season":1,"total_uploaded_episodes":12},{"id":"83659","type":"tv","title":"Guillermo del Toro's Cabinet of Curiosities","poster":"https://image.tmdb.org/t/p/w342/a91e9hpWwfCqxJI4xM9Q2RhuxgI.jpg","year":"2022","result":"HD","language":["Hindi"],"country":["US"],"original_language":"en","genres":["Drama","Mystery","Sci-Fi & Fantasy"],"imdb_id":"tt8415836","latest_uploaded_season":1,"total_uploaded_episodes":8},{"id":"76600","type":"movie","title":"Avatar: The Way of Water","poster":"https://image.tmdb.org/t/p/w342/t6HIqrRAclMCA60NsSmeqe9RmNV.jpg","year":"2022","result":"HD","language":["Hindi"],"country":["US"],"original_language":"en","genres":["Action","Adventure","Science Fiction"],"imdb_id":"tt1630029"},{"id":"115194","type":"tv","title":"A Perfect Planet","poster":"https://image.tmdb.org/t/p/w342/8JJa4gduVytwpXQzFtZNibRA6S.jpg","year":"2021","result":"HD","language":["Hindi"],"country":["GB"],"original_language":"en","genres":["Documentary"],"imdb_id":"tt10219322","latest_uploaded_season":1,"total_uploaded_episodes":5},{"id":"629028","type":"movie","title":"Mission: Possible","poster":"https://image.tmdb.org/t/p/w342/l2VrjVMJvyYizizmTkro22GLLnt.jpg","year":"2021","result":"HD","language":["Hindi"],"country":["KR"],"original_language":"ko","genres":["Comedy","Action","Thriller"],"imdb_id":"tt14140954"},{"id":"95594","type":"tv","title":"Fast & Furious Spy Racers","poster":"https://image.tmdb.org/t/p/w342/cI7zYWuYTmKEdXITcUKPzjc2EW5.jpg","year":"2021","result":"HD","language":["Hindi"],"country":["US"],"original_language":"en","genres":["Animation","Action & Adventure","Kids","Family"],"imdb_id":"tt8322592","latest_uploaded_season":6,"total_uploaded_episodes":52},{"id":"60846","type":"tv","title":"Log Horizon","poster":"https://image.tmdb.org/t/p/w342/xLGdRuWCn2AlByL5Y9OLB3ZwItg.jpg","year":"2021","result":"HD","language":["Hindi"],"country":["JP"],"original_language":"ja","genres":["Animation","Action & Adventure","Sci-Fi & Fantasy","Comedy"],"imdb_id":"tt2942218","latest_uploaded_season":3,"total_uploaded_episodes":62},{"id":"131009","type":"tv","title":"Demi-Gods and Semi-Devils","poster":"https://image.tmdb.org/t/p/w342/A0gvywTPbbHLcJDedoLdciaiB2t.jpg","year":"2021","result":"HD","language":["Hindi"],"country":["CN"],"original_language":"zh","genres":["Sci-Fi & Fantasy","Drama"],"imdb_id":"tt22646564","latest_uploaded_season":1,"total_uploaded_episodes":50},{"id":"125255","type":"tv","title":"Use for My Talent","poster":"https://image.tmdb.org/t/p/w342/3cPaJnIwdMWDDLpKHfNkJGxhYMX.jpg","year":"2021","result":"HD","language":["Hindi"],"country":["CN"],"original_language":"zh","genres":["Drama","Comedy"],"imdb_id":"tt14747972","latest_uploaded_season":1,"total_uploaded_episodes":24},{"id":"136063","type":"tv","title":"Fall In Love With Him","poster":"https://image.tmdb.org/t/p/w342/xKDIdhG9YFWEovF3dn3By4z1DMa.jpg","year":"2021","result":"HD","language":["Hindi"],"country":["CN"],"original_language":"zh","genres":["Sci-Fi & Fantasy","Comedy"],"imdb_id":"tt16310988","latest_uploaded_season":1,"total_uploaded_episodes":24},{"id":"123358","type":"tv","title":"Mysterious Love","poster":"https://image.tmdb.org/t/p/w342/iBA0uOwNrIeAbovPLYVcXBLiIGH.jpg","year":"2021","result":"HD","language":["Hindi"],"country":["CN"],"original_language":"zh","genres":["Drama","Action & Adventure"],"imdb_id":"","latest_uploaded_season":1,"total_uploaded_episodes":16},{"id":"132198","type":"tv","title":"Meet You","poster":"https://image.tmdb.org/t/p/w342/fE0qiisuxlVSJU7ytAozXx667dP.jpg","year":"2021","result":"HD","language":["Hindi"],"country":["CN"],"original_language":"zh","genres":["Drama","Action & Adventure"],"imdb_id":"","latest_uploaded_season":1,"total_uploaded_episodes":12},{"id":"118105","type":"tv","title":"My Star Bride","poster":"https://image.tmdb.org/t/p/w342/8XkztQWLQIKhbK6PwzUdLbqZBjF.jpg","year":"2021","result":"HD","language":["Hindi"],"country":["SG"],"original_language":"zh","genres":["Drama"],"imdb_id":"tt14084266","latest_uploaded_season":1,"total_uploaded_episodes":20},{"id":"116218","type":"tv","title":"The Most Beautiful You in the World","poster":"https://image.tmdb.org/t/p/w342/j9NM3gUqlF9kDWKmWQwq2uFqM0p.jpg","year":"2021","result":"HD","language":["Hindi"],"country":["CN"],"original_language":"zh","genres":["Comedy","Drama"],"imdb_id":"","latest_uploaded_season":1,"total_uploaded_episodes":24},{"id":"131026","type":"tv","title":"Dali & Cocky Prince","poster":"https://image.tmdb.org/t/p/w342/r6X8JNFfgiq91MDtXBm3fzzmyGB.jpg","year":"2021","result":"HD","language":["Hindi"],"country":["KR"],"original_language":"ko","genres":["Comedy","Drama"],"imdb_id":"tt14730768","latest_uploaded_season":1,"total_uploaded_episodes":16},{"id":"129889","type":"tv","title":"Moonshine","poster":"https://image.tmdb.org/t/p/w342/dJAlUCdFWAso5cowfv3vhI2QtZY.jpg","year":"2021","result":"HD","language":["Hindi"],"country":["KR"],"original_language":"ko","genres":["Comedy","Drama"],"imdb_id":"tt14609502","latest_uploaded_season":1,"total_uploaded_episodes":16},{"id":"119369","type":"tv","title":"Remember My Boy","poster":"https://image.tmdb.org/t/p/w342/n56ykPIQwj4mbRkvs5hB0Guu29O.jpg","year":"2021","result":"HD","language":["Hindi"],"country":["CN"],"original_language":"zh","genres":["Drama","Comedy"],"imdb_id":"tt14018558","latest_uploaded_season":1,"total_uploaded_episodes":24},{"id":"645788","type":"movie","title":"The Protégé","poster":"https://image.tmdb.org/t/p/w342/iQUj7MptHUlcXpaMLrqRNZRxGA9.jpg","year":"2021","result":"HD","language":["Hindi"],"country":["BG","RO","GB","US"],"original_language":"en","genres":["Action","Thriller","Crime"],"imdb_id":"tt6079772"},{"id":"122111","type":"tv","title":"Hello Mr. Gu","poster":"https://image.tmdb.org/t/p/w342/Mq7H1cnZctl52lX5mMeG2VfM7U.jpg","year":"2021","result":"HD","language":["Hindi"],"country":["CN"],"original_language":"zh","genres":["Drama","Comedy"],"imdb_id":"tt14407908","latest_uploaded_season":1,"total_uploaded_episodes":30},{"id":"116043","type":"tv","title":"L.U.C.A.: The Beginning","poster":"https://image.tmdb.org/t/p/w342/jcEikoCQsdKueYT20ekzhx6C6HY.jpg","year":"2021","result":"HD","language":["Hindi"],"country":["KR"],"original_language":"ko","genres":["Mystery","Sci-Fi & Fantasy","Action & Adventure"],"imdb_id":"tt13752928","latest_uploaded_season":1,"total_uploaded_episodes":12},{"id":"135286","type":"tv","title":"Live Your Life","poster":"https://image.tmdb.org/t/p/w342/n8iDqnNuUVSc4FUZsNDqyt2gsiJ.jpg","year":"2021","result":"HD","language":["Hindi"],"country":["CN"],"original_language":"zh","genres":["Drama","Comedy"],"imdb_id":"tt15738790","latest_uploaded_season":1,"total_uploaded_episodes":40},{"id":"129244","type":"tv","title":"My Deskmate","poster":"https://image.tmdb.org/t/p/w342/4WCDG51r94hFjj6tfwfazV9Suz5.jpg","year":"2021","result":"HD","language":["Hindi"],"country":["CN"],"original_language":"zh","genres":["Comedy"],"imdb_id":"","latest_uploaded_season":1,"total_uploaded_episodes":30},{"id":"258008","type":"tv","title":"Teenage Textbook","poster":"https://image.tmdb.org/t/p/w342/x19HWqPmP3vwIAYURrfDiT4clZJ.jpg","year":"2021","result":"HD","language":["Hindi"],"country":["SG"],"original_language":"en","genres":["Drama","Comedy"],"imdb_id":"tt14272532","latest_uploaded_season":1,"total_uploaded_episodes":13},{"id":"126698","type":"tv","title":"You Are My Spring","poster":"https://image.tmdb.org/t/p/w342/elwXwSRBJHxLqOtSYFztytB7vj.jpg","year":"2021","result":"HD","language":["Hindi"],"country":["KR"],"original_language":"ko","genres":["Drama"],"imdb_id":"tt14169816","latest_uploaded_season":1,"total_uploaded_episodes":16},{"id":"139105","type":"tv","title":"Switch On","poster":"https://image.tmdb.org/t/p/w342/vEqmYDkEs0dY32kCd5DV6usC14m.jpg","year":"2021","result":"HD","language":["Hindi"],"country":["TH"],"original_language":"th","genres":["Mystery","Sci-Fi & Fantasy"],"imdb_id":"tt15964544","latest_uploaded_season":1,"total_uploaded_episodes":24},{"id":"139309","type":"tv","title":"Blanca","poster":"https://image.tmdb.org/t/p/w342/ygLft4UvzyeMUZegHNwcCKo7TgG.jpg","year":"2021","result":"HD","language":["Hindi"],"country":["IT"],"original_language":"it","genres":["Drama","Crime"],"imdb_id":"tt7950716","latest_uploaded_season":1,"total_uploaded_episodes":12},{"id":"120314","type":"tv","title":"Dark Hole","poster":"https://image.tmdb.org/t/p/w342/s6bVrvezseNz7j1svt89ESG9ZkS.jpg","year":"2021","result":"HD","language":["Hindi"],"country":["KR"],"original_language":"ko","genres":["Action & Adventure","Mystery","Sci-Fi & Fantasy"],"imdb_id":"tt13885376","latest_uploaded_season":1,"total_uploaded_episodes":12},{"id":"132317","type":"tv","title":"Lie to Love","poster":"https://image.tmdb.org/t/p/w342/sogyrB1s0xQVs9GDkIe8xa1MITK.jpg","year":"2021","result":"HD","language":["Hindi"],"country":["CN"],"original_language":"zh","genres":["Drama","Comedy","Mystery"],"imdb_id":"tt16299346","latest_uploaded_season":1,"total_uploaded_episodes":32},{"id":"130655","type":"tv","title":"High Class","poster":"https://image.tmdb.org/t/p/w342/y12jFvgntlxyit2KMd94LmCQO1d.jpg","year":"2021","result":"HD","language":["Hindi"],"country":["KR"],"original_language":"ko","genres":["Crime","Drama"],"imdb_id":"tt14596714","latest_uploaded_season":1,"total_uploaded_episodes":16},{"id":"99489","type":"tv","title":"The Penthouse","poster":"https://image.tmdb.org/t/p/w342/wybv1VgIOMhcHdU3ooikn2LuR1o.jpg","year":"2021","result":"HD","language":["Hindi"],"country":["KR"],"original_language":"ko","genres":["Drama","Mystery"],"imdb_id":"tt13067118","latest_uploaded_season":3,"total_uploaded_episodes":48},{"id":"797271","type":"movie","title":"Counterattack","poster":"https://image.tmdb.org/t/p/w342/ayoqy3twWdKvUvbolbfoJToxUfl.jpg","year":"2021","result":"HD","language":["Hindi"],"country":["CN"],"original_language":"zh","genres":["Action","Mystery","Thriller"],"imdb_id":"tt13784650"},{"id":"1375538","type":"movie","title":"Evil Dead is Back","poster":"https://m.media-amazon.com/images/M/MV5BZDExMDMwNWUtOTY3NS00NWI1LWJlY2YtODE4MGMzNGQ0MDJiXkEyXkFqcGc@._V1_.jpg","year":"2021","result":"HD","language":["Hindi"],"country":[],"original_language":"en","genres":[],"imdb_id":""},{"id":"881764","type":"movie","title":"Girls to Buy","poster":"https://image.tmdb.org/t/p/w342/oAdg6estkW0Ud9yBxEPPpHflszZ.jpg","year":"2021","result":"HD","language":["Hindi"],"country":["PL"],"original_language":"pl","genres":["Thriller","Drama","Crime","Action"],"imdb_id":"tt11871074"},{"id":"882251","type":"movie","title":"Silent Hours","poster":"https://image.tmdb.org/t/p/w342/re09M47jDGgoumSBrKtaOpIeLp7.jpg","year":"2021","result":"HD","language":["Hindi"],"country":[],"original_language":"en","genres":["Thriller","Mystery"],"imdb_id":"tt10360104"},{"id":"87020","type":"tv","title":"Hey Prabhu!","poster":"https://image.tmdb.org/t/p/w342/2RaKZP3rjeIT8HePte2bbLF39Mw.jpg","year":"2021","result":"HD","language":["Hindi"],"country":["IN"],"original_language":"hi","genres":["Comedy"],"imdb_id":"tt9024790","latest_uploaded_season":2,"total_uploaded_episodes":16},{"id":"95557","type":"tv","title":"INVINCIBLE","poster":"https://image.tmdb.org/t/p/w342/4tblBrslcKSifMVZ3TmtT2ukMor.jpg","year":"2021","result":"HD","language":["Hindi"],"country":["US"],"original_language":"en","genres":["Animation","Drama","Sci-Fi & Fantasy","Action & Adventure"],"imdb_id":"tt6741278","latest_uploaded_season":5,"total_uploaded_episodes":32},{"id":"64387","type":"tv","title":"The Girlfriend Experience","poster":"https://image.tmdb.org/t/p/w342/vkXG4uqXQVwfwmE6CUSPFvz6MLn.jpg","year":"2021","result":"HD","language":["Hindi"],"country":["US"],"original_language":"en","genres":["Drama"],"imdb_id":"tt3846642","latest_uploaded_season":3,"total_uploaded_episodes":37},{"id":"776909","type":"movie","title":"Sounds Like Love","poster":"https://image.tmdb.org/t/p/w342/tYUdh9HsTHLd2GJUtAyKg3InlXs.jpg","year":"2021","result":"HD","language":["Hindi"],"country":["ES"],"original_language":"es","genres":["Comedy","Romance"],"imdb_id":"tt11698662"}]}