{"page":42,"total_pages":66,"total_items":3272,"items":[{"id":"1340332","type":"movie","title":"Black","poster":"https://image.tmdb.org/t/p/w342/rIoIQ4JX8wNQWynnwhghtgkAu0G.jpg","year":"2024","result":"HD","language":["Hindi"],"country":["IN"],"original_language":"ta","genres":["Mystery","Thriller","Horror"],"imdb_id":"tt33298502"},{"id":"1340168","type":"movie","title":"Blink","poster":"https://image.tmdb.org/t/p/w342/w8w7QbN4gyX4tL2nvenS7Xh44su.jpg","year":"2024","result":"HD","language":["Hindi"],"country":["CA","US"],"original_language":"en","genres":["Documentary"],"imdb_id":"tt29259074"},{"id":"1394729","type":"movie","title":"Blue Van","poster":"https://image.tmdb.org/t/p/w342/7zdS1EAp7HYfx1lx5d6jFkTmzti.jpg","year":"2024","result":"HD","language":["PUNJABI"],"country":[],"original_language":"pa","genres":["Drama","Crime"],"imdb_id":""},{"id":"1230407","type":"movie","title":"Buddy","poster":"https://image.tmdb.org/t/p/w342/4kBQXF9Yxkqje4Ss43vHDwqDHtu.jpg","year":"2024","result":"HD","language":["Hindi"],"country":["IN"],"original_language":"te","genres":["Action","Comedy"],"imdb_id":"tt26235048"},{"id":"262589","type":"tv","title":"Cadets","poster":"https://image.tmdb.org/t/p/w342/i2JEeHJecFPTOah6hyW1Az71CMf.jpg","year":"2024","result":"HD","language":["Hindi"],"country":["IN"],"original_language":"hi","genres":["Drama"],"imdb_id":"tt33254124","latest_uploaded_season":1,"total_uploaded_episodes":1},{"id":"238108","type":"tv","title":"Call Me Bae","poster":"https://image.tmdb.org/t/p/w342/qdWoYn4KOiZNjR4EOHUsNjamzJ0.jpg","year":"2024","result":"HD","language":["Hindi"],"country":["IN"],"original_language":"hi","genres":["Drama","Comedy"],"imdb_id":"tt21908964","latest_uploaded_season":1,"total_uploaded_episodes":1},{"id":"1365005","type":"movie","title":"Colourrs of Love","poster":"https://image.tmdb.org/t/p/w342/ky3ousDprUW9D4i8zvHrXQRS9GL.jpg","year":"2024","result":"HD","language":["Hindi"],"country":[],"original_language":"hi","genres":["Romance","Drama"],"imdb_id":"tt33482897"},{"id":"1146577","type":"movie","title":"CTRL","poster":"https://image.tmdb.org/t/p/w342/eCaaJkJqRA6unsVe5hvtgJq301H.jpg","year":"2024","result":"HD","language":["Hindi"],"country":["IN"],"original_language":"hi","genres":["Thriller","Drama"],"imdb_id":"tt12736014"},{"id":"1351667","type":"movie","title":"Daddy Samjheya Karo","poster":"https://image.tmdb.org/t/p/w342/rQnxGGUmUA3yZ1wtFgaO2F5OjsH.jpg","year":"2024","result":"HD","language":["Hindi"],"country":["IN"],"original_language":"en","genres":["Drama","Comedy"],"imdb_id":""},{"id":"811941","type":"movie","title":"Devara: Part 1","poster":"https://image.tmdb.org/t/p/w342/lQfuaXjANoTsdx5iS0gCXlK9D2L.jpg","year":"2024","result":"HD","language":["Hindi"],"country":["IN"],"original_language":"te","genres":["Action","Drama"],"imdb_id":"tt11821912"},{"id":"1127824","type":"movie","title":"Double iSmart","poster":"https://image.tmdb.org/t/p/w342/kwaitETl1wiQ9kgOMxIuNOawcJP.jpg","year":"2024","result":"HD","language":["Hindi"],"country":["IN"],"original_language":"te","genres":["Action","Science Fiction","Thriller"],"imdb_id":"tt27610677"},{"id":"1283338","type":"movie","title":"Election","poster":"https://image.tmdb.org/t/p/w342/s8DAlpi299IqfJ7u0P6j0OLgZl7.jpg","year":"2024","result":"HD","language":["Hindi"],"country":["IN"],"original_language":"ta","genres":["Action","Thriller"],"imdb_id":"tt26904032"},{"id":"261704","type":"tv","title":"Flight Attendant","poster":"https://image.tmdb.org/t/p/w342/7SxBB7zCb2htLGybQjDTgco13l3.jpg","year":"2024","result":"HD","language":["Hindi"],"country":["IN"],"original_language":"hi","genres":["Drama"],"imdb_id":"tt33111701","latest_uploaded_season":1,"total_uploaded_episodes":1},{"id":"1090566","type":"movie","title":"Grrr..","poster":"https://image.tmdb.org/t/p/w342/f4GpEsQAc9LslfEmBlOwlChxpyx.jpg","year":"2024","result":"HD","language":["Hindi"],"country":["IN"],"original_language":"ml","genres":["Comedy","Drama"],"imdb_id":"tt13004760"},{"id":"1336930","type":"movie","title":"Haye Bibiye Kithe Fas Gaye","poster":"https://image.tmdb.org/t/p/w342/uSdc9BTbVPtT7fpCpC5VwN9nC5x.jpg","year":"2024","result":"HD","language":["Hindi"],"country":["IN","GB"],"original_language":"pa","genres":["Comedy","Horror"],"imdb_id":"tt32868274"},{"id":"228824","type":"tv","title":"Highway Love","poster":"https://image.tmdb.org/t/p/w342/8vtIBvwzZTWADMbnc2GX1RIJljI.jpg","year":"2024","result":"HD","language":["Hindi"],"country":["IN"],"original_language":"hi","genres":["Comedy"],"imdb_id":"tt27991703","latest_uploaded_season":2,"total_uploaded_episodes":2},{"id":"238015","type":"tv","title":"Jai Mahendran","poster":"https://image.tmdb.org/t/p/w342/i4XuRIfKepANLQO6AcPG9tfBvpg.jpg","year":"2024","result":"HD","language":["Hindi"],"country":["IN"],"original_language":"ml","genres":["Comedy","Drama","Family"],"imdb_id":"tt27540960","latest_uploaded_season":1,"total_uploaded_episodes":1},{"id":"1184243","type":"movie","title":"Jatt & Juliet 3","poster":"https://image.tmdb.org/t/p/w342/sZl16hpuT09oVWPhL3JeRRUfTOf.jpg","year":"2024","result":"HD","language":["Hindi"],"country":["IN"],"original_language":"pa","genres":["Comedy","Romance"],"imdb_id":"tt29063558"},{"id":"1279657","type":"movie","title":"Je Jatt Vigarh Gya","poster":"https://image.tmdb.org/t/p/w342/diezoZdgczC0N2PcVVdyqouGd6l.jpg","year":"2024","result":"HD","language":["PUNJABI"],"country":["IN"],"original_language":"pa","genres":["Drama"],"imdb_id":"tt31616101"},{"id":"1354920","type":"movie","title":"Jo Tera Hai Woh Mera Hai","poster":"https://image.tmdb.org/t/p/w342/w35SdKO67nyy51CUQqbK60Vj3Co.jpg","year":"2024","result":"HD","language":["Hindi"],"country":["IN"],"original_language":"hi","genres":["Comedy","Drama"],"imdb_id":"tt28356014"},{"id":"1318349","type":"movie","title":"Kadaisi Ulaga Por","poster":"https://image.tmdb.org/t/p/w342/5QMqnVJk2whlN2OB6zxAKHxjxXO.jpg","year":"2024","result":"HD","language":["Hindi"],"country":[],"original_language":"ta","genres":["Science Fiction","Action","Thriller"],"imdb_id":"tt32991468"},{"id":"1229078","type":"movie","title":"Kakuda","poster":"https://image.tmdb.org/t/p/w342/kc16Hwkst3GOfjqdfglSO1b3UjN.jpg","year":"2024","result":"HD","language":["Hindi"],"country":["IN"],"original_language":"hi","genres":["Comedy","Horror"],"imdb_id":"tt15181064"},{"id":"1294414","type":"movie","title":"Kaliyugam Pattanamlo","poster":"https://image.tmdb.org/t/p/w342/52HrWjk6auzcDjJ0uPR0yYYvxxY.jpg","year":"2024","result":"HD","language":["Hindi"],"country":[],"original_language":"te","genres":["Crime"],"imdb_id":"tt31464940"},{"id":"801688","type":"movie","title":"Kalki 2898-AD","poster":"https://image.tmdb.org/t/p/w342/rstcAnBeCkxNQjNp3YXrF6IP1tW.jpg","year":"2024","result":"HD","language":["Hindi"],"country":["IN"],"original_language":"te","genres":["Drama","Action","Fantasy","Science Fiction"],"imdb_id":"tt12735488"},{"id":"1285843","type":"movie","title":"Kangaroo","poster":"https://image.tmdb.org/t/p/w342/5yB6Mr0W5J3IIWrQE8Ujdm6jQIa.jpg","year":"2024","result":"HD","language":["Hindi"],"country":[],"original_language":"te","genres":["Thriller","Crime"],"imdb_id":""},{"id":"1254792","type":"movie","title":"Karataka Damanaka","poster":"https://image.tmdb.org/t/p/w342/9kI5EBi4JkwtHfniJH6oYEJ6cov.jpg","year":"2024","result":"HD","language":["Hindi"],"country":[],"original_language":"kn","genres":["Comedy","Action"],"imdb_id":"tt28564521"},{"id":"1241592","type":"movie","title":"Khel Khel Mein","poster":"https://image.tmdb.org/t/p/w342/32P0oQf41HXbENRGtu2h0rqBF2k.jpg","year":"2024","result":"HD","language":["Hindi"],"country":["IN","GB"],"original_language":"hi","genres":["Comedy","Drama"],"imdb_id":"tt27056012"},{"id":"1025125","type":"movie","title":"Kishkindha Kaandam","poster":"https://image.tmdb.org/t/p/w342/rniBYHDRs6e8qMkPr4D4ZE5uMhF.jpg","year":"2024","result":"HD","language":["Hindi"],"country":["IN"],"original_language":"ml","genres":["Thriller","Mystery","Drama","Adventure"],"imdb_id":"tt15980138"},{"id":"1179283","type":"movie","title":"Kondal","poster":"https://image.tmdb.org/t/p/w342/zLbnXZWIzKU9pmrGdzuwkHluGz9.jpg","year":"2024","result":"HD","language":["Hindi"],"country":["IN"],"original_language":"ml","genres":["Action","Drama"],"imdb_id":"tt29929060"},{"id":"1216872","type":"movie","title":"Kooki","poster":"https://image.tmdb.org/t/p/w342/eKqmGSFR5MLnUr6ayU3IVzLuqOt.jpg","year":"2024","result":"HD","language":["Hindi"],"country":[],"original_language":"hi","genres":["Drama"],"imdb_id":"tt29310746"},{"id":"1184245","type":"movie","title":"Kudi Haryane Val Di","poster":"https://image.tmdb.org/t/p/w342/sBgdOpVo7U2RZEDJ6t8oGfhAt3K.jpg","year":"2024","result":"HD","language":["Hindi"],"country":["IN"],"original_language":"pa","genres":["Drama"],"imdb_id":"tt29309965"},{"id":"1336910","type":"movie","title":"Lag Gaye","poster":"https://image.tmdb.org/t/p/w342/2rBUm6kiWkTWJeK2R6CHAcrLNRg.jpg","year":"2024","result":"HD","language":["PUNJABI"],"country":[],"original_language":"pa","genres":["Comedy","Drama"],"imdb_id":""},{"id":"1105682","type":"movie","title":"Level Cross","poster":"https://image.tmdb.org/t/p/w342/qBtytEZyFKZhLk2UCzIJuOda7Fu.jpg","year":"2024","result":"HD","language":["Hindi"],"country":["IN"],"original_language":"ml","genres":["Thriller","Drama"],"imdb_id":"tt27328373"},{"id":"807222","type":"movie","title":"Love, Sitara","poster":"https://image.tmdb.org/t/p/w342/xwOKKJYlxRK0jIbjWCCJ5aeADrA.jpg","year":"2024","result":"HD","language":["Hindi"],"country":["IN"],"original_language":"hi","genres":["Drama","Romance"],"imdb_id":"tt13070226"},{"id":"1239511","type":"movie","title":"Lucky Baskhar","poster":"https://image.tmdb.org/t/p/w342/a47JQFl9L7VDa79tEvnTOJe0rPa.jpg","year":"2024","result":"HD","language":["Hindi"],"country":["IN"],"original_language":"te","genres":["Thriller","Crime","Drama"],"imdb_id":"tt27540542"},{"id":"1118224","type":"movie","title":"Maharaja","poster":"https://image.tmdb.org/t/p/w342/s0m4TM1XRAftQStgKpw024RvkJo.jpg","year":"2024","result":"HD","language":["Hindi"],"country":["IN"],"original_language":"ta","genres":["Action","Thriller","Mystery"],"imdb_id":"tt26548265"},{"id":"1233327","type":"movie","title":"Matka","poster":"https://image.tmdb.org/t/p/w342/1LzHbFk93Lp00ZsqGHPAnAoUJW8.jpg","year":"2024","result":"HD","language":["Hindi"],"country":["IN"],"original_language":"te","genres":["Action","Crime"],"imdb_id":"tt28258888"},{"id":"1187058","type":"movie","title":"Munjya","poster":"https://image.tmdb.org/t/p/w342/ylYdXu0SM79Qs7vOz6q7mBxanVD.jpg","year":"2024","result":"HD","language":["Hindi"],"country":["IN"],"original_language":"hi","genres":["Comedy","Horror"],"imdb_id":"tt27995594"},{"id":"261374","type":"tv","title":"My Perfectt Husband","poster":"https://image.tmdb.org/t/p/w342/8UL8aAvuMfAYL1z7FRVAW6ZRm5z.jpg","year":"2024","result":"HD","language":["Hindi"],"country":["IN"],"original_language":"ta","genres":["Comedy","Drama"],"imdb_id":"tt13331708","latest_uploaded_season":1,"total_uploaded_episodes":1},{"id":"1030109","type":"movie","title":"Ooru Peru Bhairavakona","poster":"https://image.tmdb.org/t/p/w342/bPqtaVDJI2E8SheBhCgtktyBw6a.jpg","year":"2024","result":"HD","language":["Hindi"],"country":["IN"],"original_language":"te","genres":["Fantasy","Comedy","Horror"],"imdb_id":"tt15457802"},{"id":"1317591","type":"movie","title":"Petta Rap","poster":"https://image.tmdb.org/t/p/w342/pt5Wv7YW6Lv4XbZJ7ZeVrswg2EZ.jpg","year":"2024","result":"HD","language":["Hindi"],"country":["IN"],"original_language":"ta","genres":["Action","Music"],"imdb_id":"tt26887171"},{"id":"257669","type":"tv","title":"Pill","poster":"https://image.tmdb.org/t/p/w342/gyXfVqYIBg1ly8xQuJtf79vM2k8.jpg","year":"2024","result":"HD","language":["Hindi"],"country":["IN"],"original_language":"hi","genres":["Drama"],"imdb_id":"tt32729607","latest_uploaded_season":1,"total_uploaded_episodes":1},{"id":"1329956","type":"movie","title":"Pogumidam Vegu Thooramillai","poster":"https://image.tmdb.org/t/p/w342/t9PskkYrJpFsS2eobDHwNl39T1J.jpg","year":"2024","result":"HD","language":["Hindi"],"country":["IN"],"original_language":"ta","genres":["Thriller","Family","Drama"],"imdb_id":"tt32402578"},{"id":"1375013","type":"movie","title":"Pottel","poster":"https://image.tmdb.org/t/p/w342/k0RTkcYbGVbMLkCC5e8kTtGTPvO.jpg","year":"2024","result":"HD","language":["Hindi"],"country":["IN"],"original_language":"te","genres":["Action","Drama"],"imdb_id":"tt31948043"},{"id":"1073264","type":"movie","title":"PT Sir","poster":"https://image.tmdb.org/t/p/w342/1nTKDDzcU0M0I4PonmbjAHkIyQE.jpg","year":"2024","result":"HD","language":["Hindi"],"country":["IN"],"original_language":"ta","genres":["Comedy","Drama"],"imdb_id":"tt23772282"},{"id":"271066","type":"tv","title":"Raat Jawaan Hai","poster":"https://image.tmdb.org/t/p/w342/juIV2AiEshBETv0aAd8AlCuarmY.jpg","year":"2024","result":"HD","language":["Hindi"],"country":["IN"],"original_language":"hi","genres":["Comedy","Drama"],"imdb_id":"tt30819853","latest_uploaded_season":1,"total_uploaded_episodes":1},{"id":"1136418","type":"movie","title":"Raayan","poster":"https://image.tmdb.org/t/p/w342/dHMbqpG7vZk1iEJaEkCCyixFbos.jpg","year":"2024","result":"HD","language":["Hindi"],"country":["IN"],"original_language":"ta","genres":["Action","Drama","Thriller"],"imdb_id":"tt26233598"},{"id":"245467","type":"tv","title":"Raisinghani VS. Raisinghani","poster":"https://image.tmdb.org/t/p/w342/6Y846gCkeE9RlMkxAbYxca1Te3Z.jpg","year":"2024","result":"HD","language":["Hindi"],"country":["IN"],"original_language":"hi","genres":["Drama"],"imdb_id":"tt31032285","latest_uploaded_season":1,"total_uploaded_episodes":1},{"id":"1171532","type":"movie","title":"Rathnam","poster":"https://image.tmdb.org/t/p/w342/j35uUmrMgWNQHrs0Obi8ll0OVfe.jpg","year":"2024","result":"HD","language":["Hindi"],"country":["IN"],"original_language":"ta","genres":["Action","Romance"],"imdb_id":"tt27577888"},{"id":"1293863","type":"movie","title":"Rose Rosy Te Gulab","poster":"https://image.tmdb.org/t/p/w342/aLvgqL7ivOMvtyQmJ0EJ4LgTvVI.jpg","year":"2024","result":"HD","language":["PUNJABI"],"country":["IN"],"original_language":"pa","genres":["Romance","Drama"],"imdb_id":"tt31473803"}]}