{"page":36,"total_pages":66,"total_items":3272,"items":[{"id":"1108566","type":"movie","title":"Killer Heat","poster":"https://image.tmdb.org/t/p/w342/WiAEiqelck0NGWplhL5JQR12eg.jpg","year":"2024","result":"HD","language":["Hindi"],"country":["US","GR","GB"],"original_language":"en","genres":["Crime","Drama","Romance"],"imdb_id":"tt27419292"},{"id":"225634","type":"tv","title":"Monsters: The Lyle and Erik Menendez Story","poster":"https://image.tmdb.org/t/p/w342/x9YC2rpXHUFMqI1hCekKDm9UE4w.jpg","year":"2024","result":"HD","language":["Hindi"],"country":["US"],"original_language":"en","genres":["Drama","Crime"],"imdb_id":"","latest_uploaded_season":1,"total_uploaded_episodes":9},{"id":"263089","type":"tv","title":"Mr. McMahon","poster":"https://image.tmdb.org/t/p/w342/mtLYsALvuHlnw7PHg0frCCwSRVy.jpg","year":"2024","result":"HD","language":["Hindi"],"country":["US"],"original_language":"en","genres":["Documentary"],"imdb_id":"tt33301469","latest_uploaded_season":1,"total_uploaded_episodes":6},{"id":"676685","type":"movie","title":"Panda Bear in Africa","poster":"https://image.tmdb.org/t/p/w342/wxpu7svVqA0ALYpofQBPujGelN3.jpg","year":"2024","result":"HD","language":["Hindi"],"country":["DK","EE","FR","DE","NL"],"original_language":"nl","genres":["Animation","Adventure","Comedy","Family"],"imdb_id":"tt13616980"},{"id":"242876","type":"tv","title":"Raising Voices","poster":"https://image.tmdb.org/t/p/w342/lCU77Jp0iWN2e1WuSJvR7M35ebN.jpg","year":"2024","result":"HD","language":["Hindi"],"country":["ES"],"original_language":"es","genres":["Drama"],"imdb_id":"tt22188654","latest_uploaded_season":1,"total_uploaded_episodes":8},{"id":"858414","type":"movie","title":"Rez Ball","poster":"https://image.tmdb.org/t/p/w342/5MKpjuiCTk8nYnsUf5QegiPKEDh.jpg","year":"2024","result":"HD","language":["Hindi"],"country":["US"],"original_language":"en","genres":["Drama"],"imdb_id":"tt15181360"},{"id":"261579","type":"tv","title":"Secret Level","poster":"https://image.tmdb.org/t/p/w342/856MRq23grNxpeVl1PdFgmmLiT0.jpg","year":"2024","result":"HD","language":["Hindi"],"country":["US"],"original_language":"en","genres":["Animation","Sci-Fi & Fantasy","Action & Adventure"],"imdb_id":"tt33204697","latest_uploaded_season":1,"total_uploaded_episodes":15},{"id":"127532","type":"tv","title":"Solo Leveling","poster":"https://image.tmdb.org/t/p/w342/geCRueV3ElhRTr0xtJuEWJt6dJ1.jpg","year":"2024","result":"HD","language":["Hindi"],"country":["JP"],"original_language":"ja","genres":["Animation","Action & Adventure","Sci-Fi & Fantasy"],"imdb_id":"tt21209876","latest_uploaded_season":1,"total_uploaded_episodes":25},{"id":"1047020","type":"movie","title":"The Last Stop in Yuma County","poster":"https://image.tmdb.org/t/p/w342/u6ae2MMh8PpSamO3cIttLM5B18v.jpg","year":"2024","result":"HD","language":["Hindi"],"country":["US"],"original_language":"en","genres":["Thriller","Crime","Drama"],"imdb_id":"tt11674730"},{"id":"248951","type":"tv","title":"The Strongest Magician in the Demon Lord's Army Was a Human","poster":"https://image.tmdb.org/t/p/w342/z0udnWYj8tXjzqYzT6MSBbZ1sMf.jpg","year":"2024","result":"HD","language":["Hindi"],"country":["JP"],"original_language":"ja","genres":["Animation","Action & Adventure"],"imdb_id":"tt32333026","latest_uploaded_season":1,"total_uploaded_episodes":12},{"id":"129398","type":"tv","title":"The Sympathizer","poster":"https://image.tmdb.org/t/p/w342/zAxObqiOEooIuQtH338b8zOaFEu.jpg","year":"2024","result":"HD","language":["Hindi"],"country":["US"],"original_language":"en","genres":["Drama","War & Politics"],"imdb_id":"tt14404618","latest_uploaded_season":1,"total_uploaded_episodes":7},{"id":"117830","type":"tv","title":"Tomb Raider: The Legend of Lara Croft","poster":"https://image.tmdb.org/t/p/w342/hBqYte464epKcSaOufl3SXPqKfj.jpg","year":"2024","result":"HD","language":["Hindi"],"country":["US"],"original_language":"en","genres":["Action & Adventure","Animation"],"imdb_id":"tt13930822","latest_uploaded_season":1,"total_uploaded_episodes":8},{"id":"97860","type":"tv","title":"Tower of God","poster":"https://image.tmdb.org/t/p/w342/9QXO4C0AwAuBa15nuDLZU2MyktB.jpg","year":"2024","result":"HD","language":["Hindi"],"country":["JP"],"original_language":"ja","genres":["Animation","Action & Adventure","Mystery","Sci-Fi & Fantasy"],"imdb_id":"tt12057106","latest_uploaded_season":2,"total_uploaded_episodes":39},{"id":"97333","type":"tv","title":"Twilight of the Gods","poster":"https://image.tmdb.org/t/p/w342/n0rqWDT1oYGcNIuLydZD4J4JpwK.jpg","year":"2024","result":"HD","language":["Hindi"],"country":["US"],"original_language":"en","genres":["Animation","Sci-Fi & Fantasy","Action & Adventure"],"imdb_id":"tt10625492","latest_uploaded_season":1,"total_uploaded_episodes":8},{"id":"748167","type":"movie","title":"Uglies","poster":"https://image.tmdb.org/t/p/w342/jaUu9zHtbcFwrB5Y1DNYE09HMex.jpg","year":"2024","result":"HD","language":["Hindi"],"country":["US"],"original_language":"en","genres":["Science Fiction","Adventure","Action"],"imdb_id":"tt13186604"},{"id":"1101448","type":"movie","title":"Unstoppable","poster":"https://image.tmdb.org/t/p/w342/xanYKxuFkDPrMngvm1NSHVGOEjS.jpg","year":"2024","result":"HD","language":["Hindi"],"country":["US"],"original_language":"en","genres":["Drama","History"],"imdb_id":"tt3864060"},{"id":"261646","type":"tv","title":"What's Next? The Future with Bill Gates","poster":"https://image.tmdb.org/t/p/w342/s2uNbATWA2qZTVgsrJeqWmQPb4V.jpg","year":"2024","result":"HD","language":["Hindi"],"country":["US"],"original_language":"en","genres":["Documentary"],"imdb_id":"tt33184626","latest_uploaded_season":1,"total_uploaded_episodes":1},{"id":"879412","type":"movie","title":"You Can't Run Forever","poster":"https://image.tmdb.org/t/p/w342/mkQEa3W4UbkAaL8kwv7pj7AiM0u.jpg","year":"2024","result":"HD","language":["Hindi"],"country":["US"],"original_language":"en","genres":["Thriller"],"imdb_id":"tt15451150"},{"id":"762441","type":"movie","title":"A Quiet Place: Day One","poster":"https://image.tmdb.org/t/p/w342/hU42CRk14JuPEdqZG3AWmagiPAP.jpg","year":"2024","result":"HD","language":["Hindi"],"country":["US"],"original_language":"en","genres":["Horror","Science Fiction","Thriller"],"imdb_id":"tt13433802"},{"id":"1062215","type":"movie","title":"Afraid","poster":"https://image.tmdb.org/t/p/w342/gUREuXCnJLVHsvKXDH9fgIcfM6e.jpg","year":"2024","result":"HD","language":["Hindi"],"country":["US"],"original_language":"en","genres":["Horror","Science Fiction","Thriller"],"imdb_id":"tt24577462"},{"id":"1198899","type":"movie","title":"Agent Recon","poster":"https://image.tmdb.org/t/p/w342/fxxPAowtYuGj4WHrNqbPTfLHRLF.jpg","year":"2024","result":"HD","language":["Hindi"],"country":["US"],"original_language":"en","genres":["Action","Science Fiction"],"imdb_id":"tt26743864"},{"id":"1249216","type":"movie","title":"Apollo 13: Survival","poster":"https://image.tmdb.org/t/p/w342/9tuK9kKSB2L6rMVlNOjwiWQaWxh.jpg","year":"2024","result":"HD","language":["Hindi"],"country":["GB","US"],"original_language":"en","genres":["Documentary","History"],"imdb_id":"tt31852716"},{"id":"614933","type":"movie","title":"Atlas","poster":"https://image.tmdb.org/t/p/w342/bcM2Tl5HlsvPBnL8DKP9Ie6vU4r.jpg","year":"2024","result":"HD","language":["Hindi"],"country":["US"],"original_language":"en","genres":["Science Fiction","Action"],"imdb_id":"tt14856980"},{"id":"1337309","type":"movie","title":"Bangkok Breaking: Heaven and Hell","poster":"https://image.tmdb.org/t/p/w342/6VeDn4oIeUK4XwjWGWMb6qvMImQ.jpg","year":"2024","result":"HD","language":["Hindi"],"country":["TH"],"original_language":"th","genres":["Action","Crime","Drama","Thriller"],"imdb_id":"tt31158592"},{"id":"840705","type":"movie","title":"Blink Twice","poster":"https://image.tmdb.org/t/p/w342/lZGOK0I2DJSRlEPNOAFTSNxSjDD.jpg","year":"2024","result":"HD","language":["Hindi"],"country":["US"],"original_language":"en","genres":["Mystery","Thriller"],"imdb_id":"tt14858658"},{"id":"1025596","type":"movie","title":"Blood for Dust","poster":"https://image.tmdb.org/t/p/w342/nvaCnkl8RilLhVAQXPFei0tqkqW.jpg","year":"2024","result":"HD","language":["Hindi"],"country":["US"],"original_language":"en","genres":["Action","Crime","Thriller"],"imdb_id":"tt10669888"},{"id":"1280440","type":"movie","title":"Boxer","poster":"https://image.tmdb.org/t/p/w342/hpFWUpjIT6eTPFoAUzVsGHcQHXT.jpg","year":"2024","result":"HD","language":["Hindi"],"country":["PL"],"original_language":"pl","genres":["Drama"],"imdb_id":"tt32244931"},{"id":"1115395","type":"movie","title":"Colors of Evil: Red","poster":"https://image.tmdb.org/t/p/w342/5NAdIXaF2AhewMFMqFvbxZmDC3M.jpg","year":"2024","result":"HD","language":["Hindi"],"country":["PL"],"original_language":"pl","genres":["Crime","Thriller","Mystery"],"imdb_id":"tt27578157"},{"id":"1115395","type":"movie","title":"Colors of Evil: Red","poster":"https://image.tmdb.org/t/p/w342/5NAdIXaF2AhewMFMqFvbxZmDC3M.jpg","year":"2024","result":"HD","language":["Hindi"],"country":["PL"],"original_language":"pl","genres":["Crime","Thriller","Mystery"],"imdb_id":"tt27578157"},{"id":"1280990","type":"movie","title":"Consumed","poster":"https://image.tmdb.org/t/p/w342/jMKc8AOyb7KWSzlKblstqjCXhvn.jpg","year":"2024","result":"HD","language":["Hindi"],"country":["US"],"original_language":"en","genres":["Horror"],"imdb_id":"tt13374480"},{"id":"957304","type":"movie","title":"Drive-Away Dolls","poster":"https://image.tmdb.org/t/p/w342/6QPKmqntFgLm6sB47AtSelEGGPM.jpg","year":"2024","result":"HD","language":["Hindi"],"country":["GB","US"],"original_language":"en","genres":["Comedy","Crime"],"imdb_id":"tt19356262"},{"id":"1014661","type":"movie","title":"House of Spoils","poster":"https://image.tmdb.org/t/p/w342/udfMAdiyKhgAS47dRXEnXo6tHt6.jpg","year":"2024","result":"HD","language":["Hindi"],"country":["US"],"original_language":"en","genres":["Horror","Mystery"],"imdb_id":"tt21830836"},{"id":"1041613","type":"movie","title":"Immaculate","poster":"https://image.tmdb.org/t/p/w342/zyopv7D5j7cfswG0NYiA14qAdPC.jpg","year":"2024","result":"HD","language":["Hindi"],"country":["US"],"original_language":"en","genres":["Horror","Mystery","Thriller"],"imdb_id":"tt23137390"},{"id":"1008953","type":"movie","title":"Incoming","poster":"https://image.tmdb.org/t/p/w342/k2ySukuAiAarLns0yttKS3jg85Y.jpg","year":"2024","result":"HD","language":["Hindi"],"country":["US"],"original_language":"en","genres":["Comedy"],"imdb_id":"tt21284218"},{"id":"1266321","type":"movie","title":"Inside the Mind of a Dog","poster":"https://image.tmdb.org/t/p/w342/rajrUCW4fkvdK4EDickfpK9wLbO.jpg","year":"2024","result":"HD","language":["Hindi"],"country":["US"],"original_language":"en","genres":["Documentary"],"imdb_id":"tt32907397"},{"id":"1052280","type":"movie","title":"It's What's Inside","poster":"https://image.tmdb.org/t/p/w342/6jzwaLoDurD6Jn2ILb42nFcn3xq.jpg","year":"2024","result":"HD","language":["Hindi"],"country":["US"],"original_language":"en","genres":["Comedy","Mystery","Science Fiction"],"imdb_id":"tt14577874"},{"id":"1094138","type":"movie","title":"Jackpot!","poster":"https://image.tmdb.org/t/p/w342/7vv0NTaQGOO7M5ZMerp1vMFJsby.jpg","year":"2024","result":"HD","language":["Hindi"],"country":["US"],"original_language":"en","genres":["Comedy","Action"],"imdb_id":"tt26940324"},{"id":"969492","type":"movie","title":"Land of Bad","poster":"https://image.tmdb.org/t/p/w342/h3jYanWMEJq6JJsCopy1h7cT2Hs.jpg","year":"2024","result":"HD","language":["Hindi"],"country":["US","AU","CZ"],"original_language":"en","genres":["Action","War","Thriller"],"imdb_id":"tt19864802"},{"id":"993784","type":"movie","title":"Lisa Frankenstein","poster":"https://image.tmdb.org/t/p/w342/jAW7ZdIm4HLKB3g15uMOWYNdU8r.jpg","year":"2024","result":"HD","language":["Hindi"],"country":["US"],"original_language":"en","genres":["Horror","Comedy","Romance"],"imdb_id":"tt21188080"},{"id":"959429","type":"movie","title":"Lonely Planet","poster":"https://image.tmdb.org/t/p/w342/sH7Orig1yqa6ojMLIzLDxA2GRkH.jpg","year":"2024","result":"HD","language":["Hindi"],"country":["US"],"original_language":"en","genres":["Romance","Drama"],"imdb_id":"tt20194882"},{"id":"1226578","type":"movie","title":"Longlegs","poster":"https://image.tmdb.org/t/p/w342/1EwNyiiNFd863H4e8nWEzutnZD7.jpg","year":"2024","result":"HD","language":["Hindi"],"country":["CA","US"],"original_language":"en","genres":["Crime","Horror","Mystery"],"imdb_id":"tt23468450"},{"id":"1026436","type":"movie","title":"Miller's Girl","poster":"https://image.tmdb.org/t/p/w342/ieU0zUj7WhE0GrgpgofRH0sNjbI.jpg","year":"2024","result":"HD","language":["Hindi"],"country":["US"],"original_language":"en","genres":["Thriller","Drama","Romance"],"imdb_id":"tt8310486"},{"id":"1002088","type":"movie","title":"Mission: Cross","poster":"https://image.tmdb.org/t/p/w342/aE9WqOApdRYsowsGE0118dyA4c9.jpg","year":"2024","result":"HD","language":["Hindi"],"country":["KR"],"original_language":"ko","genres":["Action","Comedy"],"imdb_id":"tt30515931"},{"id":"1295415","type":"movie","title":"Mutant","poster":"https://image.tmdb.org/t/p/w342/dil7ytWMsH5P1KZqYlXq3FN6Qur.jpg","year":"2024","result":"HD","language":["Hindi"],"country":["CN"],"original_language":"zh","genres":["Science Fiction","Romance","War"],"imdb_id":"tt32386443"},{"id":"1281826","type":"movie","title":"One Fast Move","poster":"https://image.tmdb.org/t/p/w342/hdBUjfbdr1ymS0kycAT7qguOmWA.jpg","year":"2024","result":"HD","language":["Hindi"],"country":["US"],"original_language":"en","genres":["Action","Drama","Romance"],"imdb_id":"tt21096576"},{"id":"646097","type":"movie","title":"Rebel Ridge","poster":"https://image.tmdb.org/t/p/w342/xEt2GSz9z5rSVpIHMiGdtf0czyf.jpg","year":"2024","result":"HD","language":["Hindi"],"country":["US"],"original_language":"en","genres":["Crime","Action","Thriller","Drama"],"imdb_id":"tt11301886"},{"id":"1239121","type":"movie","title":"Secret Lives of Orangutans","poster":"https://image.tmdb.org/t/p/w342/eGgIaLPJZkLk7jKjONL2FQ11Tu.jpg","year":"2024","result":"HD","language":["Hindi"],"country":["GB"],"original_language":"en","genres":["Documentary"],"imdb_id":"tt33038092"},{"id":"1019411","type":"movie","title":"Space Cadet","poster":"https://image.tmdb.org/t/p/w342/7QUOIldN6ShKj1LdLhO26a8QXND.jpg","year":"2024","result":"HD","language":["Hindi"],"country":["US"],"original_language":"en","genres":["Comedy"],"imdb_id":"tt21469794"},{"id":"1114513","type":"movie","title":"Speak No Evil","poster":"https://image.tmdb.org/t/p/w342/dA4N6uWOnEMgbxXwFX7qX7adzs8.jpg","year":"2024","result":"HD","language":["Hindi"],"country":["US"],"original_language":"en","genres":["Horror","Thriller"],"imdb_id":"tt27534307"},{"id":"978090","type":"movie","title":"Striking The Palace","poster":"https://image.tmdb.org/t/p/w342/nIVt1Jr37o5U9opboyBjs6zZ9mB.jpg","year":"2024","result":"HD","language":["Hindi"],"country":["FR"],"original_language":"fr","genres":["Comedy"],"imdb_id":"tt27722491"}]}