{"page":41,"total_pages":66,"total_items":3272,"items":[{"id":"1171099","type":"movie","title":"Maharaj","poster":"https://image.tmdb.org/t/p/w342/lsuUGtUzrzEnlIUjVRSqFNUMZEz.jpg","year":"2024","result":"HD","language":["Hindi"],"country":["IN"],"original_language":"hi","genres":["Drama","History"],"imdb_id":"tt4501268"},{"id":"668340","type":"movie","title":"Maidaan","poster":"https://image.tmdb.org/t/p/w342/eKbAVKQf6choCfasNWuYoSTOPBP.jpg","year":"2024","result":"HD","language":["Hindi"],"country":["IN"],"original_language":"hi","genres":["Drama"],"imdb_id":"tt10869778"},{"id":"1101175","type":"movie","title":"Malayalee from India","poster":"https://image.tmdb.org/t/p/w342/mOqYSsuaDi9D6dh0GRF8gj2ilJQ.jpg","year":"2024","result":"HD","language":["Hindi"],"country":["IN"],"original_language":"ml","genres":["Drama","Comedy"],"imdb_id":"tt26655359"},{"id":"1304039","type":"movie","title":"Malhar","poster":"https://image.tmdb.org/t/p/w342/is17siyU3Cm6OQM771iB2gTsSgj.jpg","year":"2024","result":"HD","language":["CAM RESULT"],"country":[],"original_language":"hi","genres":["Drama"],"imdb_id":"tt32370994"},{"id":"270667","type":"tv","title":"Manvat Murders","poster":"https://image.tmdb.org/t/p/w342/nuxlCzA7PZLjhfoju7QF5BaTFwE.jpg","year":"2024","result":"HD","language":["Hindi"],"country":["IN"],"original_language":"mr","genres":["Crime","Drama"],"imdb_id":"tt33320881","latest_uploaded_season":1,"total_uploaded_episodes":8},{"id":"1259399","type":"movie","title":"Mix Up","poster":"https://image.tmdb.org/t/p/w342/ylKD7chB3sjc7qPEYdb4NpXRNUp.jpg","year":"2024","result":"HD","language":["Hindi"],"country":[],"original_language":"te","genres":[],"imdb_id":"tt31647370"},{"id":"1313130","type":"movie","title":"Modern Masters: SS Rajamouli","poster":"https://image.tmdb.org/t/p/w342/dwZn04UO8VFC3wINew34OqAi2kH.jpg","year":"2024","result":"HD","language":["Hindi"],"country":["IN"],"original_language":"en","genres":["Documentary"],"imdb_id":"tt26259966"},{"id":"1311029","type":"movie","title":"Na Baligh Afraad","poster":"https://image.tmdb.org/t/p/w342/enMxoHnxGp6GAa7zYDDs5jtznUa.jpg","year":"2024","result":"HD","language":["CAM RESULT"],"country":["PK"],"original_language":"ur","genres":["Comedy","Drama"],"imdb_id":"tt32552818"},{"id":"1171096","type":"movie","title":"Naa Saami Ranga","poster":"https://image.tmdb.org/t/p/w342/4xwNsmT0XPFF0Ssa7kB6FR1MZRz.jpg","year":"2024","result":"HD","language":["Hindi"],"country":["IN"],"original_language":"te","genres":["Action"],"imdb_id":"tt23790602"},{"id":"261061","type":"tv","title":"Naam Namak Nishan","poster":"https://image.tmdb.org/t/p/w342/sPGgNdkifEvwZvcq47I5Gn1o3gQ.jpg","year":"2024","result":"HD","language":["Hindi"],"country":["IN"],"original_language":"hi","genres":["Drama"],"imdb_id":"tt33069630","latest_uploaded_season":1,"total_uploaded_episodes":1},{"id":"243935","type":"tv","title":"Nagendran’s Honeymoons","poster":"https://image.tmdb.org/t/p/w342/mk1iphrEF1hoQeTQWeF2xPgP8Ug.jpg","year":"2024","result":"HD","language":["Hindi"],"country":["IN"],"original_language":"ml","genres":["Comedy","Drama"],"imdb_id":"tt27950365","latest_uploaded_season":1,"total_uploaded_episodes":6},{"id":"277367","type":"tv","title":"Parachute","poster":"https://image.tmdb.org/t/p/w342/aCpEktlupJJk9pWNxJDwVqPTejX.jpg","year":"2024","result":"HD","language":["Hindi"],"country":["IN"],"original_language":"ta","genres":["Drama","Mystery"],"imdb_id":"tt34265516","latest_uploaded_season":1,"total_uploaded_episodes":5},{"id":"1266706","type":"movie","title":"Parahuna 2","poster":"https://image.tmdb.org/t/p/w342/pgFPzLPsLddasXGbTy102NbfWnd.jpg","year":"2024","result":"HD","language":["PUNJABI"],"country":[],"original_language":"pa","genres":["Comedy","Drama"],"imdb_id":"tt19799528"},{"id":"1072693","type":"movie","title":"Phir Aayi Hasseen Dillruba","poster":"https://image.tmdb.org/t/p/w342/lIBjLUAAw2bzeOHBJIKiZI4QDL0.jpg","year":"2024","result":"HD","language":["Hindi"],"country":["IN"],"original_language":"hi","genres":["Mystery","Thriller","Romance"],"imdb_id":"tt26225118"},{"id":"1312563","type":"movie","title":"Pind Aala School","poster":"https://image.tmdb.org/t/p/w342/lj9e9EDk7PC15LzFs1gIgiTtfUq.jpg","year":"2024","result":"HD","language":["PUNJABI"],"country":[],"original_language":"pa","genres":["Drama"],"imdb_id":"tt30476264"},{"id":"1320886","type":"movie","title":"Pyaar Ishq aur Possession","poster":"https://image.tmdb.org/t/p/w342/32Qz0v7TVnStu3h5AzR1WfuhyNk.jpg","year":"2024","result":"HD","language":["Hindi"],"country":[],"original_language":"hi","genres":["Drama"],"imdb_id":"tt32843375"},{"id":"1206050","type":"movie","title":"Rautu ka Raaz","poster":"https://image.tmdb.org/t/p/w342/asKw9WwRPFpuAwiGuarPCelE9Yx.jpg","year":"2024","result":"HD","language":["Hindi"],"country":["IN"],"original_language":"hi","genres":["Drama","Crime","Mystery"],"imdb_id":"tt32607174"},{"id":"1089737","type":"movie","title":"Saindhav","poster":"https://image.tmdb.org/t/p/w342/x7c6RQCWmrl92rPg3JhzzalF4SQ.jpg","year":"2024","result":"HD","language":["Hindi"],"country":["IN"],"original_language":"te","genres":["Action","Crime"],"imdb_id":"tt27118258"},{"id":"1262988","type":"movie","title":"Shayar","poster":"https://image.tmdb.org/t/p/w342/o7HqylCy4h8fY0LwgzC2MeYVqET.jpg","year":"2024","result":"HD","language":["PUNJABI"],"country":["IN"],"original_language":"pa","genres":["Romance","Drama"],"imdb_id":"tt31228642"},{"id":"260203","type":"tv","title":"Shekhar Home","poster":"https://image.tmdb.org/t/p/w342/cO6Qz9R1C5rh4lGaT5YRvPc2IH3.jpg","year":"2024","result":"HD","language":["Hindi"],"country":["IN"],"original_language":"hi","genres":["Drama","Crime"],"imdb_id":"tt27411674","latest_uploaded_season":1,"total_uploaded_episodes":6},{"id":"241926","type":"tv","title":"Showtime","poster":"https://image.tmdb.org/t/p/w342/5uHhZfnAzZYzSKkZo1fpiqwsnPq.jpg","year":"2024","result":"HD","language":["Hindi"],"country":["IN"],"original_language":"hi","genres":["Drama"],"imdb_id":"tt28075268","latest_uploaded_season":1,"total_uploaded_episodes":7},{"id":"256538","type":"tv","title":"Sisterhood","poster":"https://image.tmdb.org/t/p/w342/fwzGmfPOLB5Haww8KsT32QPWgK9.jpg","year":"2024","result":"HD","language":["Hindi"],"country":["IN"],"original_language":"hi","genres":["Drama","Comedy"],"imdb_id":"tt32563122","latest_uploaded_season":1,"total_uploaded_episodes":1},{"id":"249750","type":"tv","title":"Snakes & Ladders","poster":"https://image.tmdb.org/t/p/w342/rGtTew3CcMANufZ7agwIcWqJKbP.jpg","year":"2024","result":"HD","language":["Hindi"],"country":["IN"],"original_language":"ta","genres":["Drama","Mystery"],"imdb_id":"tt31843251","latest_uploaded_season":1,"total_uploaded_episodes":9},{"id":"1093971","type":"movie","title":"Srikanth","poster":"https://image.tmdb.org/t/p/w342/nkWF1jIMQqWZSShNTAdBUqrdFsZ.jpg","year":"2024","result":"HD","language":["Hindi"],"country":["IN"],"original_language":"hi","genres":["Drama"],"imdb_id":"tt23790740"},{"id":"1274480","type":"movie","title":"Sriranga Neethulu","poster":"https://image.tmdb.org/t/p/w342/pt9rIRYd8jowOlTmJCa6sUkMTRf.jpg","year":"2024","result":"HD","language":["Hindi"],"country":["IN"],"original_language":"te","genres":["Drama"],"imdb_id":"tt30798502"},{"id":"957328","type":"movie","title":"Swatantrya Veer Savarkar","poster":"https://image.tmdb.org/t/p/w342/3MRZg94TNfdim6bnigrvUhqqoaM.jpg","year":"2024","result":"HD","language":["Hindi"],"country":["IN"],"original_language":"hi","genres":["History","Drama"],"imdb_id":"tt14753612"},{"id":"203832","type":"tv","title":"Taaza Khabar","poster":"https://image.tmdb.org/t/p/w342/zRrF8oj20lhd2jU0Yj9dg4sP5z5.jpg","year":"2024","result":"HD","language":["Hindi"],"country":["IN"],"original_language":"hi","genres":["Drama","Sci-Fi & Fantasy"],"imdb_id":"tt22014226","latest_uploaded_season":2,"total_uploaded_episodes":12},{"id":"1659972","type":"movie","title":"Tabaahi Reloaded","poster":"https://image.tmdb.org/t/p/w342/8SqEaNhcPs5EGl02SSSNXFIg3NY.jpg","year":"2024","result":"HD","language":["PUNJABI"],"country":[],"original_language":"en","genres":[],"imdb_id":"tt22208774"},{"id":"753522","type":"movie","title":"Tera Kya Hoga Lovely","poster":"https://image.tmdb.org/t/p/w342/6YyXQWbKqGjp8M4gQ8tUApPoCys.jpg","year":"2024","result":"HD","language":["Hindi"],"country":["IN","US"],"original_language":"hi","genres":["Family","Comedy","Romance"],"imdb_id":"tt13288022"},{"id":"682856","type":"movie","title":"Teriya Meriya Hera Pheriyan","poster":"https://image.tmdb.org/t/p/w342/oZBIvd8aBFV8CnSQGwEIL3QDTIu.jpg","year":"2024","result":"HD","language":["Hindi"],"country":["IN","GB"],"original_language":"pa","genres":["Drama","Comedy"],"imdb_id":"tt9219648"},{"id":"1141320","type":"movie","title":"The Family Star","poster":"https://image.tmdb.org/t/p/w342/2mLyHeWwU0Ocv9Jvk72IDqZqT7G.jpg","year":"2024","result":"HD","language":["Hindi"],"country":["IN"],"original_language":"te","genres":["Family","Romance","Comedy","Drama","Action"],"imdb_id":"tt26655108"},{"id":"472221","type":"movie","title":"The Goat Life","poster":"https://image.tmdb.org/t/p/w342/vwRkVhvJuAFz4i8udXMNkcJCztc.jpg","year":"2024","result":"HD","language":["Hindi"],"country":["IN"],"original_language":"ml","genres":["Drama","Adventure"],"imdb_id":"tt5525650"},{"id":"270823","type":"tv","title":"The Mystery of Moksha Island","poster":"https://image.tmdb.org/t/p/w342/wSqvYQ6448HO85GZcDyGJZ1uweL.jpg","year":"2024","result":"HD","language":["Hindi"],"country":["IN"],"original_language":"te","genres":["Crime"],"imdb_id":"tt33091601","latest_uploaded_season":1,"total_uploaded_episodes":8},{"id":"254035","type":"tv","title":"Tujhpe Main Fida","poster":"https://image.tmdb.org/t/p/w342/SlgKSU5zQKPRsIVsj9anOGATbD.jpg","year":"2024","result":"HD","language":["Hindi"],"country":["IN"],"original_language":"hi","genres":["Drama"],"imdb_id":"tt32324501","latest_uploaded_season":2,"total_uploaded_episodes":2},{"id":"1195394","type":"movie","title":"Turbo","poster":"https://image.tmdb.org/t/p/w342/CBRqel4Yzm8BS4fTMScYA1fQLD.jpg","year":"2024","result":"HD","language":["Hindi"],"country":["IN"],"original_language":"ml","genres":["Action","Comedy","Drama"],"imdb_id":"tt29608104"},{"id":"934214","type":"movie","title":"UmroAyyar - A New Beginning","poster":"https://image.tmdb.org/t/p/w342/zGjRkcxOEdOicVXZlyPh66KPO2z.jpg","year":"2024","result":"HD","language":["CAM RESULT"],"country":["PK"],"original_language":"ur","genres":["Action","Adventure","Fantasy","Thriller"],"imdb_id":"tt16149652"},{"id":"1151560","type":"movie","title":"Varshangalkku Shesham","poster":"https://image.tmdb.org/t/p/w342/dVLqE9aEszo8yrc8TDk3bloYHHS.jpg","year":"2024","result":"HD","language":["Hindi"],"country":["IN"],"original_language":"ml","genres":["Drama","Comedy","Romance"],"imdb_id":"tt28364355"},{"id":"1221072","type":"movie","title":"Vekhi Ja Chhedi Na","poster":"https://image.tmdb.org/t/p/w342/oXzQNIQbUo3u5QpFPAO6DZVQinA.jpg","year":"2024","result":"HD","language":["PUNJABI"],"country":["IN"],"original_language":"pa","genres":["Comedy"],"imdb_id":"tt30027921"},{"id":"255470","type":"tv","title":"Yakshini","poster":"https://image.tmdb.org/t/p/w342/pe3mkoBzaeIO9XGV3oiS7XY0a38.jpg","year":"2024","result":"HD","language":["Hindi"],"country":["IN"],"original_language":"te","genres":["Mystery","Sci-Fi & Fantasy","Comedy"],"imdb_id":"tt32468463","latest_uploaded_season":1,"total_uploaded_episodes":6},{"id":"153950","type":"tv","title":"Yeh Kaali Kaali Ankhein","poster":"https://image.tmdb.org/t/p/w342/cyHFgiRHBW3DP43x0vw2gpBpBUx.jpg","year":"2024","result":"HD","language":["Hindi"],"country":["IN"],"original_language":"hi","genres":["Crime","Drama","Mystery"],"imdb_id":"tt14160712","latest_uploaded_season":2,"total_uploaded_episodes":14},{"id":"1094662","type":"movie","title":"Yuva","poster":"https://image.tmdb.org/t/p/w342/50qZ0Sdc6vQMgVhYP0WIYaL4ryZ.jpg","year":"2024","result":"HD","language":["Hindi"],"country":["IN"],"original_language":"kn","genres":["Action","Drama","Romance"],"imdb_id":"tt24225188"},{"id":"881614","type":"movie","title":"Adbhut","poster":"https://image.tmdb.org/t/p/w342/fCH2ZriJWKamhorkhyWHtwUh1HE.jpg","year":"2024","result":"HD","language":["Hindi"],"country":["IN"],"original_language":"hi","genres":["Thriller"],"imdb_id":"tt15560952"},{"id":"1337708","type":"movie","title":"Alzheimer","poster":"https://image.tmdb.org/t/p/w342/95Wf3Zuj1NbAEm7jUnH8JyX8PM7.jpg","year":"2024","result":"HD","language":["Hindi"],"country":["IN"],"original_language":"pa","genres":["Drama","Crime"],"imdb_id":""},{"id":"927342","type":"movie","title":"Amaran","poster":"https://image.tmdb.org/t/p/w342/eCB06m1KUGilEOlIzb40nkQhVY0.jpg","year":"2024","result":"HD","language":["Hindi"],"country":["IN"],"original_language":"ta","genres":["Action","Drama","Adventure","War"],"imdb_id":"tt27118357"},{"id":"261296","type":"tv","title":"Angry Young Men","poster":"https://image.tmdb.org/t/p/w342/p9I3BhvTWxwFicFCNDm19LudevM.jpg","year":"2024","result":"HD","language":["Hindi"],"country":["IN"],"original_language":"hi","genres":["Documentary"],"imdb_id":"tt14866598","latest_uploaded_season":1,"total_uploaded_episodes":1},{"id":"1140905","type":"movie","title":"Aranmanai 4","poster":"https://image.tmdb.org/t/p/w342/k4d4RmvBVtSF8SGgTGAqPZlsOg1.jpg","year":"2024","result":"HD","language":["Hindi"],"country":["IN"],"original_language":"ta","genres":["Horror","Comedy"],"imdb_id":"tt26493971"},{"id":"1083590","type":"movie","title":"Auron Mein Kahan Dum Tha","poster":"https://image.tmdb.org/t/p/w342/cKvom4C6fGIM1sOKINkBi7oCqok.jpg","year":"2024","result":"HD","language":["Hindi"],"country":["IN"],"original_language":"hi","genres":["Romance","Drama","Action"],"imdb_id":"tt26659814"},{"id":"984101","type":"movie","title":"Bad Newz","poster":"https://image.tmdb.org/t/p/w342/qDlqxGATpYBWqGciPB4tmQm3bFT.jpg","year":"2024","result":"HD","language":["Hindi"],"country":["IN"],"original_language":"hi","genres":["Comedy","Romance","Drama"],"imdb_id":"tt24517830"},{"id":"1365994","type":"movie","title":"Bal Naren","poster":"https://image.tmdb.org/t/p/w342/tHOhGS1H3QqYxGDDKZhAbTWkhol.jpg","year":"2024","result":"HD","language":["Hindi"],"country":["IN"],"original_language":"hi","genres":["Drama"],"imdb_id":"tt16737190"},{"id":"1226886","type":"movie","title":"Bhimaa","poster":"https://image.tmdb.org/t/p/w342/fdaob8wA5SkeGnKA0LrpWb14TFy.jpg","year":"2024","result":"HD","language":["Hindi"],"country":["IN"],"original_language":"te","genres":["Action","Fantasy"],"imdb_id":"tt26997803"}]}