{"page":55,"total_pages":66,"total_items":3272,"items":[{"id":"680956","type":"movie","title":"Chal Mera Putt 2","poster":"https://image.tmdb.org/t/p/w342/nz1EnqItS3KmeRnRiuWjONnrNVE.jpg","year":"2020","result":"HD","language":["Hindi"],"country":["IN"],"original_language":"pa","genres":["Comedy","Drama"],"imdb_id":"tt11737772"},{"id":"668391","type":"movie","title":"Seeru","poster":"https://image.tmdb.org/t/p/w342/4sK86QGqPib9rq3Ux8DcUVCkQRj.jpg","year":"2020","result":"HD","language":["Hindi"],"country":[],"original_language":"ta","genres":["Action","Drama"],"imdb_id":"tt10022990"},{"id":"663459","type":"movie","title":"Jungle Beat: The Movie","poster":"https://image.tmdb.org/t/p/w342/cgC67SOxd9xkjN4Bnvjtuj1vI8T.jpg","year":"2020","result":"HD","language":["Hindi"],"country":["MU"],"original_language":"en","genres":["Family","Animation","Science Fiction","Comedy"],"imdb_id":"tt12139700"},{"id":"641501","type":"movie","title":"How I Became a Superhero","poster":"https://image.tmdb.org/t/p/w342/d0wn9YtEnmbucx8ZUsT918ctoiK.jpg","year":"2020","result":"HD","language":["Hindi"],"country":["FR"],"original_language":"fr","genres":["Science Fiction","Adventure","Action","Comedy","Thriller"],"imdb_id":"tt10345590"},{"id":"615677","type":"movie","title":"We Can Be Heroes","poster":"https://image.tmdb.org/t/p/w342/1S21HpcKY6uQ9UAw68aICmrJaq6.jpg","year":"2020","result":"HD","language":["Hindi"],"country":["US"],"original_language":"en","genres":["Family","Action","Fantasy","Comedy"],"imdb_id":"tt10600398"},{"id":"615466","type":"movie","title":"All Together Now","poster":"https://image.tmdb.org/t/p/w342/4QIpIHoYdlt9ekD6mSIxe0FylpR.jpg","year":"2020","result":"HD","language":["Hindi"],"country":["US"],"original_language":"en","genres":["Drama"],"imdb_id":"tt3155342"},{"id":"614560","type":"movie","title":"Mank","poster":"https://image.tmdb.org/t/p/w342/4yzTcAtvzyZLLto4z04xobUK9el.jpg","year":"2020","result":"HD","language":["Hindi"],"country":["US"],"original_language":"en","genres":["Drama","History"],"imdb_id":"tt10618286"},{"id":"611213","type":"movie","title":"The Prom","poster":"https://image.tmdb.org/t/p/w342/9oHvqd1QL5kaqt6zmCuDmM8esjV.jpg","year":"2020","result":"HD","language":["Hindi"],"country":["US"],"original_language":"en","genres":["Romance","Comedy"],"imdb_id":"tt10161886"},{"id":"604362","type":"movie","title":"Hitman: Agent Jun","poster":"https://image.tmdb.org/t/p/w342/dAt3nolyXLEEuXiIXZwv1iikbcA.jpg","year":"2020","result":"HD","language":["Hindi"],"country":["KR"],"original_language":"ko","genres":["Action","Comedy"],"imdb_id":"tt11649614"},{"id":"597219","type":"movie","title":"The Half of It","poster":"https://image.tmdb.org/t/p/w342/jC1PNXGET1ZZQyrJvdFhPfXdPP1.jpg","year":"2020","result":"HD","language":["Hindi"],"country":["US"],"original_language":"en","genres":["Comedy","Romance","Drama"],"imdb_id":"tt9683478"},{"id":"595601","type":"movie","title":"Darkness in Tenement 45","poster":"https://image.tmdb.org/t/p/w342/tdzeisUZTQar9qSKS9Wsljmc6b4.jpg","year":"2020","result":"HD","language":["Hindi"],"country":["US"],"original_language":"en","genres":["Thriller","Drama","Horror"],"imdb_id":"tt6806766"},{"id":"589615","type":"movie","title":"Raat Akeli Hai","poster":"https://image.tmdb.org/t/p/w342/lQPWcvQiv1D1xBlpnn5o0hepXkX.jpg","year":"2020","result":"HD","language":["Hindi"],"country":["IN"],"original_language":"hi","genres":["Crime","Mystery","Thriller"],"imdb_id":"tt12567088"},{"id":"581392","type":"movie","title":"Peninsula","poster":"https://image.tmdb.org/t/p/w342/eeqvAzCccAZOhU3RfbvHB3s44S6.jpg","year":"2020","result":"HD","language":["Hindi"],"country":["KR"],"original_language":"ko","genres":["Horror","Action","Thriller","Adventure"],"imdb_id":"tt8850222"},{"id":"524047","type":"movie","title":"Greenland","poster":"https://image.tmdb.org/t/p/w342/bNo2mcvSwIvnx8K6y1euAc1TLVq.jpg","year":"2020","result":"HD","language":["Hindi"],"country":["GB","US"],"original_language":"en","genres":["Action","Adventure","Thriller","Science Fiction"],"imdb_id":"tt7737786"},{"id":"474764","type":"movie","title":"The Lodge","poster":"https://image.tmdb.org/t/p/w342/yake2myhbW7c6dKbmwYDy1i40bm.jpg","year":"2020","result":"HD","language":["Hindi"],"country":["GB","US"],"original_language":"en","genres":["Horror","Drama","Mystery","Thriller"],"imdb_id":"tt7347846"},{"id":"466622","type":"movie","title":"The Rhythm Section","poster":"https://image.tmdb.org/t/p/w342/spTr0VYyRtl36Lkk6nCnnbFXhus.jpg","year":"2020","result":"HD","language":["Hindi"],"country":["ES","GB","US"],"original_language":"en","genres":["Action","Thriller"],"imdb_id":"tt7134096"},{"id":"114029","type":"tv","title":"Eternal Love Rain","poster":"https://image.tmdb.org/t/p/w342/dQWyDNlkLM8jMyDc4GJYl4mDBMY.jpg","year":"2020","result":"HD","language":["Hindi"],"country":["CN"],"original_language":"zh","genres":["Drama"],"imdb_id":"tt13298236","latest_uploaded_season":1,"total_uploaded_episodes":10},{"id":"112706","type":"tv","title":"Cheat On Me, If You Can","poster":"https://image.tmdb.org/t/p/w342/5nUrDZeZzJSXiY4eRJEg45TYavs.jpg","year":"2020","result":"HD","language":["Hindi"],"country":["KR"],"original_language":"ko","genres":["Comedy","Mystery"],"imdb_id":"tt13092070","latest_uploaded_season":1,"total_uploaded_episodes":16},{"id":"112280","type":"tv","title":"Begin Again","poster":"https://image.tmdb.org/t/p/w342/jKI1eCz4rTcN9wI1HRhXVRwhHiY.jpg","year":"2020","result":"HD","language":["Hindi"],"country":["CN"],"original_language":"zh","genres":["Drama","Comedy"],"imdb_id":"tt12256822","latest_uploaded_season":1,"total_uploaded_episodes":35},{"id":"112119","type":"tv","title":"Kairos","poster":"https://image.tmdb.org/t/p/w342/cnThovHCzJ2YoKrZ0oBBZfkd26j.jpg","year":"2020","result":"HD","language":["Hindi"],"country":["KR"],"original_language":"ko","genres":["Action & Adventure","Crime","Drama","Sci-Fi & Fantasy"],"imdb_id":"tt12874950","latest_uploaded_season":1,"total_uploaded_episodes":32},{"id":"110966","type":"tv","title":"Perfect and Casual","poster":"https://image.tmdb.org/t/p/w342/hcuxSkKXkBgHlSJWPTDy9m9vDzI.jpg","year":"2020","result":"HD","language":["Hindi"],"country":["CN"],"original_language":"zh","genres":["Comedy","Drama"],"imdb_id":"tt13161710","latest_uploaded_season":1,"total_uploaded_episodes":24},{"id":"110267","type":"tv","title":"Strange School Tales","poster":"https://image.tmdb.org/t/p/w342/hGnY0ZVm8GuuQSsR49ENQW8OiOt.jpg","year":"2020","result":"HD","language":["Hindi"],"country":["KR"],"original_language":"ko","genres":["Drama","Mystery","Crime"],"imdb_id":"tt13094066","latest_uploaded_season":1,"total_uploaded_episodes":12},{"id":"107393","type":"tv","title":"Twenty-Twenty","poster":"https://image.tmdb.org/t/p/w342/5iX4K96n5oRLK6q27fXzU3qn7Wu.jpg","year":"2020","result":"HD","language":["Hindi"],"country":["KR"],"original_language":"ko","genres":["Drama"],"imdb_id":"tt13080612","latest_uploaded_season":1,"total_uploaded_episodes":20},{"id":"106935","type":"tv","title":"Kiss Goblin","poster":"https://image.tmdb.org/t/p/w342/1cRHbcm77dBvqMGvHOJgjziteqZ.jpg","year":"2020","result":"HD","language":["Hindi"],"country":["KR"],"original_language":"ko","genres":["Comedy","Drama","Sci-Fi & Fantasy"],"imdb_id":"tt14212332","latest_uploaded_season":1,"total_uploaded_episodes":12},{"id":"104308","type":"tv","title":"She Knows Everything","poster":"https://image.tmdb.org/t/p/w342/pYbaPdAN3M5FJ6IFLJCoAwjUTBM.jpg","year":"2020","result":"HD","language":["Hindi"],"country":["KR"],"original_language":"ko","genres":["Crime","Mystery"],"imdb_id":"tt12538770","latest_uploaded_season":1,"total_uploaded_episodes":8},{"id":"104083","type":"tv","title":"I Don't Want to Be Friends with You","poster":"https://image.tmdb.org/t/p/w342/f9CzGlSYTIgYQEdeI2pBSH4O1ok.jpg","year":"2020","result":"HD","language":["Hindi"],"country":["CN"],"original_language":"zh","genres":["Comedy","Drama"],"imdb_id":"tt12357086","latest_uploaded_season":1,"total_uploaded_episodes":24},{"id":"103469","type":"tv","title":"My Love, Enlighten Me","poster":"https://image.tmdb.org/t/p/w342/o2ov4gmKnYJ9GIopeDbwGwzwwo0.jpg","year":"2020","result":"HD","language":["Hindi"],"country":["CN"],"original_language":"zh","genres":["Comedy","Drama"],"imdb_id":"tt12274642","latest_uploaded_season":1,"total_uploaded_episodes":24},{"id":"101243","type":"tv","title":"Oh My Baby","poster":"https://image.tmdb.org/t/p/w342/83H0ji4wWHVngwQ1EdxhwHZymvq.jpg","year":"2020","result":"HD","language":["Hindi"],"country":["KR"],"original_language":"ko","genres":["Family","Drama","Comedy"],"imdb_id":"tt12324660","latest_uploaded_season":1,"total_uploaded_episodes":16},{"id":"99654","type":"tv","title":"18 Again","poster":"https://image.tmdb.org/t/p/w342/AwoC5PiNdi1RZTZTgOGGdHqCzrC.jpg","year":"2020","result":"HD","language":["Hindi"],"country":["KR"],"original_language":"ko","genres":["Drama","Comedy","Sci-Fi & Fantasy"],"imdb_id":"tt12846096","latest_uploaded_season":1,"total_uploaded_episodes":16},{"id":"99048","type":"tv","title":"Start-Up","poster":"https://image.tmdb.org/t/p/w342/hxJQ3A2wtreuWDnVBbzzXI3YlOE.jpg","year":"2020","result":"HD","language":["Hindi"],"country":["KR"],"original_language":"ko","genres":["Drama","Comedy"],"imdb_id":"tt12867810","latest_uploaded_season":1,"total_uploaded_episodes":16},{"id":"96462","type":"tv","title":"It's Okay to Not Be Okay","poster":"https://image.tmdb.org/t/p/w342/8XSJfLeImX8NszDUFnK1lbseCi8.jpg","year":"2020","result":"HD","language":["Hindi"],"country":["KR"],"original_language":"ko","genres":["Drama","Comedy"],"imdb_id":"tt12451520","latest_uploaded_season":1,"total_uploaded_episodes":25},{"id":"96316","type":"tv","title":"Rent-a-Girlfriend","poster":"https://image.tmdb.org/t/p/w342/6ZpDPUNtVw6UdJoStvVlRZ62yAi.jpg","year":"2020","result":"HD","language":["Hindi"],"country":["JP"],"original_language":"ja","genres":["Animation","Comedy"],"imdb_id":"tt11448214","latest_uploaded_season":1,"total_uploaded_episodes":0},{"id":"96162","type":"tv","title":"Itaewon Class","poster":"https://image.tmdb.org/t/p/w342/qg7q0piY0fTt2enlIRHwKKRwNjS.jpg","year":"2020","result":"HD","language":["Hindi"],"country":["KR"],"original_language":"ko","genres":["Drama"],"imdb_id":"tt11239552","latest_uploaded_season":1,"total_uploaded_episodes":16},{"id":"95479","type":"tv","title":"JUJUTSU KAISEN","poster":"https://image.tmdb.org/t/p/w342/fHpKWq9ayzSk8nSwqRuaAUemRKh.jpg","year":"2020","result":"HD","language":["Hindi"],"country":["JP"],"original_language":"ja","genres":["Animation","Action & Adventure","Sci-Fi & Fantasy"],"imdb_id":"tt12343534","latest_uploaded_season":1,"total_uploaded_episodes":52},{"id":"93826","type":"tv","title":"October Faction","poster":"https://image.tmdb.org/t/p/w342/7yrXh19tH2ThJHXriORT16WKbBi.jpg","year":"2020","result":"HD","language":["Hindi"],"country":["US"],"original_language":"en","genres":["Sci-Fi & Fantasy","Drama"],"imdb_id":"tt8826128","latest_uploaded_season":1,"total_uploaded_episodes":10},{"id":"81241","type":"tv","title":"Dispatches from Elsewhere","poster":"https://image.tmdb.org/t/p/w342/kWskCna5DnRutdc66XERYFGek5s.jpg","year":"2020","result":"HD","language":["Hindi"],"country":["US"],"original_language":"en","genres":["Drama","Mystery"],"imdb_id":"tt8965666","latest_uploaded_season":1,"total_uploaded_episodes":10},{"id":"543540","type":"movie","title":"The Perfect Date","poster":"https://image.tmdb.org/t/p/w342/rrAYdezO3h1mjdYTaQyTXoj8IZ4.jpg","year":"2019","result":"HD","language":["Hindi"],"country":["US"],"original_language":"en","genres":["Romance","Comedy"],"imdb_id":"tt8201170"},{"id":"1399","type":"tv","title":"Game of Thrones","poster":"https://image.tmdb.org/t/p/w342/1XS1oqL89opfnbLl8WnZY1O1uJx.jpg","year":"2019","result":"HD","language":["Hindi"],"country":["US"],"original_language":"en","genres":["Sci-Fi & Fantasy","Drama","Action & Adventure"],"imdb_id":"tt0944947","latest_uploaded_season":8,"total_uploaded_episodes":73},{"id":"38472","type":"tv","title":"Marvel's Jessica Jones","poster":"https://image.tmdb.org/t/p/w342/1ghmaDw650NuUpGI7mYq6xE2QE2.jpg","year":"2019","result":"HD","language":["Hindi"],"country":["US"],"original_language":"en","genres":["Sci-Fi & Fantasy","Drama"],"imdb_id":"tt2357547","latest_uploaded_season":3,"total_uploaded_episodes":39},{"id":"79070","type":"tv","title":"Partners for Justice","poster":"https://image.tmdb.org/t/p/w342/lPU34PKrjJNISguneRdAB7zQfTj.jpg","year":"2019","result":"HD","language":["Hindi"],"country":["KR"],"original_language":"ko","genres":["Drama","Mystery","Crime"],"imdb_id":"tt8243374","latest_uploaded_season":2,"total_uploaded_episodes":64},{"id":"44217","type":"tv","title":"Vikings","poster":"https://image.tmdb.org/t/p/w342/bQLrHIRNEkE3PdIWQrZHynQZazu.jpg","year":"2019","result":"HD","language":["Hindi"],"country":["CA"],"original_language":"en","genres":["Action & Adventure","Drama","War & Politics"],"imdb_id":"tt2306299","latest_uploaded_season":6,"total_uploaded_episodes":89},{"id":"33217","type":"tv","title":"Young Justice","poster":"https://image.tmdb.org/t/p/w342/zMJw34G4OJhcd9NjKSRjJdDqjbR.jpg","year":"2019","result":"HD","language":["Hindi"],"country":["US"],"original_language":"en","genres":["Animation","Sci-Fi & Fantasy","Action & Adventure"],"imdb_id":"tt1641384","latest_uploaded_season":3,"total_uploaded_episodes":72},{"id":"87299","type":"tv","title":"I Hear You","poster":"https://image.tmdb.org/t/p/w342/2wVMh3vqvt1IgAhextxwUKxaOAH.jpg","year":"2019","result":"HD","language":["Hindi"],"country":["CN"],"original_language":"zh","genres":["Drama"],"imdb_id":"tt10327440","latest_uploaded_season":1,"total_uploaded_episodes":24},{"id":"94838","type":"tv","title":"My Neighbour Can't Sleep","poster":"https://image.tmdb.org/t/p/w342/oYERaVqgXZkYs7BEPduNQDlHogM.jpg","year":"2019","result":"HD","language":["Hindi"],"country":["CN"],"original_language":"zh","genres":["Comedy","Drama"],"imdb_id":"","latest_uploaded_season":1,"total_uploaded_episodes":24},{"id":"88783","type":"tv","title":"The Secret Life of My Secretary","poster":"https://image.tmdb.org/t/p/w342/7owGMGmnlx2EMEm3yFPQ03C0zjr.jpg","year":"2019","result":"HD","language":["Hindi"],"country":["KR"],"original_language":"ko","genres":["Comedy"],"imdb_id":"tt10101272","latest_uploaded_season":1,"total_uploaded_episodes":16},{"id":"90720","type":"tv","title":"Be Melodramatic","poster":"https://image.tmdb.org/t/p/w342/fdPc2MoU8Cm87R3kYw1Hul0Dy76.jpg","year":"2019","result":"HD","language":["Hindi"],"country":["KR"],"original_language":"ko","genres":["Comedy","Drama"],"imdb_id":"tt10559276","latest_uploaded_season":1,"total_uploaded_episodes":16},{"id":"87398","type":"tv","title":"Hello Again!","poster":"https://image.tmdb.org/t/p/w342/u6whLrXrDrYU8SquPWEBC1DAQI6.jpg","year":"2019","result":"HD","language":["Hindi"],"country":["TW"],"original_language":"zh","genres":["Comedy","Drama"],"imdb_id":"tt11323558","latest_uploaded_season":1,"total_uploaded_episodes":26},{"id":"95212","type":"tv","title":"Love with Flaws","poster":"https://image.tmdb.org/t/p/w342/eq4ITUNT2SJTGuUkxO2aHyGyO96.jpg","year":"2019","result":"HD","language":["Hindi"],"country":["KR"],"original_language":"ko","genres":["Comedy"],"imdb_id":"tt11227980","latest_uploaded_season":1,"total_uploaded_episodes":16},{"id":"591101","type":"movie","title":"Mardaani 2","poster":"https://image.tmdb.org/t/p/w342/1oChaDVWUy5tfpKRYTPzrJxp3YC.jpg","year":"2019","result":"HD","language":["Hindi"],"country":["IN"],"original_language":"hi","genres":["Action","Crime","Thriller"],"imdb_id":"tt5668770"},{"id":"95015","type":"tv","title":"The Witch Store","poster":"https://image.tmdb.org/t/p/w342/4t66kig9TOKwzzEswRVvi4eAgBD.jpg","year":"2019","result":"HD","language":["Hindi"],"country":["KR"],"original_language":"ko","genres":["Sci-Fi & Fantasy","Drama"],"imdb_id":"","latest_uploaded_season":1,"total_uploaded_episodes":12}]}