{"page":59,"total_pages":66,"total_items":3272,"items":[{"id":"437109","type":"movie","title":"The Villainess","poster":"https://image.tmdb.org/t/p/w342/tJlOV2SU6qTxR540H9VtoCAOVm.jpg","year":"2017","result":"HD","language":["Hindi"],"country":["KR"],"original_language":"ko","genres":["Action","Thriller"],"imdb_id":"tt6777338"},{"id":"382614","type":"movie","title":"The Book of Henry","poster":"https://image.tmdb.org/t/p/w342/suLFg4UjvM5BoDipg2Wu3gZ802T.jpg","year":"2017","result":"HD","language":["Hindi"],"country":["US"],"original_language":"en","genres":["Drama","Thriller","Mystery"],"imdb_id":"tt4572792"},{"id":"346364","type":"movie","title":"It","poster":"https://image.tmdb.org/t/p/w342/9E2y5Q7WlCVNEhP5GiVTjhEhx1o.jpg","year":"2017","result":"HD","language":["Hindi"],"country":["US"],"original_language":"en","genres":["Horror","Thriller","Drama"],"imdb_id":"tt1396484"},{"id":"334521","type":"movie","title":"Free Fire","poster":"https://image.tmdb.org/t/p/w342/olpgs0OPE8sdBGcuuWhKYzxAwN4.jpg","year":"2017","result":"HD","language":["Hindi"],"country":["GB"],"original_language":"en","genres":["Action","Crime","Mystery"],"imdb_id":"tt4158096"},{"id":"74785","type":"tv","title":"Two Cops","poster":"https://image.tmdb.org/t/p/w342/eOxQhCu8tSXDhbfkTlny3dgLjnA.jpg","year":"2017","result":"HD","language":["Hindi"],"country":["KR"],"original_language":"ko","genres":["Comedy","Mystery"],"imdb_id":"tt7525432","latest_uploaded_season":1,"total_uploaded_episodes":16},{"id":"74064","type":"tv","title":"Go Back Couple","poster":"https://image.tmdb.org/t/p/w342/2OzDKStSL3oGKQMlASeqvCFZsHz.jpg","year":"2017","result":"HD","language":["Hindi"],"country":["KR"],"original_language":"ko","genres":["Comedy","Sci-Fi & Fantasy"],"imdb_id":"tt7418578","latest_uploaded_season":1,"total_uploaded_episodes":12},{"id":"73223","type":"tv","title":"Black Clover","poster":"https://image.tmdb.org/t/p/w342/kaMisKeOoTBPxPkbC3OW7Wgt6ON.jpg","year":"2017","result":"HD","language":["Hindi"],"country":["JP"],"original_language":"ja","genres":["Animation","Action & Adventure","Sci-Fi & Fantasy"],"imdb_id":"tt7441658","latest_uploaded_season":1,"total_uploaded_episodes":51},{"id":"71693","type":"tv","title":"Blood Drive","poster":"https://image.tmdb.org/t/p/w342/qB9PBQMyKrp8diKGxVpfayKZbgd.jpg","year":"2017","result":"HD","language":["Hindi"],"country":["US"],"original_language":"en","genres":["Drama","Sci-Fi & Fantasy"],"imdb_id":"tt4898282","latest_uploaded_season":1,"total_uploaded_episodes":13},{"id":"71349","type":"tv","title":"Suspicious Partner","poster":"https://image.tmdb.org/t/p/w342/e5ytMZlkGlVWtxSoLypobMaqZEO.jpg","year":"2017","result":"HD","language":["Hindi"],"country":["KR"],"original_language":"ko","genres":["Comedy","Crime","Drama"],"imdb_id":"tt6720154","latest_uploaded_season":1,"total_uploaded_episodes":40},{"id":"70813","type":"tv","title":"Fight for My Way","poster":"https://image.tmdb.org/t/p/w342/55w33JzFKBkz1evjBjqeF0enDd1.jpg","year":"2017","result":"HD","language":["Hindi"],"country":["KR"],"original_language":"ko","genres":["Comedy","Drama"],"imdb_id":"tt6824234","latest_uploaded_season":1,"total_uploaded_episodes":16},{"id":"70195","type":"tv","title":"Radiant Office","poster":"https://image.tmdb.org/t/p/w342/5cpANNfhpYNfPxvUNmQyvtMVTkQ.jpg","year":"2017","result":"HD","language":["Hindi"],"country":["KR"],"original_language":"ko","genres":["Comedy","Drama"],"imdb_id":"tt6464184","latest_uploaded_season":1,"total_uploaded_episodes":16},{"id":"68891","type":"tv","title":"Missing Nine","poster":"https://image.tmdb.org/t/p/w342/e64mWY8t1WoTaab2LRQi59QN6b.jpg","year":"2017","result":"HD","language":["Hindi"],"country":["KR"],"original_language":"ko","genres":["Comedy","Drama","Mystery"],"imdb_id":"tt6237588","latest_uploaded_season":1,"total_uploaded_episodes":16},{"id":"68814","type":"tv","title":"Strong Woman Do Bong-Soon","poster":"https://image.tmdb.org/t/p/w342/sPdS6oUdXfBNGKROE5RY5s5laqx.jpg","year":"2017","result":"HD","language":["Hindi"],"country":["KR"],"original_language":"ko","genres":["Comedy","Action & Adventure","Drama"],"imdb_id":"tt6263222","latest_uploaded_season":1,"total_uploaded_episodes":16},{"id":"402446","type":"movie","title":"Edge of Winter","poster":"https://image.tmdb.org/t/p/w342/mgvdyOJV1Xv6XzhENFphtyW9XVV.jpg","year":"2016","result":"HD","language":["Hindi"],"country":["US","CA"],"original_language":"en","genres":["Drama","Thriller"],"imdb_id":"tt4526546"},{"id":"323675","type":"movie","title":"Ride Along 2","poster":"https://image.tmdb.org/t/p/w342/qKvVUHdiwqkXdlRsW4fHO7SAZef.jpg","year":"2016","result":"HD","language":["Hindi"],"country":["US"],"original_language":"en","genres":["Action","Comedy"],"imdb_id":"tt2869728"},{"id":"61550","type":"tv","title":"Marvel's Agent Carter","poster":"https://image.tmdb.org/t/p/w342/fe79VYyLp5ZBstpJ4oukpuUT3B.jpg","year":"2016","result":"HD","language":["Hindi"],"country":["US"],"original_language":"en","genres":["Drama","Sci-Fi & Fantasy"],"imdb_id":"tt3475734","latest_uploaded_season":2,"total_uploaded_episodes":18},{"id":"69051","type":"tv","title":"Best Lover","poster":"https://image.tmdb.org/t/p/w342/yn0MIfncUAtJoOOFpgmLKTJxNWC.jpg","year":"2016","result":"HD","language":["Hindi"],"country":["CN"],"original_language":"zh","genres":["Drama"],"imdb_id":"tt9874364","latest_uploaded_season":1,"total_uploaded_episodes":12},{"id":"66349","type":"tv","title":"My Amazing Boyfriend","poster":"https://image.tmdb.org/t/p/w342/wt4Ly5TYLpdwWshE5UJabfMSEhm.jpg","year":"2016","result":"HD","language":["Hindi"],"country":["CN"],"original_language":"zh","genres":["Sci-Fi & Fantasy","Comedy"],"imdb_id":"tt6227258","latest_uploaded_season":1,"total_uploaded_episodes":28},{"id":"66431","type":"tv","title":"Beautiful Gong Shim","poster":"https://image.tmdb.org/t/p/w342/peO3vXCws2bD7xz2rWxgJ1CHYC1.jpg","year":"2016","result":"HD","language":["Hindi"],"country":["KR"],"original_language":"ko","genres":["Comedy","Drama"],"imdb_id":"tt5705896","latest_uploaded_season":1,"total_uploaded_episodes":20},{"id":"343611","type":"movie","title":"Jack Reacher: Never Go Back","poster":"https://image.tmdb.org/t/p/w342/cOg3UT2NYWHZxp41vpxAnVCOC4M.jpg","year":"2016","result":"HD","language":["Hindi"],"country":["CN","US"],"original_language":"en","genres":["Action","Thriller","Drama","Crime"],"imdb_id":"tt3393786"},{"id":"422576","type":"movie","title":"Will You Be There","poster":"https://image.tmdb.org/t/p/w342/mFyWyuZ7H0cqxwGH8H3DgQbsbEj.jpg","year":"2016","result":"HD","language":["Hindi"],"country":["KR"],"original_language":"ko","genres":["Drama","Fantasy"],"imdb_id":"tt6434022"},{"id":"66393","type":"tv","title":"Bring It On, Ghost","poster":"https://image.tmdb.org/t/p/w342/6tPDqJOnOPDwYv2CN7OPE29UoS.jpg","year":"2016","result":"HD","language":["Hindi"],"country":["KR"],"original_language":"ko","genres":["Drama","Mystery","Sci-Fi & Fantasy"],"imdb_id":"tt5768840","latest_uploaded_season":1,"total_uploaded_episodes":16},{"id":"69010","type":"tv","title":"Nakee","poster":"https://image.tmdb.org/t/p/w342/niuXZ0sE0wGKxSsvNnrUduNKzPn.jpg","year":"2016","result":"HD","language":["Hindi"],"country":["TH"],"original_language":"th","genres":["Drama","Action & Adventure","Sci-Fi & Fantasy"],"imdb_id":"","latest_uploaded_season":1,"total_uploaded_episodes":11},{"id":"65187","type":"tv","title":"One More Happy Ending","poster":"https://image.tmdb.org/t/p/w342/i4ZrXTE2z48MCzBtRuBbFHb5jTi.jpg","year":"2016","result":"HD","language":["Hindi"],"country":["KR"],"original_language":"ko","genres":["Comedy","Drama","Family"],"imdb_id":"tt5445338","latest_uploaded_season":1,"total_uploaded_episodes":32},{"id":"67272","type":"tv","title":"Shopaholic Louis","poster":"https://image.tmdb.org/t/p/w342/dxXgYXjBPr19ylM0f8kuY3bn8fM.jpg","year":"2016","result":"HD","language":["Hindi"],"country":["KR"],"original_language":"ko","genres":["Comedy","Drama"],"imdb_id":"tt5994306","latest_uploaded_season":1,"total_uploaded_episodes":16},{"id":"68349","type":"tv","title":"Weightlifting Fairy Kim Bok-joo","poster":"https://image.tmdb.org/t/p/w342/iLF6Jz6nL8uD8jKo6EvQ3XutDcR.jpg","year":"2016","result":"HD","language":["Hindi"],"country":["KR"],"original_language":"ko","genres":["Comedy","Drama"],"imdb_id":"tt6157148","latest_uploaded_season":1,"total_uploaded_episodes":16},{"id":"66271","type":"tv","title":"Lucky Romance","poster":"https://image.tmdb.org/t/p/w342/hH8nO4YuXMlNBJBYJ6iEmzwQqwD.jpg","year":"2016","result":"HD","language":["Hindi"],"country":["KR"],"original_language":"ko","genres":["Comedy"],"imdb_id":"tt5646500","latest_uploaded_season":1,"total_uploaded_episodes":16},{"id":"318781","type":"movie","title":"Colonia","poster":"https://image.tmdb.org/t/p/w342/p7oGFkMGaQR27R1olN9RoMzg4vS.jpg","year":"2016","result":"HD","language":["Hindi"],"country":["DE","LU","GB","FR"],"original_language":"de","genres":["Drama","History"],"imdb_id":"tt4005402"},{"id":"308529","type":"movie","title":"Kickboxer: Vengeance","poster":"https://image.tmdb.org/t/p/w342/9suFyXDE1MhZ8I8tuhmTd0fJ7G8.jpg","year":"2016","result":"HD","language":["Hindi"],"country":["US"],"original_language":"en","genres":["Action","Drama"],"imdb_id":"tt3082898"},{"id":"399173","type":"movie","title":"The Assignment","poster":"https://image.tmdb.org/t/p/w342/3wx83iGCATiIAyrZHI6AeeNfiAT.jpg","year":"2016","result":"HD","language":["Hindi"],"country":["US","FR"],"original_language":"en","genres":["Action","Crime","Thriller"],"imdb_id":"tt5034474"},{"id":"308453","type":"movie","title":"The Bronze","poster":"https://image.tmdb.org/t/p/w342/Ah2nD3Kml59svErVsz6DUsxlJ8.jpg","year":"2016","result":"HD","language":["Hindi"],"country":["US"],"original_language":"en","genres":["Drama","Comedy"],"imdb_id":"tt3859304"},{"id":"300673","type":"movie","title":"The Finest Hours","poster":"https://image.tmdb.org/t/p/w342/6UG91TJ4DKI6FGdqXZfDBeRZHX8.jpg","year":"2016","result":"HD","language":["Hindi"],"country":["US"],"original_language":"en","genres":["Action","Drama","History","Thriller"],"imdb_id":"tt2025690"},{"id":"95488","type":"tv","title":"Locust","poster":"https://image.tmdb.org/t/p/w342/aFLyXgEDev89ykpHcwQfI6KXKjs.jpg","year":"2016","result":"HD","language":["Hindi"],"country":["RU"],"original_language":"ru","genres":["Drama","Crime"],"imdb_id":"","latest_uploaded_season":1,"total_uploaded_episodes":4},{"id":"62699","type":"tv","title":"The Young Pope","poster":"https://image.tmdb.org/t/p/w342/pH3u38DXGoeGUU86ZwJrFGBEPiQ.jpg","year":"2016","result":"HD","language":["Hindi"],"country":["IT"],"original_language":"it","genres":["Drama"],"imdb_id":"tt3655448","latest_uploaded_season":1,"total_uploaded_episodes":10},{"id":"419446","type":"movie","title":"Tiger, Blood in the Mouth","poster":"https://image.tmdb.org/t/p/w342/tMtWyyyJRHlh32d0VnXSIFImpsr.jpg","year":"2016","result":"HD","language":["Hindi"],"country":["AR","IT"],"original_language":"es","genres":["Drama"],"imdb_id":"tt4791322"},{"id":"410432","type":"movie","title":"Aandavan Kattalai","poster":"https://image.tmdb.org/t/p/w342/rtythafvdg795tzwR4jeBMmonkL.jpg","year":"2016","result":"HD","language":["Hindi"],"country":["IN"],"original_language":"ta","genres":["Action","Drama","Romance"],"imdb_id":"tt6076366"},{"id":"433819","type":"movie","title":"Beyond Redemption","poster":"https://image.tmdb.org/t/p/w342/bms90luw8wFh11IddXdKjiK2Ky2.jpg","year":"2016","result":"HD","language":["Hindi"],"country":["CA"],"original_language":"en","genres":["Action"],"imdb_id":"tt4059112"},{"id":"418691","type":"movie","title":"Shadows of the Dead","poster":"https://image.tmdb.org/t/p/w342/lwdUaNK2gAZbm2ZYUrwlwreZjBA.jpg","year":"2016","result":"HD","language":["Hindi"],"country":["US"],"original_language":"en","genres":["Horror"],"imdb_id":"tt6149120"},{"id":"417636","type":"movie","title":"Bambukat","poster":"https://image.tmdb.org/t/p/w342/klK3kCAaPHzSUUyc4pma6XKU8sm.jpg","year":"2016","result":"HD","language":["Hindi"],"country":["IN"],"original_language":"pa","genres":["Drama","Comedy"],"imdb_id":"tt5929890"},{"id":"416777","type":"movie","title":"Viking Legacy","poster":"https://image.tmdb.org/t/p/w342/lMPPPBTgsDLPRtKz56KehsFEHO7.jpg","year":"2016","result":"HD","language":["Hindi"],"country":["GB"],"original_language":"en","genres":["Action","Adventure"],"imdb_id":"tt5555554"},{"id":"411442","type":"movie","title":"Time Raiders","poster":"https://image.tmdb.org/t/p/w342/qtbJL3pWPJIO8KGqZpRLEn4jmQp.jpg","year":"2016","result":"HD","language":["Hindi"],"country":["CN","HK"],"original_language":"zh","genres":["Action","Adventure","Fantasy"],"imdb_id":"tt5354664"},{"id":"400649","type":"movie","title":"Attack of the Killer Donuts","poster":"https://image.tmdb.org/t/p/w342/jYvWEvt9k2Zn2g5kCjicu51E6Pt.jpg","year":"2016","result":"HD","language":["Hindi"],"country":["US"],"original_language":"en","genres":["Comedy","Horror"],"imdb_id":"tt4480398"},{"id":"396535","type":"movie","title":"Train to Busan","poster":"https://image.tmdb.org/t/p/w342/vNVFt6dtcqnI7hqa6LFBUibuFiw.jpg","year":"2016","result":"HD","language":["Hindi"],"country":["KR"],"original_language":"ko","genres":["Horror","Thriller","Action","Adventure"],"imdb_id":"tt5700672"},{"id":"394078","type":"movie","title":"Santa Banta Pvt Ltd","poster":"https://image.tmdb.org/t/p/w342/qjzYPHUUlNQ5taFTnBN1iUHm3bE.jpg","year":"2016","result":"HD","language":["Hindi"],"country":["IN"],"original_language":"hi","genres":["Action","Comedy"],"imdb_id":"tt2909396"},{"id":"391757","type":"movie","title":"Never Back Down: No Surrender","poster":"https://image.tmdb.org/t/p/w342/pHVswTDHAvq9Npi0XCZ0qVMSiM2.jpg","year":"2016","result":"HD","language":["Hindi"],"country":["US"],"original_language":"en","genres":["Drama","Action"],"imdb_id":"tt4790268"},{"id":"385238","type":"movie","title":"Vettah","poster":"https://image.tmdb.org/t/p/w342/pcuA4E3M4RO7227XMDfV0EfhA5X.jpg","year":"2016","result":"HD","language":["Hindi"],"country":["IN"],"original_language":"ml","genres":["Mystery","Thriller"],"imdb_id":"tt5324456"},{"id":"372058","type":"movie","title":"Your Name.","poster":"https://image.tmdb.org/t/p/w342/q719jXXEzOoYaps6babgKnONONX.jpg","year":"2016","result":"HD","language":["Hindi"],"country":["JP"],"original_language":"ja","genres":["Animation","Romance","Drama"],"imdb_id":"tt5311514"},{"id":"366080","type":"movie","title":"Kabali","poster":"https://image.tmdb.org/t/p/w342/va0M1xhP3sUUERWfHeSKGVhtJHW.jpg","year":"2016","result":"HD","language":["Hindi"],"country":["IN"],"original_language":"ta","genres":["Action","Crime","Drama"],"imdb_id":"tt5071886"},{"id":"313297","type":"movie","title":"Kubo and the Two Strings","poster":"https://image.tmdb.org/t/p/w342/la6QA9tk4Foq8OBH2Dyh5dTcw6H.jpg","year":"2016","result":"HD","language":["Hindi"],"country":["US","GB"],"original_language":"en","genres":["Animation","Adventure","Family"],"imdb_id":"tt4302938"},{"id":"301804","type":"movie","title":"Before I Wake","poster":"https://image.tmdb.org/t/p/w342/sI9neTbF3ECdpf2MpC88EMGJH13.jpg","year":"2016","result":"HD","language":["Hindi"],"country":["US"],"original_language":"en","genres":["Drama","Fantasy","Horror","Thriller"],"imdb_id":"tt3174376"}]}