{"page":7,"total_pages":24,"total_items":1166,"items":[{"id":"1499082","type":"movie","title":"Nishaanchi","poster":"https://image.tmdb.org/t/p/w342/aDI8pTr7QDs1QnDKCKsAoEampZj.jpg","year":"2025","result":"HD","language":["Hindi"],"country":["IN"],"original_language":"hi","genres":["Crime","Drama"],"imdb_id":"tt34794166","backdrop":"https://image.tmdb.org/t/p/original/asjK0Ot5ocLt7ZErj9wwA17BPsr.jpg","watch":"<iframe src=\"https://bysebuho.com/e/bgsnqqknznj1/Nishaanchi_2025_Hindi_Amazon_WEB-DL_720p_-_DANIEWATCH.mkv\" width=\"640\" height=\"360\" frameborder=\"0\" allowfullscreen></iframe>"},{"id":"1494406","type":"movie","title":"Kaisi Ye Paheli","poster":"https://image.tmdb.org/t/p/w342/3Z9bXM0ZDsQgoFkeK9KI2cFaGJm.jpg","year":"2025","result":"HD","language":["Hindi"],"country":["IN"],"original_language":"hi","genres":["Mystery","Thriller"],"imdb_id":"tt31101929","backdrop":"https://image.tmdb.org/t/p/original/IaI6DjHP0w4iqud9GtRB8jK51x.jpg","watch":"<iframe src=\"https://bysebuho.com/e/yrp22hm8v0xa/Kaisi_Ye_Paheli_2025_Hindi_HDTC_720p_x264_AAC_HC-ESub-_DANIEWATCH.mkv\" frameborder=\"0\" marginwidth=\"0\" marginheight=\"0\" scrolling=\"no\" width=\"640\" height=\"360\" allowfullscreen></iframe>"},{"id":"1494159","type":"movie","title":"Maadeva","poster":"https://image.tmdb.org/t/p/w342/kdEWBpXscXN6MNUFi6NJhZaSiR5.jpg","year":"2025","result":"HD","language":["Hindi"],"country":["IN"],"original_language":"kn","genres":["Action","Thriller"],"imdb_id":"tt28789314","backdrop":"https://image.tmdb.org/t/p/original/mFt9CKVUhoT6V84tSsA0EQk4HEB.jpg","watch":"<iframe src=\"https://bysebuho.com/e/8bv52zmep3dl/maadeva-2025-720p-amzn-web-dl-hindi-kannada-ddp5-1-h-264-vegamovies-is\" frameborder=\"0\" marginwidth=\"0\" marginheight=\"0\" scrolling=\"no\" width=\"640\" height=\"360\" allowfullscreen></iframe>"},{"id":"1490329","type":"movie","title":"Shubhchintak","poster":"https://image.tmdb.org/t/p/w342/yggCq5PcPU8KWmVlawKzTyrsXLV.jpg","year":"2025","result":"HD","language":["Hindi"],"country":["IN"],"original_language":"gu","genres":["Comedy","Drama","Thriller"],"imdb_id":"tt35977123","backdrop":"https://image.tmdb.org/t/p/original/quYtNRV0CkSc60SXsE3oUWLJf78.jpg","watch":"<iframe src=\"https://bysebuho.com/e/y63ytylvmuw9/shubhchintak-2025-720p-web-dl-hindi-2-0-dubbed-x264-daniewatch-is\" frameborder=\"0\" marginwidth=\"0\" marginheight=\"0\" scrolling=\"no\" width=\"640\" height=\"360\" allowfullscreen></iframe>"},{"id":"1489510","type":"movie","title":"Aaromaley","poster":"https://image.tmdb.org/t/p/w342/80YOW8UVr1ublMX2Q638MCdS2Q4.jpg","year":"2025","result":"HD","language":["Hindi"],"country":["IN"],"original_language":"ta","genres":["Comedy","Romance","Drama"],"imdb_id":"tt36587142","backdrop":"https://image.tmdb.org/t/p/original/sBkt74K37VWbsAyuNe6Rk8PBvLm.jpg","watch":"<iframe src=\"https://bysebuho.com/e/xq1czaz8jgw6/Aaromaley_2025_720p_JHS_WEB-DL_DUAL_DDP5_1_H_264-DANIEWATCH.mkv\" frameborder=\"0\" marginwidth=\"0\" marginheight=\"0\" scrolling=\"no\" width=\"640\" height=\"360\" allowfullscreen></iframe>"},{"id":"1488449","type":"movie","title":"Ikk Kudi","poster":"https://image.tmdb.org/t/p/w342/sHuAznqwfhqxbk0SYb4ISPMdzFH.jpg","year":"2025","result":"HD","language":["Hindi"],"country":["IN"],"original_language":"pa","genres":["Comedy","Drama"],"imdb_id":"tt35063604","backdrop":"https://image.tmdb.org/t/p/original/vqeeEzV7N6OAKo3yV5nOGHfy0Ea.jpg","watch":"<iframe src=\"https://bysebuho.com/e/nshqtxekutnk/Ikk_Kudi_2025_Punjabi_HDTC_720p_x264_AAC_HC-ESub-_DANIEWATCH_is.mkv\" frameborder=\"0\" marginwidth=\"0\" marginheight=\"0\" scrolling=\"no\" width=\"640\" height=\"360\" allowfullscreen></iframe>"},{"id":"1488441","type":"movie","title":"Haan Main Pagal Haan","poster":"https://image.tmdb.org/t/p/w342/jBqVrgglVVheW5eAffKBdQd19f6.jpg","year":"2025","result":"HD","language":["Hindi"],"country":["IN"],"original_language":"pa","genres":["Mystery","Drama"],"imdb_id":"tt36415633","backdrop":"https://image.tmdb.org/t/p/original/5E3NudGzTaKlQ8TVoPpzsMcHAd4.jpg","watch":"<iframe src=\"https://bysebuho.com/e/2hmovvoc05h9/Haan_Main_Pagal_Haan_2025_720p_WEB-HDRip_Punjabi_AAC2_0_x264_DANIEWATCH.mkv\" width=\"640\" height=\"360\" frameborder=\"0\" allowfullscreen></iframe>"},{"id":"1487289","type":"movie","title":"Jombieland","poster":"https://image.tmdb.org/t/p/w342/h78roUiZylCIzTrmeBN6Pnhv8cI.jpg","year":"2025","result":"HD","language":["Hindi"],"country":["IN"],"original_language":"pa","genres":["Action","Comedy","Horror"],"imdb_id":"tt36375452","backdrop":"https://image.tmdb.org/t/p/original/in8mIsLRum0vAnJDR4eM9UudmCP.jpg","watch":"<iframe src=\"https://bysebuho.com/e/43bc0510l23j/Jombieland_2025_720p_WEB-DL_Punjabi_x264-DANIEWATCH_is\" frameborder=\"0\" marginwidth=\"0\" marginheight=\"0\" scrolling=\"no\" width=\"640\" height=\"360\" allowfullscreen></iframe>"},{"id":"1487106","type":"movie","title":"Raunak","poster":"https://image.tmdb.org/t/p/w342/xupYWGFIZ4NM4LVWxYyT9yr8J6V.jpg","year":"2025","result":"HD","language":["Hindi"],"country":["IN"],"original_language":"pa","genres":["Drama","Family","Romance"],"imdb_id":"tt36412691","backdrop":"https://image.tmdb.org/t/p/original/5D7b3oRrZImCIwGa4C6xFFbyPX5.jpg","watch":"<iframe src=\"https://bysebuho.com/e/6poj1ptzoawr/Raunak__2025__Dual_Audio__Hindi_ORG-Punjabi__KableOne_720p_-_DANIEWATCH.mkv\" width=\"640\" height=\"360\" frameborder=\"0\" allowfullscreen></iframe>"},{"id":"1486799","type":"movie","title":"Sarbala Ji","poster":"https://image.tmdb.org/t/p/w342/eCERukldal4nrbupGdOzviAv5cQ.jpg","year":"2025","result":"HD","language":["Hindi"],"country":["IN"],"original_language":"pa","genres":["Action","Drama"],"imdb_id":"tt32872825","backdrop":"https://image.tmdb.org/t/p/original/f3gBu8BmKjIdMgfIGGh3xoIHNGH.jpg","watch":"<iframe src=\"https://bysebuho.com/e/k6nt8pn1ys6q/Sarbala_Ji_2025_720p_WEB-DL_Punjabi_x264_AAC_5_1_ESub-DANIEWATCH.mkv\" width=\"640\" height=\"360\" frameborder=\"0\" allowfullscreen></iframe>"},{"id":"1482176","type":"movie","title":"Lovedale","poster":"https://image.tmdb.org/t/p/w342/qI9SP3Ao1LoKSmFEoppBCfcNSuv.jpg","year":"2025","result":"HD","language":["Hindi"],"country":[],"original_language":"te","genres":["Drama"],"imdb_id":"tt35257690","backdrop":"https://image.tmdb.org/t/p/original/yW8IKTqNL1HZ75ONp8etovpBU4i.jpg","watch":"<iframe src=\"https://bysebuho.com/e/2t5e8o68lay9/lovedale-2025-dual-audio-hindi-telugu-amzn-720p-daniewatch-is\" frameborder=\"0\" marginwidth=\"0\" marginheight=\"0\" scrolling=\"no\" width=\"640\" height=\"360\" allowfullscreen></iframe>"},{"id":"1482085","type":"movie","title":"Romeo S3","poster":"https://image.tmdb.org/t/p/w342/f3sgIwJY6xgeXKZeIXIbDtGEwXJ.jpg","year":"2025","result":"HD","language":["Hindi"],"country":[],"original_language":"hi","genres":["Action","Thriller"],"imdb_id":"tt36812950","backdrop":"https://image.tmdb.org/t/p/original/xJ3qnUNB7vtldnByHHBtG44sX18.jpg","watch":"<iframe src=\"https://bysebuho.com/e/90mtif1r7on4/romeo-s3-2025-720p-amzn-web-dl-ddp5-1-h-264-daniewatch-is\" frameborder=\"0\" marginwidth=\"0\" marginheight=\"0\" scrolling=\"no\" width=\"640\" height=\"360\" allowfullscreen></iframe>"},{"id":"1481965","type":"movie","title":"Dakuaan Da Munda 3","poster":"https://image.tmdb.org/t/p/w342/xhuzfeyG4qml1c2KDKeaZhbxO1u.jpg","year":"2025","result":"HD","language":["Hindi"],"country":["IN"],"original_language":"pa","genres":["Action"],"imdb_id":"tt36389438","backdrop":"https://image.tmdb.org/t/p/original/yOVyxJ330QDwHPRb6ow1J8YWnr8.jpg","watch":"<iframe src=\"https://bysebuho.com/e/ufam9zc6erl9/Dakuaan_Da_Munda_3_2025_Punjabi_HD_Zee5_720p_-_DANIEWATCH.mkv\" width=\"640\" height=\"360\" frameborder=\"0\" allowfullscreen></iframe>"},{"id":"1479860","type":"movie","title":"Blind Spot","poster":"https://image.tmdb.org/t/p/w342/n9SaFZccB7pZdEf5HzmaUZEhPCT.jpg","year":"2025","result":"HD","language":["Hindi"],"country":["IN"],"original_language":"te","genres":["Thriller","Crime"],"imdb_id":"tt36591293","backdrop":"https://image.tmdb.org/t/p/original/fkrhrS3BcOUhzdJeGo0NHBRXkA5.jpg","watch":"<iframe src=\"https://bysebuho.com/e/x35fag9k7t19/blind-spot-2025-720p-10bit-web-dl-hevc-x265-tam-mal-tel-kan-hin-esub-daniewatch-is\" frameborder=\"0\" marginwidth=\"0\" marginheight=\"0\" scrolling=\"no\" width=\"640\" height=\"360\" allowfullscreen></iframe>"},{"id":"1479090","type":"movie","title":"Edagaiye Apaghatakke Karana","poster":"https://image.tmdb.org/t/p/w342/cMQPSIZdFmdbLTI97eWsEkpSsZ5.jpg","year":"2025","result":"HD","language":["Hindi"],"country":["IN"],"original_language":"kn","genres":["Comedy","Thriller","Romance"],"imdb_id":"tt15333916","backdrop":"https://image.tmdb.org/t/p/original/7Y3F2VFgbEbOYgBQqaNIouhGeVv.jpg","watch":"<iframe src=\"https://bysebuho.com/e/3j6p2ej2gy4p/edagaiye-apaghatakke-karana-2025-720p-web-dl-hin-kan-x264-daniewatch-is\" frameborder=\"0\" marginwidth=\"0\" marginheight=\"0\" scrolling=\"no\" width=\"640\" height=\"360\" allowfullscreen></iframe>"},{"id":"1478644","type":"movie","title":"Shaunki Sardar","poster":"https://image.tmdb.org/t/p/w342/Bx2FNrdYMRSgzihsC0VcG4omqw.jpg","year":"2025","result":"HD","language":["Hindi"],"country":[],"original_language":"pa","genres":["Action","Crime","Drama"],"imdb_id":"tt32965688","backdrop":"https://image.tmdb.org/t/p/original/gPkPbBewBNKHif7tHW82qHMG5Ss.jpg","watch":"<iframe src=\"https://bysebuho.com/e/5jwackjmklhj/shaunki-sardar-2025-720p-web-hdrip-punjabi-ddp2-0-esub-daniewatch\" frameborder=\"0\" marginwidth=\"0\" marginheight=\"0\" scrolling=\"no\" width=\"640\" height=\"360\" allowfullscreen></iframe>"},{"id":"1477870","type":"movie","title":"Jora Kaiya Thattunga","poster":"https://image.tmdb.org/t/p/w342/kom0PpAofXsyGzsuL76XApU8Dtr.jpg","year":"2025","result":"HD","language":["Hindi"],"country":["IN"],"original_language":"ta","genres":["Thriller","Family","Drama"],"imdb_id":"tt32474216","backdrop":"https://image.tmdb.org/t/p/original/tFX0b8zZ93SbSBgkLcKbdOtgkJN.jpg","watch":"<iframe src=\"https://bysebuho.com/e/sjeljbs32bx6/jora-kaiya-thattunga-2025-720p-amzn-web-dl-hindi-ddp2-0-tamil-ddp5-1-h-264-vegamovies-is\" frameborder=\"0\" marginwidth=\"0\" marginheight=\"0\" scrolling=\"no\" width=\"640\" height=\"360\" allowfullscreen></iframe>"},{"id":"1473354","type":"movie","title":"Sarvam Maya","poster":"https://image.tmdb.org/t/p/w342/mgLY1aQayVX6dQ2DiylLAhjEG8w.jpg","year":"2025","result":"HD","language":["Hindi"],"country":["IN"],"original_language":"ml","genres":["Comedy","Family"],"imdb_id":"tt32362695","backdrop":"https://image.tmdb.org/t/p/original/6Zn4PaLwLHFJ2bw7s6B10fHiuAD.jpg","watch":"<iframe src=\"https://bysebuho.com/e/275cbz8m2z0u/sarvam-maya-2025-720p-jhs-web-dl-dual-ddp5-1-h-264-daniewatch-is\" frameborder=\"0\" marginwidth=\"0\" marginheight=\"0\" scrolling=\"no\" width=\"640\" height=\"360\" allowfullscreen></iframe>"},{"id":"1472031","type":"movie","title":"Chaurya Paatam","poster":"https://image.tmdb.org/t/p/w342/1YLMmspugk0Td4cNBynfqmhZXxf.jpg","year":"2025","result":"HD","language":["Hindi"],"country":[],"original_language":"te","genres":["Comedy","Drama"],"imdb_id":"tt31311161","backdrop":"https://image.tmdb.org/t/p/original/h4cq5eGcPN2j2YDTitHl4V9FaM4.jpg","watch":"<iframe src=\"https://bysebuho.com/e/x0bk7d4mdibq/chaurya-paatham-2025-dual-audio-hindi-telugu-amzn-720p-daniewatch-is\" frameborder=\"0\" marginwidth=\"0\" marginheight=\"0\" scrolling=\"no\" width=\"640\" height=\"360\" allowfullscreen></iframe>"},{"id":"1469409","type":"movie","title":"Guru Nanak Jahaz","poster":"https://image.tmdb.org/t/p/w342/aB3Rvx7S25HBog1TZuuGoqBYXoJ.jpg","year":"2025","result":"HD","language":["Hindi"],"country":["IN"],"original_language":"pa","genres":["Drama"],"imdb_id":"tt36722524","backdrop":"https://image.tmdb.org/t/p/original/cyLD6FSHYeWhkJq5DBaAlOzP1y5.jpg","watch":"<iframe src=\"https://bysebuho.com/e/lwybtg0n6nwc/Guru_Nanak_Jahaz_2025_720p_WEB-DL_Punjabi_x264_AAC_5_1_ESub-DANIEWATCH.mkv\" width=\"640\" height=\"360\" frameborder=\"0\" allowfullscreen></iframe>"},{"id":"1468971","type":"movie","title":"Yuddhakaanda Chapter 2","poster":"https://image.tmdb.org/t/p/w342/pTMxZ37mWmDimn24eTy9EiDNjAK.jpg","year":"2025","result":"HD","language":["Hindi"],"country":[],"original_language":"kn","genres":[],"imdb_id":"tt36071404","backdrop":"https://image.tmdb.org/t/p/original/cK0F6d6AGfR69oAwkTebKc0osRG.jpg","watch":"<iframe src=\"https://bysebuho.com/e/osmeesvba6tf/yuddhakaanda-chapter-2-2025-720p-amzn-web-dl-aac2-0-h-265-daniewatch-is\" frameborder=\"0\" marginwidth=\"0\" marginheight=\"0\" scrolling=\"no\" width=\"640\" height=\"360\" allowfullscreen></iframe>"},{"id":"1467823","type":"movie","title":"Mithada Maheman","poster":"https://image.tmdb.org/t/p/w342/ofrAJihhCn60NC50e0Idw5bJvT.jpg","year":"2025","result":"HD","language":["Hindi"],"country":["IN"],"original_language":"gu","genres":["Comedy","Drama"],"imdb_id":"tt36204257","backdrop":"https://image.tmdb.org/t/p/original/8jwqk22UpG8uIESOW55SkCkVHNr.jpg","watch":"<iframe src=\"https://bysebuho.com/e/x61tkdurxlo8/mithada-maheman-hindi-dubbed-2025-720p-sm-web-dl-aac2-0-h-264-vegamovies-is\" frameborder=\"0\" marginwidth=\"0\" marginheight=\"0\" scrolling=\"no\" width=\"640\" height=\"360\" allowfullscreen></iframe>"},{"id":"1467506","type":"movie","title":"Costao","poster":"https://image.tmdb.org/t/p/w342/kM8TFQtD0YttXEaDcLFYSGCnc1m.jpg","year":"2025","result":"HD","language":["Hindi"],"country":["IN"],"original_language":"hi","genres":["Drama"],"imdb_id":"tt13261550","backdrop":"https://image.tmdb.org/t/p/original/14QSPSgPwimDX67BBy8r7qQ0j8y.jpg","watch":"<iframe src=\"https://bysebuho.com/e/qd5aynmyawbr/costao-2025-hindi-zee5-web-dl-720p-daniewatch-is\" frameborder=\"0\" marginwidth=\"0\" marginheight=\"0\" scrolling=\"no\" width=\"640\" height=\"360\" allowfullscreen></iframe>"},{"id":"1462245","type":"movie","title":"Saaree","poster":"https://image.tmdb.org/t/p/w342/5Q94u10VJF75uyctLmqw5CL2S1d.jpg","year":"2025","result":"HD","language":["Hindi"],"country":["IN"],"original_language":"te","genres":["Crime","Thriller","Romance"],"imdb_id":"tt31587690","backdrop":"https://image.tmdb.org/t/p/original/zsFxeKaAcnGbRumUoMKqYlnUrU4.jpg","watch":"<iframe src=\"https://bysebuho.com/e/tjxe5c5jg5hd/saaree-2025-720p-dual-audio-hindi-org-malayalam-web-dl-x264-daniewatch-is\" frameborder=\"0\" marginwidth=\"0\" marginheight=\"0\" scrolling=\"no\" width=\"640\" height=\"360\" allowfullscreen></iframe>"},{"id":"1461114","type":"movie","title":"The Door","poster":"https://image.tmdb.org/t/p/w342/2fTLOS6y3v8SCbkFFRagmYXVZTm.jpg","year":"2025","result":"HD","language":["Hindi"],"country":[],"original_language":"ta","genres":["Horror","Thriller"],"imdb_id":"tt27989109","backdrop":"https://image.tmdb.org/t/p/original/3mzwKfsMrTnXy803IKcQZhg7K9L.jpg","watch":"<iframe src=\"https://bysebuho.com/e/jmvqjsvnsh9q/the-door-2025-720p-amzn-web-dl-hindi-dd2-0-tamil-dd5-1-x264-daniewatch-is\" frameborder=\"0\" marginwidth=\"0\" marginheight=\"0\" scrolling=\"no\" width=\"640\" height=\"360\" allowfullscreen></iframe>"},{"id":"1459683","type":"movie","title":"Vaathiyar Kuppam","poster":"https://image.tmdb.org/t/p/w342/aDgr57EvtCeTvMFgCWWoKeRjylc.jpg","year":"2025","result":"HD","language":["Hindi"],"country":[],"original_language":"ta","genres":["Drama"],"imdb_id":"","backdrop":"https://image.tmdb.org/t/p/original/Agqw7lYP8pD2OyB2Oy0OtPwsFpU.jpg","watch":"<iframe src=\"https://bysebuho.com/e/8t5q8cup9g5w/Vaathiyar_Ka_Don_-_Vaathiyar_Kuppam_2025_720p_UPLAY_WEB-DL_AAC2_0_H_264-DANIEWATCH.mkv\" width=\"640\" height=\"360\" frameborder=\"0\" allowfullscreen></iframe>"},{"id":"1459180","type":"movie","title":"Kaafir - The Movie","poster":"https://image.tmdb.org/t/p/w342/9YzSRKdLd9mRTXamjsVhncXlbCB.jpg","year":"2025","result":"HD","language":["Hindi"],"country":["IN"],"original_language":"hi","genres":["Drama","Thriller"],"imdb_id":"tt36451978","backdrop":"https://image.tmdb.org/t/p/original/wj0JMcU1Ck9trEKgqo4NekKqdQ5.jpg","watch":"<iframe src=\"https://bysebuho.com/e/uy3qju2crn9g/kaafir-2025-hindi-zee5-web-dl-720p-daniewatch-is\" frameborder=\"0\" marginwidth=\"0\" marginheight=\"0\" scrolling=\"no\" width=\"640\" height=\"360\" allowfullscreen></iframe>"},{"id":"1456539","type":"movie","title":"Manada Kadalu","poster":"https://image.tmdb.org/t/p/w342/x0xOpo7PhpO7rCEC0MtdYolxYK.jpg","year":"2025","result":"HD","language":["Hindi"],"country":[],"original_language":"kn","genres":["Romance","Drama"],"imdb_id":"tt34853311","backdrop":"https://image.tmdb.org/t/p/original/z9mRFwQ7fPqAMy45knBIPMDzcbO.jpg","watch":"<iframe src=\"https://bysebuho.com/e/j8jgasjexuwa/manada-kadalu-2025-web-dl-hin-mal-720p-aac-esub-daniewatch-is\" frameborder=\"0\" marginwidth=\"0\" marginheight=\"0\" scrolling=\"no\" width=\"640\" height=\"360\" allowfullscreen></iframe>"},{"id":"1456459","type":"movie","title":"Leg Piece","poster":"https://image.tmdb.org/t/p/w342/7Tnbmp7ARfKUQGYMJqkUk9B3c6G.jpg","year":"2025","result":"HD","language":["Hindi"],"country":[],"original_language":"ta","genres":["Comedy","Drama"],"imdb_id":"tt35769446","backdrop":"https://image.tmdb.org/t/p/original/uqQe6wBDpcEOHsNcOOrSJa0kn5J.jpg","watch":"<iframe src=\"https://bysebuho.com/e/jmvhkfps3bdk/leg-piece-2025-720p-uplay-web-dl-hindi-x264-vegamovies-hot\" frameborder=\"0\" marginwidth=\"0\" marginheight=\"0\" scrolling=\"no\" width=\"640\" height=\"360\" allowfullscreen></iframe>"},{"id":"1455239","type":"movie","title":"Jija Sala Jija","poster":"https://image.tmdb.org/t/p/w342/5qehtvUl1qKekFfTf2uBJy7wIGd.jpg","year":"2025","result":"HD","language":["Hindi"],"country":["IN"],"original_language":"gu","genres":["Comedy","Drama"],"imdb_id":"tt35887869","backdrop":"https://image.tmdb.org/t/p/original/fmmK8HVcEdsX2nANrMdKyZSFy9v.jpg","watch":"<iframe src=\"https://bysebuho.com/e/d8sqjurf3pgm/Jija.Sala.Jija.2025.720p.WEB-DL.Hindi-Gujarati.x264-DANIEWATCH.mkv\" width=\"640\" height=\"360\" frameborder=\"0\" allowfullscreen></iframe>"},{"id":"1454405","type":"movie","title":"Akaal: The Unconquered","poster":"https://image.tmdb.org/t/p/w342/pzf5rPLoE5DdYkcZlvYbrH554rE.jpg","year":"2025","result":"HD","language":["Hindi"],"country":["IN"],"original_language":"pa","genres":["Action","History","Drama"],"imdb_id":"tt35402446","backdrop":"","watch":"<iframe src=\"https://bysebuho.com/e/71t90oa2huor/akaal-the-unconquered-2025-hindi-hdrip-720p-avc-he-aac-2-0-daniewatch-is\" frameborder=\"0\" marginwidth=\"0\" marginheight=\"0\" scrolling=\"no\" width=\"640\" height=\"360\" allowfullscreen></iframe>"},{"id":"1453684","type":"movie","title":"Zakir Khan: Delulu Express","poster":"https://image.tmdb.org/t/p/w342/5wWUt6Fv1s54Bf1pr0eUsiEUORH.jpg","year":"2025","result":"HD","language":["Hindi"],"country":["IN"],"original_language":"hi","genres":["Comedy"],"imdb_id":"tt36372377","backdrop":"https://image.tmdb.org/t/p/original/4DwzCJkgTRh8ZzrKLlDumnOBY6w.jpg","watch":"<iframe src=\"https://bysebuho.com/e/e8ly4t0s92mp/zakir-khan-delulu-express-2025-amzn-web-dl-hindi-720p-esub-daniewatch-is\" frameborder=\"0\" marginwidth=\"0\" marginheight=\"0\" scrolling=\"no\" width=\"640\" height=\"360\" allowfullscreen></iframe>"},{"id":"1452776","type":"movie","title":"Baida","poster":"https://image.tmdb.org/t/p/w342/op8Edzg2xHeGiprxJDFUt1OdJfh.jpg","year":"2025","result":"HD","language":["Hindi"],"country":["IN"],"original_language":"hi","genres":["Adventure","Science Fiction","Thriller"],"imdb_id":"tt35217961","backdrop":"https://image.tmdb.org/t/p/original/gSmoqHhKrvYqgsmC4vLSVIW27cW.jpg","watch":"<iframe src=\"https://bysebuho.com/e/g0cd17nj5ooj/baida-2025-hindi-hd-amzn-web-dl-ddp5-1-x-264-720p-vegamovies-is\" frameborder=\"0\" marginwidth=\"0\" marginheight=\"0\" scrolling=\"no\" width=\"640\" height=\"360\" allowfullscreen></iframe>"},{"id":"1449364","type":"movie","title":"Subham","poster":"https://image.tmdb.org/t/p/w342/hl3jiH0YjLRUZXWY2xqHNNTi1Eg.jpg","year":"2025","result":"HD","language":["Hindi"],"country":["IN"],"original_language":"te","genres":["Horror","Comedy"],"imdb_id":"tt34376523","backdrop":"https://image.tmdb.org/t/p/original/qRItTUp4SY6zXzWGpqjfmgSDKa9.jpg","watch":"<iframe src=\"https://bysebuho.com/e/nbzey5v7zo01/subham-2025-720p-jhs-web-dl-aac2-0-x265-daniewatch-is\" frameborder=\"0\" marginwidth=\"0\" marginheight=\"0\" scrolling=\"no\" width=\"640\" height=\"360\" allowfullscreen></iframe>"},{"id":"1447985","type":"movie","title":"Aachari Baa","poster":"https://image.tmdb.org/t/p/w342/dGUJofA1WdL2j66CZUWbyQdaEye.jpg","year":"2025","result":"HD","language":["Hindi"],"country":["IN"],"original_language":"hi","genres":["Drama"],"imdb_id":"tt36129120","backdrop":"https://image.tmdb.org/t/p/original/fRGTJp54TZGhr55BCwrdaQW2sfE.jpg","watch":"<iframe src=\"https://bysebuho.com/e/5ku9ztzg3969/aachari-baa-2025-hindi-web-dl-720p-x265-esub-daniewatch-is\" frameborder=\"0\" marginwidth=\"0\" marginheight=\"0\" scrolling=\"no\" width=\"640\" height=\"360\" allowfullscreen></iframe>"},{"id":"1447652","type":"movie","title":"Mithde","poster":"https://image.tmdb.org/t/p/w342/aNSeCYQi1ufDueaLcclab51xnfr.jpg","year":"2025","result":"HD","language":["Hindi"],"country":["IN"],"original_language":"pa","genres":["Romance","Drama"],"imdb_id":"tt34930723","backdrop":"https://image.tmdb.org/t/p/original/5OMeQtPt4VNMnYet5pfAKXSC76S.jpg","watch":"<iframe src=\"https://bysebuho.com/e/lzvn5hzre0zd/Mithde.2025.720p.Punjabi.WEB-DL.2.0.ESub.x264-DANIEWATCH.mkv\" width=\"640\" height=\"360\" frameborder=\"0\" allowfullscreen></iframe>"},{"id":"1447219","type":"movie","title":"Arjun S/O Vyjayanthi","poster":"https://image.tmdb.org/t/p/w342/3AvCdsmYx6gZ83Bitd9n9ejDLyO.jpg","year":"2025","result":"HD","language":["Hindi"],"country":["IN"],"original_language":"te","genres":["Action","Crime","Thriller"],"imdb_id":"tt28291501","backdrop":"https://image.tmdb.org/t/p/original/dEwf6Dls8QjTSRAbSBNndiEv2gD.jpg","watch":"<iframe src=\"https://bysebuho.com/e/hm15dy94xk3x/arjun-son-of-vyjayanthi-2025-webrip-720p-hindi-studio-dub-telugu-avc-he-aac-2-0-daniewatch-is\" frameborder=\"0\" marginwidth=\"0\" marginheight=\"0\" scrolling=\"no\" width=\"640\" height=\"360\" allowfullscreen></iframe>"},{"id":"1447109","type":"movie","title":"Ghich Pich","poster":"https://image.tmdb.org/t/p/w342/zQiAoLfGxD3XYlQ4xULS7RN70RA.jpg","year":"2025","result":"HD","language":["Hindi"],"country":["IN"],"original_language":"hi","genres":["Drama","Family","Comedy"],"imdb_id":"tt36014845","backdrop":"https://image.tmdb.org/t/p/original/9P0KS5NrPJ1T5OikkNzUPiz7NTc.jpg","watch":"<iframe src=\"https://bysebuho.com/e/2wp5yxej7ssg/ghich-pich-2025-hindi-hdtc-720p-aac-daniewatch-is\" frameborder=\"0\" marginwidth=\"0\" marginheight=\"0\" scrolling=\"no\" width=\"640\" height=\"360\" allowfullscreen></iframe>"},{"id":"1445070","type":"movie","title":"Legally Veer","poster":"https://image.tmdb.org/t/p/w342/8WKeDF6A3s6DGOs8iocVe3BBZxM.jpg","year":"2025","result":"HD","language":["Hindi"],"country":[],"original_language":"te","genres":[],"imdb_id":"tt34896026","backdrop":"https://image.tmdb.org/t/p/original/gYccdrj500hUA380HaVEhsYxfRt.jpg","watch":"<iframe src=\"https://bysebuho.com/e/vhdq6hkk9k2q/Legally_Veer__2025___Hindi___Telugu__UnCut_720p_10Bit_x265_ESub_DANIEWATCH.mkv\" width=\"640\" height=\"360\" frameborder=\"0\" allowfullscreen></iframe>"},{"id":"1444973","type":"movie","title":"Jatadhara","poster":"https://image.tmdb.org/t/p/w342/91aJa79gHiTUWh86XFRMaD2MGjj.jpg","year":"2025","result":"HD","language":["Hindi"],"country":["IN"],"original_language":"te","genres":["Action","Horror","Thriller"],"imdb_id":"tt32813410","backdrop":"https://image.tmdb.org/t/p/original/l9Xe6L1QuM5DQsSthMPN3yPwfJK.jpg","watch":"<iframe src=\"https://bysebuho.com/e/6tgov59i9ows/Jatadhara__2025__Hindi_HDTC_720p_-_DANIEWATCH\" frameborder=\"0\" marginwidth=\"0\" marginheight=\"0\" scrolling=\"no\" width=\"640\" height=\"360\" allowfullscreen></iframe>"},{"id":"1444425","type":"movie","title":"Six Each","poster":"https://image.tmdb.org/t/p/w342/mSUD3y15nNurCWZv2DyJwalWo2Z.jpg","year":"2025","result":"HD","language":["Hindi"],"country":["IN"],"original_language":"pa","genres":["Crime","Drama"],"imdb_id":"tt35684679","backdrop":"https://image.tmdb.org/t/p/original/k9Iw1EIVkPrhEbEn6Pxbj59izOG.jpg","watch":"<iframe src=\"https://bysebuho.com/e/bd2yp018osqw/six-each-2025-hindi-720p-amzn-web-dl-x264-daniewatch-is\" frameborder=\"0\" marginwidth=\"0\" marginheight=\"0\" scrolling=\"no\" width=\"640\" height=\"360\" allowfullscreen></iframe>"},{"id":"1444255","type":"movie","title":"14 Days (Girlfriend Intlo)","poster":"https://image.tmdb.org/t/p/w342/mnpAFHfTEwurjZUEhV3cJVNENYy.jpg","year":"2025","result":"HD","language":["Hindi"],"country":[],"original_language":"te","genres":["Comedy","Romance"],"imdb_id":"tt31116092","backdrop":"https://image.tmdb.org/t/p/original/7hnirIXVqpwNuVRMuKoynT2Fr68.jpg","watch":"<iframe src=\"https://bysebuho.com/e/k9o1hthdctgu/14-days-girlfriend-intlo-2025-720p-web-dl-dual-aac5-1-esub-daniewatch-is\" frameborder=\"0\" marginwidth=\"0\" marginheight=\"0\" scrolling=\"no\" width=\"640\" height=\"360\" allowfullscreen></iframe>"},{"id":"1442778","type":"movie","title":"Nikka Zaildar 4","poster":"https://image.tmdb.org/t/p/w342/dPbyKQaYwEIE6qzuM2snwOlZbGj.jpg","year":"2025","result":"HD","language":["Hindi"],"country":["IN"],"original_language":"pa","genres":["Comedy","Drama","Romance"],"imdb_id":"tt31307640","backdrop":"https://image.tmdb.org/t/p/original/kxy6Db3TAW8euseh1PKLBOQ1dVq.jpg","watch":"<iframe src=\"https://bysebuho.com/e/5k4jibed27l5/Nikka_Zaildar_4_2025_720p_WEB-DL_Punjabi_DD5_1_x264-_DANIEWATCH_is.mkv\" frameborder=\"0\" marginwidth=\"0\" marginheight=\"0\" scrolling=\"no\" width=\"640\" height=\"360\" allowfullscreen></iframe>"},{"id":"1442486","type":"movie","title":"Tuk Tuk","poster":"https://image.tmdb.org/t/p/w342/AsUsLOZBMpb6zqofvt7yxcbJVEJ.jpg","year":"2025","result":"HD","language":["Hindi"],"country":["IN"],"original_language":"te","genres":["Drama","Comedy","Mystery"],"imdb_id":"tt33088937","backdrop":"https://image.tmdb.org/t/p/original/ebH3EsvMF06KSjlKxZcCvGydvBH.jpg","watch":"<iframe src=\"https://bysebuho.com/e/avlfr3074nab/tuk-tuk-2025-hindi-telugu-uncut-south-movie-720p-10bit-x265-esub-daniewatch-is\" frameborder=\"0\" marginwidth=\"0\" marginheight=\"0\" scrolling=\"no\" width=\"640\" height=\"360\" allowfullscreen></iframe>"},{"id":"1440754","type":"movie","title":"Dil Dosti Aur Dogs","poster":"https://image.tmdb.org/t/p/w342/zVkCKohDO7Xw7Iq5aoyootDhBG7.jpg","year":"2025","result":"HD","language":["Hindi"],"country":[],"original_language":"hi","genres":["Drama","Romance","Family"],"imdb_id":"tt16141930","backdrop":"https://image.tmdb.org/t/p/original/tse3tXBNExdXOUPIOIGhHUoxZpu.jpg","watch":"<iframe src=\"https://bysebuho.com/e/ri3x4u162lyb/dil-dosti-aur-dogs-2025-720p-hindi-web-dl-5-1-esub-x264-daniewatch-is\" frameborder=\"0\" marginwidth=\"0\" marginheight=\"0\" scrolling=\"no\" width=\"640\" height=\"360\" allowfullscreen></iframe>"},{"id":"1440700","type":"movie","title":"Little Hearts","poster":"https://image.tmdb.org/t/p/w342/qDTHRLgYTUAZimgNsmG6t2Saabz.jpg","year":"2025","result":"HD","language":["Hindi"],"country":["IN"],"original_language":"te","genres":["Comedy","Romance","Drama"],"imdb_id":"tt37962245","backdrop":"https://image.tmdb.org/t/p/original/wN0epLoxu8pbvde68M9IZG5T8eD.jpg","watch":"<iframe src=\"https://bysebuho.com/e/262difa3ryjt/little-hearts-2025-720p-nf-web-dl-dual-aac5-1-x264-daniewatch\" frameborder=\"0\" marginwidth=\"0\" marginheight=\"0\" scrolling=\"no\" width=\"640\" height=\"360\" allowfullscreen></iframe>"},{"id":"1439747","type":"movie","title":"Kishkindhapuri","poster":"https://image.tmdb.org/t/p/w342/uRQ31dXsGHbiubJdObhGVzDiH3n.jpg","year":"2025","result":"HD","language":["Hindi"],"country":["IN"],"original_language":"te","genres":["Horror","Thriller","Comedy","Drama"],"imdb_id":"tt32175880","backdrop":"https://image.tmdb.org/t/p/original/5gcP7ybasVUqDy4ZR8xSqOqUIue.jpg","watch":"<iframe src=\"https://bysebuho.com/e/rmxmn8aprjh3/Kishkindhapuri__2025__HDTC_Hindi_720p_x264-_DANIEWATCH.mkv\" width=\"640\" height=\"360\" frameborder=\"0\" allowfullscreen></iframe>"},{"id":"1439367","type":"movie","title":"Asthram","poster":"https://image.tmdb.org/t/p/w342/19lIAAGCQ8hocMoB4YHUS6smI5Y.jpg","year":"2025","result":"HD","language":["Hindi"],"country":["IN"],"original_language":"ta","genres":["Thriller"],"imdb_id":"tt35267660","backdrop":"https://image.tmdb.org/t/p/original/cwM6SdLlgcrZc8bEty3EXXD7zRM.jpg","watch":"<iframe src=\"https://bysebuho.com/e/niein37v5xt9/Asthram_2025_720p_TK_WEB-DL_Hindi-Tamil_x264-DANIEWATCH.mkv\" frameborder=\"0\" marginwidth=\"0\" marginheight=\"0\" scrolling=\"no\" width=\"640\" height=\"360\" allowfullscreen></iframe>"},{"id":"1436664","type":"movie","title":"Baapu - A Father's Story","poster":"https://image.tmdb.org/t/p/w342/zwjAtrlT1swTJEdT4dhGdHidTjE.jpg","year":"2025","result":"HD","language":["Hindi"],"country":[],"original_language":"te","genres":[],"imdb_id":"tt35229809","backdrop":"https://image.tmdb.org/t/p/original/hZjYbRQhAYKGxdIGAlpaCyBdQNn.jpg","watch":"<iframe src=\"https://bysebuho.com/e/rayvekcscrcx/baapu-a-fathers-story-2025-720p-web-dl-hindi-5-1-telugu-5-1-esub-x264-daniewatch-is\" frameborder=\"0\" marginwidth=\"0\" marginheight=\"0\" scrolling=\"no\" width=\"640\" height=\"360\" allowfullscreen></iframe>"},{"id":"1436133","type":"movie","title":"Kaushaljis vs Kaushal","poster":"https://image.tmdb.org/t/p/w342/ulr4CICHijcXZaeS4M7KupyCu0x.jpg","year":"2025","result":"HD","language":["Hindi"],"country":["IN"],"original_language":"hi","genres":["Comedy","Drama","Family"],"imdb_id":"tt26655658","backdrop":"https://image.tmdb.org/t/p/original/r6sKI2rJt7mXbETyRIb0z47AZtg.jpg","watch":"<iframe src=\"https://bysebuho.com/e/ej85db62dw4o/kaushaljis-vs-kaushal-2025-720p-hs-web-dl-ddp5-1-x264-daniewatch-is\" frameborder=\"0\" marginwidth=\"0\" marginheight=\"0\" scrolling=\"no\" width=\"640\" height=\"360\" allowfullscreen></iframe>"}]}