{"page":39,"total_pages":66,"total_items":3272,"items":[{"id":"1389152","type":"movie","title":"Hisaab Barabar","poster":"https://image.tmdb.org/t/p/w342/zgyRlHt99KiBq7ZxY3tfoFQ5rLJ.jpg","year":"2024","result":"HD","language":["Hindi"],"country":["IN"],"original_language":"hi","genres":["Drama","Thriller","Comedy"],"imdb_id":"tt27620861"},{"id":"1298116","type":"movie","title":"Hit List","poster":"https://image.tmdb.org/t/p/w342/vkuvf6tx5cyJbW2t4WnfY80cPXp.jpg","year":"2024","result":"HD","language":["Hindi"],"country":["IN"],"original_language":"ta","genres":["Crime","Drama","Thriller"],"imdb_id":"tt27730067"},{"id":"1080808","type":"movie","title":"Ishq Vishk Rebound","poster":"https://image.tmdb.org/t/p/w342/bJ9fGn0t9XO2Mjz1P05OQh76AaI.jpg","year":"2024","result":"HD","language":["Hindi"],"country":["IN"],"original_language":"hi","genres":["Romance","Drama","Comedy"],"imdb_id":"tt20854856"},{"id":"1357662","type":"movie","title":"Janaka Aithe Ganaka","poster":"https://image.tmdb.org/t/p/w342/aAMn1DhI9lRlKNoLrLMTh3kU6iB.jpg","year":"2024","result":"HD","language":["Hindi"],"country":[],"original_language":"te","genres":["Comedy"],"imdb_id":"tt32843331"},{"id":"1276778","type":"movie","title":"Jhamkudi","poster":"https://image.tmdb.org/t/p/w342/WV1qNsQFUKdP4bdUIyWkUVAV8W.jpg","year":"2024","result":"HD","language":["Hindi"],"country":["IN"],"original_language":"gu","genres":["Comedy","Horror"],"imdb_id":"tt32151957"},{"id":"1309913","type":"movie","title":"Jog 101","poster":"https://image.tmdb.org/t/p/w342/533eRykaSaBX7g1YJFkpryUzQiL.jpg","year":"2024","result":"HD","language":["Hindi"],"country":[],"original_language":"kn","genres":[],"imdb_id":"tt28938866"},{"id":"1353436","type":"movie","title":"KA","poster":"https://image.tmdb.org/t/p/w342/4Gj7cWuKmWXu1CxwtrzclBlnlm8.jpg","year":"2024","result":"HD","language":["Hindi"],"country":["IN"],"original_language":"te","genres":["Action","Thriller"],"imdb_id":"tt32887285"},{"id":"1151612","type":"movie","title":"Kadha Innuvare","poster":"https://image.tmdb.org/t/p/w342/rva44wdp5NsJwL6QY9U6U2nNSfr.jpg","year":"2024","result":"HD","language":["Hindi"],"country":["IN"],"original_language":"ml","genres":["Family","Drama","Romance"],"imdb_id":"tt28372186"},{"id":"1150401","type":"movie","title":"Kalvan","poster":"https://image.tmdb.org/t/p/w342/bI0jXFPXszHjp6AB6DRVzGcQVGz.jpg","year":"2024","result":"HD","language":["Hindi"],"country":["IN"],"original_language":"ta","genres":["Drama"],"imdb_id":"tt25813550"},{"id":"1260448","type":"movie","title":"Kerebete","poster":"https://image.tmdb.org/t/p/w342/poOgDC53Q2pqiUfxjseKnTuqbfu.jpg","year":"2024","result":"HD","language":["Hindi"],"country":[],"original_language":"kn","genres":["Drama","Romance"],"imdb_id":"tt29626195"},{"id":"1305009","type":"movie","title":"Kotee","poster":"https://image.tmdb.org/t/p/w342/LSy90qkpgs336Cxc7jovvSqsIo.jpg","year":"2024","result":"HD","language":["Hindi"],"country":["IN"],"original_language":"kn","genres":["Drama","Thriller"],"imdb_id":"tt27494630"},{"id":"1372090","type":"movie","title":"Love Reddy","poster":"https://image.tmdb.org/t/p/w342/A6JcxUu70P1ylx77BjoJdq98GSD.jpg","year":"2024","result":"HD","language":["Hindi"],"country":["IN"],"original_language":"te","genres":["Romance","Drama"],"imdb_id":"tt29491755"},{"id":"1186350","type":"movie","title":"Marco","poster":"https://image.tmdb.org/t/p/w342/il3ao5gcF6fZNqo1o9o7lusmEyU.jpg","year":"2024","result":"HD","language":["Hindi"],"country":["IN"],"original_language":"ml","genres":["Action","Crime","Thriller"],"imdb_id":"tt29383379"},{"id":"861451","type":"movie","title":"Martin","poster":"https://image.tmdb.org/t/p/w342/rmCJCFrEwPC0u0Y1smihwDo4Cf1.jpg","year":"2024","result":"HD","language":["Hindi"],"country":["IN"],"original_language":"kn","genres":["Action","Drama","Thriller"],"imdb_id":"tt15334030"},{"id":"1147058","type":"movie","title":"MAX","poster":"https://image.tmdb.org/t/p/w342/wrkPOgbJpqCRqY0Z8cbltxLGwzl.jpg","year":"2024","result":"HD","language":["Hindi"],"country":["IN"],"original_language":"kn","genres":["Action","Drama"],"imdb_id":"tt27853611"},{"id":"156903","type":"tv","title":"Mithya","poster":"https://image.tmdb.org/t/p/w342/36aeKw3ZzzHZJlXDJ4JIJzEPPfJ.jpg","year":"2024","result":"HD","language":["Hindi"],"country":["IN"],"original_language":"hi","genres":["Mystery","Drama"],"imdb_id":"tt17494264","latest_uploaded_season":2,"total_uploaded_episodes":12},{"id":"1369080","type":"movie","title":"Mittran Da Challeya Truck Ni","poster":"https://image.tmdb.org/t/p/w342/atc9JqQkvDn2GFqmOtIMeUD2NIU.jpg","year":"2024","result":"HD","language":["Hindi"],"country":["IN"],"original_language":"pa","genres":["Comedy"],"imdb_id":"tt33395924"},{"id":"1232219","type":"movie","title":"Mr Bachchan","poster":"https://image.tmdb.org/t/p/w342/55TWpe9GvJEx2dq8fWoroIbJRvI.jpg","year":"2024","result":"HD","language":["Hindi"],"country":["IN"],"original_language":"te","genres":["Action","Drama","Romance"],"imdb_id":"tt28282872"},{"id":"1304474","type":"movie","title":"Music Shop Murthy","poster":"https://image.tmdb.org/t/p/w342/rBWdVurS2VxXisCWEVNPCPVHnHG.jpg","year":"2024","result":"HD","language":["Hindi"],"country":[],"original_language":"te","genres":["Drama","Comedy"],"imdb_id":"tt32189369"},{"id":"922360","type":"movie","title":"Nirangal Moondru","poster":"https://image.tmdb.org/t/p/w342/sGzSgkWpNIXooUaiXRObhKqdtaN.jpg","year":"2024","result":"HD","language":["Hindi"],"country":["IN"],"original_language":"ta","genres":["Thriller"],"imdb_id":"tt23646278"},{"id":"1248487","type":"movie","title":"Om Bheem Bush","poster":"https://image.tmdb.org/t/p/w342/x1dtomYuwo0vkeXyu6GY1OSxO7L.jpg","year":"2024","result":"HD","language":["Hindi"],"country":["IN"],"original_language":"te","genres":["Comedy","Horror"],"imdb_id":"tt31435642"},{"id":"1398967","type":"movie","title":"Once Upon a Time in Madras","poster":"https://image.tmdb.org/t/p/w342/waJePev0h6x1zORqCm4A54rfS8p.jpg","year":"2024","result":"HD","language":["Hindi"],"country":["IN"],"original_language":"ta","genres":["Thriller"],"imdb_id":"tt32110451"},{"id":"1381727","type":"movie","title":"Operation Raavan","poster":"https://image.tmdb.org/t/p/w342/4CwSAsz66GjF4nRcCMoKFkazj3p.jpg","year":"2024","result":"HD","language":["Hindi"],"country":["IN"],"original_language":"te","genres":["Crime","Thriller"],"imdb_id":"tt28629230"},{"id":"1248457","type":"movie","title":"OutHouse","poster":"https://image.tmdb.org/t/p/w342/thZAl6v5rZGXIwrQcypwMoM5v49.jpg","year":"2024","result":"HD","language":["Hindi"],"country":["IN"],"original_language":"hi","genres":["Drama","Romance"],"imdb_id":"tt34869601"},{"id":"831244","type":"movie","title":"Paani","poster":"https://image.tmdb.org/t/p/w342/qR2FY0KoNVktSl3ztawQfkLxKxj.jpg","year":"2024","result":"HD","language":["Hindi"],"country":["IN","US"],"original_language":"mr","genres":["Drama"],"imdb_id":"tt8484582"},{"id":"1194788","type":"movie","title":"Pani","poster":"https://image.tmdb.org/t/p/w342/1JQpkfOIrIXhTTbTmzryVX3GZZK.jpg","year":"2024","result":"HD","language":["Hindi"],"country":["IN"],"original_language":"ml","genres":["Action","Crime"],"imdb_id":"tt29461220"},{"id":"1399754","type":"movie","title":"Panjab Files","poster":"https://image.tmdb.org/t/p/w342/28bCMDJP1ZaEFHVIupy6JLcbX1I.jpg","year":"2024","result":"HD","language":["PUNJABI"],"country":["IN"],"original_language":"pa","genres":["Action","Adventure","Drama","History"],"imdb_id":"tt32308591"},{"id":"1321835","type":"movie","title":"Park","poster":"https://image.tmdb.org/t/p/w342/iKXvvz1P6fyZdHTJwISmkRFbmNC.jpg","year":"2024","result":"HD","language":["Hindi"],"country":["IN"],"original_language":"ta","genres":["Thriller","Horror"],"imdb_id":"tt33041909"},{"id":"1321821","type":"movie","title":"Pechi","poster":"https://image.tmdb.org/t/p/w342/6Pla6xHgD0kep7S9z6KfXzi6B4l.jpg","year":"2024","result":"HD","language":["Hindi"],"country":["IN"],"original_language":"ta","genres":["Horror"],"imdb_id":"tt33034505"},{"id":"1172241","type":"movie","title":"Pepe","poster":"https://image.tmdb.org/t/p/w342/kp48PDp0fdsBPYLXJ6VUiYBzJfV.jpg","year":"2024","result":"HD","language":["Hindi"],"country":["DO","FR","DE","NA"],"original_language":"es","genres":["Drama"],"imdb_id":"tt10781034"},{"id":"1321718","type":"movie","title":"Purushothamudu","poster":"https://image.tmdb.org/t/p/w342/axtUeYtmVF14hPeQrZHx5PJGjMl.jpg","year":"2024","result":"HD","language":["Hindi"],"country":[],"original_language":"te","genres":["Family","Action","Romance"],"imdb_id":"tt32308382"},{"id":"857598","type":"movie","title":"Pushpa 2 - The Rule","poster":"https://image.tmdb.org/t/p/w342/bhxZj3y59cK7JtGdV285dhDRaMe.jpg","year":"2024","result":"HD","language":["Hindi"],"country":["IN"],"original_language":"te","genres":["Action","Drama","Thriller","Crime"],"imdb_id":"tt16539454"},{"id":"1390957","type":"movie","title":"Raduaa Returns","poster":"https://image.tmdb.org/t/p/w342/8ecsv0KyTBKr3mCrEokqJJMM469.jpg","year":"2024","result":"HD","language":["Hindi"],"country":[],"original_language":"pa","genres":["Science Fiction"],"imdb_id":"tt22330520"},{"id":"1302212","type":"movie","title":"Rakshana","poster":"https://image.tmdb.org/t/p/w342/xLlByx2Yn6maBjEVbOHPlwBMiMK.jpg","year":"2024","result":"HD","language":["Hindi"],"country":["IN"],"original_language":"te","genres":["Crime","Thriller"],"imdb_id":"tt32423978"},{"id":"1210466","type":"movie","title":"Razakar: The Silent Genocide of Hyderabad","poster":"https://image.tmdb.org/t/p/w342/ieplpESS4twYnlRTXZTyFxBzpi9.jpg","year":"2024","result":"HD","language":["Hindi"],"country":["IN"],"original_language":"te","genres":["History","Drama"],"imdb_id":"tt29224742"},{"id":"1177623","type":"movie","title":"Rifle Club","poster":"https://image.tmdb.org/t/p/w342/k1czxgmnH63A7old7hL4oNzqYMw.jpg","year":"2024","result":"HD","language":["Hindi"],"country":["IN"],"original_language":"ml","genres":["Action","Thriller"],"imdb_id":"tt31188121"},{"id":"1379273","type":"movie","title":"Sector 17","poster":"https://image.tmdb.org/t/p/w342/tlJlod9Rps5ZcIXy5knfnreJUde.jpg","year":"2024","result":"HD","language":["PUNJABI"],"country":["IN"],"original_language":"pa","genres":["Action","Adventure","Thriller"],"imdb_id":"tt33044935"},{"id":"1225458","type":"movie","title":"Sevappi","poster":"https://image.tmdb.org/t/p/w342/kDdiOgmMXmnjH8zwisJTpAzK6ho.jpg","year":"2024","result":"HD","language":["Hindi"],"country":[],"original_language":"ta","genres":["Drama"],"imdb_id":"tt30828158"},{"id":"1324173","type":"movie","title":"Shivam Bhaje","poster":"https://image.tmdb.org/t/p/w342/gmmXxCKT4E24PMfnMGRm7xPNuc7.jpg","year":"2024","result":"HD","language":["Hindi"],"country":[],"original_language":"te","genres":["Action","Mystery","Thriller"],"imdb_id":"tt31711525"},{"id":"1224364","type":"movie","title":"Shivrayancha Chhava","poster":"https://image.tmdb.org/t/p/w342/6sQzGwxf3FoJMgmUdBTEjHsctJJ.jpg","year":"2024","result":"HD","language":["Hindi"],"country":["IN"],"original_language":"mr","genres":["History","Drama","Action"],"imdb_id":"tt30497782"},{"id":"950075","type":"movie","title":"Sookshmadarshini","poster":"https://image.tmdb.org/t/p/w342/rOZt5FVZC51keFRRUSzWGE5y1Rt.jpg","year":"2024","result":"HD","language":["Hindi"],"country":["IN"],"original_language":"ml","genres":["Mystery","Thriller","Comedy"],"imdb_id":"tt32495687"},{"id":"1323267","type":"movie","title":"Sorgavaasal","poster":"https://image.tmdb.org/t/p/w342/9poph8OdbAo2XUy9dJZpZGtOI6W.jpg","year":"2024","result":"HD","language":["Hindi"],"country":["IN"],"original_language":"ta","genres":["Action","Crime","Thriller","Drama"],"imdb_id":"tt27179695"},{"id":"1406816","type":"movie","title":"Srikakulam SherlockHolmes","poster":"https://image.tmdb.org/t/p/w342/5uFqY6ksaKQVC3DdV1mA5IjMlgr.jpg","year":"2024","result":"HD","language":["Hindi"],"country":["IN"],"original_language":"te","genres":["Thriller"],"imdb_id":"tt32495402"},{"id":"1252542","type":"movie","title":"Swag","poster":"https://image.tmdb.org/t/p/w342/59j909O4PVE7vZxFU0JzuDzLuo7.jpg","year":"2024","result":"HD","language":["Hindi"],"country":["IN"],"original_language":"te","genres":["Comedy","Drama"],"imdb_id":"tt28351127"},{"id":"1363622","type":"movie","title":"Tabaah","poster":"https://image.tmdb.org/t/p/w342/wHW4O5eJ7j0hSEZSHEPewkMuP99.jpg","year":"2024","result":"HD","language":["PUNJABI"],"country":["IN"],"original_language":"pa","genres":["Drama"],"imdb_id":"tt33674620"},{"id":"1493423","type":"movie","title":"The Lost Girl","poster":"https://image.tmdb.org/t/p/w342/mPPfEY70sUoUmvGduKOYayCyQje.jpg","year":"2024","result":"HD","language":["Hindi"],"country":[],"original_language":"hi","genres":[],"imdb_id":"tt31612810"},{"id":"942386","type":"movie","title":"The Smile Man","poster":"https://image.tmdb.org/t/p/w342/p8J4IroY8tzRrtEckuetnMKLc42.jpg","year":"2024","result":"HD","language":["Hindi"],"country":["IN"],"original_language":"ta","genres":["Crime","Mystery","Thriller","Drama"],"imdb_id":"tt18305194"},{"id":"1171732","type":"movie","title":"Tiragabadara Saami","poster":"https://image.tmdb.org/t/p/w342/sA5YAHQPaZQo0Ll7fC1q63SKKsN.jpg","year":"2024","result":"HD","language":["Hindi"],"country":["IN"],"original_language":"te","genres":["Action","Romance"],"imdb_id":"tt23875402"},{"id":"984500","type":"movie","title":"UI","poster":"https://image.tmdb.org/t/p/w342/tWoeysV4ro6wn4TE0QgqMuo6Val.jpg","year":"2024","result":"HD","language":["Hindi"],"country":["IN"],"original_language":"kn","genres":["Thriller","Fantasy"],"imdb_id":"tt23875550"},{"id":"1371030","type":"movie","title":"Vanvaas","poster":"https://image.tmdb.org/t/p/w342/rMFHWTeMeBB6xr6eIfoWfsqzito.jpg","year":"2024","result":"HD","language":["Hindi"],"country":["IN"],"original_language":"hi","genres":["Drama"],"imdb_id":"tt29120307"}]}