{"page":37,"total_pages":66,"total_items":3272,"items":[{"id":"1039773","type":"movie","title":"The American Society of Magical Negroes","poster":"https://image.tmdb.org/t/p/w342/czV7JRPPPGk9bqUsnJuJUYn34mM.jpg","year":"2024","result":"HD","language":["Hindi"],"country":["US"],"original_language":"en","genres":["Fantasy","Comedy"],"imdb_id":"tt30007864"},{"id":"1329336","type":"movie","title":"The Bad Guys: Haunted Heist","poster":"https://image.tmdb.org/t/p/w342/oEJC05CqPugMxC4rFu9r6r6vg6m.jpg","year":"2024","result":"HD","language":["Hindi"],"country":["US"],"original_language":"en","genres":["Animation","Comedy"],"imdb_id":"tt33130902"},{"id":"1008409","type":"movie","title":"The Bikeriders","poster":"https://image.tmdb.org/t/p/w342/ApMuukdDAOR2rgaFDZIcjfigi64.jpg","year":"2024","result":"HD","language":["Hindi"],"country":["US"],"original_language":"en","genres":["Crime","Drama"],"imdb_id":"tt21454134"},{"id":"930600","type":"movie","title":"The Deliverance","poster":"https://image.tmdb.org/t/p/w342/og1FteMFRInoQnlZeWqEn8XpXHh.jpg","year":"2024","result":"HD","language":["Hindi"],"country":["US"],"original_language":"en","genres":["Horror","Thriller"],"imdb_id":"tt4196566"},{"id":"1359153","type":"movie","title":"The Diary","poster":"https://image.tmdb.org/t/p/w342/8yx3EK6omL8mD8mcmHR7nmiboex.jpg","year":"2024","result":"HD","language":["Hindi"],"country":["US","MX"],"original_language":"es","genres":["Thriller","Drama"],"imdb_id":"tt28576307"},{"id":"970347","type":"movie","title":"The Killer","poster":"https://image.tmdb.org/t/p/w342/6PCnxKZZIVRanWb710pNpYVkCSw.jpg","year":"2024","result":"HD","language":["Hindi"],"country":["CA","US"],"original_language":"en","genres":["Action","Thriller","Crime"],"imdb_id":"tt1121948"},{"id":"1360610","type":"movie","title":"The Menendez Brothers","poster":"https://image.tmdb.org/t/p/w342/zQ32RXVzrNq93TgfKMP4Q3rkzDe.jpg","year":"2024","result":"HD","language":["Hindi"],"country":["US"],"original_language":"en","genres":["Documentary"],"imdb_id":"tt33481094"},{"id":"1125510","type":"movie","title":"The Platform 2","poster":"https://image.tmdb.org/t/p/w342/tvIpBg12IIA5Dr9Sjn38ygS1vQp.jpg","year":"2024","result":"HD","language":["Hindi"],"country":["ES"],"original_language":"es","genres":["Science Fiction","Horror","Thriller"],"imdb_id":"tt27729779"},{"id":"1210794","type":"movie","title":"Trouble","poster":"https://image.tmdb.org/t/p/w342/ildbg7ho14EHbt1fZWAkgqIyPqy.jpg","year":"2024","result":"HD","language":["Hindi"],"country":["SE"],"original_language":"sv","genres":["Action","Comedy","Crime"],"imdb_id":"tt30217143"},{"id":"1115009","type":"movie","title":"Unsung Hero","poster":"https://image.tmdb.org/t/p/w342/mtkAdP8l8Hx9bIF2JChLdpy3VQL.jpg","year":"2024","result":"HD","language":["Hindi"],"country":["US"],"original_language":"en","genres":["Drama","Music","Family"],"imdb_id":"tt23638614"},{"id":"835113","type":"movie","title":"Woman of the Hour","poster":"https://image.tmdb.org/t/p/w342/nc9ZqrJFbcUdlMg9lxXXtJb24jU.jpg","year":"2024","result":"HD","language":["Hindi"],"country":["US"],"original_language":"en","genres":["Crime","Drama","Thriller"],"imdb_id":"tt7737800"},{"id":"890138","type":"movie","title":"A.R.M - Ajayante Randam Moshanam","poster":"https://image.tmdb.org/t/p/w342/OClpEeRlHK3DrFO7QtWXtpDIOK.jpg","year":"2024","result":"HD","language":["Hindi"],"country":["IN"],"original_language":"ml","genres":["Action","Adventure","Drama"],"imdb_id":"tt11531182"},{"id":"1238167","type":"movie","title":"Agni","poster":"https://image.tmdb.org/t/p/w342/zx3UOe5rZ7uH5lMs3JxEMU0nNXB.jpg","year":"2024","result":"HD","language":["Hindi"],"country":["IN"],"original_language":"hi","genres":["Action","Adventure"],"imdb_id":"tt27930683"},{"id":"274276","type":"tv","title":"Aindham Vedham","poster":"https://image.tmdb.org/t/p/w342/i6zuyH4zuEHxezNPwSRgOADkQ1F.jpg","year":"2024","result":"HD","language":["Hindi"],"country":["IN"],"original_language":"ta","genres":["Mystery"],"imdb_id":"tt33983792","latest_uploaded_season":1,"total_uploaded_episodes":1},{"id":"1325057","type":"movie","title":"Alanaati Ramachandrudu","poster":"https://image.tmdb.org/t/p/w342/a9JjaHnmSMf6bBIFq2p3OoT0bfx.jpg","year":"2024","result":"HD","language":["Hindi"],"country":["IN"],"original_language":"te","genres":["Romance","Family","Drama"],"imdb_id":"tt31939390"},{"id":"777292","type":"movie","title":"Bagheera","poster":"https://image.tmdb.org/t/p/w342/ziXyy0zgmwf4oTunSsUHDyOZBeC.jpg","year":"2024","result":"HD","language":["Hindi"],"country":["IN"],"original_language":"kn","genres":["Action","Adventure"],"imdb_id":"tt15380608"},{"id":"933290","type":"movie","title":"Bardovi","poster":"https://image.tmdb.org/t/p/w342/ezko33W72peI6ek6LYYo43DFwb0.jpg","year":"2024","result":"HD","language":["Hindi"],"country":["IN"],"original_language":"hi","genres":["Horror","Drama","Thriller"],"imdb_id":"tt18079046"},{"id":"1403696","type":"movie","title":"Benaam Rishta","poster":"https://image.tmdb.org/t/p/w342/6UyBEm7Ma28EQYrTPtaRjfeyRu7.jpg","year":"2024","result":"HD","language":["Hindi"],"country":["IN"],"original_language":"hi","genres":["Drama"],"imdb_id":"tt34991464"},{"id":"1268119","type":"movie","title":"Bengal 1947","poster":"https://image.tmdb.org/t/p/w342/hZh9LyZgr0Ro01kNjthaM7l0GjE.jpg","year":"2024","result":"HD","language":["Hindi"],"country":[],"original_language":"hi","genres":[],"imdb_id":"tt31702328"},{"id":"980599","type":"movie","title":"Bhool Bhulaiyaa 3","poster":"https://image.tmdb.org/t/p/w342/3AfHD1HoaQpQwKH8kxRdBKVmzeU.jpg","year":"2024","result":"HD","language":["Hindi"],"country":["IN"],"original_language":"hi","genres":["Horror","Comedy"],"imdb_id":"tt26932223"},{"id":"1177224","type":"movie","title":"Bougainvillea","poster":"https://image.tmdb.org/t/p/w342/lH5bWsODh1QU6aia1ZpaC79kq2j.jpg","year":"2024","result":"HD","language":["Hindi"],"country":["IN"],"original_language":"ml","genres":["Mystery","Thriller"],"imdb_id":"tt32592802"},{"id":"1230162","type":"movie","title":"Case of Kondana","poster":"https://image.tmdb.org/t/p/w342/zasfTaHaDzdqpUQxy0Y5tl6Mz8H.jpg","year":"2024","result":"HD","language":["Hindi"],"country":[],"original_language":"kn","genres":["Crime","Thriller"],"imdb_id":"tt30429449"},{"id":"1305602","type":"movie","title":"Chilli Chicken","poster":"https://image.tmdb.org/t/p/w342/5Aa0A7pN7IuKqen0nYuD7pIKzqf.jpg","year":"2024","result":"HD","language":["Hindi"],"country":[],"original_language":"kn","genres":["Drama","Comedy"],"imdb_id":"tt28054637"},{"id":"1377388","type":"movie","title":"Criminal or Devil","poster":"https://image.tmdb.org/t/p/w342/5xRZbs7pSDZOHjrySBa8aXmmyiT.jpg","year":"2024","result":"HD","language":["Hindi"],"country":[],"original_language":"te","genres":["Thriller","Drama"],"imdb_id":"tt32424592"},{"id":"96312","type":"tv","title":"Cubicles","poster":"https://image.tmdb.org/t/p/w342/vfjIBMXJK8rmvJ3SrAInlhM7v5e.jpg","year":"2024","result":"HD","language":["Hindi"],"country":["IN"],"original_language":"hi","genres":["Comedy","Drama"],"imdb_id":"tt11379698","latest_uploaded_season":4,"total_uploaded_episodes":8},{"id":"1224231","type":"movie","title":"Dashmi","poster":"https://image.tmdb.org/t/p/w342/jMyD3RjhzEKVgGaG860Y4AAP1QJ.jpg","year":"2024","result":"HD","language":["Hindi"],"country":["IN"],"original_language":"hi","genres":["Drama","Thriller"],"imdb_id":"tt29298252"},{"id":"1069910","type":"movie","title":"Despatch","poster":"https://image.tmdb.org/t/p/w342/chn341XKezmUfGO2hdin5grCZU5.jpg","year":"2024","result":"HD","language":["Hindi"],"country":["IN"],"original_language":"hi","genres":["Drama","Thriller"],"imdb_id":"tt15260176"},{"id":"1167205","type":"movie","title":"Devil","poster":"https://image.tmdb.org/t/p/w342/mKiVRs9qfHoFGHSVqLTohd8lEQm.jpg","year":"2024","result":"HD","language":["Hindi"],"country":["IN"],"original_language":"ta","genres":["Horror","Thriller"],"imdb_id":"tt24689612"},{"id":"1323046","type":"movie","title":"Dharmaveer 2","poster":"https://image.tmdb.org/t/p/w342/m4SHtLoSfatigDMZxpsX8E7NuVH.jpg","year":"2024","result":"HD","language":["Hindi"],"country":["IN"],"original_language":"mr","genres":["Drama"],"imdb_id":"tt28631109"},{"id":"1148172","type":"movie","title":"Do Patti","poster":"https://image.tmdb.org/t/p/w342/wbXSE68cDwqUPsHJcpdu7I5kSLK.jpg","year":"2024","result":"HD","language":["Hindi"],"country":["IN"],"original_language":"hi","genres":["Thriller","Drama"],"imdb_id":"tt28075881"},{"id":"274367","type":"tv","title":"Fisaddi","poster":"https://image.tmdb.org/t/p/w342/7rp4P7W3l7nspeCvCvaNwR0zo1o.jpg","year":"2024","result":"HD","language":["Hindi"],"country":["IN"],"original_language":"hi","genres":["Drama"],"imdb_id":"tt33984553","latest_uploaded_season":1,"total_uploaded_episodes":1},{"id":"886385","type":"movie","title":"Gaami","poster":"https://image.tmdb.org/t/p/w342/nruKcKWmuP7ce7sBGBNViHJaZrZ.jpg","year":"2024","result":"HD","language":["Hindi"],"country":["IN"],"original_language":"te","genres":["Adventure","Thriller","Science Fiction","Fantasy"],"imdb_id":"tt27657791"},{"id":"1222140","type":"movie","title":"Golam","poster":"https://image.tmdb.org/t/p/w342/Aa30QzjokChiDOtuV27cfOSSVOA.jpg","year":"2024","result":"HD","language":["Hindi"],"country":["IN"],"original_language":"ml","genres":["Crime","Thriller"],"imdb_id":"tt29272469"},{"id":"1355588","type":"movie","title":"Hide N Seek","poster":"https://image.tmdb.org/t/p/w342/cYSekNhfPK3bMnkgBQAmMSBlMsm.jpg","year":"2024","result":"HD","language":["Hindi"],"country":["IN"],"original_language":"te","genres":["Action","Crime","Thriller"],"imdb_id":"tt33088719"},{"id":"1263031","type":"movie","title":"I Want to Talk","poster":"https://image.tmdb.org/t/p/w342/rqzv36dIy15ZdJvud02mYKKCRyT.jpg","year":"2024","result":"HD","language":["Hindi"],"country":["IN"],"original_language":"hi","genres":["Drama","Family"],"imdb_id":"tt27866861"},{"id":"1184889","type":"movie","title":"Jigra","poster":"https://image.tmdb.org/t/p/w342/mhnT27mgtiMNowOhAlMWSqBoSyb.jpg","year":"2024","result":"HD","language":["Hindi"],"country":["IN"],"original_language":"hi","genres":["Action","Drama","Thriller"],"imdb_id":"tt26733317"},{"id":"1352962","type":"movie","title":"Kalinga","poster":"https://image.tmdb.org/t/p/w342/y62MzCi3Auwb1T4aGDPNE2gLyIE.jpg","year":"2024","result":"HD","language":["Hindi"],"country":["IN"],"original_language":"te","genres":["Horror"],"imdb_id":"tt32880190"},{"id":"279370","type":"tv","title":"Karate Girls","poster":"https://image.tmdb.org/t/p/w342/4QjBZkRkGPqmvMjGh95hsBJJRVB.jpg","year":"2024","result":"HD","language":["Hindi"],"country":["IN"],"original_language":"hi","genres":["Drama"],"imdb_id":"tt34958392","latest_uploaded_season":1,"total_uploaded_episodes":1},{"id":"280566","type":"tv","title":"Khoj - Parchaiyo Ke Uss Paar","poster":"https://image.tmdb.org/t/p/w342/f0xvvdioF4OHBgeFU0F3Yje1bEG.jpg","year":"2024","result":"HD","language":["Hindi"],"country":["IN"],"original_language":"hi","genres":["Drama","Mystery"],"imdb_id":"tt35049431","latest_uploaded_season":1,"total_uploaded_episodes":1},{"id":"1059268","type":"movie","title":"Khwaabon Ka Jhamela","poster":"https://image.tmdb.org/t/p/w342/hbty5wMoyo90C3XZdmXi5lOlxpF.jpg","year":"2024","result":"HD","language":["Hindi"],"country":["IN","GB"],"original_language":"hi","genres":["Drama","Romance","Comedy"],"imdb_id":"tt21159080"},{"id":"1363915","type":"movie","title":"Krispy Rishtey","poster":"https://image.tmdb.org/t/p/w342/ebibK5TuIO5XQFaU0swrURGS6nc.jpg","year":"2024","result":"HD","language":["Hindi"],"country":["IN"],"original_language":"hi","genres":["Romance","Drama"],"imdb_id":"tt33333953"},{"id":"1097000","type":"movie","title":"Lubber Pandhu","poster":"https://image.tmdb.org/t/p/w342/jNyLZjIgaYVkBli2JihHwABlAPY.jpg","year":"2024","result":"HD","language":["Hindi"],"country":["IN"],"original_language":"ta","genres":["Family","Drama","Comedy"],"imdb_id":"tt27007466"},{"id":"278332","type":"tv","title":"Maeri","poster":"https://image.tmdb.org/t/p/w342/yI5dWf81zPSMgC8w4BPrfDFliRL.jpg","year":"2024","result":"HD","language":["Hindi"],"country":["IN"],"original_language":"hi","genres":["Drama"],"imdb_id":"tt34792559","latest_uploaded_season":1,"total_uploaded_episodes":1},{"id":"1270473","type":"movie","title":"Marigold","poster":"https://m.media-amazon.com/images/M/MV5BOTMzOTE1YjAtNDIwZS00NTVhLTk1MjctZDQ2NWQzZTc0ZGJmXkEyXkFqcGc@._V1_FMjpg_UX1000_.jpg","year":"2024","result":"HD","language":["Hindi"],"country":[],"original_language":"kn","genres":[],"imdb_id":"tt15722720"},{"id":"896954","type":"movie","title":"Mazhai Pidikatha Manithan","poster":"https://image.tmdb.org/t/p/w342/udYR53s43JCHzqCLqDbIK5rGuGj.jpg","year":"2024","result":"HD","language":["Hindi"],"country":["IN"],"original_language":"ta","genres":["Action","Thriller"],"imdb_id":"tt27413174"},{"id":"1136423","type":"movie","title":"Meiyazhagan","poster":"https://image.tmdb.org/t/p/w342/ngDEH7YqVaMCAD4LpNxRl6ScJnw.jpg","year":"2024","result":"HD","language":["Hindi"],"country":["IN"],"original_language":"ta","genres":["Family","Drama"],"imdb_id":"tt26758372"},{"id":"278587","type":"tv","title":"Mohrey","poster":"https://image.tmdb.org/t/p/w342/dN10HVesglHe0dXpP9NE4sX14uo.jpg","year":"2024","result":"HD","language":["Hindi"],"country":["IN"],"original_language":"hi","genres":["Drama","Mystery"],"imdb_id":"tt34861364","latest_uploaded_season":1,"total_uploaded_episodes":1},{"id":"1228693","type":"movie","title":"Mura","poster":"https://image.tmdb.org/t/p/w342/7UOVrVNUK1fYqOVcapM0cJz1l8A.jpg","year":"2024","result":"HD","language":["Hindi"],"country":["IN"],"original_language":"ml","genres":["Action","Thriller"],"imdb_id":"tt33294237"},{"id":"1254518","type":"movie","title":"My Dear Donga","poster":"https://image.tmdb.org/t/p/w342/yCJWZSmUT6axBxJbUsZOXCJCAwx.jpg","year":"2024","result":"HD","language":["Hindi"],"country":["IN"],"original_language":"te","genres":["Comedy","Drama"],"imdb_id":"tt31592847"},{"id":"1243093","type":"movie","title":"Ni Main Sass Kuttni 2","poster":"https://image.tmdb.org/t/p/w342/nkInS6oDku7r7UzTSWjVoVcYboN.jpg","year":"2024","result":"HD","language":["Hindi"],"country":["IN"],"original_language":"pa","genres":["Comedy","Drama"],"imdb_id":"tt29456689"}]}