{"page":27,"total_pages":66,"total_items":3272,"items":[{"id":"233686","type":"tv","title":"Karma","poster":"https://image.tmdb.org/t/p/w342/nZ7SFBgEhgSCaQFFActjcBQeIV1.jpg","year":"2025","result":"HD","language":["Hindi"],"country":["KR"],"original_language":"ko","genres":["Crime","Drama"],"imdb_id":"tt29921070","latest_uploaded_season":1,"total_uploaded_episodes":6},{"id":"232402","type":"tv","title":"S Line","poster":"https://image.tmdb.org/t/p/w342/7TGolwcia6AI6uvInBOoedAi9Il.jpg","year":"2025","result":"HD","language":["Hindi"],"country":["KR"],"original_language":"ko","genres":["Sci-Fi & Fantasy","Drama","Mystery"],"imdb_id":"tt36056620","latest_uploaded_season":1,"total_uploaded_episodes":6},{"id":"232230","type":"tv","title":"Lord of Mysteries","poster":"https://image.tmdb.org/t/p/w342/c8fHePq3yTn3WvZd4hupkHwsjm5.jpg","year":"2025","result":"HD","language":["Hindi"],"country":["CN"],"original_language":"zh","genres":["Animation","Mystery","Sci-Fi & Fantasy","Action & Adventure"],"imdb_id":"tt28618556","latest_uploaded_season":2,"total_uploaded_episodes":43},{"id":"231727","type":"tv","title":"Wolf King","poster":"https://image.tmdb.org/t/p/w342/jgs2AtxtOMRuVHYjSofbv3P9WnN.jpg","year":"2025","result":"HD","language":["Hindi"],"country":["GB"],"original_language":"en","genres":["Animation","Action & Adventure","Kids","Sci-Fi & Fantasy"],"imdb_id":"tt20917940","latest_uploaded_season":2,"total_uploaded_episodes":16},{"id":"231280","type":"tv","title":"Good Boy","poster":"https://image.tmdb.org/t/p/w342/59MAdHaHepsz3uDCU1LyoNQcLlT.jpg","year":"2025","result":"HD","language":["Hindi"],"country":["KR"],"original_language":"ko","genres":["Crime","Comedy","Action & Adventure","Drama"],"imdb_id":"tt32361930","latest_uploaded_season":1,"total_uploaded_episodes":16},{"id":"229958","type":"tv","title":"Aema","poster":"https://image.tmdb.org/t/p/w342/jD8uwm1fvt6y2yxjSO6R9IOFwQQ.jpg","year":"2025","result":"HD","language":["Hindi"],"country":["KR"],"original_language":"ko","genres":["Drama","Comedy"],"imdb_id":"tt29059394","latest_uploaded_season":1,"total_uploaded_episodes":6},{"id":"228689","type":"tv","title":"Genie, Make a Wish","poster":"https://image.tmdb.org/t/p/w342/opop2u7Jav6lMNL8fSBTzOeFBDz.jpg","year":"2025","result":"HD","language":["Hindi"],"country":["KR"],"original_language":"ko","genres":["Sci-Fi & Fantasy","Comedy","Drama"],"imdb_id":"tt32409807","latest_uploaded_season":1,"total_uploaded_episodes":13},{"id":"227114","type":"tv","title":"Butterfly","poster":"https://image.tmdb.org/t/p/w342/8x1W0TR2VIe7ORaRI9zwDqeJn9q.jpg","year":"2025","result":"HD","language":["Hindi"],"country":["US"],"original_language":"en","genres":["Action & Adventure","Drama"],"imdb_id":"tt26672404","latest_uploaded_season":1,"total_uploaded_episodes":6},{"id":"225647","type":"tv","title":"Boots","poster":"https://image.tmdb.org/t/p/w342/eEwe68oPFFDU4ehZ3sXiETE44Rt.jpg","year":"2025","result":"HD","language":["Hindi"],"country":["US"],"original_language":"en","genres":["Comedy","Drama","War & Politics"],"imdb_id":"tt27987047","latest_uploaded_season":1,"total_uploaded_episodes":8},{"id":"225361","type":"tv","title":"BAT-FAM","poster":"https://image.tmdb.org/t/p/w342/8C34YTylNBt4DWM1a9oAAXqmTSr.jpg","year":"2025","result":"HD","language":["Hindi"],"country":["US"],"original_language":"en","genres":["Animation","Family"],"imdb_id":"tt27621333","latest_uploaded_season":1,"total_uploaded_episodes":10},{"id":"224414","type":"tv","title":"You and Everything Else","poster":"https://image.tmdb.org/t/p/w342/o6h56VuZMmBDxmpRGwCYqGkMGCj.jpg","year":"2025","result":"HD","language":["Hindi"],"country":["KR"],"original_language":"ko","genres":["Drama"],"imdb_id":"tt31014107","latest_uploaded_season":1,"total_uploaded_episodes":15},{"id":"223300","type":"tv","title":"The Abandons","poster":"https://image.tmdb.org/t/p/w342/rQRzdfc0IlyiwM5HdzHdSYag9FG.jpg","year":"2025","result":"HD","language":["Hindi"],"country":["US"],"original_language":"en","genres":["Drama","Western"],"imdb_id":"tt16280546","latest_uploaded_season":1,"total_uploaded_episodes":7},{"id":"219760","type":"tv","title":"The Terminal List: Dark Wolf","poster":"https://image.tmdb.org/t/p/w342/9mYeRoWguq5etbwJRdF8BXFKiF.jpg","year":"2025","result":"HD","language":["Hindi"],"country":["US"],"original_language":"en","genres":["Action & Adventure","Drama"],"imdb_id":"tt26576161","latest_uploaded_season":1,"total_uploaded_episodes":7},{"id":"219246","type":"tv","title":"When Life Gives You Tangerines","poster":"https://image.tmdb.org/t/p/w342/1VC3sEFxYXYDqQUCAnvWfUsYg1s.jpg","year":"2025","result":"HD","language":["Hindi"],"country":["KR"],"original_language":"ko","genres":["Drama"],"imdb_id":"tt26471411","latest_uploaded_season":1,"total_uploaded_episodes":16},{"id":"219080","type":"tv","title":"The Mighty Nein","poster":"https://image.tmdb.org/t/p/w342/qJTZanXDiJKABLNGRM9LmSg8YT7.jpg","year":"2025","result":"HD","language":["Hindi"],"country":["US"],"original_language":"en","genres":["Animation","Sci-Fi & Fantasy","Action & Adventure"],"imdb_id":"tt26453092","latest_uploaded_season":1,"total_uploaded_episodes":8},{"id":"217553","type":"tv","title":"The Trauma Code: Heroes on Call","poster":"https://image.tmdb.org/t/p/w342/y8h2RwUZM5chv9tuaKVwSPoo3KE.jpg","year":"2025","result":"HD","language":["Hindi"],"country":["KR"],"original_language":"ko","genres":["Drama","Comedy"],"imdb_id":"tt28106730","latest_uploaded_season":1,"total_uploaded_episodes":8},{"id":"217528","type":"tv","title":"Heweliusz","poster":"https://image.tmdb.org/t/p/w342/ieDjrlZCmpY5Cp1Jbenqc46WdNp.jpg","year":"2025","result":"HD","language":["Hindi"],"country":["PL"],"original_language":"pl","genres":["Drama","Mystery"],"imdb_id":"tt32253092","latest_uploaded_season":1,"total_uploaded_episodes":5},{"id":"212766","type":"tv","title":"New Saga","poster":"https://image.tmdb.org/t/p/w342/dmZ74VyWi3I8ZqJ1m3Fmcc1etgp.jpg","year":"2025","result":"HD","language":["Hindi"],"country":["JP"],"original_language":"ja","genres":["Animation","Action & Adventure","Sci-Fi & Fantasy"],"imdb_id":"tt33050376","latest_uploaded_season":1,"total_uploaded_episodes":12},{"id":"209110","type":"tv","title":"The Price of Confession","poster":"https://image.tmdb.org/t/p/w342/gPb8k63HrpvTxHc9yKWZEBR4Kml.jpg","year":"2025","result":"HD","language":["Hindi"],"country":["KR"],"original_language":"ko","genres":["Mystery","Drama"],"imdb_id":"tt37218592","latest_uploaded_season":1,"total_uploaded_episodes":12},{"id":"207332","type":"tv","title":"SAKAMOTO DAYS","poster":"https://image.tmdb.org/t/p/w342/wRpCqsJFyKNuh5FMegNPrhzp2NF.jpg","year":"2025","result":"HD","language":["Hindi"],"country":["JP"],"original_language":"ja","genres":["Animation","Comedy","Action & Adventure"],"imdb_id":"tt17069148","latest_uploaded_season":1,"total_uploaded_episodes":22},{"id":"200875","type":"tv","title":"IT: Welcome to Derry","poster":"https://image.tmdb.org/t/p/w342/nyy3BITeIjviv6PFIXtqvc8i6xi.jpg","year":"2025","result":"HD","language":["Hindi"],"country":["US"],"original_language":"en","genres":["Drama","Mystery"],"imdb_id":"tt19244304","latest_uploaded_season":1,"total_uploaded_episodes":8},{"id":"157239","type":"tv","title":"Alien: Earth","poster":"https://image.tmdb.org/t/p/w342/yueXS3q8BtoWekcHOATFHicLl3e.jpg","year":"2025","result":"HD","language":["Hindi"],"country":["US"],"original_language":"en","genres":["Sci-Fi & Fantasy","Drama"],"imdb_id":"tt13623632","latest_uploaded_season":1,"total_uploaded_episodes":8},{"id":"138505","type":"tv","title":"Marvel Zombies","poster":"https://image.tmdb.org/t/p/w342/mwKj9ERGFXsWot0nXgQ5yMQf9I7.jpg","year":"2025","result":"HD","language":["Hindi"],"country":["US"],"original_language":"en","genres":["Sci-Fi & Fantasy","Animation","Action & Adventure"],"imdb_id":"tt16027014","latest_uploaded_season":1,"total_uploaded_episodes":4},{"id":"127366","type":"tv","title":"Splinter Cell: Deathwatch","poster":"https://image.tmdb.org/t/p/w342/tgKYnJlze79IUKkPmtsW2nSUeeB.jpg","year":"2025","result":"HD","language":["Hindi"],"country":["FR","US"],"original_language":"en","genres":["Animation","Action & Adventure"],"imdb_id":"tt12809802","latest_uploaded_season":1,"total_uploaded_episodes":8},{"id":"114471","type":"tv","title":"Ironheart","poster":"https://image.tmdb.org/t/p/w342/dOh6MJpdlQhYpLBhzhNQeYGKTZ5.jpg","year":"2025","result":"HD","language":["Hindi"],"country":["US"],"original_language":"en","genres":["Sci-Fi & Fantasy","Crime","Action & Adventure"],"imdb_id":"tt13623126","latest_uploaded_season":1,"total_uploaded_episodes":6},{"id":"84092","type":"movie","title":"Ramayana : The Legend of Prince Rama","poster":"https://image.tmdb.org/t/p/w342/jnwUw88Zq5tS0BFNvDwhISQ7p8Y.jpg","year":"2025","result":"HD","language":["Hindi"],"country":["IN","JP"],"original_language":"en","genres":["Animation","Action","Adventure","Fantasy"],"imdb_id":"tt0259534"},{"id":"83533","type":"movie","title":"Avatar: Fire and Ash","poster":"https://image.tmdb.org/t/p/w342/bRBeSHfGHwkEpImlhxPmOcUsaeg.jpg","year":"2025","result":"HD","language":["Hindi"],"country":["US"],"original_language":"en","genres":["Science Fiction","Adventure","Fantasy"],"imdb_id":"tt1757678"},{"id":"13494","type":"movie","title":"Red Sonja","poster":"https://image.tmdb.org/t/p/w342/aE3yh4y0h96CZZpLo0UDFMWZAA9.jpg","year":"2025","result":"HD","language":["Hindi"],"country":["US","BG"],"original_language":"en","genres":["Adventure","Action","Fantasy","Drama"],"imdb_id":"tt0800175"},{"id":"220564","type":"tv","title":"The Perfect Couple","poster":"https://image.tmdb.org/t/p/w342/weyR73iYr1lWg17Q2r4sc7aEr2p.jpg","year":"2024","result":"HD","language":["Hindi"],"country":["US"],"original_language":"en","genres":["Drama","Mystery","Crime"],"imdb_id":"tt11514868","latest_uploaded_season":1,"total_uploaded_episodes":6},{"id":"88044","type":"tv","title":"Demon Lord, Retry!","poster":"https://image.tmdb.org/t/p/w342/d5hXGaqit05qhYP4cqZs0BUrLG.jpg","year":"2024","result":"HD","language":["Hindi"],"country":["JP"],"original_language":"ja","genres":["Animation","Action & Adventure","Comedy","Sci-Fi & Fantasy"],"imdb_id":"tt10443362","latest_uploaded_season":2,"total_uploaded_episodes":24},{"id":"106651","type":"tv","title":"Hellbound","poster":"https://image.tmdb.org/t/p/w342/5NYdSAnDVIXePrSG2dznHdiibMk.jpg","year":"2024","result":"HD","language":["Hindi"],"country":["KR"],"original_language":"ko","genres":["Drama","Mystery","Sci-Fi & Fantasy"],"imdb_id":"tt12235718","latest_uploaded_season":2,"total_uploaded_episodes":12},{"id":"100757","type":"tv","title":"Outer Banks","poster":"https://image.tmdb.org/t/p/w342/ovDgO2LPfwdVRfvScAqo9aMiIW.jpg","year":"2024","result":"HD","language":["Hindi"],"country":["US"],"original_language":"en","genres":["Action & Adventure","Drama","Mystery"],"imdb_id":"tt10293938","latest_uploaded_season":4,"total_uploaded_episodes":40},{"id":"214078","type":"tv","title":"Shahmaran","poster":"https://image.tmdb.org/t/p/w342/Syz73lDTw9A4AeUIVDJvaYbXJh.jpg","year":"2024","result":"HD","language":["Hindi"],"country":["TR"],"original_language":"tr","genres":["Drama","Sci-Fi & Fantasy","Mystery","Action & Adventure"],"imdb_id":"tt16913068","latest_uploaded_season":2,"total_uploaded_episodes":14},{"id":"96648","type":"tv","title":"Sweet Home","poster":"https://image.tmdb.org/t/p/w342/ovLdkMclsr9NjkfRPgMaGDTHyGk.jpg","year":"2024","result":"HD","language":["Hindi"],"country":["KR"],"original_language":"ko","genres":["Sci-Fi & Fantasy","Action & Adventure"],"imdb_id":"tt11612120","latest_uploaded_season":3,"total_uploaded_episodes":26},{"id":"103768","type":"tv","title":"Sweet Tooth","poster":"https://image.tmdb.org/t/p/w342/rgMfhcrVZjuy5b7Pn0KzCRCEnMX.jpg","year":"2024","result":"HD","language":["Hindi"],"country":["US"],"original_language":"en","genres":["Drama","Sci-Fi & Fantasy"],"imdb_id":"tt12809988","latest_uploaded_season":3,"total_uploaded_episodes":24},{"id":"84773","type":"tv","title":"The Lord of the Rings: The Rings of Power","poster":"https://image.tmdb.org/t/p/w342/kf5Hz70tjNAHg4swGDzOr9BfoZ1.jpg","year":"2024","result":"HD","language":["Hindi"],"country":["US"],"original_language":"en","genres":["Action & Adventure","Sci-Fi & Fantasy","Drama"],"imdb_id":"tt7631058","latest_uploaded_season":2,"total_uploaded_episodes":16},{"id":"116135","type":"tv","title":"Vikings: Valhalla","poster":"https://image.tmdb.org/t/p/w342/rDFy1fUU6OC3Mm0CLFB7u0fGwVN.jpg","year":"2024","result":"HD","language":["Hindi"],"country":["US"],"original_language":"en","genres":["Action & Adventure","Drama","War & Politics"],"imdb_id":"tt11311302","latest_uploaded_season":3,"total_uploaded_episodes":24},{"id":"256649","type":"tv","title":"Double Love","poster":"https://image.tmdb.org/t/p/w342/rFyPhcKTP5D78hHActbP0OMZZll.jpg","year":"2024","result":"HD","language":["Hindi"],"country":["CN"],"original_language":"zh","genres":["Comedy","Drama"],"imdb_id":"","latest_uploaded_season":1,"total_uploaded_episodes":24},{"id":"247845","type":"tv","title":"Embracing the Stars Together","poster":"https://image.tmdb.org/t/p/w342/lWeuvLwyH6hGzKXFxwRf66bQMeO.jpg","year":"2024","result":"HD","language":["Hindi"],"country":["CN"],"original_language":"zh","genres":["Drama"],"imdb_id":"tt33067214","latest_uploaded_season":1,"total_uploaded_episodes":24},{"id":"260423","type":"tv","title":"I Can See You Shine","poster":"https://image.tmdb.org/t/p/w342/gSXvk4u7l60lgRVlbqf9Xir1G6b.jpg","year":"2024","result":"HD","language":["Hindi"],"country":["TW"],"original_language":"zh","genres":[],"imdb_id":"tt28277048","latest_uploaded_season":1,"total_uploaded_episodes":8},{"id":"240439","type":"tv","title":"Our Interpreter","poster":"https://image.tmdb.org/t/p/w342/jwimKU3lj8cyMcGWLMVCrStRkxy.jpg","year":"2024","result":"HD","language":["Hindi"],"country":["CN"],"original_language":"zh","genres":["Drama"],"imdb_id":"tt29367046","latest_uploaded_season":1,"total_uploaded_episodes":36},{"id":"213086","type":"tv","title":"Snow Fall","poster":"https://image.tmdb.org/t/p/w342/oqr5gP5CQUPpXk7bPAHXLmfDMJ3.jpg","year":"2024","result":"HD","language":["Hindi"],"country":["CN"],"original_language":"zh","genres":["Drama","Mystery","Sci-Fi & Fantasy"],"imdb_id":"tt33044481","latest_uploaded_season":1,"total_uploaded_episodes":24},{"id":"234674","type":"tv","title":"Beyond Goodbye","poster":"https://image.tmdb.org/t/p/w342/zfBIufqT9QcupV17pEqQuGk29Io.jpg","year":"2024","result":"HD","language":["Hindi"],"country":["JP"],"original_language":"ja","genres":["Drama"],"imdb_id":"tt29103836","latest_uploaded_season":1,"total_uploaded_episodes":8},{"id":"225930","type":"tv","title":"Love Endures","poster":"https://image.tmdb.org/t/p/w342/q1ryxOH0JsPG0rYFdOiAg47m4NM.jpg","year":"2024","result":"HD","language":["Hindi"],"country":["CN"],"original_language":"zh","genres":["Drama"],"imdb_id":"tt28151897","latest_uploaded_season":1,"total_uploaded_episodes":32},{"id":"207668","type":"tv","title":"The Legend of ShenLi","poster":"https://image.tmdb.org/t/p/w342/cVlSN6xr9IsTwRSNvZqkLg8ZLnl.jpg","year":"2024","result":"HD","language":["Hindi"],"country":["CN"],"original_language":"zh","genres":["Drama","Sci-Fi & Fantasy"],"imdb_id":"tt27531070","latest_uploaded_season":2,"total_uploaded_episodes":80},{"id":"1075676","type":"movie","title":"Uprising","poster":"https://image.tmdb.org/t/p/w342/hg9OeaCRSpazrfqYyEFr6BDaZW8.jpg","year":"2024","result":"HD","language":["Hindi"],"country":["KR"],"original_language":"ko","genres":["Action","Drama","History"],"imdb_id":"tt27987046"},{"id":"223329","type":"tv","title":"The Whirlwind","poster":"https://image.tmdb.org/t/p/w342/dMNPN1cxX0CuL9POyT5xoiTk10h.jpg","year":"2024","result":"HD","language":["Hindi"],"country":["KR"],"original_language":"ko","genres":["Drama","War & Politics"],"imdb_id":"tt27368132","latest_uploaded_season":1,"total_uploaded_episodes":12},{"id":"249906","type":"tv","title":"Tokyo Swindlers","poster":"https://image.tmdb.org/t/p/w342/892R0peQpBJP6VnAiQWtAGxRUr.jpg","year":"2024","result":"HD","language":["Hindi"],"country":["JP"],"original_language":"ja","genres":["Crime"],"imdb_id":"tt31250132","latest_uploaded_season":1,"total_uploaded_episodes":7},{"id":"635996","type":"movie","title":"Wonderland","poster":"https://image.tmdb.org/t/p/w342/xGFjhFkqpOpFFUkEQjetKS11AWz.jpg","year":"2024","result":"HD","language":["Hindi"],"country":["KR"],"original_language":"ko","genres":["Science Fiction","Drama"],"imdb_id":"tt31254554"},{"id":"221112","type":"tv","title":"Amidst a Snowstorm of Love","poster":"https://image.tmdb.org/t/p/w342/1v5ABzgSMlVJG2acb6S6JAkEM2S.jpg","year":"2024","result":"HD","language":["Hindi"],"country":["CN"],"original_language":"zh","genres":["Drama"],"imdb_id":"tt28183145","latest_uploaded_season":1,"total_uploaded_episodes":30}]}