{"page":26,"total_pages":66,"total_items":3272,"items":[{"id":"258348","type":"tv","title":"Clevatess","poster":"https://image.tmdb.org/t/p/w342/7sWrMBhOS1x4RUCr3o2I4ld13fq.jpg","year":"2025","result":"HD","language":["Hindi"],"country":["JP"],"original_language":"ja","genres":["Animation","Action & Adventure","Sci-Fi & Fantasy"],"imdb_id":"tt32991344","latest_uploaded_season":2,"total_uploaded_episodes":13},{"id":"258025","type":"tv","title":"Head Over Heels","poster":"https://image.tmdb.org/t/p/w342/kL42DhVhqjO3NxlB0oNg2Z4TAWP.jpg","year":"2025","result":"HD","language":["Hindi"],"country":["KR"],"original_language":"ko","genres":["Sci-Fi & Fantasy","Drama","Comedy"],"imdb_id":"tt37146661","latest_uploaded_season":1,"total_uploaded_episodes":12},{"id":"256721","type":"tv","title":"Gachiakuta","poster":"https://image.tmdb.org/t/p/w342/jH78nLFrTU6aP7hY7KO6DZHFLoX.jpg","year":"2025","result":"HD","language":["Hindi"],"country":["JP"],"original_language":"ja","genres":["Animation","Action & Adventure","Drama","Sci-Fi & Fantasy"],"imdb_id":"tt32612521","latest_uploaded_season":1,"total_uploaded_episodes":24},{"id":"256317","type":"tv","title":"Countdown","poster":"https://image.tmdb.org/t/p/w342/gcSNS5cy1iOmYawIdJCzoc873rQ.jpg","year":"2025","result":"HD","language":["Hindi"],"country":["US"],"original_language":"en","genres":["Crime","Mystery"],"imdb_id":"tt32559610","latest_uploaded_season":1,"total_uploaded_episodes":13},{"id":"256109","type":"tv","title":"Teogonia","poster":"https://image.tmdb.org/t/p/w342/zGHrnnFc0p5Pf25qUaAv95JpnJC.jpg","year":"2025","result":"HD","language":["Hindi"],"country":["JP"],"original_language":"ja","genres":["Action & Adventure","Sci-Fi & Fantasy","Drama","Animation"],"imdb_id":"tt32514593","latest_uploaded_season":1,"total_uploaded_episodes":12},{"id":"255859","type":"tv","title":"Wayward","poster":"https://image.tmdb.org/t/p/w342/t6bk8g9DsITWZXwnw9jrA9RDdCB.jpg","year":"2025","result":"HD","language":["Hindi"],"country":["CA"],"original_language":"en","genres":["Drama","Mystery"],"imdb_id":"tt27427326","latest_uploaded_season":1,"total_uploaded_episodes":8},{"id":"254017","type":"tv","title":"YAIBA: Samurai Legend","poster":"https://image.tmdb.org/t/p/w342/cxD3FQP4hDU5hSABwdQCvGrrnz6.jpg","year":"2025","result":"HD","language":["Hindi"],"country":["JP"],"original_language":"ja","genres":["Action & Adventure","Animation","Sci-Fi & Fantasy","Comedy"],"imdb_id":"tt33332400","latest_uploaded_season":1,"total_uploaded_episodes":24},{"id":"253376","type":"tv","title":"The Girlfriend","poster":"https://image.tmdb.org/t/p/w342/ktrp3tdZ5IQpFux4nLy8z70bt3n.jpg","year":"2025","result":"HD","language":["Hindi"],"country":["US","GB"],"original_language":"en","genres":["Drama","Mystery"],"imdb_id":"tt32267726","latest_uploaded_season":1,"total_uploaded_episodes":6},{"id":"252193","type":"tv","title":"Last Samurai Standing","poster":"https://image.tmdb.org/t/p/w342/wKNEFlrs68rzweVzfwkjWmkJqu7.jpg","year":"2025","result":"HD","language":["Hindi"],"country":["JP"],"original_language":"ja","genres":["Action & Adventure","Drama"],"imdb_id":"tt32237534","latest_uploaded_season":1,"total_uploaded_episodes":6},{"id":"250994","type":"tv","title":"Ameku M.D.: Doctor Detective","poster":"https://image.tmdb.org/t/p/w342/ukyIdEgqRKfovtFm9NzUfrIdm8y.jpg","year":"2025","result":"HD","language":["Hindi"],"country":["JP"],"original_language":"ja","genres":["Animation","Mystery"],"imdb_id":"tt33384314","latest_uploaded_season":1,"total_uploaded_episodes":12},{"id":"250988","type":"tv","title":"House of Guinness","poster":"https://image.tmdb.org/t/p/w342/cDjJBbJcOj7PsWAveLFdSa4J8zJ.jpg","year":"2025","result":"HD","language":["Hindi"],"country":["GB"],"original_language":"en","genres":["Drama"],"imdb_id":"tt13542714","latest_uploaded_season":1,"total_uploaded_episodes":8},{"id":"250504","type":"tv","title":"The Beast in Me","poster":"https://image.tmdb.org/t/p/w342/jxf7JCfIMvGONWTNUIJ068sFixK.jpg","year":"2025","result":"HD","language":["Hindi"],"country":["US"],"original_language":"en","genres":["Drama","Mystery"],"imdb_id":"tt31974367","latest_uploaded_season":1,"total_uploaded_episodes":8},{"id":"249768","type":"tv","title":"Arabia Kadali","poster":"https://image.tmdb.org/t/p/w342/9pbnrMwfILtRo8kDalvXNOMtoJy.jpg","year":"2025","result":"HD","language":["Hindi"],"country":["IN"],"original_language":"te","genres":["Drama"],"imdb_id":"tt31925699","latest_uploaded_season":1,"total_uploaded_episodes":8},{"id":"249767","type":"tv","title":"Do You Wanna Partner","poster":"https://image.tmdb.org/t/p/w342/desoUeji3c4EDvSsDOoi7OEKH1a.jpg","year":"2025","result":"HD","language":["Hindi"],"country":["IN"],"original_language":"hi","genres":["Comedy","Drama"],"imdb_id":"tt31925787","latest_uploaded_season":1,"total_uploaded_episodes":8},{"id":"249764","type":"tv","title":"Rangeen","poster":"https://image.tmdb.org/t/p/w342/nlrZpxGg7Wn1cbJGc0EQe4PHODn.jpg","year":"2025","result":"HD","language":["Hindi"],"country":["IN"],"original_language":"hi","genres":["Drama","Comedy"],"imdb_id":"tt31898339","latest_uploaded_season":1,"total_uploaded_episodes":9},{"id":"249756","type":"tv","title":"Ziddi Girls","poster":"https://image.tmdb.org/t/p/w342/fBsiBCHpBsniHfLBVdUlAOASams.jpg","year":"2025","result":"HD","language":["Hindi"],"country":["IN"],"original_language":"hi","genres":["Drama"],"imdb_id":"tt31924979","latest_uploaded_season":1,"total_uploaded_episodes":1},{"id":"249755","type":"tv","title":"Dupahiya","poster":"https://image.tmdb.org/t/p/w342/7kbmuNn37gENS4nq1CDSKGQbHia.jpg","year":"2025","result":"HD","language":["Hindi"],"country":["IN"],"original_language":"hi","genres":["Comedy","Drama"],"imdb_id":"tt31925820","latest_uploaded_season":1,"total_uploaded_episodes":9},{"id":"249749","type":"tv","title":"Khauf","poster":"https://image.tmdb.org/t/p/w342/8a33EagF55P206ynW3gwnYyqPdL.jpg","year":"2025","result":"HD","language":["Hindi"],"country":["IN"],"original_language":"hi","genres":["Drama","Mystery"],"imdb_id":"tt31898201","latest_uploaded_season":1,"total_uploaded_episodes":8},{"id":"249748","type":"tv","title":"Andhera","poster":"https://image.tmdb.org/t/p/w342/wXVttISNv9GkbTCojifhZXeITG.jpg","year":"2025","result":"HD","language":["Hindi"],"country":["IN"],"original_language":"hi","genres":["Drama","Mystery"],"imdb_id":"tt31918578","latest_uploaded_season":1,"total_uploaded_episodes":8},{"id":"249586","type":"tv","title":"Amsterdam Empire","poster":"https://image.tmdb.org/t/p/w342/bssBGroBgZCHmn4jbbTmttt7VEq.jpg","year":"2025","result":"HD","language":["Hindi"],"country":["BE","NL"],"original_language":"nl","genres":["Drama","Crime"],"imdb_id":"tt31835154","latest_uploaded_season":1,"total_uploaded_episodes":7},{"id":"249551","type":"tv","title":"Néro the Assassin","poster":"https://image.tmdb.org/t/p/w342/cgzHLXOEILDwvj19tggt3ZLsfTF.jpg","year":"2025","result":"HD","language":["Hindi"],"country":["FR"],"original_language":"fr","genres":["Drama","Action & Adventure"],"imdb_id":"tt32400599","latest_uploaded_season":1,"total_uploaded_episodes":8},{"id":"249054","type":"tv","title":"Romantics Anonymous","poster":"https://image.tmdb.org/t/p/w342/jEP3ZQLzwy50sWYpJQGuS6SKrw6.jpg","year":"2025","result":"HD","language":["Hindi"],"country":["KR","JP"],"original_language":"ja","genres":["Comedy","Drama"],"imdb_id":"tt32524691","latest_uploaded_season":1,"total_uploaded_episodes":8},{"id":"249039","type":"tv","title":"Black Rabbit","poster":"https://image.tmdb.org/t/p/w342/4e9CraVtGY00jLP2YGwsuEtaIjR.jpg","year":"2025","result":"HD","language":["Hindi"],"country":["GB","US"],"original_language":"en","genres":["Drama","Crime"],"imdb_id":"tt23055142","latest_uploaded_season":1,"total_uploaded_episodes":8},{"id":"248937","type":"tv","title":"Hostage","poster":"https://image.tmdb.org/t/p/w342/ghcxxmSLByYyFLAL8TNWmAel1Ym.jpg","year":"2025","result":"HD","language":["Hindi"],"country":["GB"],"original_language":"en","genres":["Drama","War & Politics"],"imdb_id":"tt31407004","latest_uploaded_season":1,"total_uploaded_episodes":5},{"id":"248852","type":"tv","title":"UNTAMED","poster":"https://image.tmdb.org/t/p/w342/tclYY8RGieQwkJXDxZGf505Zybr.jpg","year":"2025","result":"HD","language":["Hindi"],"country":["US"],"original_language":"en","genres":["Mystery","Drama"],"imdb_id":"tt31710822","latest_uploaded_season":1,"total_uploaded_episodes":6},{"id":"248833","type":"tv","title":"The Runarounds","poster":"https://image.tmdb.org/t/p/w342/653V492dSynzQcSDPubzZLJAjkf.jpg","year":"2025","result":"HD","language":["Hindi"],"country":["US"],"original_language":"en","genres":["Drama","Comedy","Family"],"imdb_id":"tt30274061","latest_uploaded_season":1,"total_uploaded_episodes":8},{"id":"248244","type":"tv","title":"Undercover High School","poster":"https://image.tmdb.org/t/p/w342/vXAWUI1pYrBvZoUarGxWj1mtlXp.jpg","year":"2025","result":"HD","language":["Hindi"],"country":["KR"],"original_language":"ko","genres":["Action & Adventure","Comedy","Drama"],"imdb_id":"tt33364760","latest_uploaded_season":1,"total_uploaded_episodes":12},{"id":"247831","type":"tv","title":"Mandala Murders","poster":"https://image.tmdb.org/t/p/w342/tg16aWs58I5PleUQDmvsXPV7zfQ.jpg","year":"2025","result":"HD","language":["Hindi"],"country":["IN"],"original_language":"hi","genres":["Crime","Drama","Mystery"],"imdb_id":"tt26626214","latest_uploaded_season":1,"total_uploaded_episodes":8},{"id":"247830","type":"tv","title":"Dabba Cartel","poster":"https://image.tmdb.org/t/p/w342/ezT0x7ZdAjrR5mFtkNjWxOFcTIB.jpg","year":"2025","result":"HD","language":["Hindi"],"country":["IN"],"original_language":"hi","genres":["Crime","Drama"],"imdb_id":"tt15340954","latest_uploaded_season":1,"total_uploaded_episodes":7},{"id":"247756","type":"tv","title":"The Monster of Florence","poster":"https://image.tmdb.org/t/p/w342/1RRBxq1hEC7rKIp4yac96F9ObL5.jpg","year":"2025","result":"HD","language":["Hindi"],"country":["IT"],"original_language":"it","genres":["Crime","Mystery","Drama"],"imdb_id":"tt29457135","latest_uploaded_season":1,"total_uploaded_episodes":4},{"id":"247732","type":"tv","title":"NCIS: Tony & Ziva","poster":"https://image.tmdb.org/t/p/w342/zNIANQsAs2kbxbzbTTe5dTBzhKe.jpg","year":"2025","result":"HD","language":["Hindi"],"country":["US"],"original_language":"en","genres":["Action & Adventure","Drama","Crime"],"imdb_id":"tt31512256","latest_uploaded_season":1,"total_uploaded_episodes":10},{"id":"247619","type":"tv","title":"Overcompensating","poster":"https://image.tmdb.org/t/p/w342/9g5QRUSPBK4ABLzhO9D8ooir6tS.jpg","year":"2025","result":"HD","language":["Hindi"],"country":["US"],"original_language":"en","genres":["Comedy"],"imdb_id":"tt23488694","latest_uploaded_season":1,"total_uploaded_episodes":8},{"id":"247043","type":"tv","title":"The Ba***ds of Bollywood","poster":"https://image.tmdb.org/t/p/w342/6QFnXFx5XJAp0SxMd9g23cbti4m.jpg","year":"2025","result":"HD","language":["Hindi"],"country":["IN"],"original_language":"hi","genres":["Comedy","Action & Adventure"],"imdb_id":"tt34683290","latest_uploaded_season":1,"total_uploaded_episodes":7},{"id":"246485","type":"tv","title":"The Dead Girls","poster":"https://image.tmdb.org/t/p/w342/29VlRRFkGiFJFRZJBrYGPF2Ypz9.jpg","year":"2025","result":"HD","language":["Hindi"],"country":["MX"],"original_language":"es","genres":["Drama","Crime"],"imdb_id":"tt31219594","latest_uploaded_season":1,"total_uploaded_episodes":6},{"id":"246093","type":"tv","title":"Dear My Secretary","poster":"https://image.tmdb.org/t/p/w342/mqqOLB76zkJ72vqhWLchWskXxIF.jpg","year":"2025","result":"HD","language":["Hindi"],"country":["TH"],"original_language":"th","genres":["Drama"],"imdb_id":"tt30146383","latest_uploaded_season":1,"total_uploaded_episodes":16},{"id":"246027","type":"tv","title":"No One Saw Us Leave","poster":"https://image.tmdb.org/t/p/w342/zZjZNhYWwRgyyJyYqBpU02uV4ja.jpg","year":"2025","result":"HD","language":["Hindi"],"country":["MX"],"original_language":"es","genres":["Drama"],"imdb_id":"tt31221478","latest_uploaded_season":1,"total_uploaded_episodes":5},{"id":"245827","type":"tv","title":"Harlan Coben's Lazarus","poster":"https://image.tmdb.org/t/p/w342/lxUlUBGnYJNxqOwc3baBdLpa3Lx.jpg","year":"2025","result":"HD","language":["Hindi"],"country":["US"],"original_language":"en","genres":["Mystery"],"imdb_id":"tt31186865","latest_uploaded_season":1,"total_uploaded_episodes":6},{"id":"245648","type":"tv","title":"Billionaires' Bunker","poster":"https://image.tmdb.org/t/p/w342/hNVb60dPG34wYjazGgFolJhqfxp.jpg","year":"2025","result":"HD","language":["Hindi"],"country":["ES"],"original_language":"es","genres":["Sci-Fi & Fantasy","Drama","Mystery"],"imdb_id":"tt31173096","latest_uploaded_season":1,"total_uploaded_episodes":8},{"id":"245219","type":"tv","title":"Death by Lightning","poster":"https://image.tmdb.org/t/p/w342/KyUrz3GA1FML3XnKkY795XxDxN.jpg","year":"2025","result":"HD","language":["Hindi"],"country":["US"],"original_language":"en","genres":["Drama","Crime"],"imdb_id":"tt31121364","latest_uploaded_season":1,"total_uploaded_episodes":4},{"id":"244447","type":"tv","title":"The Hunting Wives","poster":"https://image.tmdb.org/t/p/w342/knR0tDKgFwsUMxe0MqZSWQYhwpL.jpg","year":"2025","result":"HD","language":["Hindi"],"country":["US"],"original_language":"en","genres":["Drama","Mystery"],"imdb_id":"tt31038430","latest_uploaded_season":1,"total_uploaded_episodes":8},{"id":"244416","type":"tv","title":"Malice","poster":"https://image.tmdb.org/t/p/w342/fKhHzRk1VIJY1nz1cRhAfAaYfnA.jpg","year":"2025","result":"HD","language":["Hindi"],"country":["GB"],"original_language":"en","genres":["Drama","Mystery"],"imdb_id":"tt31036715","latest_uploaded_season":1,"total_uploaded_episodes":6},{"id":"243881","type":"tv","title":"House of David","poster":"https://image.tmdb.org/t/p/w342/9pxRMetW8ZwnepLnIf37YWuNvgk.jpg","year":"2025","result":"HD","language":["Hindi"],"country":["US"],"original_language":"en","genres":["Drama"],"imdb_id":"tt30955673","latest_uploaded_season":1,"total_uploaded_episodes":8},{"id":"243826","type":"tv","title":"Pharma","poster":"https://image.tmdb.org/t/p/w342/hQWT47GFQyvO1tFqx6IgCOvrrr8.jpg","year":"2025","result":"HD","language":["Hindi"],"country":["IN"],"original_language":"ml","genres":["Drama"],"imdb_id":"tt29540636","latest_uploaded_season":1,"total_uploaded_episodes":8},{"id":"243217","type":"tv","title":"Happy Face","poster":"https://image.tmdb.org/t/p/w342/sGHZrYxOU2U2JLrmYO12qGl1VK4.jpg","year":"2025","result":"HD","language":["Hindi"],"country":["US"],"original_language":"en","genres":["Drama","Crime"],"imdb_id":"tt15977292","latest_uploaded_season":1,"total_uploaded_episodes":8},{"id":"243200","type":"tv","title":"Old Dog, New Tricks","poster":"https://image.tmdb.org/t/p/w342/UgYg7GY6LYQnGhCmt1PQ7OhwEU.jpg","year":"2025","result":"HD","language":["Hindi"],"country":["ES"],"original_language":"es","genres":["Comedy"],"imdb_id":"tt30817086","latest_uploaded_season":1,"total_uploaded_episodes":9},{"id":"240558","type":"tv","title":"King & Conqueror","poster":"https://image.tmdb.org/t/p/w342/8SW0c0tUFWjpWBz2UYr0U57a8kB.jpg","year":"2025","result":"HD","language":["Hindi"],"country":["GB"],"original_language":"en","genres":["Drama","Action & Adventure"],"imdb_id":"tt30221531","latest_uploaded_season":1,"total_uploaded_episodes":8},{"id":"239826","type":"tv","title":"Ballard","poster":"https://image.tmdb.org/t/p/w342/vHQGu6ducKC7JcDU6lqWyx7tWW5.jpg","year":"2025","result":"HD","language":["Hindi"],"country":["US"],"original_language":"en","genres":["Drama","Crime"],"imdb_id":"tt26676904","latest_uploaded_season":1,"total_uploaded_episodes":10},{"id":"239385","type":"tv","title":"The Manipulated","poster":"https://image.tmdb.org/t/p/w342/nOj4nsomFyAVJgpp68L0xq3cREc.jpg","year":"2025","result":"HD","language":["Hindi"],"country":["KR"],"original_language":"ko","genres":["Crime","Drama"],"imdb_id":"tt36188448","latest_uploaded_season":1,"total_uploaded_episodes":12},{"id":"238458","type":"tv","title":"Cashero","poster":"https://image.tmdb.org/t/p/w342/dm6RoaKgkGUxckamMDzsbqtLhFv.jpg","year":"2025","result":"HD","language":["Hindi"],"country":["KR"],"original_language":"ko","genres":["Action & Adventure","Drama"],"imdb_id":"tt30413044","latest_uploaded_season":1,"total_uploaded_episodes":8},{"id":"233742","type":"tv","title":"Newtopia","poster":"https://image.tmdb.org/t/p/w342/cIC36RA59lg9ruYtPc7UA3f72yy.jpg","year":"2025","result":"HD","language":["Hindi"],"country":["KR"],"original_language":"ko","genres":["Sci-Fi & Fantasy","Action & Adventure","Comedy","Drama"],"imdb_id":"tt32199328","latest_uploaded_season":1,"total_uploaded_episodes":8}]}