{"page":24,"total_pages":24,"total_items":1166,"items":[{"id":"394078","type":"movie","title":"Santa Banta Pvt Ltd","poster":"https://image.tmdb.org/t/p/w342/qjzYPHUUlNQ5taFTnBN1iUHm3bE.jpg","year":"2016","result":"HD","language":["Hindi"],"country":["IN"],"original_language":"hi","genres":["Action","Comedy"],"imdb_id":"tt2909396","backdrop":"https://image.tmdb.org/t/p/original/7q4Vjf2mrFqOE8Cu8KLSwY7lKuE.jpg","watch":"<iframe src=\"https://bysebuho.com/e/drpf77arxbqw/Santa_Banta_Pvt_Ltd_2016_720p_WeB-DL_Hindi_AAC_x264-DANIEWATCH\" frameborder=\"0\" marginwidth=\"0\" marginheight=\"0\" scrolling=\"no\" width=\"640\" height=\"360\" allowfullscreen></iframe>","release_date":"2016-04-22"},{"id":"385238","type":"movie","title":"Vettah","poster":"https://image.tmdb.org/t/p/w342/pcuA4E3M4RO7227XMDfV0EfhA5X.jpg","year":"2016","result":"HD","language":["Hindi"],"country":["IN"],"original_language":"ml","genres":["Mystery","Thriller"],"imdb_id":"tt5324456","backdrop":"","watch":"<iframe src=\"https://bysebuho.com/e/v39wg46buzds/Vettah_2016_720p_UNCUT_WEB-DL_Hindi-Malayalam_x264-DANIEWATCH.mkv\" frameborder=\"0\" marginwidth=\"0\" marginheight=\"0\" scrolling=\"no\" width=\"640\" height=\"360\" allowfullscreen></iframe>","release_date":"2016-02-26"},{"id":"330414","type":"movie","title":"10 Endrathukulla","poster":"https://image.tmdb.org/t/p/w342/jZx7x4JUadJBa8AFZYsc5gN5k8E.jpg","year":"2015","result":"HD","language":["Hindi"],"country":["IN"],"original_language":"ta","genres":["Action","Romance"],"imdb_id":"tt5128266","backdrop":"https://image.tmdb.org/t/p/original/f5uwFqPLnjJWF3xDjFPpfMvWGES.jpg","watch":"<iframe src=\"https://bysebuho.com/e/yyd5l9r2ml0z/10-endrathukulla-2015-720p-web-hdrip-hindi-ddp5-1-tamil-dd\" frameborder=\"0\" marginwidth=\"0\" marginheight=\"0\" scrolling=\"no\" width=\"640\" height=\"360\" allowfullscreen></iframe>","release_date":"2015-10-21"},{"id":"341420","type":"movie","title":"Demonte Colony","poster":"https://image.tmdb.org/t/p/w342/4v0rLDCAV0CuZTAoeu8CDPBkksB.jpg","year":"2015","result":"HD","language":["Hindi"],"country":["IN"],"original_language":"ta","genres":["Horror"],"imdb_id":"tt4701688","backdrop":"https://image.tmdb.org/t/p/original/2OpJhmQ5zZjYRn0CynNcWgFQkow.jpg","watch":"<iframe src=\"https://bysebuho.com/e/i2908rnvstpt/demonte-colony-2015-720p-uncut-web-dl-hindi-2-0-tamil-5-1-esub-vegamovies-is-mkv\" frameborder=\"0\" marginwidth=\"0\" marginheight=\"0\" scrolling=\"no\" width=\"640\" height=\"360\" allowfullscreen></iframe>","release_date":"2015-05-22"},{"id":"316654","type":"movie","title":"Bombay Velvet","poster":"https://image.tmdb.org/t/p/w342/pLd96xMgrwNBNRnBaTa1h0bgeSS.jpg","year":"2015","result":"HD","language":["Hindi"],"country":["IN"],"original_language":"hi","genres":["Crime","Thriller"],"imdb_id":"tt2979920","backdrop":"https://image.tmdb.org/t/p/original/mbNJRU5yfd9mUtOzLDS3hSxFAwf.jpg","watch":"<iframe src=\"https://bysebuho.com/e/zfc35w2l8re7/Bombay.Velvet.2015.720p.Blu-Ray.Hindi.5.1.x264-DANIEWATCH.mkv\" width=\"640\" height=\"360\" frameborder=\"0\" allowfullscreen></iframe>","release_date":"2015-05-15"},{"id":"332832","type":"movie","title":"Surya Vs Surya","poster":"https://image.tmdb.org/t/p/w342/uzVRWHPmZ8hM4NIgCZBKJ8KVCDI.jpg","year":"2015","result":"HD","language":["Hindi"],"country":["IN"],"original_language":"te","genres":["Romance","Drama"],"imdb_id":"tt4505168","backdrop":"https://image.tmdb.org/t/p/original/9ETi6OKdubYBoulViHvnoaSumpr.jpg","watch":"<iframe src=\"https://bysebuho.com/e/ee1cfthbllim/surya-vs-surya-2015-720p-uncut-web-dl-hindi-telugu\" frameborder=\"0\" marginwidth=\"0\" marginheight=\"0\" scrolling=\"no\" width=\"640\" height=\"360\" allowfullscreen></iframe>","release_date":"2015-03-05"},{"id":"287767","type":"movie","title":"Mardaani","poster":"https://image.tmdb.org/t/p/w342/fD1zfYXgMbDkgIt9ZrHfte6mWHE.jpg","year":"2014","result":"HD","language":["Hindi"],"country":["IN"],"original_language":"hi","genres":["Action","Crime","Drama","Thriller"],"imdb_id":"tt3495000","backdrop":"https://image.tmdb.org/t/p/original/hpgy5VYpP2PUa9MaVmYcQXTDO6b.jpg","watch":"<iframe src=\"https://bysebuho.com/e/hubk36ec67pd/mardaani-2014\" frameborder=\"0\" marginwidth=\"0\" marginheight=\"0\" scrolling=\"no\" width=\"640\" height=\"360\" allowfullscreen></iframe>","release_date":"2014-08-22"},{"id":"255495","type":"movie","title":"Heartless","poster":"https://image.tmdb.org/t/p/w342/7CUulfSpqAvNtemgO4ZiNf6zy3s.jpg","year":"2014","result":"HD","language":["Hindi"],"country":["IN"],"original_language":"hi","genres":["Drama","Family","Romance"],"imdb_id":"tt3334348","backdrop":"https://image.tmdb.org/t/p/original/er3hBUtbTUcSCAQU5NyYufEWeI4.jpg","watch":"<iframe src=\"https://bysebuho.com/e/0yg0h4k4cy4a/heartless-2014-hindi-webrip-720p-1gb\" frameborder=\"0\" marginwidth=\"0\" marginheight=\"0\" scrolling=\"no\" width=\"640\" height=\"360\" allowfullscreen></iframe>","release_date":"2014-02-07"},{"id":"230846","type":"movie","title":"Fandry","poster":"https://image.tmdb.org/t/p/w342/zCeFTfyKDITgfYFg2gEyzubhOD9.jpg","year":"2013","result":"HD","language":["Hindi"],"country":["IN"],"original_language":"mr","genres":["Drama","Family"],"imdb_id":"tt2827320","backdrop":"https://image.tmdb.org/t/p/original/fLpDFeToCC3E2QL0WwhEkuvxtLO.jpg","watch":"<iframe src=\"https://bysebuho.com/e/rzjyr9p5s6hf/Fandry_2013_WebRip_720p_Marathi_AAC_5.1_x264_ESub_-_DANIEWATCH.mkv\" width=\"640\" height=\"360\" frameborder=\"0\" allowfullscreen></iframe>","release_date":"2013-10-09"},{"id":"42966","type":"movie","title":"Once Upon a Time in Mumbaai","poster":"https://image.tmdb.org/t/p/w342/qkPmQx9GMuwTDEuIUMoeN6DEqVA.jpg","year":"2010","result":"HD","language":["Hindi"],"country":["IN"],"original_language":"hi","genres":["Drama","Thriller","Crime"],"imdb_id":"tt1395054","backdrop":"https://image.tmdb.org/t/p/original/vHIxxJH9P8YZhuzO0D1KtnSCBD8.jpg","watch":"<iframe src=\"https://bysebuho.com/e/9wr3zkwl32z8/once-upon-a-time-in-mumbaai-2010-720p-blu-ray-hindi\" frameborder=\"0\" marginwidth=\"0\" marginheight=\"0\" scrolling=\"no\" width=\"640\" height=\"360\" allowfullscreen></iframe>","release_date":"2010-07-30"},{"id":"35687","type":"movie","title":"LSD: Love, Sex aur Dhokha","poster":"https://image.tmdb.org/t/p/w342/cGB0TZ27GXUTaBIxhf7IBPiHXzr.jpg","year":"2010","result":"HD","language":["Hindi"],"country":["IN"],"original_language":"hi","genres":["Drama","Crime","Comedy"],"imdb_id":"tt1608777","backdrop":"https://image.tmdb.org/t/p/original/ibNLyuef3pdV3T8n3FKB3FQ9Qs7.jpg","watch":"<iframe src=\"https://bysebuho.com/e/6x1v186qzvj7/LSD_Love_Sex_Aur_Dhokha_2010_WebRip_Hindi_720p_x264_AAC_5_1_ESub_-_DANIEWATCH.mkv\" width=\"640\" height=\"360\" frameborder=\"0\" allowfullscreen></iframe>","release_date":"2010-03-19"},{"id":"20453","type":"movie","title":"3 Idiots","poster":"https://image.tmdb.org/t/p/w342/66A9MqXOyVFCssoloscw79z8Tew.jpg","year":"2009","result":"HD","language":["Hindi"],"country":["IN"],"original_language":"hi","genres":["Drama","Comedy"],"imdb_id":"tt1187043","backdrop":"https://image.tmdb.org/t/p/original/8gT3UKtglLVpu0YfccwbmXZ5Eis.jpg","watch":"<iframe src=\"https://bysebuho.com/e/yqif35ob3qc7/3-idiots-2009-bluray-720p\" frameborder=\"0\" marginwidth=\"0\" marginheight=\"0\" scrolling=\"no\" width=\"640\" height=\"360\" allowfullscreen></iframe>","release_date":"2009-12-23"},{"id":"4435","type":"movie","title":"Aśoka","poster":"https://image.tmdb.org/t/p/w342/ckFDMqLjhsYo2kH3X5auV1NnjPM.jpg","year":"2001","result":"HD","language":["Hindi"],"country":["IN"],"original_language":"hi","genres":["Action","Adventure","Drama","History","Romance","War"],"imdb_id":"tt0249371","backdrop":"https://image.tmdb.org/t/p/original/jyGiG4wcr0BHpqIXiep5MRCQ7Kz.jpg","watch":"<iframe src=\"https://bysebuho.com/e/720r62nyv86h/asoka-2001-720p-bluray-hindi-dd5-1-vegamovies-is-mkv\" frameborder=\"0\" marginwidth=\"0\" marginheight=\"0\" scrolling=\"no\" width=\"640\" height=\"360\" allowfullscreen></iframe>","release_date":"2001-09-13"},{"id":"19404","type":"movie","title":"Dilwale Dulhania Le Jayenge","poster":"https://image.tmdb.org/t/p/w342/2CAL2433ZeIihfX1Hb2139CX0pW.jpg","year":"1995","result":"HD","language":["Hindi"],"country":["IN"],"original_language":"hi","genres":["Comedy","Drama","Romance"],"imdb_id":"tt0112870","backdrop":"https://image.tmdb.org/t/p/original/zQDFHYNVVVp9OAYSixYAG1SyX1l.jpg","watch":"<iframe src=\"https://bysebuho.com/e/9162chdxepca/dilwale-dulhania-le-jayenge-1995-bluray-hindi-720p-aac-5-1-esub-daniewatch-nl\" frameborder=\"0\" marginwidth=\"0\" marginheight=\"0\" scrolling=\"no\" width=\"640\" height=\"360\" allowfullscreen></iframe>","release_date":"1995-10-20"},{"id":"1584340","type":"movie","title":"Ekam Singh: A Warrior","poster":"https://image.tmdb.org/t/p/w342/gUS0ejNw8wbUlWSgmCAtqbNp7D2.jpg","year":"","result":"HD","language":["Hindi"],"country":[],"original_language":"pa","genres":[],"imdb_id":"tt38948983","backdrop":"https://image.tmdb.org/t/p/original/tUqqEOJCe3XcQX17Yj4tTizLfO6.jpg","watch":"<iframe src=\"https://bysebuho.com/e/f1e1isvsr9js/Ekam_Singh-A_Warrior_2025_720p_Punjabi_WEB-DL_AAC5_1_x264_ESub-DANIEWATCH.mkv\" frameborder=\"0\" marginwidth=\"0\" marginheight=\"0\" scrolling=\"no\" width=\"640\" height=\"360\" allowfullscreen></iframe>"},{"id":"784978","type":"movie","title":"Srimati Bhayankari","poster":"https://image.tmdb.org/t/p/w342/dB17LG1LC2CewLR1zzongZdJt3n.jpg","year":"","result":"HD","language":["Hindi"],"country":[],"original_language":"bn","genres":[],"imdb_id":"","backdrop":"https://image.tmdb.org/t/p/original/vdNfAVpblSNs3T0BFNxcBafC7b6.jpg","watch":"<iframe src=\"https://bysebuho.com/e/9e4ftoya20ab/shrimati-bhayankari-s01-720p-hevc-web-dl-aac2-0-x265-daniewatch-is\" frameborder=\"0\" marginwidth=\"0\" marginheight=\"0\" scrolling=\"no\" width=\"640\" height=\"360\" allowfullscreen></iframe>"}]}