{"page":40,"total_pages":66,"total_items":3272,"items":[{"id":"926027","type":"movie","title":"Vasco Da Gama","poster":"https://image.tmdb.org/t/p/w342/qYOdDztFRDumlUObHyv4csKytXT.jpg","year":"2024","result":"HD","language":["Hindi"],"country":["IN"],"original_language":"ta","genres":["Comedy","Thriller"],"imdb_id":"tt15380500"},{"id":"1093966","type":"movie","title":"Vettaiyan","poster":"https://image.tmdb.org/t/p/w342/yEEyhQaW7cEb0IDJstoMBmEtPND.jpg","year":"2024","result":"HD","language":["Hindi"],"country":["IN"],"original_language":"ta","genres":["Action","Crime","Drama"],"imdb_id":"tt26936666"},{"id":"1020354","type":"movie","title":"Viduthalai: Part II","poster":"https://image.tmdb.org/t/p/w342/l2LVYzhCuwfPfN80v6lic55DIAc.jpg","year":"2024","result":"HD","language":["Hindi"],"country":["IN"],"original_language":"ta","genres":["Action","Thriller","Drama"],"imdb_id":"tt25434834"},{"id":"1252457","type":"movie","title":"Vijay 69","poster":"https://image.tmdb.org/t/p/w342/tSQzRaYyKEjM8gEyhqayU4rhbdU.jpg","year":"2024","result":"HD","language":["Hindi"],"country":["IN"],"original_language":"hi","genres":["Drama","Comedy"],"imdb_id":"tt27671792"},{"id":"1078495","type":"movie","title":"Virunnu","poster":"https://image.tmdb.org/t/p/w342/hr1FeIHdB5NbdRFjYuYO7lAhH6x.jpg","year":"2024","result":"HD","language":["Hindi"],"country":["IN"],"original_language":"ml","genres":["Drama","Thriller"],"imdb_id":""},{"id":"1119067","type":"movie","title":"Vithaikkaaran","poster":"https://image.tmdb.org/t/p/w342/sgKDoOi1xSpyesf4BdhVIfNQGu3.jpg","year":"2024","result":"HD","language":["Hindi"],"country":["IN"],"original_language":"ta","genres":["Thriller","Drama","Comedy"],"imdb_id":"tt26345670"},{"id":"1035998","type":"movie","title":"Zebra","poster":"https://image.tmdb.org/t/p/w342/rCGgmmMD63pKH7lnmVJ5MMLQfOm.jpg","year":"2024","result":"HD","language":["Hindi"],"country":["IN"],"original_language":"te","genres":["Crime","Action","Thriller"],"imdb_id":"tt27757690"},{"id":"1414609","type":"movie","title":"Zabt","poster":"https://image.tmdb.org/t/p/w342/yZ2A7HQxDXRKLifibWDE3BI7f7U.jpg","year":"2024","result":"HD","language":["Hindi"],"country":["IN"],"original_language":"hi","genres":["Drama","Thriller"],"imdb_id":"tt35305733"},{"id":"255565","type":"tv","title":"36 Days","poster":"https://image.tmdb.org/t/p/w342/3kuDJTpUqRuO6bvPFaJpoVRZuIC.jpg","year":"2024","result":"HD","language":["Hindi"],"country":["IN"],"original_language":"hi","genres":["Drama","Mystery","Crime"],"imdb_id":"tt27618627","latest_uploaded_season":1,"total_uploaded_episodes":8},{"id":"1084812","type":"movie","title":"Aavesham","poster":"https://image.tmdb.org/t/p/w342/k5RWPaNjgRcNvGoawYaQHQwyctI.jpg","year":"2024","result":"HD","language":["Hindi"],"country":["IN"],"original_language":"ml","genres":["Comedy","Action"],"imdb_id":"tt26660021"},{"id":"1297058","type":"movie","title":"Allahr Vres","poster":"https://image.tmdb.org/t/p/w342/71m3Odffnn6tmsRNP0TgnRH0BLH.jpg","year":"2024","result":"HD","language":["PUNJABI"],"country":["IN"],"original_language":"pa","genres":["Romance"],"imdb_id":"tt23979244"},{"id":"253292","type":"tv","title":"Amber Girls School","poster":"https://image.tmdb.org/t/p/w342/p2gj2krojhuPDWFqF2hs7Y3uDg1.jpg","year":"2024","result":"HD","language":["Hindi"],"country":["IN"],"original_language":"hi","genres":["Drama","Comedy"],"imdb_id":"tt28558661","latest_uploaded_season":2,"total_uploaded_episodes":2},{"id":"253371","type":"tv","title":"Baahubali: Crown of Blood","poster":"https://image.tmdb.org/t/p/w342/8dIUz8qq6jkU6YWcIzO9lMqevhh.jpg","year":"2024","result":"HD","language":["Hindi"],"country":["IN"],"original_language":"te","genres":["Animation","Action & Adventure","Drama","War & Politics"],"imdb_id":"tt32263319","latest_uploaded_season":1,"total_uploaded_episodes":9},{"id":"256522","type":"tv","title":"Bad Cop","poster":"https://image.tmdb.org/t/p/w342/9VtAKcZoGD5gKhMG7ACJOsE1XRk.jpg","year":"2024","result":"HD","language":["Hindi"],"country":["IN"],"original_language":"hi","genres":["Drama","Crime"],"imdb_id":"tt32458829","latest_uploaded_season":1,"total_uploaded_episodes":8},{"id":"936622","type":"movie","title":"Bade Miyan Chote Miyan","poster":"https://image.tmdb.org/t/p/w342/ote8HmQOgmoAfqFaqVKsEdgD2q4.jpg","year":"2024","result":"HD","language":["Hindi"],"country":["IN"],"original_language":"hi","genres":["Action"],"imdb_id":"tt18072316"},{"id":"1169534","type":"movie","title":"Bastar: The Naxal Story","poster":"https://image.tmdb.org/t/p/w342/N6yYSmGHnT38plOCaadlVcQH02.jpg","year":"2024","result":"HD","language":["Hindi"],"country":["IN"],"original_language":"hi","genres":["Action","Crime","Drama","War"],"imdb_id":"tt28221135"},{"id":"1262485","type":"movie","title":"Bhaiyya Ji","poster":"https://image.tmdb.org/t/p/w342/nEMp5Nidr97gpuBlyEh1TMCmRaz.jpg","year":"2024","result":"HD","language":["Hindi"],"country":["IN"],"original_language":"hi","genres":["Action","Drama"],"imdb_id":"tt28654369"},{"id":"1253059","type":"movie","title":"Blackia 2","poster":"https://image.tmdb.org/t/p/w342/eA9dnAXj9NETERswgEiZlNTcE7Q.jpg","year":"2024","result":"HD","language":["Hindi"],"country":["IN"],"original_language":"pa","genres":["Crime","Drama"],"imdb_id":"tt28282203"},{"id":"1248965","type":"movie","title":"Blackout","poster":"https://image.tmdb.org/t/p/w342/3na9yLIz6j2Q44dzMEHWeSDg4Ef.jpg","year":"2024","result":"HD","language":["Hindi"],"country":["IN"],"original_language":"hi","genres":["Comedy","Thriller"],"imdb_id":"tt27940442"},{"id":"1317911","type":"movie","title":"Bloody Ishq","poster":"https://image.tmdb.org/t/p/w342/zChgjonb0YySrGCxdlWGp5ctrFm.jpg","year":"2024","result":"HD","language":["Hindi"],"country":["IN"],"original_language":"hi","genres":["Horror","Drama"],"imdb_id":"tt31115432"},{"id":"282845","type":"tv","title":"BLUETICK","poster":"https://image.tmdb.org/t/p/w342/9wrpNJabBbpgPFn8ZEnZLHnaUkW.jpg","year":"2024","result":"HD","language":["Hindi"],"country":["IN"],"original_language":"hi","genres":["Drama"],"imdb_id":"tt32468359","latest_uploaded_season":1,"total_uploaded_episodes":1},{"id":"1238031","type":"movie","title":"Bootcut Balaraju","poster":"https://image.tmdb.org/t/p/w342/tSvozKQkYDJELZccJwUyLrbSzpa.jpg","year":"2024","result":"HD","language":["Hindi"],"country":["IN"],"original_language":"te","genres":["Comedy","Romance"],"imdb_id":"tt27721719"},{"id":"259546","type":"tv","title":"Brinda","poster":"https://image.tmdb.org/t/p/w342/d0bn8tRAOcfV8kqXu4lzQzTjAvs.jpg","year":"2024","result":"HD","language":["Hindi"],"country":["IN"],"original_language":"te","genres":["Crime","Mystery"],"imdb_id":"tt15722548","latest_uploaded_season":1,"total_uploaded_episodes":8},{"id":"1199958","type":"movie","title":"Chal Bhajj Chaliye","poster":"https://image.tmdb.org/t/p/w342/h24ikmVQekY003vbztWIvOxYMC6.jpg","year":"2024","result":"HD","language":["PUNJABI"],"country":["IN"],"original_language":"pa","genres":["Comedy","Drama","Romance"],"imdb_id":"tt28744229"},{"id":"1319126","type":"movie","title":"Chalti Rahe Zindagi","poster":"https://image.tmdb.org/t/p/w342/hielGItVUX7hu4vlPJxT3LUl1E4.jpg","year":"2024","result":"HD","language":["Hindi"],"country":["IN"],"original_language":"hi","genres":["Drama"],"imdb_id":"tt15378102"},{"id":"1020951","type":"movie","title":"Chandu Champion","poster":"https://image.tmdb.org/t/p/w342/AprEYzaWgMuSQtJXMxz1P5Z3e3P.jpg","year":"2024","result":"HD","language":["Hindi"],"country":["IN"],"original_language":"hi","genres":["Drama"],"imdb_id":"tt27470893"},{"id":"1297049","type":"movie","title":"Chhota Bheem and the Curse of Damyaan","poster":"https://image.tmdb.org/t/p/w342/vfevWnj94IWCIlSBGEPqbDeP66a.jpg","year":"2024","result":"HD","language":["Hindi"],"country":["IN"],"original_language":"hi","genres":["Action","Adventure","Fantasy","Comedy","Family"],"imdb_id":"tt29114624"},{"id":"259242","type":"tv","title":"Chutney Sambar","poster":"https://image.tmdb.org/t/p/w342/4H9iN0Cs6D0wMnE1Psdq1xUUPhY.jpg","year":"2024","result":"HD","language":["Hindi"],"country":["IN"],"original_language":"ta","genres":["Comedy","Drama"],"imdb_id":"tt28434030","latest_uploaded_season":1,"total_uploaded_episodes":1},{"id":"1045931","type":"movie","title":"Crew","poster":"https://image.tmdb.org/t/p/w342/8mnCtQngfhYt0W0BmkrCePutmvy.jpg","year":"2024","result":"HD","language":["Hindi"],"country":["IN"],"original_language":"hi","genres":["Comedy"],"imdb_id":"tt21383812"},{"id":"951015","type":"movie","title":"Do Aur Do Pyaar","poster":"https://image.tmdb.org/t/p/w342/2eDWmo69uPMKPzxVY5KKkf8vOMi.jpg","year":"2024","result":"HD","language":["Hindi"],"country":["IN"],"original_language":"hi","genres":["Romance","Comedy","Drama"],"imdb_id":"tt15576290"},{"id":"260497","type":"tv","title":"Dus June Kii Raat","poster":"https://image.tmdb.org/t/p/w342/7tGx4jVg8xFsTYF4DbKnu8o12cj.jpg","year":"2024","result":"HD","language":["Hindi"],"country":["IN"],"original_language":"hi","genres":["Comedy"],"imdb_id":"tt30790577","latest_uploaded_season":2,"total_uploaded_episodes":23},{"id":"1320404","type":"movie","title":"Ek Kori Prem Katha","poster":"https://image.tmdb.org/t/p/w342/soI4NW2Kk7wnvotHP4x9k4pH81.jpg","year":"2024","result":"HD","language":["Hindi"],"country":[],"original_language":"hi","genres":["Drama"],"imdb_id":"tt27208639"},{"id":"1288554","type":"movie","title":"Fer Mamlaa Gadbad Hai","poster":"https://image.tmdb.org/t/p/w342/eWAwoM8JfClEHg10xw4UsN5HHs4.jpg","year":"2024","result":"HD","language":["Hindi"],"country":[],"original_language":"pa","genres":["Comedy"],"imdb_id":"tt15522318"},{"id":"1171693","type":"movie","title":"Gangs of Godavari","poster":"https://image.tmdb.org/t/p/w342/bxRjn6c5d1QgcRpM5v3JYY5iTSC.jpg","year":"2024","result":"HD","language":["Hindi"],"country":["IN"],"original_language":"te","genres":["Action","Drama"],"imdb_id":"tt27349461"},{"id":"942561","type":"movie","title":"Ghudchadi","poster":"https://image.tmdb.org/t/p/w342/eExcwj19vMOCMopBY8GhWzyqg6j.jpg","year":"2024","result":"HD","language":["Hindi"],"country":["IN"],"original_language":"hi","genres":["Drama","Romance"],"imdb_id":"tt21836384"},{"id":"1040137","type":"movie","title":"Guardian","poster":"https://image.tmdb.org/t/p/w342/swMCOdSysEz1Mzc5jFfoXbFmxkX.jpg","year":"2024","result":"HD","language":["Hindi"],"country":["IN"],"original_language":"ta","genres":["Horror","Thriller"],"imdb_id":"tt29687453"},{"id":"1068394","type":"movie","title":"Guruvayoor Ambalanadayil","poster":"https://image.tmdb.org/t/p/w342/iSS17YFooUA33FKsJ0yJhWZzylb.jpg","year":"2024","result":"HD","language":["Hindi"],"country":["IN"],"original_language":"ml","genres":["Comedy","Family"],"imdb_id":"tt25400540"},{"id":"1040718","type":"movie","title":"Harom Hara","poster":"https://image.tmdb.org/t/p/w342/lxofVmNULRo3920pEW8zn2HYzdU.jpg","year":"2024","result":"HD","language":["Hindi"],"country":["IN"],"original_language":"te","genres":["Action","Crime","Drama"],"imdb_id":"tt27726727"},{"id":"1296736","type":"movie","title":"House of Lies","poster":"https://image.tmdb.org/t/p/w342/sCkwIC1al8FukrrRYFQOk2fxmHZ.jpg","year":"2024","result":"HD","language":["Hindi"],"country":["IN"],"original_language":"hi","genres":["Mystery","Drama","Crime"],"imdb_id":"tt32481179"},{"id":"103368","type":"tv","title":"Illegal","poster":"https://image.tmdb.org/t/p/w342/nYtcBCQzSW1kcPY9D4l9z7PBum2.jpg","year":"2024","result":"HD","language":["Hindi"],"country":["IN"],"original_language":"hi","genres":["Drama","Mystery"],"imdb_id":"tt10308632","latest_uploaded_season":3,"total_uploaded_episodes":26},{"id":"257081","type":"tv","title":"Industry","poster":"https://image.tmdb.org/t/p/w342/fZSEhxpG5kzjaNoPM0m4cfjuIhm.jpg","year":"2024","result":"HD","language":["Hindi"],"country":["IN"],"original_language":"hi","genres":["Drama","Comedy"],"imdb_id":"tt32614039","latest_uploaded_season":1,"total_uploaded_episodes":1},{"id":"271839","type":"tv","title":"Ishq in the Air","poster":"https://image.tmdb.org/t/p/w342/rW0qxZA8W96NOVfw09cM6us0t50.jpg","year":"2024","result":"HD","language":["Hindi"],"country":["IN"],"original_language":"hi","genres":["Comedy","Drama"],"imdb_id":"tt33399687","latest_uploaded_season":1,"total_uploaded_episodes":5},{"id":"1184246","type":"movie","title":"Jatt Nuu Chudail Takri","poster":"https://image.tmdb.org/t/p/w342/3LC5hxRbscA5Yi5E6eNJLKrFW84.jpg","year":"2024","result":"HD","language":["PUNJABI"],"country":["IN"],"original_language":"pa","genres":["Drama","Comedy","Fantasy"],"imdb_id":"tt30769141"},{"id":"1273005","type":"movie","title":"Jeonde Raho Bhoot Ji","poster":"https://image.tmdb.org/t/p/w342/xdsuMdkYk7HS1IUYXou2iy0RZEl.jpg","year":"2024","result":"HD","language":["PUNJABI"],"country":[],"original_language":"pa","genres":["Horror","Comedy"],"imdb_id":"tt31613325"},{"id":"1160018","type":"movie","title":"Kill","poster":"https://image.tmdb.org/t/p/w342/m2zXTuNPkywdYLyWlVyJZW2QOJH.jpg","year":"2024","result":"HD","language":["Hindi"],"country":["IN"],"original_language":"hi","genres":["Action","Crime","Thriller","Drama"],"imdb_id":"tt28259207"},{"id":"89113","type":"tv","title":"Kota Factory","poster":"https://image.tmdb.org/t/p/w342/fMBookmwL6HjIgIVTjQ6EMr3pCH.jpg","year":"2024","result":"HD","language":["Hindi"],"country":["IN"],"original_language":"hi","genres":["Comedy","Drama"],"imdb_id":"tt9432978","latest_uploaded_season":3,"total_uploaded_episodes":15},{"id":"259481","type":"tv","title":"Life Hill Gayi","poster":"https://image.tmdb.org/t/p/w342/x19oZ3M4NxYSNFQRmVRnhknSUow.jpg","year":"2024","result":"HD","language":["Hindi"],"country":["IN"],"original_language":"hi","genres":["Comedy"],"imdb_id":"tt33022421","latest_uploaded_season":1,"total_uploaded_episodes":6},{"id":"1293900","type":"movie","title":"Love Me If You Dare","poster":"https://image.tmdb.org/t/p/w342/fSgCCh2hQo5Grs95hwQsAy3ZkdU.jpg","year":"2024","result":"HD","language":["Hindi"],"country":["IN"],"original_language":"te","genres":["Romance","Fantasy","Horror"],"imdb_id":"tt32084930"},{"id":"1298506","type":"movie","title":"Luv Ki Arrange Marriage","poster":"https://image.tmdb.org/t/p/w342/uN7D0qrFOZ31F8ee2vVUaDq0lkR.jpg","year":"2024","result":"HD","language":["Hindi"],"country":["IN"],"original_language":"hi","genres":["Comedy","Romance","Family"],"imdb_id":"tt27330732"},{"id":"1231925","type":"movie","title":"Mahadev Ka Gorakhpur","poster":"https://image.tmdb.org/t/p/w342/4EiX4tCXxd4Avk7IVNouGgCR4Ba.jpg","year":"2024","result":"HD","language":["Hindi"],"country":["IN"],"original_language":"hi","genres":["Action","Thriller"],"imdb_id":"tt23864668"}]}