{"page":25,"total_pages":66,"total_items":3272,"items":[{"id":"286349","type":"tv","title":"Dainee","poster":"https://image.tmdb.org/t/p/w342/IrUk2a1Hk3Rcv2Wuhf1H0G8XyK.jpg","year":"2025","result":"HD","language":["Hindi"],"country":["IN"],"original_language":"bn","genres":["Drama"],"imdb_id":"tt35882492","latest_uploaded_season":1,"total_uploaded_episodes":1},{"id":"285770","type":"tv","title":"Nice to Not Meet You","poster":"https://image.tmdb.org/t/p/w342/h14bGZcVxYQzLoxC8KYqUVWvYfU.jpg","year":"2025","result":"HD","language":["Hindi"],"country":["KR"],"original_language":"ko","genres":["Comedy","Drama"],"imdb_id":"tt37506062","latest_uploaded_season":1,"total_uploaded_episodes":16},{"id":"285754","type":"tv","title":"Kanneda","poster":"https://image.tmdb.org/t/p/w342/hlICsD9V4HIyu93jjALz6QEQdvi.jpg","year":"2025","result":"HD","language":["Hindi"],"country":["IN","GB"],"original_language":"hi","genres":["Crime"],"imdb_id":"tt35834854","latest_uploaded_season":1,"total_uploaded_episodes":8},{"id":"285099","type":"tv","title":"The Waking of a Nation","poster":"https://image.tmdb.org/t/p/w342/nJYPeMgrywL5jdQc9f3QD3Fujo8.jpg","year":"2025","result":"HD","language":["Hindi"],"country":["IN"],"original_language":"hi","genres":["Drama"],"imdb_id":"tt15910280","latest_uploaded_season":1,"total_uploaded_episodes":6},{"id":"284794","type":"tv","title":"Oops Ab Kya","poster":"https://image.tmdb.org/t/p/w342/unIYYEMkQMa1hVdDoyfwybRfIPl.jpg","year":"2025","result":"HD","language":["Hindi"],"country":["IN"],"original_language":"hi","genres":["Drama","Comedy","Mystery"],"imdb_id":"tt35528920","latest_uploaded_season":1,"total_uploaded_episodes":8},{"id":"284731","type":"tv","title":"Crime Beat","poster":"https://image.tmdb.org/t/p/w342/uImPA5WhNwSMcLUb3Y1KDDioTPQ.jpg","year":"2025","result":"HD","language":["Hindi"],"country":["IN"],"original_language":"hi","genres":["Drama"],"imdb_id":"tt35683314","latest_uploaded_season":1,"total_uploaded_episodes":1},{"id":"284644","type":"tv","title":"My Status as an Assassin Obviously Exceeds the Hero's","poster":"https://image.tmdb.org/t/p/w342/oQk3aXYEa4TMd9rAYgzDpAYTU8P.jpg","year":"2025","result":"HD","language":["Hindi"],"country":["JP"],"original_language":"ja","genres":["Animation","Action & Adventure","Sci-Fi & Fantasy"],"imdb_id":"tt36230718","latest_uploaded_season":1,"total_uploaded_episodes":12},{"id":"284445","type":"tv","title":"Takopi's Original Sin","poster":"https://image.tmdb.org/t/p/w342/xPXDVhVKt0XM34ihoUVMHtLYTw8.jpg","year":"2025","result":"HD","language":["Hindi"],"country":["JP"],"original_language":"ja","genres":["Animation","Drama","Sci-Fi & Fantasy"],"imdb_id":"tt36988358","latest_uploaded_season":1,"total_uploaded_episodes":6},{"id":"283622","type":"tv","title":"Kobali","poster":"https://image.tmdb.org/t/p/w342/noKpRes8qwGlpXCHzFbZ9VUTNqq.jpg","year":"2025","result":"HD","language":["Hindi"],"country":["IN"],"original_language":"te","genres":["Action & Adventure","Crime","Drama"],"imdb_id":"tt35465105","latest_uploaded_season":1,"total_uploaded_episodes":8},{"id":"283610","type":"tv","title":"Saare Jahan Se Accha: The Silent Guardians","poster":"https://image.tmdb.org/t/p/w342/p4moj0PXeFILF3mNBJywHqmfBm7.jpg","year":"2025","result":"HD","language":["Hindi"],"country":["IN"],"original_language":"hi","genres":["Drama"],"imdb_id":"tt35665851","latest_uploaded_season":1,"total_uploaded_episodes":6},{"id":"283354","type":"tv","title":"Katrina: Come Hell and High Water","poster":"https://image.tmdb.org/t/p/w342/f16yvVS9QJf1x0dxx1bPE7cnKKR.jpg","year":"2025","result":"HD","language":["Hindi"],"country":["US"],"original_language":"en","genres":["Documentary"],"imdb_id":"tt35629490","latest_uploaded_season":1,"total_uploaded_episodes":3},{"id":"282394","type":"tv","title":"Khakee: The Bengal Chapter","poster":"https://image.tmdb.org/t/p/w342/fasJ27kLhHdzF9cBDq0vGXFVkvI.jpg","year":"2025","result":"HD","language":["Hindi"],"country":["IN"],"original_language":"hi","genres":["Drama","Crime"],"imdb_id":"tt34569030","latest_uploaded_season":1,"total_uploaded_episodes":7},{"id":"282171","type":"tv","title":"Griha Laxmi","poster":"https://image.tmdb.org/t/p/w342/1OFvR3Cwqvmi4sUrIOvyGo0sXs3.jpg","year":"2025","result":"HD","language":["Hindi"],"country":["IN"],"original_language":"hi","genres":["Crime","Drama"],"imdb_id":"tt35255273","latest_uploaded_season":1,"total_uploaded_episodes":1},{"id":"281408","type":"tv","title":"Agra Affair","poster":"https://image.tmdb.org/t/p/w342/cH1jE9EEe24Yw7jiWChed3gNyB3.jpg","year":"2025","result":"HD","language":["Hindi"],"country":["IN"],"original_language":"hi","genres":["Drama"],"imdb_id":"tt35267191","latest_uploaded_season":1,"total_uploaded_episodes":1},{"id":"281309","type":"tv","title":"Chidiya Udd","poster":"https://image.tmdb.org/t/p/w342/2L1T7BIgEuTm8gBhYzyWMuJnHIT.jpg","year":"2025","result":"HD","language":["Hindi"],"country":["IN"],"original_language":"hi","genres":["Drama","Crime","Action & Adventure"],"imdb_id":"tt26745617","latest_uploaded_season":1,"total_uploaded_episodes":8},{"id":"281013","type":"tv","title":"Dynamite Kiss","poster":"https://image.tmdb.org/t/p/w342/zkE2pVFNaRaObXgauc2wfwYQCEE.jpg","year":"2025","result":"HD","language":["Hindi"],"country":["KR"],"original_language":"ko","genres":["Drama","Comedy"],"imdb_id":"tt38353551","latest_uploaded_season":1,"total_uploaded_episodes":14},{"id":"281005","type":"tv","title":"Surely Tomorrow","poster":"https://image.tmdb.org/t/p/w342/k9xPcIsxXbc1Xuf45K0FU8yM2m5.jpg","year":"2025","result":"HD","language":["Hindi"],"country":["KR"],"original_language":"ko","genres":["Comedy","Drama"],"imdb_id":"tt38221085","latest_uploaded_season":1,"total_uploaded_episodes":12},{"id":"281004","type":"tv","title":"Beyond the Bar","poster":"https://image.tmdb.org/t/p/w342/nN6mZZxJBPZXBjLxnjgpnoRvswk.jpg","year":"2025","result":"HD","language":["Hindi"],"country":["KR"],"original_language":"ko","genres":["Drama"],"imdb_id":"tt37660730","latest_uploaded_season":1,"total_uploaded_episodes":12},{"id":"280945","type":"tv","title":"Bon Appétit, Your Majesty","poster":"https://image.tmdb.org/t/p/w342/bzYSIw9FTzQXUcWsnDSwlcwok3C.jpg","year":"2025","result":"HD","language":["Hindi"],"country":["KR"],"original_language":"ko","genres":["Drama","Sci-Fi & Fantasy"],"imdb_id":"tt37600136","latest_uploaded_season":1,"total_uploaded_episodes":12},{"id":"280889","type":"tv","title":"Bada Naam Karenge","poster":"https://image.tmdb.org/t/p/w342/ldO5HuJC3pUMOJRtGyG50KEF4YU.jpg","year":"2025","result":"HD","language":["Hindi"],"country":["IN"],"original_language":"hi","genres":["Drama","Family"],"imdb_id":"tt30784379","latest_uploaded_season":1,"total_uploaded_episodes":9},{"id":"280888","type":"tv","title":"Two Graves","poster":"https://image.tmdb.org/t/p/w342/bnERtXWzPaTRZfa0iEtvygiOrPP.jpg","year":"2025","result":"HD","language":["Hindi"],"country":["ES"],"original_language":"es","genres":["Mystery","Crime","Drama"],"imdb_id":"tt32146392","latest_uploaded_season":1,"total_uploaded_episodes":3},{"id":"280689","type":"tv","title":"The Secret Of The Shiledars","poster":"https://image.tmdb.org/t/p/w342/toe159W0ykkX6m9h3RSRBZv46ZA.jpg","year":"2025","result":"HD","language":["Hindi"],"country":["IN"],"original_language":"hi","genres":["Drama","Action & Adventure"],"imdb_id":"tt33083754","latest_uploaded_season":1,"total_uploaded_episodes":6},{"id":"279942","type":"tv","title":"America's Team: The Gambler and His Cowboys","poster":"https://image.tmdb.org/t/p/w342/2LZegU8xUyhiWDJ4vXA03DjXtPU.jpg","year":"2025","result":"HD","language":["Hindi"],"country":["US"],"original_language":"en","genres":["Documentary"],"imdb_id":"tt32376299","latest_uploaded_season":1,"total_uploaded_episodes":8},{"id":"279601","type":"tv","title":"Man vs Baby","poster":"https://image.tmdb.org/t/p/w342/x7UZVTEr26H5yCSVQoKTeBdvUvg.jpg","year":"2025","result":"HD","language":["Hindi"],"country":["GB"],"original_language":"en","genres":["Comedy","Family"],"imdb_id":"tt35047134","latest_uploaded_season":1,"total_uploaded_episodes":4},{"id":"279339","type":"tv","title":"Black Warrant","poster":"https://image.tmdb.org/t/p/w342/u6Gs1IzzPJsmXKdc9alGaxtChQu.jpg","year":"2025","result":"HD","language":["Hindi"],"country":["IN"],"original_language":"hi","genres":["Drama","Crime"],"imdb_id":"tt35064818","latest_uploaded_season":1,"total_uploaded_episodes":7},{"id":"278398","type":"tv","title":"Wanna Be","poster":"https://image.tmdb.org/t/p/w342/3o8KkHBRAItMBjtdG35GImmsttp.jpg","year":"2025","result":"HD","language":["Hindi"],"country":["CN"],"original_language":"zh","genres":["Drama","Comedy"],"imdb_id":"tt36277152","latest_uploaded_season":1,"total_uploaded_episodes":28},{"id":"278196","type":"tv","title":"The Summer Hikaru Died","poster":"https://image.tmdb.org/t/p/w342/dTgq553baOQYUmgjcSlVX0xd6ut.jpg","year":"2025","result":"HD","language":["Hindi"],"country":["JP"],"original_language":"ja","genres":["Animation","Drama","Mystery","Sci-Fi & Fantasy"],"imdb_id":"tt33028568","latest_uploaded_season":1,"total_uploaded_episodes":12},{"id":"278193","type":"movie","title":"Detective Ujjwalan","poster":"https://image.tmdb.org/t/p/w342/rVCNbMW2bmbPE2XaUMUsnA9YgAh.jpg","year":"2025","result":"HD","language":["Hindi"],"country":["IN"],"original_language":"ml","genres":["Mystery","Crime"],"imdb_id":"tt33319697"},{"id":"278100","type":"tv","title":"The Town","poster":"https://image.tmdb.org/t/p/w342/k4EhIaAapcEc79mXvzjxmplGb0e.jpg","year":"2025","result":"HD","language":["Hindi"],"country":["TR"],"original_language":"tr","genres":["Drama","Crime"],"imdb_id":"tt24243760","latest_uploaded_season":1,"total_uploaded_episodes":8},{"id":"277752","type":"tv","title":"City of Shadows","poster":"https://image.tmdb.org/t/p/w342/n4rguIB7Cf4h3l1IyqMo3THW5xn.jpg","year":"2025","result":"HD","language":["Hindi"],"country":["ES"],"original_language":"es","genres":["Crime","Mystery"],"imdb_id":"tt34719392","latest_uploaded_season":1,"total_uploaded_episodes":6},{"id":"277581","type":"tv","title":"Dekin no Mogura: The Earthbound Mole","poster":"https://image.tmdb.org/t/p/w342/xnEForFiNATvYS4MUwYyFuPyiok.jpg","year":"2025","result":"HD","language":["Hindi"],"country":["JP"],"original_language":"ja","genres":["Animation","Mystery","Drama"],"imdb_id":"tt35995444","latest_uploaded_season":1,"total_uploaded_episodes":12},{"id":"277265","type":"tv","title":"Bhog","poster":"https://image.tmdb.org/t/p/w342/3XhvlhvwMHfRmQYaCMZynZjpNUo.jpg","year":"2025","result":"HD","language":["Hindi"],"country":["IN"],"original_language":"bn","genres":["Mystery","Drama"],"imdb_id":"tt36504596","latest_uploaded_season":1,"total_uploaded_episodes":6},{"id":"274979","type":"tv","title":"The Crystal Cuckoo","poster":"https://image.tmdb.org/t/p/w342/tsY3Kl793m2sXTMkQTajz0EOqCl.jpg","year":"2025","result":"HD","language":["Hindi"],"country":["ES"],"original_language":"es","genres":["Drama","Crime","Mystery"],"imdb_id":"tt34231642","latest_uploaded_season":1,"total_uploaded_episodes":6},{"id":"274875","type":"tv","title":"Twelve","poster":"https://image.tmdb.org/t/p/w342/6q66Psq2cDrCsoz8cGDVa6gFmMm.jpg","year":"2025","result":"HD","language":["Hindi"],"country":["KR"],"original_language":"ko","genres":["Sci-Fi & Fantasy","Action & Adventure","Drama"],"imdb_id":"tt37492797","latest_uploaded_season":1,"total_uploaded_episodes":8},{"id":"274048","type":"tv","title":"Grab Your Love","poster":"https://image.tmdb.org/t/p/w342/Aqv4DjCJ6pCxtX6k735Weh30tTp.jpg","year":"2025","result":"HD","language":["Hindi"],"country":["CN"],"original_language":"zh","genres":["Drama"],"imdb_id":"tt36866367","latest_uploaded_season":1,"total_uploaded_episodes":24},{"id":"272467","type":"tv","title":"Young Millionaires","poster":"https://image.tmdb.org/t/p/w342/cGTmK9RSbubzZmQnRFGfvtLXDGM.jpg","year":"2025","result":"HD","language":["Hindi"],"country":["FR"],"original_language":"fr","genres":["Comedy","Drama"],"imdb_id":"tt36955264","latest_uploaded_season":1,"total_uploaded_episodes":8},{"id":"272059","type":"tv","title":"TO BE HERO X","poster":"https://image.tmdb.org/t/p/w342/7ynNG9lYS9HIR8cYMgawO19VPkg.jpg","year":"2025","result":"HD","language":["Hindi"],"country":["CN"],"original_language":"zh","genres":["Animation","Action & Adventure","Sci-Fi & Fantasy"],"imdb_id":"tt23139038","latest_uploaded_season":2,"total_uploaded_episodes":24},{"id":"271885","type":"tv","title":"As You Stood By","poster":"https://image.tmdb.org/t/p/w342/3ciqsMz21p8xp5udriFjRGM5OYs.jpg","year":"2025","result":"HD","language":["Hindi"],"country":["KR"],"original_language":"ko","genres":["Crime","Drama","Mystery"],"imdb_id":"tt33550045","latest_uploaded_season":1,"total_uploaded_episodes":8},{"id":"271823","type":"tv","title":"Playing Gracie Darling","poster":"https://image.tmdb.org/t/p/w342/7UWdkbSUd1d1GB28IyIKDbftzhM.jpg","year":"2025","result":"HD","language":["Hindi"],"country":["AU"],"original_language":"en","genres":["Drama","Mystery"],"imdb_id":"tt33384059","latest_uploaded_season":1,"total_uploaded_episodes":6},{"id":"271605","type":"tv","title":"May I Ask for One Final Thing?","poster":"https://image.tmdb.org/t/p/w342/6WUSl1NP5I66IGiI6n9BwOzZTbY.jpg","year":"2025","result":"HD","language":["Hindi"],"country":["JP"],"original_language":"ja","genres":["Animation","Comedy","Drama","Action & Adventure","Sci-Fi & Fantasy"],"imdb_id":"tt33384856","latest_uploaded_season":1,"total_uploaded_episodes":13},{"id":"271406","type":"tv","title":"The Roshans","poster":"https://image.tmdb.org/t/p/w342/qfanotr54XJwX1wSdnyo9mlclLt.jpg","year":"2025","result":"HD","language":["Hindi"],"country":["IN"],"original_language":"hi","genres":["Documentary"],"imdb_id":"tt31189484","latest_uploaded_season":1,"total_uploaded_episodes":4},{"id":"271128","type":"tv","title":"The New Force","poster":"https://image.tmdb.org/t/p/w342/slACzBGkUWKHbU8bEwcR2Uvo1Ir.jpg","year":"2025","result":"HD","language":["Hindi"],"country":["SE"],"original_language":"sv","genres":["Drama"],"imdb_id":"tt31828197","latest_uploaded_season":1,"total_uploaded_episodes":6},{"id":"271041","type":"tv","title":"The Chronicles Of The 4.5 Gang","poster":"https://image.tmdb.org/t/p/w342/8bhytwwkOOkLWGR76RubBr3IgXU.jpg","year":"2025","result":"HD","language":["Hindi"],"country":["IN"],"original_language":"ml","genres":["Crime","Comedy"],"imdb_id":"tt30218223","latest_uploaded_season":1,"total_uploaded_episodes":6},{"id":"270487","type":"tv","title":"I Left My A-Rank Party to Help My Former Students Reach the Dungeon Depths!","poster":"https://image.tmdb.org/t/p/w342/I0AU52dvJzQptvbmWfVnVBgm75.jpg","year":"2025","result":"HD","language":["Hindi"],"country":["JP"],"original_language":"ja","genres":["Animation","Action & Adventure","Sci-Fi & Fantasy"],"imdb_id":"tt33615810","latest_uploaded_season":2,"total_uploaded_episodes":25},{"id":"262920","type":"tv","title":"The Asset","poster":"https://image.tmdb.org/t/p/w342/ugreFeu0Ng7wnfX6ZRNoQa2sbxX.jpg","year":"2025","result":"HD","language":["Hindi"],"country":["DK"],"original_language":"da","genres":["Drama","Crime"],"imdb_id":"tt33293130","latest_uploaded_season":1,"total_uploaded_episodes":6},{"id":"262281","type":"tv","title":"Victoria Beckham","poster":"https://image.tmdb.org/t/p/w342/dJjWMwWk86zMGPQlMvAsptVEDYm.jpg","year":"2025","result":"HD","language":["Hindi"],"country":["GB"],"original_language":"en","genres":["Documentary"],"imdb_id":"tt33241853","latest_uploaded_season":1,"total_uploaded_episodes":3},{"id":"262279","type":"tv","title":"Matchroom: The Greatest Showmen","poster":"https://image.tmdb.org/t/p/w342/mRIPc4ISxovSrUFycg3g7LcSvdQ.jpg","year":"2025","result":"HD","language":["Hindi"],"country":["GB"],"original_language":"en","genres":["Documentary"],"imdb_id":"tt37981481","latest_uploaded_season":1,"total_uploaded_episodes":6},{"id":"261545","type":"tv","title":"The Royals","poster":"https://image.tmdb.org/t/p/w342/nnD4364ToXZwDpFWEnY94xzykIs.jpg","year":"2025","result":"HD","language":["Hindi"],"country":["IN"],"original_language":"hi","genres":["Drama","Comedy"],"imdb_id":"tt33098081","latest_uploaded_season":1,"total_uploaded_episodes":8},{"id":"260846","type":"tv","title":"Mrs. Deshpande","poster":"https://image.tmdb.org/t/p/w342/7uZ9ZQHVfOACW7Got0wMg8ykGkz.jpg","year":"2025","result":"HD","language":["Hindi"],"country":["IN"],"original_language":"hi","genres":["Crime"],"imdb_id":"tt38990492","latest_uploaded_season":1,"total_uploaded_episodes":6},{"id":"259710","type":"tv","title":"Confidence Queen","poster":"https://image.tmdb.org/t/p/w342/wUCmw1B6MBRiN6TUSbssKHuJnV0.jpg","year":"2025","result":"HD","language":["Hindi"],"country":["KR"],"original_language":"ko","genres":["Crime","Comedy","Drama"],"imdb_id":"tt37262316","latest_uploaded_season":1,"total_uploaded_episodes":12}]}