{"page":11,"total_pages":66,"total_items":3272,"items":[{"id":"1533188","type":"movie","title":"Policy","poster":"https://image.tmdb.org/t/p/w342/dvcUrYTpCMnG9iapggE6rIHZJ4g.jpg","year":"2025","result":"HD","language":["Hindi"],"country":[],"original_language":"pa","genres":["Drama"],"imdb_id":""},{"id":"1405301","type":"movie","title":"Pyaar Taan Hai Na","poster":"https://image.tmdb.org/t/p/w342/fUsspabzgR8qaQlACg9Okgk5DcO.jpg","year":"2025","result":"HD","language":["Punjabi"],"country":["AU"],"original_language":"pa","genres":[],"imdb_id":"tt35077028"},{"id":"308057","type":"tv","title":"Rajdhani - The Capital of Crime","poster":"https://image.tmdb.org/t/p/w342/gGurfNZ5EhGU03G6ELe6yOJc4Ah.jpg","year":"2025","result":"HD","language":["PUNJABI"],"country":["IN"],"original_language":"pa","genres":[],"imdb_id":"tt39140364","latest_uploaded_season":1,"total_uploaded_episodes":1},{"id":"1458487","type":"movie","title":"Rishte Naate","poster":"https://image.tmdb.org/t/p/w342/8DbwaakFMceJqkhtxXr3xDaGe3D.jpg","year":"2025","result":"HD","language":["PUNJABI"],"country":[],"original_language":"pa","genres":["Romance","Comedy"],"imdb_id":"tt35126350"},{"id":"1499848","type":"movie","title":"Road Of Life","poster":"https://image.tmdb.org/t/p/w342/eRlSiv94Jjn9CyQzfvPTsKWkETo.jpg","year":"2025","result":"HD","language":["PUNJABI"],"country":["IN"],"original_language":"pa","genres":["Drama"],"imdb_id":""},{"id":"1487113","type":"movie","title":"Sardaarji 3","poster":"https://image.tmdb.org/t/p/w342/ncLqJpmFlTxHbgeVRrdKZrHGfUl.jpg","year":"2025","result":"HD","language":["CAM RESULT"],"country":["IN"],"original_language":"pa","genres":["Adventure","Comedy","Horror"],"imdb_id":"tt33022037"},{"id":"1457306","type":"movie","title":"Saunkan Saunkanay 2","poster":"https://image.tmdb.org/t/p/w342/fGQBK3RjN1jmZKOhkyaOppcDpxk.jpg","year":"2025","result":"HD","language":["PUNJABI"],"country":["IN"],"original_language":"pa","genres":["Comedy","Romance"],"imdb_id":"tt34037996"},{"id":"1487110","type":"movie","title":"Sayonee","poster":"https://image.tmdb.org/t/p/w342/nslJFuiD4JgV9gwJV03tts3ejiL.jpg","year":"2025","result":"HD","language":["Punjabi"],"country":["IN"],"original_language":"pa","genres":["Romance","Drama"],"imdb_id":"tt12055210"},{"id":"1275248","type":"movie","title":"Sister Midnight","poster":"https://image.tmdb.org/t/p/w342/bV054lxZay3OWFTmjjHKZYDx5PO.jpg","year":"2025","result":"HD","language":["Hindi"],"country":["IN","GB","SE"],"original_language":"en","genres":["Comedy","Drama"],"imdb_id":"tt32060445"},{"id":"1527769","type":"movie","title":"Teda Meda Chal Canada","poster":"https://image.tmdb.org/t/p/w342/9PPXSzmCxNV1LMwEFmTSEpwC2mA.jpg","year":"2025","result":"HD","language":["PUNJABI"],"country":[],"original_language":"en","genres":["Drama"],"imdb_id":""},{"id":"1487767","type":"movie","title":"Tenu Ghodi Kinney Chadaya","poster":"https://image.tmdb.org/t/p/w342/aVBlGrl4I4fJ7hmv6uB15qoFA9D.jpg","year":"2025","result":"HD","language":["PUNJABI"],"country":["IN"],"original_language":"pa","genres":["Comedy"],"imdb_id":"tt36041937"},{"id":"1602459","type":"movie","title":"Tera Bhanna Mitha Laage","poster":"https://image.tmdb.org/t/p/w342/hd61wAwJtQ96L5rqhJO2XPWpe9H.jpg","year":"2025","result":"HD","language":["PUNJABI"],"country":[],"original_language":"en","genres":["Drama"],"imdb_id":""},{"id":"294187","type":"tv","title":"The Hunt: The Rajiv Gandhi Assassination Case","poster":"https://image.tmdb.org/t/p/w342/2Jz3O43oDAJZIlzfmgmbvxjRuH3.jpg","year":"2025","result":"HD","language":["Hindi"],"country":["IN"],"original_language":"hi","genres":["Crime","Mystery"],"imdb_id":"tt37365626","latest_uploaded_season":1,"total_uploaded_episodes":1},{"id":"1454352","type":"movie","title":"The Toys","poster":"https://image.tmdb.org/t/p/w342/5EQVOJdd881K1qSGPJBgUKe5ih8.jpg","year":"2025","result":"HD","language":["PUNJABI"],"country":[],"original_language":"pa","genres":["Comedy","Romance","Drama"],"imdb_id":"tt29417889"},{"id":"1472956","type":"movie","title":"Vair","poster":"https://image.tmdb.org/t/p/w342/zJ4pkkOLUuWga6W49Tc0JOJuJm2.jpg","year":"2025","result":"HD","language":["PUNJABI"],"country":["IN"],"original_language":"pa","genres":["Crime","Thriller"],"imdb_id":""},{"id":"1676328","type":"movie","title":"Ve Koi Lai Chaleya Muklave","poster":"https://m.media-amazon.com/images/S/pv-target-images/810e1a555e786a39e0f4d65d7860ea977dc2684cf51e8098b37fb9c2410461a0.jpg","year":"2025","result":"HD","language":["PUNJABI"],"country":[],"original_language":"pa","genres":[],"imdb_id":"tt37790370"},{"id":"1523505","type":"movie","title":"Wife peke Husband Theke","poster":"https://image.tmdb.org/t/p/w342/y6SiKXjQ4w8EIrUlLKAHe6l12m3.jpg","year":"2025","result":"HD","language":["PUNJABI"],"country":[],"original_language":"pa","genres":[],"imdb_id":"tt37517552"},{"id":"202667","type":"tv","title":"The Second Best Hospital in the Galaxy","poster":"https://image.tmdb.org/t/p/w342/syTzEpti66IsK1ezkkBehROOVzD.jpg","year":"2025","result":"HD","language":["Hindi"],"country":["US"],"original_language":"en","genres":["Animation","Sci-Fi & Fantasy","Comedy"],"imdb_id":"tt11828386","latest_uploaded_season":2,"total_uploaded_episodes":16},{"id":"252257","type":"tv","title":"AMERICA'S SWEETHEARTS: Dallas Cowboys Cheerleaders","poster":"https://image.tmdb.org/t/p/w342/dM3fGD2uDhE9Z5HDieeWXhpXyG0.jpg","year":"2025","result":"HD","language":["Hindi"],"country":["US"],"original_language":"en","genres":["Documentary"],"imdb_id":"tt32146518","latest_uploaded_season":2,"total_uploaded_episodes":14},{"id":"241269","type":"tv","title":"Bandidos","poster":"https://image.tmdb.org/t/p/w342/2yXMGkZ8l8oXbmBp4YmDNYz7D5w.jpg","year":"2025","result":"HD","language":["Hindi"],"country":["MX"],"original_language":"es","genres":["Action & Adventure"],"imdb_id":"tt11262142","latest_uploaded_season":2,"total_uploaded_episodes":14},{"id":"255728","type":"tv","title":"Selling the City","poster":"https://image.tmdb.org/t/p/w342/1MSrHTti0XJODwwtwJsjLs6oDsj.jpg","year":"2025","result":"HD","language":["Hindi"],"country":["US"],"original_language":"en","genres":["Reality"],"imdb_id":"tt32501221","latest_uploaded_season":1,"total_uploaded_episodes":8},{"id":"247522","type":"tv","title":"Tires","poster":"https://image.tmdb.org/t/p/w342/cNHTFUV39qyEsm7edSaJdSqJYtJ.jpg","year":"2025","result":"HD","language":["Hindi"],"country":["US"],"original_language":"en","genres":["Comedy"],"imdb_id":"tt31491435","latest_uploaded_season":2,"total_uploaded_episodes":18},{"id":"249882","type":"tv","title":"ZENSHU","poster":"https://image.tmdb.org/t/p/w342/okRnvNLpduDKPUIyZbMxJkeek8D.jpg","year":"2025","result":"HD","language":["Hindi"],"country":["JP"],"original_language":"ja","genres":["Animation","Drama","Action & Adventure","Sci-Fi & Fantasy"],"imdb_id":"tt31863730","latest_uploaded_season":1,"total_uploaded_episodes":12},{"id":"1455440","type":"movie","title":"Ajey: The Untold Story of a Yogi","poster":"https://image.tmdb.org/t/p/w342/dW4rKpAMTYSw9YvBrTX2FaKIQpv.jpg","year":"2025","result":"HD","language":["CAM RESULT"],"country":["IN"],"original_language":"hi","genres":["Drama"],"imdb_id":"tt36376123"},{"id":"290374","type":"tv","title":"Black, White & Gray - Love Kills","poster":"https://image.tmdb.org/t/p/w342/6PXpJDC6wRhD6H8OCGPjSLpaXoZ.jpg","year":"2025","result":"HD","language":["Hindi"],"country":["IN"],"original_language":"hi","genres":["Crime","Drama"],"imdb_id":"tt35822727","latest_uploaded_season":1,"total_uploaded_episodes":1},{"id":"281540","type":"tv","title":"Ek Farzi Love Story","poster":"https://image.tmdb.org/t/p/w342/gSw0C30olqEClgZNa5UYR89Lrq3.jpg","year":"2025","result":"HD","language":["Hindi"],"country":["IN"],"original_language":"hi","genres":["Drama"],"imdb_id":"tt35310553","latest_uploaded_season":1,"total_uploaded_episodes":2},{"id":"1446585","type":"movie","title":"Fikar Karo-Na","poster":"https://image.tmdb.org/t/p/w342/tGNZhc67OzMNVrsbyJAqwmYD4aq.jpg","year":"2025","result":"HD","language":["PUNJABI"],"country":[],"original_language":"pa","genres":["Drama","Romance","Comedy"],"imdb_id":"tt18286468"},{"id":"1422575","type":"movie","title":"Gurmukh","poster":"https://image.tmdb.org/t/p/w342/jLaycshCtw5RSRGErVHfpi3a7rp.jpg","year":"2025","result":"HD","language":["PUNJABI"],"country":["IN"],"original_language":"pa","genres":["Drama"],"imdb_id":"tt11493600"},{"id":"1427943","type":"movie","title":"Hasrat (An Uncommon Love Story)","poster":"https://image.tmdb.org/t/p/w342/saPuClJqmOvzDcDJrCuVHMUiqhn.jpg","year":"2025","result":"HD","language":["PUNJABI"],"country":[],"original_language":"pa","genres":[],"imdb_id":"tt35335552"},{"id":"809787","type":"movie","title":"Mafia - Game for Life","poster":"https://akamaividz2.zee5.com/image/upload/w_336,h_504,c_scale,f_webp,q_auto:eco/resources/0-0-1z5790150/portrait/1920x770439f2a7462e348c7aef35d253d26175d6e41b5e6ca024f638766da39229d181e82b4fdc9e20f4f1e9c890b2c5bdcbf13.jpg","year":"2025","result":"HD","language":["Hindi"],"country":["GB","US","IT"],"original_language":"en","genres":["Comedy","Crime","Action"],"imdb_id":"tt13923456"},{"id":"12259","type":"movie","title":"Sholay: The Final Cut","poster":"https://m.media-amazon.com/images/M/MV5BMmRkN2I4MGUtYjAwMC00NjNjLWIxNWItYTMzZWViNDc0NDVhXkEyXkFqcGc@._V1_.jpg","year":"2025","result":"HD","language":["CAM RESULT"],"country":["IN"],"original_language":"hi","genres":["Action"],"imdb_id":"tt0073707"},{"id":"1457238","type":"movie","title":"Taron Paar","poster":"https://image.tmdb.org/t/p/w342/6wdHCzUgUD9X0znUyyrCAVicmy9.jpg","year":"2025","result":"HD","language":["PUNJABI"],"country":[],"original_language":"pa","genres":["Drama","Romance"],"imdb_id":"tt36257781"},{"id":"1134048","type":"movie","title":"Marshmallow","poster":"https://image.tmdb.org/t/p/w342/qZseaOw1BgLkJsfiEmNpS1KhH8d.jpg","year":"2025","result":"HD","language":["Hindi"],"country":["US"],"original_language":"en","genres":["Horror","Science Fiction"],"imdb_id":"tt15220066"},{"id":"251711","type":"tv","title":"Adv. Achinta Aich","poster":"https://image.tmdb.org/t/p/w342/gYRoYjNkRQDilLGubAsZ7l4gl4e.jpg","year":"2025","result":"HD","language":["Hindi"],"country":["IN"],"original_language":"bn","genres":["Drama"],"imdb_id":"tt31975566","latest_uploaded_season":2,"total_uploaded_episodes":14},{"id":"1533182","type":"movie","title":"Hanji Kaun","poster":"https://image.tmdb.org/t/p/w342/dWEYAaH7n1CxcjkjzZT2fQCTvRl.jpg","year":"2025","result":"HD","language":["PUNJABI"],"country":[],"original_language":"pa","genres":["Drama","Comedy"],"imdb_id":""},{"id":"284354","type":"tv","title":"Pyar Ka Professor","poster":"https://image.tmdb.org/t/p/w342/iWQILNeiR1scoJpChFeTXrM34Xz.jpg","year":"2025","result":"HD","language":["Hindi"],"country":["IN"],"original_language":"hi","genres":["Comedy","Drama"],"imdb_id":"tt35671338","latest_uploaded_season":1,"total_uploaded_episodes":1},{"id":"1226572","type":"movie","title":"Superboys of Malegaon","poster":"https://image.tmdb.org/t/p/w342/kLMLaZa0Mu4BqPhA2eYbduFjcD0.jpg","year":"2025","result":"HD","language":["Hindi"],"country":["IN"],"original_language":"hi","genres":["Comedy","Drama","History"],"imdb_id":"tt28007064"},{"id":"1431530","type":"movie","title":"Woh Kaun Thi","poster":"https://image.tmdb.org/t/p/w342/vfbr07hKqYothqNYbJdofIxA9R7.jpg","year":"2025","result":"HD","language":["Hindi"],"country":["IN"],"original_language":"hi","genres":["Horror"],"imdb_id":""},{"id":"1592043","type":"movie","title":"Mahasenha","poster":"https://image.tmdb.org/t/p/w342/kQeOxMQ1F8E5vixcLfju3vYRT0U.jpg","year":"2025","result":"HD","language":["Hindi"],"country":["IN"],"original_language":"ta","genres":["Adventure","Action"],"imdb_id":"tt39007848"},{"id":"1471491","type":"movie","title":"Room to Move","poster":"https://image.tmdb.org/t/p/w342/4UCqZj1Eki00mJUf8oyq5Vyo6QT.jpg","year":"2025","result":"HD","language":["Hindi"],"country":["US"],"original_language":"en","genres":["Documentary"],"imdb_id":"tt33098576"},{"id":"1255674","type":"movie","title":"Crazy Old Lady","poster":"https://image.tmdb.org/t/p/w342/pT28lZl2eYCNYFyxyThpSKttLfI.jpg","year":"2025","result":"HD","language":["Hindi"],"country":["AR","ES","US"],"original_language":"es","genres":["Horror","Thriller","Comedy"],"imdb_id":"tt31613162"},{"id":"1563616","type":"movie","title":"The Race","poster":"https://image.tmdb.org/t/p/w342/oTLcRCSuunNV8ML81VlU4spIpMi.jpg","year":"2025","result":"HD","language":["Hindi"],"country":["RO"],"original_language":"ro","genres":["Action","Adventure","Thriller"],"imdb_id":"tt35052447"},{"id":"1657598","type":"movie","title":"The Call","poster":"https://image.tmdb.org/t/p/w342/swFLhsK2LrGEWxVD3k4ZYrK9Kj6.jpg","year":"2025","result":"HD","language":["Hindi"],"country":["IN"],"original_language":"hi","genres":["Thriller","Mystery","Drama"],"imdb_id":""},{"id":"1603844","type":"movie","title":"Patang","poster":"https://image.tmdb.org/t/p/w342/x4pfUqv2df1SLmHVLMWx5Uav9ew.jpg","year":"2025","result":"HD","language":["Hindi"],"country":["IN"],"original_language":"te","genres":["Drama","Comedy","Romance"],"imdb_id":"tt32334452"},{"id":"1603224","type":"movie","title":"Real Kashmir Football Club","poster":"https://image.tmdb.org/t/p/w342/mR1ccqIWs7cC5KvYY4XmIOZXHrO.jpg","year":"2025","result":"HD","language":["Hindi"],"country":[],"original_language":"en","genres":[],"imdb_id":""},{"id":"1602023","type":"movie","title":"Rehna Nahi Bin Tere","poster":"https://image.tmdb.org/t/p/w342/ySousuB9vIjAhSNVd0KKjAXWww.jpg","year":"2025","result":"HD","language":["Hindi"],"country":[],"original_language":"hi","genres":[],"imdb_id":"tt20673370"},{"id":"1601970","type":"movie","title":"Tu Bol Na","poster":"https://image.tmdb.org/t/p/w342/rvoUkrP7Piw8GBsGTMNU8KldOXR.jpg","year":"2025","result":"HD","language":["Hindi"],"country":[],"original_language":"mr","genres":["Drama","Romance"],"imdb_id":"tt38692696"},{"id":"1601310","type":"movie","title":"Eesha","poster":"https://image.tmdb.org/t/p/w342/87MhKILHPwcForDY0HxzII4tPvA.jpg","year":"2025","result":"HD","language":["Hindi"],"country":["IN"],"original_language":"te","genres":["Horror","Thriller"],"imdb_id":"tt39109585"},{"id":"1601101","type":"movie","title":"Not All Movies Are the Same: Dual","poster":"https://image.tmdb.org/t/p/w342/wvHzhN4dSZC9gw66w09GTaf0egx.jpg","year":"2025","result":"HD","language":["Hindi"],"country":["IN"],"original_language":"te","genres":["Science Fiction","Thriller","Horror"],"imdb_id":"tt37671707"},{"id":"1600883","type":"movie","title":"Dhandoraa","poster":"https://image.tmdb.org/t/p/w342/hs3wQWyXPQEHxnMjXOXRoHY0dOG.jpg","year":"2025","result":"HD","language":["Hindi"],"country":["IN"],"original_language":"te","genres":["Romance","Drama"],"imdb_id":"tt34984715"}]}