{"page":3,"total_pages":6,"total_items":295,"items":[{"id":"958263","type":"movie","title":"Believer 2","poster":"https://image.tmdb.org/t/p/w342/g9aDZSqH5KmsHbMurhni5d2wq6q.jpg","year":"2023","result":"HD","language":["Hindi"],"country":["KR"],"original_language":"ko","genres":["Thriller","Action","Crime"],"imdb_id":"tt26258204"},{"id":"205319","type":"tv","title":"Daily Dose of Sunshine","poster":"https://image.tmdb.org/t/p/w342/d9hIiomaPXu6W9qATzPSqHgxze8.jpg","year":"2023","result":"HD","language":["Hindi"],"country":["KR"],"original_language":"ko","genres":["Drama"],"imdb_id":"tt26258202","latest_uploaded_season":1,"total_uploaded_episodes":12},{"id":"206693","type":"tv","title":"My Dearest","poster":"https://image.tmdb.org/t/p/w342/d00uWx8T84ZRsguQTqITl3HnFJO.jpg","year":"2023","result":"HD","language":["Hindi"],"country":["KR"],"original_language":"ko","genres":["Drama","Mystery"],"imdb_id":"tt26228190","latest_uploaded_season":1,"total_uploaded_episodes":21},{"id":"215320","type":"tv","title":"Numbers","poster":"https://image.tmdb.org/t/p/w342/1aKjOBF9NReK7IQZDRngoQRBwMO.jpg","year":"2023","result":"HD","language":["Hindi"],"country":["KR"],"original_language":"ko","genres":["Drama","Action & Adventure"],"imdb_id":"tt26689977","latest_uploaded_season":1,"total_uploaded_episodes":12},{"id":"753091","type":"movie","title":"The Moon","poster":"https://image.tmdb.org/t/p/w342/8LfXejDvxnOGZ0VEBZMBVekGWgo.jpg","year":"2023","result":"HD","language":["Hindi"],"country":["KR"],"original_language":"ko","genres":["Drama","Adventure","Science Fiction"],"imdb_id":"tt27688034"},{"id":"215001","type":"tv","title":"Destined with You","poster":"https://image.tmdb.org/t/p/w342/e21UFBbQStpqSkU4iyWwVJsb8DZ.jpg","year":"2023","result":"HD","language":["Hindi"],"country":["KR"],"original_language":"ko","genres":["Drama","Sci-Fi & Fantasy","Comedy"],"imdb_id":"tt27974068","latest_uploaded_season":1,"total_uploaded_episodes":16},{"id":"194797","type":"tv","title":"Doona!","poster":"https://image.tmdb.org/t/p/w342/bQhiOkU3lCu5pwCqPdNVG5GBLlj.jpg","year":"2023","result":"HD","language":["Hindi"],"country":["KR"],"original_language":"ko","genres":["Drama"],"imdb_id":"tt24245988","latest_uploaded_season":1,"total_uploaded_episodes":9},{"id":"715253","type":"movie","title":"Phantom","poster":"https://image.tmdb.org/t/p/w342/n1rxZ4wovf7BYhLNwCqde8I3I2N.jpg","year":"2023","result":"HD","language":["Hindi"],"country":["KR"],"original_language":"ko","genres":["Action","Thriller","Crime"],"imdb_id":"tt25503544"},{"id":"210107","type":"tv","title":"Behind Your Touch","poster":"https://image.tmdb.org/t/p/w342/rmGfPwRBOr8i8zxS0P0XCFJE21W.jpg","year":"2023","result":"HD","language":["Hindi"],"country":["KR"],"original_language":"ko","genres":["Drama","Comedy","Sci-Fi & Fantasy","Mystery"],"imdb_id":"tt26314390","latest_uploaded_season":1,"total_uploaded_episodes":16},{"id":"136368","type":"tv","title":"Song of the Bandits","poster":"https://image.tmdb.org/t/p/w342/4lls2JCt9g1YiusX3xLVSdSZ6cO.jpg","year":"2023","result":"HD","language":["Hindi"],"country":["KR"],"original_language":"ko","genres":["Action & Adventure","Drama"],"imdb_id":"tt21627436","latest_uploaded_season":1,"total_uploaded_episodes":9},{"id":"897160","type":"movie","title":"Brave Citizen","poster":"https://image.tmdb.org/t/p/w342/ixQoOExnnvIxYvnqGgfhaWqXeXc.jpg","year":"2023","result":"HD","language":["Hindi"],"country":["KR"],"original_language":"ko","genres":["Action","Drama","Comedy"],"imdb_id":"tt22505214"},{"id":"955555","type":"movie","title":"The Roundup 3: No Way Out","poster":"https://image.tmdb.org/t/p/w342/lW6IHrtaATxDKYVYoQGU5sh0OVm.jpg","year":"2023","result":"HD","language":["Hindi"],"country":["KR"],"original_language":"ko","genres":["Action","Crime","Comedy","Thriller"],"imdb_id":"tt21364552"},{"id":"936243","type":"movie","title":"Rebound","poster":"https://image.tmdb.org/t/p/w342/cioCtpRThVQB5UDnwDSGIljIu3j.jpg","year":"2023","result":"HD","language":["Hindi"],"country":["KR"],"original_language":"ko","genres":["Drama"],"imdb_id":"tt27002199"},{"id":"240715","type":"tv","title":"Snap and Spark","poster":"https://image.tmdb.org/t/p/w342/w2vK0lTyUkyOl8tPrTkaxi69kKv.jpg","year":"2023","result":"HD","language":["Hindi"],"country":["KR"],"original_language":"ko","genres":["Drama"],"imdb_id":"tt30454687","latest_uploaded_season":1,"total_uploaded_episodes":8},{"id":"226331","type":"tv","title":"The Villain of Romance","poster":"https://image.tmdb.org/t/p/w342/j5tHg0pW6u7VGVZ85udS2sazKpz.jpg","year":"2023","result":"HD","language":["Hindi"],"country":["KR"],"original_language":"ko","genres":["Drama","Comedy"],"imdb_id":"tt27917165","latest_uploaded_season":1,"total_uploaded_episodes":20},{"id":"218539","type":"tv","title":"My Demon","poster":"https://image.tmdb.org/t/p/w342/xBnscv5BrJREKVSvh0le61y4KDk.jpg","year":"2023","result":"HD","language":["Hindi"],"country":["KR"],"original_language":"ko","genres":["Drama","Comedy"],"imdb_id":"tt29569035","latest_uploaded_season":1,"total_uploaded_episodes":16},{"id":"218230","type":"tv","title":"Death's Game","poster":"https://image.tmdb.org/t/p/w342/ecM5MY9g2mF6x5SrB2QWOYkcH98.jpg","year":"2023","result":"HD","language":["E-Subtitles"],"country":["KR"],"original_language":"ko","genres":["Drama","Sci-Fi & Fantasy"],"imdb_id":"tt26225038","latest_uploaded_season":1,"total_uploaded_episodes":8},{"id":"212204","type":"tv","title":"Twinkling Watermelon","poster":"https://image.tmdb.org/t/p/w342/shuGzwtsLoODpa5unPq6aS3Gejm.jpg","year":"2023","result":"HD","language":["Hindi"],"country":["KR"],"original_language":"ko","genres":["Sci-Fi & Fantasy","Drama"],"imdb_id":"tt27446493","latest_uploaded_season":1,"total_uploaded_episodes":16},{"id":"210781","type":"tv","title":"My Lovely Liar","poster":"https://image.tmdb.org/t/p/w342/msYlN0cIpuTKlWYnEStdoBuHmvX.jpg","year":"2023","result":"HD","language":["Hindi"],"country":["KR"],"original_language":"ko","genres":["Mystery","Comedy","Drama","Sci-Fi & Fantasy"],"imdb_id":"tt27203727","latest_uploaded_season":1,"total_uploaded_episodes":16},{"id":"210218","type":"tv","title":"Delightfully Deceitful","poster":"https://image.tmdb.org/t/p/w342/bsGHK1Hf3vdD56XPe0d5N7HRa15.jpg","year":"2023","result":"HD","language":["Hindi"],"country":["KR"],"original_language":"ko","genres":["Drama","Comedy","Crime"],"imdb_id":"tt27368102","latest_uploaded_season":1,"total_uploaded_episodes":16},{"id":"205082","type":"tv","title":"Vigilante","poster":"https://image.tmdb.org/t/p/w342/lauvBkCZhcZHj5uUwUxwr5GTPps.jpg","year":"2023","result":"HD","language":["Hindi"],"country":["KR"],"original_language":"ko","genres":["Crime","Action & Adventure","Drama"],"imdb_id":"tt27458539","latest_uploaded_season":1,"total_uploaded_episodes":8},{"id":"203164","type":"tv","title":"Strong Girl Nam-soon","poster":"https://image.tmdb.org/t/p/w342/rjkHORZvB5bnz7kH1PufFCKsX4I.jpg","year":"2023","result":"HD","language":["Hindi"],"country":["KR"],"original_language":"ko","genres":["Comedy","Drama","Sci-Fi & Fantasy","Crime"],"imdb_id":"tt29225198","latest_uploaded_season":1,"total_uploaded_episodes":16},{"id":"202625","type":"tv","title":"The Heavenly Idol","poster":"https://image.tmdb.org/t/p/w342/bJCgCO3NkBpRr7KPTVYrtva9daj.jpg","year":"2023","result":"HD","language":["Hindi"],"country":["KR"],"original_language":"ko","genres":["Drama","Comedy","Sci-Fi & Fantasy"],"imdb_id":"tt26228426","latest_uploaded_season":1,"total_uploaded_episodes":12},{"id":"198004","type":"tv","title":"King the Land","poster":"https://image.tmdb.org/t/p/w342/tW8BMRCYSe6nySvZ749pzc31x2m.jpg","year":"2023","result":"HD","language":["Hindi"],"country":["KR"],"original_language":"ko","genres":["Drama","Comedy"],"imdb_id":"tt26693803","latest_uploaded_season":1,"total_uploaded_episodes":16},{"id":"196474","type":"tv","title":"A Time Called You","poster":"https://image.tmdb.org/t/p/w342/b5Rmy2xJekCNY7raZEjpYPyhf6h.jpg","year":"2023","result":"HD","language":["Hindi"],"country":["KR"],"original_language":"ko","genres":["Drama"],"imdb_id":"tt21627438","latest_uploaded_season":1,"total_uploaded_episodes":12},{"id":"154824","type":"tv","title":"See You in My 19th Life","poster":"https://image.tmdb.org/t/p/w342/zbP6wPbdFCTFnzuZoVXMw9q5Hno.jpg","year":"2023","result":"HD","language":["Hindi"],"country":["KR"],"original_language":"ko","genres":["Drama","Comedy"],"imdb_id":"tt27838483","latest_uploaded_season":1,"total_uploaded_episodes":12},{"id":"137040","type":"tv","title":"Black Knight","poster":"https://image.tmdb.org/t/p/w342/ucz3ZboT2Sb12yum51Q4J8M0myb.jpg","year":"2023","result":"HD","language":["Hindi"],"country":["KR"],"original_language":"ko","genres":["Drama","Action & Adventure","Sci-Fi & Fantasy"],"imdb_id":"tt17013106","latest_uploaded_season":1,"total_uploaded_episodes":6},{"id":"131305","type":"tv","title":"Celebrity","poster":"https://image.tmdb.org/t/p/w342/bYhzribGfkw6eeKkicJHx7U3Bwy.jpg","year":"2023","result":"HD","language":["Hindi"],"country":["KR"],"original_language":"ko","genres":["Drama","Mystery"],"imdb_id":"tt26315488","latest_uploaded_season":1,"total_uploaded_episodes":12},{"id":"155459","type":"tv","title":"Unlock My Boss","poster":"https://image.tmdb.org/t/p/w342/8SmsIBU2v4AWNNhFi5qfSUOT4ZN.jpg","year":"2022","result":"HD","language":["Hindi"],"country":["KR"],"original_language":"ko","genres":["Comedy","Drama"],"imdb_id":"tt24082562","latest_uploaded_season":1,"total_uploaded_episodes":12},{"id":"209408","type":"tv","title":"Bad Prosecutor","poster":"https://image.tmdb.org/t/p/w342/zFH9Ze9RbviL3NcAfhi9DH3nH3W.jpg","year":"2022","result":"HD","language":["Hindi"],"country":["KR"],"original_language":"ko","genres":["Action & Adventure","Drama"],"imdb_id":"tt22353836","latest_uploaded_season":1,"total_uploaded_episodes":12},{"id":"736732","type":"movie","title":"Broker","poster":"https://image.tmdb.org/t/p/w342/x86xaUnxU31JYiwlO35corDEV1i.jpg","year":"2022","result":"HD","language":["Hindi"],"country":["KR"],"original_language":"ko","genres":["Drama"],"imdb_id":"tt13056052"},{"id":"851644","type":"movie","title":"20th Century Girl","poster":"https://image.tmdb.org/t/p/w342/od22ftNnyag0TTxcnJhlsu3aLoU.jpg","year":"2022","result":"HD","language":["Hindi"],"country":["KR"],"original_language":"ko","genres":["Romance","Drama"],"imdb_id":"tt15340724"},{"id":"800345","type":"movie","title":"Carter","poster":"https://image.tmdb.org/t/p/w342/uzAh3Ub2YttCz13cnyB9PvhpmIL.jpg","year":"2022","result":"HD","language":["Hindi"],"country":["KR"],"original_language":"ko","genres":["Action","Thriller","Crime"],"imdb_id":"tt21237030"},{"id":"619803","type":"movie","title":"The Roundup 2","poster":"https://image.tmdb.org/t/p/w342/aTogcymFfYXYb2sx950ntIpgOJe.jpg","year":"2022","result":"HD","language":["Hindi"],"country":["KR"],"original_language":"ko","genres":["Action","Crime","Thriller","Adventure"],"imdb_id":"tt15838850"},{"id":"615173","type":"movie","title":"The Witch: Part 2. The Other One","poster":"https://image.tmdb.org/t/p/w342/9YTuscJXmr9Iua62amCgGSU8PDW.jpg","year":"2022","result":"HD","language":["Hindi"],"country":["KR"],"original_language":"ko","genres":["Action","Mystery","Thriller","Science Fiction"],"imdb_id":"tt13721828"},{"id":"599333","type":"movie","title":"Hot Blooded","poster":"https://image.tmdb.org/t/p/w342/81D9Cvl8JbMJixD9ii9puwqyXK4.jpg","year":"2022","result":"HD","language":["Hindi"],"country":["KR"],"original_language":"ko","genres":["Crime","Action","Thriller"],"imdb_id":"tt18250780"},{"id":"201146","type":"tv","title":"Love in Contract","poster":"https://image.tmdb.org/t/p/w342/6tMIhH0T5JYJwypWy2K7zTJiboZ.jpg","year":"2022","result":"HD","language":["Hindi"],"country":["KR"],"original_language":"ko","genres":["Drama","Comedy"],"imdb_id":"tt22189294","latest_uploaded_season":1,"total_uploaded_episodes":16},{"id":"197084","type":"tv","title":"Gaus Electronics","poster":"https://image.tmdb.org/t/p/w342/gKPLyIu0TQo3tkV9cgl9mT5GuC7.jpg","year":"2022","result":"HD","language":["Hindi"],"country":["KR"],"original_language":"ko","genres":["Drama","Comedy"],"imdb_id":"tt22873700","latest_uploaded_season":1,"total_uploaded_episodes":12},{"id":"197078","type":"tv","title":"Summer Strike","poster":"https://image.tmdb.org/t/p/w342/ge4M0QHCfegOETAkjAKZroo82Rr.jpg","year":"2022","result":"HD","language":["Hindi"],"country":["KR"],"original_language":"ko","genres":["Drama"],"imdb_id":"tt23788642","latest_uploaded_season":1,"total_uploaded_episodes":12},{"id":"197067","type":"tv","title":"Extraordinary Attorney Woo","poster":"https://image.tmdb.org/t/p/w342/zuNOQVI4rEaqwknrfQUVKtlKE2C.jpg","year":"2022","result":"HD","language":["Hindi"],"country":["KR"],"original_language":"ko","genres":["Drama"],"imdb_id":"tt20869502","latest_uploaded_season":1,"total_uploaded_episodes":16},{"id":"195627","type":"tv","title":"Mental Coach Jegal","poster":"https://image.tmdb.org/t/p/w342/3aPmsRyHCOpL8itZZxYVcZng8ga.jpg","year":"2022","result":"HD","language":["Hindi"],"country":["KR"],"original_language":"ko","genres":["Drama"],"imdb_id":"tt23033870","latest_uploaded_season":1,"total_uploaded_episodes":16},{"id":"157383","type":"tv","title":"The Golden Spoon","poster":"https://image.tmdb.org/t/p/w342/1fJcOnUsRlpiCSt3J35T1Ga9UHV.jpg","year":"2022","result":"HD","language":["Hindi"],"country":["KR"],"original_language":"ko","genres":["Drama","Mystery","Sci-Fi & Fantasy"],"imdb_id":"tt22248234","latest_uploaded_season":1,"total_uploaded_episodes":16},{"id":"155229","type":"tv","title":"Cheer Up","poster":"https://image.tmdb.org/t/p/w342/agyQFkNKBExKYiIealedXNDIDqn.jpg","year":"2022","result":"HD","language":["Hindi"],"country":["KR"],"original_language":"ko","genres":["Drama","Mystery","Comedy"],"imdb_id":"tt22789182","latest_uploaded_season":1,"total_uploaded_episodes":16},{"id":"155226","type":"tv","title":"Big Mouth","poster":"https://image.tmdb.org/t/p/w342/gJDvYUJcPEDJzB3SnQokifPUtRF.jpg","year":"2022","result":"HD","language":["Hindi"],"country":["KR"],"original_language":"ko","genres":["Mystery","Drama","Crime"],"imdb_id":"tt21195490","latest_uploaded_season":1,"total_uploaded_episodes":16},{"id":"152471","type":"tv","title":"Ghost Doctor","poster":"https://image.tmdb.org/t/p/w342/1TWwuZR398ytSZX0RdsOyECu9sC.jpg","year":"2022","result":"HD","language":["Hindi"],"country":["KR"],"original_language":"ko","genres":["Comedy","Drama","Sci-Fi & Fantasy"],"imdb_id":"tt16493854","latest_uploaded_season":1,"total_uploaded_episodes":16},{"id":"136732","type":"tv","title":"Shooting Stars","poster":"https://image.tmdb.org/t/p/w342/wH8ZDJLFEIPsDHanefBEbt8FS3A.jpg","year":"2022","result":"HD","language":["Hindi"],"country":["KR"],"original_language":"ko","genres":["Comedy","Drama"],"imdb_id":"tt19800324","latest_uploaded_season":1,"total_uploaded_episodes":16},{"id":"136699","type":"tv","title":"Glitch","poster":"https://image.tmdb.org/t/p/w342/kJEYfQSnnFSn8DY9vdNQ9UQ9QSg.jpg","year":"2022","result":"HD","language":["Hindi"],"country":["KR"],"original_language":"ko","genres":["Drama","Comedy","Mystery","Sci-Fi & Fantasy"],"imdb_id":"tt14735382","latest_uploaded_season":1,"total_uploaded_episodes":10},{"id":"136283","type":"tv","title":"The Glory","poster":"https://image.tmdb.org/t/p/w342/uUM4LVlPgIrww07OoEKrGWlS1Ej.jpg","year":"2022","result":"HD","language":["Hindi"],"country":["KR"],"original_language":"ko","genres":["Drama"],"imdb_id":"tt21344706","latest_uploaded_season":1,"total_uploaded_episodes":16},{"id":"112836","type":"tv","title":"Money Heist: Korea - Joint Economic Area","poster":"https://image.tmdb.org/t/p/w342/bnfTPTTytrZZ9Aw6hoOQdojiaKo.jpg","year":"2022","result":"HD","language":["Hindi"],"country":["KR"],"original_language":"ko","genres":["Action & Adventure","Crime","Drama","Mystery"],"imdb_id":"tt13696452","latest_uploaded_season":1,"total_uploaded_episodes":12},{"id":"99966","type":"tv","title":"All of Us Are Dead","poster":"https://image.tmdb.org/t/p/w342/pTEFqAjLd5YTsMD6NSUxV6Dq7A6.jpg","year":"2022","result":"HD","language":["Hindi"],"country":["KR"],"original_language":"ko","genres":["Action & Adventure","Drama","Sci-Fi & Fantasy"],"imdb_id":"tt14169960","latest_uploaded_season":1,"total_uploaded_episodes":12}]}