{"page":6,"total_pages":6,"total_items":295,"items":[{"id":"70195","type":"tv","title":"Radiant Office","poster":"https://image.tmdb.org/t/p/w342/5cpANNfhpYNfPxvUNmQyvtMVTkQ.jpg","year":"2017","result":"HD","language":["Hindi"],"country":["KR"],"original_language":"ko","genres":["Comedy","Drama"],"imdb_id":"tt6464184","latest_uploaded_season":1,"total_uploaded_episodes":16},{"id":"68891","type":"tv","title":"Missing Nine","poster":"https://image.tmdb.org/t/p/w342/e64mWY8t1WoTaab2LRQi59QN6b.jpg","year":"2017","result":"HD","language":["Hindi"],"country":["KR"],"original_language":"ko","genres":["Comedy","Drama","Mystery"],"imdb_id":"tt6237588","latest_uploaded_season":1,"total_uploaded_episodes":16},{"id":"68814","type":"tv","title":"Strong Woman Do Bong-Soon","poster":"https://image.tmdb.org/t/p/w342/sPdS6oUdXfBNGKROE5RY5s5laqx.jpg","year":"2017","result":"HD","language":["Hindi"],"country":["KR"],"original_language":"ko","genres":["Comedy","Action & Adventure","Drama"],"imdb_id":"tt6263222","latest_uploaded_season":1,"total_uploaded_episodes":16},{"id":"66431","type":"tv","title":"Beautiful Gong Shim","poster":"https://image.tmdb.org/t/p/w342/peO3vXCws2bD7xz2rWxgJ1CHYC1.jpg","year":"2016","result":"HD","language":["Hindi"],"country":["KR"],"original_language":"ko","genres":["Comedy","Drama"],"imdb_id":"tt5705896","latest_uploaded_season":1,"total_uploaded_episodes":20},{"id":"422576","type":"movie","title":"Will You Be There","poster":"https://image.tmdb.org/t/p/w342/mFyWyuZ7H0cqxwGH8H3DgQbsbEj.jpg","year":"2016","result":"HD","language":["Hindi"],"country":["KR"],"original_language":"ko","genres":["Drama","Fantasy"],"imdb_id":"tt6434022"},{"id":"66393","type":"tv","title":"Bring It On, Ghost","poster":"https://image.tmdb.org/t/p/w342/6tPDqJOnOPDwYv2CN7OPE29UoS.jpg","year":"2016","result":"HD","language":["Hindi"],"country":["KR"],"original_language":"ko","genres":["Drama","Mystery","Sci-Fi & Fantasy"],"imdb_id":"tt5768840","latest_uploaded_season":1,"total_uploaded_episodes":16},{"id":"65187","type":"tv","title":"One More Happy Ending","poster":"https://image.tmdb.org/t/p/w342/i4ZrXTE2z48MCzBtRuBbFHb5jTi.jpg","year":"2016","result":"HD","language":["Hindi"],"country":["KR"],"original_language":"ko","genres":["Comedy","Drama","Family"],"imdb_id":"tt5445338","latest_uploaded_season":1,"total_uploaded_episodes":32},{"id":"67272","type":"tv","title":"Shopaholic Louis","poster":"https://image.tmdb.org/t/p/w342/dxXgYXjBPr19ylM0f8kuY3bn8fM.jpg","year":"2016","result":"HD","language":["Hindi"],"country":["KR"],"original_language":"ko","genres":["Comedy","Drama"],"imdb_id":"tt5994306","latest_uploaded_season":1,"total_uploaded_episodes":16},{"id":"68349","type":"tv","title":"Weightlifting Fairy Kim Bok-joo","poster":"https://image.tmdb.org/t/p/w342/iLF6Jz6nL8uD8jKo6EvQ3XutDcR.jpg","year":"2016","result":"HD","language":["Hindi"],"country":["KR"],"original_language":"ko","genres":["Comedy","Drama"],"imdb_id":"tt6157148","latest_uploaded_season":1,"total_uploaded_episodes":16},{"id":"66271","type":"tv","title":"Lucky Romance","poster":"https://image.tmdb.org/t/p/w342/hH8nO4YuXMlNBJBYJ6iEmzwQqwD.jpg","year":"2016","result":"HD","language":["Hindi"],"country":["KR"],"original_language":"ko","genres":["Comedy"],"imdb_id":"tt5646500","latest_uploaded_season":1,"total_uploaded_episodes":16},{"id":"396535","type":"movie","title":"Train to Busan","poster":"https://image.tmdb.org/t/p/w342/vNVFt6dtcqnI7hqa6LFBUibuFiw.jpg","year":"2016","result":"HD","language":["Hindi"],"country":["KR"],"original_language":"ko","genres":["Horror","Thriller","Action","Adventure"],"imdb_id":"tt5700672"},{"id":"67915","type":"tv","title":"Goblin","poster":"https://image.tmdb.org/t/p/w342/sPkxHNw5BFvuCFGWw825TS7n6X3.jpg","year":"2016","result":"HD","language":["Hindi"],"country":["KR"],"original_language":"ko","genres":["Drama","Sci-Fi & Fantasy","Comedy"],"imdb_id":"tt5994364","latest_uploaded_season":1,"total_uploaded_episodes":16},{"id":"67391","type":"tv","title":"The K2","poster":"https://image.tmdb.org/t/p/w342/egziV2hfeNcDTQwZCGgtbKfUEpD.jpg","year":"2016","result":"HD","language":["Hindi"],"country":["KR"],"original_language":"ko","genres":["Action & Adventure","Drama","Crime"],"imdb_id":"tt5966882","latest_uploaded_season":1,"total_uploaded_episodes":16},{"id":"67014","type":"tv","title":"Hello, My Twenties!","poster":"https://image.tmdb.org/t/p/w342/4MdSbKFGAzgFhF407e9fcZreqvm.jpg","year":"2016","result":"HD","language":["Hindi"],"country":["KR"],"original_language":"ko","genres":["Comedy","Drama"],"imdb_id":"tt5858892","latest_uploaded_season":1,"total_uploaded_episodes":12},{"id":"66082","type":"tv","title":"Another Miss Oh","poster":"https://image.tmdb.org/t/p/w342/8lTp5kfcd61qFWwHhjwTE8a09OQ.jpg","year":"2016","result":"HD","language":["Hindi"],"country":["KR"],"original_language":"ko","genres":["Comedy","Drama"],"imdb_id":"tt5679572","latest_uploaded_season":1,"total_uploaded_episodes":18},{"id":"65143","type":"tv","title":"Descendants of the Sun","poster":"https://image.tmdb.org/t/p/w342/s1zXuYyMMrgpet6BBrMqGlHnvc8.jpg","year":"2016","result":"HD","language":["Hindi"],"country":["KR"],"original_language":"ko","genres":["Drama","Action & Adventure"],"imdb_id":"tt4925000","latest_uploaded_season":1,"total_uploaded_episodes":16},{"id":"64448","type":"tv","title":"Madame Antoine: The Love Therapist","poster":"https://image.tmdb.org/t/p/w342/vArW0WiXx0Rdf5pzVxuISR2led6.jpg","year":"2016","result":"HD","language":["Hindi"],"country":["KR"],"original_language":"ko","genres":["Comedy","Romance","Drama"],"imdb_id":"tt5332172","latest_uploaded_season":1,"total_uploaded_episodes":16},{"id":"62838","type":"tv","title":"My Love Eun Dong","poster":"https://image.tmdb.org/t/p/w342/1g7DQDoPgguyJC41NMweMtQsHly.jpg","year":"2015","result":"HD","language":["Hindi"],"country":["KR"],"original_language":"ko","genres":["Drama","Romance"],"imdb_id":"tt4791426","latest_uploaded_season":1,"total_uploaded_episodes":16},{"id":"61890","type":"tv","title":"Hyde, Jekyll, Me","poster":"https://image.tmdb.org/t/p/w342/pSus8FBfnEAGkrVNDkAW4L1qB5Y.jpg","year":"2015","result":"HD","language":["Hindi"],"country":["KR"],"original_language":"ko","genres":["Comedy","Drama"],"imdb_id":"tt4357294","latest_uploaded_season":1,"total_uploaded_episodes":20},{"id":"366654","type":"movie","title":"The Magician","poster":"https://image.tmdb.org/t/p/w342/mlvCpomcyFB4OyYjUIAvJgZhtHV.jpg","year":"2015","result":"HD","language":["Hindi"],"country":["KR"],"original_language":"ko","genres":["Drama","Romance","Fantasy"],"imdb_id":"tt4471636"},{"id":"62925","type":"tv","title":"The Time We Were Not in Love","poster":"https://image.tmdb.org/t/p/w342/kcmzZ5MI0f4NGaYOcHfHBQaIlio.jpg","year":"2015","result":"HD","language":["Hindi"],"country":["KR"],"original_language":"ko","genres":["Drama","Romance"],"imdb_id":"tt4817002","latest_uploaded_season":1,"total_uploaded_episodes":16},{"id":"340912","type":"movie","title":"Enemies In-Law","poster":"https://image.tmdb.org/t/p/w342/xe2q5puzmFogp2i3fVla9Xcloc1.jpg","year":"2015","result":"HD","language":["Hindi"],"country":["KR"],"original_language":"ko","genres":["Romance","Comedy"],"imdb_id":"tt5449088"},{"id":"63106","type":"tv","title":"The Scholar Who Walks the Night","poster":"https://image.tmdb.org/t/p/w342/aTTgLKamVYRFbD9CTr4ZzErlNzQ.jpg","year":"2015","result":"HD","language":["Hindi"],"country":["KR"],"original_language":"ko","genres":["Drama","Mystery"],"imdb_id":"tt4846958","latest_uploaded_season":1,"total_uploaded_episodes":40},{"id":"361539","type":"movie","title":"Deep Trap","poster":"https://image.tmdb.org/t/p/w342/3kmLrAWu0qgBRoNviC52DKEkHcl.jpg","year":"2015","result":"HD","language":["Hindi"],"country":["KR"],"original_language":"ko","genres":["Thriller","Drama","Crime","Horror"],"imdb_id":"tt4922028"},{"id":"338729","type":"movie","title":"The Beauty Inside","poster":"https://image.tmdb.org/t/p/w342/z5gpjqQwo0h8rMvBLedRXfHHDKb.jpg","year":"2015","result":"HD","language":["Hindi"],"country":["KR"],"original_language":"ko","genres":["Fantasy","Romance"],"imdb_id":"tt4273886"},{"id":"62952","type":"tv","title":"Hidden Identity","poster":"https://image.tmdb.org/t/p/w342/cwn8rIJO4Oad4ECkgJAzAeb59U2.jpg","year":"2015","result":"HD","language":["Hindi"],"country":["KR"],"original_language":"ko","genres":["Crime"],"imdb_id":"tt4780416","latest_uploaded_season":1,"total_uploaded_episodes":16},{"id":"62511","type":"tv","title":"Who Are You: School 2015","poster":"https://image.tmdb.org/t/p/w342/snrF3YkSzsmUacDUtURKzZYZOfh.jpg","year":"2015","result":"HD","language":["Hindi"],"country":["KR"],"original_language":"ko","genres":["Drama","Mystery"],"imdb_id":"tt5087824","latest_uploaded_season":1,"total_uploaded_episodes":16},{"id":"62266","type":"tv","title":"Kill Me, Heal Me","poster":"https://image.tmdb.org/t/p/w342/dNH6NO0akHMIqbq5EC4qnCeeuC6.jpg","year":"2015","result":"HD","language":["Hindi"],"country":["KR"],"original_language":"ko","genres":["Comedy","Drama","Mystery"],"imdb_id":"tt4339192","latest_uploaded_season":1,"total_uploaded_episodes":20},{"id":"61786","type":"tv","title":"Pride and Prejudice","poster":"https://image.tmdb.org/t/p/w342/9ai6t3XlWg5VoLTqYx2DP4JplgL.jpg","year":"2014","result":"HD","language":["Hindi"],"country":["KR"],"original_language":"ko","genres":["Crime","Drama"],"imdb_id":"tt4284162","latest_uploaded_season":1,"total_uploaded_episodes":21},{"id":"61197","type":"tv","title":"Emergency Couple","poster":"https://image.tmdb.org/t/p/w342/pvk9IYxxLNgsdXDhA1is3LFKeCC.jpg","year":"2014","result":"HD","language":["Hindi"],"country":["KR"],"original_language":"ko","genres":["Comedy","Drama"],"imdb_id":"tt3530644","latest_uploaded_season":1,"total_uploaded_episodes":21},{"id":"61670","type":"tv","title":"Healer","poster":"https://image.tmdb.org/t/p/w342/4Zc0XtzXasrfgOyCH7wX8stqkEu.jpg","year":"2014","result":"HD","language":["Hindi"],"country":["KR"],"original_language":"ko","genres":["Comedy","Action & Adventure","Mystery","Drama"],"imdb_id":"tt4284216","latest_uploaded_season":1,"total_uploaded_episodes":20},{"id":"60956","type":"tv","title":"Doctor Stranger","poster":"https://image.tmdb.org/t/p/w342/odH9cebqUNHKh1p6BKVSs0gsD34.jpg","year":"2014","result":"HD","language":["Hindi"],"country":["KR"],"original_language":"ko","genres":["Drama","Crime"],"imdb_id":"tt3693414","latest_uploaded_season":1,"total_uploaded_episodes":20},{"id":"265851","type":"movie","title":"No Tears for the Dead","poster":"https://image.tmdb.org/t/p/w342/t3vtsQtu76xMKLal0g1UYkmZD2e.jpg","year":"2014","result":"HD","language":["E-Subtitles"],"country":["KR"],"original_language":"ko","genres":["Action","Thriller","Drama"],"imdb_id":"tt3697566"},{"id":"61611","type":"tv","title":"Pinocchio","poster":"https://image.tmdb.org/t/p/w342/i97YOqvylMMkiNzi4l5yyEVbYQi.jpg","year":"2014","result":"HD","language":["Hindi"],"country":["KR"],"original_language":"ko","genres":["Drama","Comedy","Mystery"],"imdb_id":"tt4201628","latest_uploaded_season":1,"total_uploaded_episodes":20},{"id":"61606","type":"tv","title":"Birth of a Beauty","poster":"https://image.tmdb.org/t/p/w342/6z9mEvrF6g9UPTan7xhWq9ssE5Y.jpg","year":"2014","result":"HD","language":["Hindi"],"country":["KR"],"original_language":"ko","genres":["Comedy"],"imdb_id":"tt4269776","latest_uploaded_season":1,"total_uploaded_episodes":21},{"id":"214910","type":"movie","title":"Hwayi: A Monster Boy","poster":"https://image.tmdb.org/t/p/w342/cDffUvnm2TaLxQYWTy0PnohSGNP.jpg","year":"2013","result":"HD","language":["Hindi"],"country":["KR"],"original_language":"ko","genres":["Action","Thriller","Crime"],"imdb_id":"tt2972362"},{"id":"245597","type":"movie","title":"Steal My Heart","poster":"https://image.tmdb.org/t/p/w342/8mYVIXA4S84mGISc3McjxYYeZj2.jpg","year":"2013","result":"HD","language":["Hindi"],"country":["KR"],"original_language":"ko","genres":["Comedy","Romance"],"imdb_id":"tt3694790"},{"id":"61148","type":"tv","title":"Empress Ki","poster":"https://image.tmdb.org/t/p/w342/cH9PMmBkhtVMlCdi8fgvMqekNKi.jpg","year":"2013","result":"HD","language":["Hindi"],"country":["KR"],"original_language":"ko","genres":["Drama","War & Politics"],"imdb_id":"tt3322566","latest_uploaded_season":1,"total_uploaded_episodes":51},{"id":"60957","type":"tv","title":"My Love from the Star","poster":"https://image.tmdb.org/t/p/w342/o5EYVYCVtDUdajP4rWfv6q0BTmm.jpg","year":"2013","result":"HD","language":["Hindi"],"country":["KR"],"original_language":"ko","genres":["Comedy","Drama"],"imdb_id":"tt3469052","latest_uploaded_season":1,"total_uploaded_episodes":21},{"id":"43152","type":"tv","title":"Rooftop Prince","poster":"https://image.tmdb.org/t/p/w342/2bHHzWAMPxIVv7e0FgTQDTYd1y5.jpg","year":"2012","result":"HD","language":["Hindi"],"country":["KR"],"original_language":"ko","genres":["Comedy","Drama","Sci-Fi & Fantasy"],"imdb_id":"tt2401162","latest_uploaded_season":1,"total_uploaded_episodes":20},{"id":"35359","type":"tv","title":"My Princess","poster":"https://image.tmdb.org/t/p/w342/le1U5CbfKkOpuk4IIL0jREydXRf.jpg","year":"2011","result":"HD","language":["Hindi"],"country":["KR"],"original_language":"ko","genres":["Comedy","Romance"],"imdb_id":"tt2375282","latest_uploaded_season":1,"total_uploaded_episodes":16},{"id":"45202","type":"movie","title":"The Housemaid","poster":"https://image.tmdb.org/t/p/w342/acrlZuaS7ypiEUb3oZRA28Ox7TV.jpg","year":"2010","result":"HD","language":["Hindi"],"country":["KR"],"original_language":"ko","genres":["Thriller","Drama"],"imdb_id":"tt1314652"},{"id":"59421","type":"movie","title":"Bedevilled","poster":"https://image.tmdb.org/t/p/w342/3ZgFJY1kje1XhXPvC8UtRKA2tX.jpg","year":"2010","result":"HD","language":["Hindi"],"country":["KR"],"original_language":"ko","genres":["Thriller","Crime","Drama","Horror"],"imdb_id":"tt1646959"},{"id":"670","type":"movie","title":"Oldboy","poster":"https://image.tmdb.org/t/p/w342/pWDtjs568ZfOTMbURQBYuT4Qxka.jpg","year":"2003","result":"HD","language":["Hindi"],"country":["KR"],"original_language":"ko","genres":["Drama","Thriller","Mystery","Action"],"imdb_id":"tt0364569"},{"id":"333","type":"tv","title":"Jewel in the Palace","poster":"https://image.tmdb.org/t/p/w342/oiDr9sZPluqKJH8o0vuX5Dh61dh.jpg","year":"2003","result":"HD","language":["Hindi"],"country":["KR"],"original_language":"ko","genres":["Drama"],"imdb_id":"tt0409546","latest_uploaded_season":1,"total_uploaded_episodes":54}]}