{"page":4,"total_pages":6,"total_items":295,"items":[{"id":"629028","type":"movie","title":"Mission: Possible","poster":"https://image.tmdb.org/t/p/w342/l2VrjVMJvyYizizmTkro22GLLnt.jpg","year":"2021","result":"HD","language":["Hindi"],"country":["KR"],"original_language":"ko","genres":["Comedy","Action","Thriller"],"imdb_id":"tt14140954"},{"id":"131026","type":"tv","title":"Dali & Cocky Prince","poster":"https://image.tmdb.org/t/p/w342/r6X8JNFfgiq91MDtXBm3fzzmyGB.jpg","year":"2021","result":"HD","language":["Hindi"],"country":["KR"],"original_language":"ko","genres":["Comedy","Drama"],"imdb_id":"tt14730768","latest_uploaded_season":1,"total_uploaded_episodes":16},{"id":"129889","type":"tv","title":"Moonshine","poster":"https://image.tmdb.org/t/p/w342/dJAlUCdFWAso5cowfv3vhI2QtZY.jpg","year":"2021","result":"HD","language":["Hindi"],"country":["KR"],"original_language":"ko","genres":["Comedy","Drama"],"imdb_id":"tt14609502","latest_uploaded_season":1,"total_uploaded_episodes":16},{"id":"116043","type":"tv","title":"L.U.C.A.: The Beginning","poster":"https://image.tmdb.org/t/p/w342/jcEikoCQsdKueYT20ekzhx6C6HY.jpg","year":"2021","result":"HD","language":["Hindi"],"country":["KR"],"original_language":"ko","genres":["Mystery","Sci-Fi & Fantasy","Action & Adventure"],"imdb_id":"tt13752928","latest_uploaded_season":1,"total_uploaded_episodes":12},{"id":"126698","type":"tv","title":"You Are My Spring","poster":"https://image.tmdb.org/t/p/w342/elwXwSRBJHxLqOtSYFztytB7vj.jpg","year":"2021","result":"HD","language":["Hindi"],"country":["KR"],"original_language":"ko","genres":["Drama"],"imdb_id":"tt14169816","latest_uploaded_season":1,"total_uploaded_episodes":16},{"id":"120314","type":"tv","title":"Dark Hole","poster":"https://image.tmdb.org/t/p/w342/s6bVrvezseNz7j1svt89ESG9ZkS.jpg","year":"2021","result":"HD","language":["Hindi"],"country":["KR"],"original_language":"ko","genres":["Action & Adventure","Mystery","Sci-Fi & Fantasy"],"imdb_id":"tt13885376","latest_uploaded_season":1,"total_uploaded_episodes":12},{"id":"130655","type":"tv","title":"High Class","poster":"https://image.tmdb.org/t/p/w342/y12jFvgntlxyit2KMd94LmCQO1d.jpg","year":"2021","result":"HD","language":["Hindi"],"country":["KR"],"original_language":"ko","genres":["Crime","Drama"],"imdb_id":"tt14596714","latest_uploaded_season":1,"total_uploaded_episodes":16},{"id":"99489","type":"tv","title":"The Penthouse","poster":"https://image.tmdb.org/t/p/w342/wybv1VgIOMhcHdU3ooikn2LuR1o.jpg","year":"2021","result":"HD","language":["Hindi"],"country":["KR"],"original_language":"ko","genres":["Drama","Mystery"],"imdb_id":"tt13067118","latest_uploaded_season":3,"total_uploaded_episodes":48},{"id":"785507","type":"movie","title":"Rule of the Game: Human Hunting","poster":"https://image.tmdb.org/t/p/w342/mLVGHXHHoOV6fGdro0XwdiTPTJ3.jpg","year":"2021","result":"HD","language":["Hindi"],"country":["KR"],"original_language":"ko","genres":["Thriller"],"imdb_id":"tt32150254"},{"id":"628704","type":"movie","title":"Midnight","poster":"https://image.tmdb.org/t/p/w342/gXaS8OuavUsEjoW7P8qKrHTGPi1.jpg","year":"2021","result":"HD","language":["Hindi"],"country":["KR"],"original_language":"ko","genres":["Thriller","Crime"],"imdb_id":"tt14757872"},{"id":"146405","type":"tv","title":"Part-time Mello","poster":"https://image.tmdb.org/t/p/w342/3JsIWFA1ho0Jrv9YkQpOBtJFaq2.jpg","year":"2021","result":"HD","language":["Hindi"],"country":[],"original_language":"ko","genres":[],"imdb_id":"","latest_uploaded_season":1,"total_uploaded_episodes":12},{"id":"133670","type":"tv","title":"Work Later, Drink Now","poster":"https://image.tmdb.org/t/p/w342/m6c69FvtN5kMCryjp1DyOssthij.jpg","year":"2021","result":"HD","language":["Hindi"],"country":["KR"],"original_language":"ko","genres":["Drama","Comedy"],"imdb_id":"tt15548198","latest_uploaded_season":1,"total_uploaded_episodes":12},{"id":"128002","type":"tv","title":"Light on Me","poster":"https://image.tmdb.org/t/p/w342/cDaMMSuaTrD5hrbbHvwyD2CPY4Z.jpg","year":"2021","result":"HD","language":["Hindi"],"country":["KR"],"original_language":"ko","genres":["Drama"],"imdb_id":"tt14837532","latest_uploaded_season":1,"total_uploaded_episodes":16},{"id":"127527","type":"tv","title":"Melancholia","poster":"https://image.tmdb.org/t/p/w342/cn3CIR5LaKubPmzOv5jsxcQQwkZ.jpg","year":"2021","result":"HD","language":["Hindi"],"country":["KR"],"original_language":"ko","genres":["Drama"],"imdb_id":"tt15146242","latest_uploaded_season":1,"total_uploaded_episodes":16},{"id":"119466","type":"tv","title":"Youth of May","poster":"https://image.tmdb.org/t/p/w342/xf1JGvmWM1H5XoK8DvxXRAKjRkr.jpg","year":"2021","result":"HD","language":["Hindi"],"country":["KR"],"original_language":"ko","genres":["Drama"],"imdb_id":"tt14166666","latest_uploaded_season":1,"total_uploaded_episodes":12},{"id":"118932","type":"tv","title":"Be My Boyfriend","poster":"https://image.tmdb.org/t/p/w342/yQAocOGBuXSRPFJcZyjTshs1Jiv.jpg","year":"2021","result":"HD","language":["Hindi"],"country":["KR"],"original_language":"ko","genres":["Comedy","Drama"],"imdb_id":"tt14900148","latest_uploaded_season":1,"total_uploaded_episodes":15},{"id":"117376","type":"tv","title":"Vincenzo","poster":"https://image.tmdb.org/t/p/w342/dvXJgEDQXhL9Ouot2WkBHpQiHGd.jpg","year":"2021","result":"HD","language":["Hindi"],"country":["KR"],"original_language":"ko","genres":["Action & Adventure","Comedy","Drama","Crime"],"imdb_id":"tt13433812","latest_uploaded_season":1,"total_uploaded_episodes":20},{"id":"116386","type":"tv","title":"Doom at Your Service","poster":"https://image.tmdb.org/t/p/w342/tgsWD4dJI5YFY8Kyk6vVjZoIKfO.jpg","year":"2021","result":"HD","language":["Hindi"],"country":["KR"],"original_language":"ko","genres":["Drama","Sci-Fi & Fantasy","Comedy"],"imdb_id":"tt13669128","latest_uploaded_season":1,"total_uploaded_episodes":16},{"id":"110545","type":"tv","title":"So Not Worth It","poster":"https://image.tmdb.org/t/p/w342/wiByXTq5vaDppWnYCLt6fzDuu7x.jpg","year":"2021","result":"HD","language":["Hindi"],"country":["KR"],"original_language":"ko","genres":["Drama","Comedy"],"imdb_id":"tt13186480","latest_uploaded_season":1,"total_uploaded_episodes":12},{"id":"110356","type":"tv","title":"My Name","poster":"https://image.tmdb.org/t/p/w342/l3Bn2jgYndSFvcPpddqMxQXiiCe.jpg","year":"2021","result":"HD","language":["Hindi"],"country":["KR"],"original_language":"ko","genres":["Crime","Drama","Mystery"],"imdb_id":"tt12940504","latest_uploaded_season":1,"total_uploaded_episodes":8},{"id":"108291","type":"tv","title":"Snowdrop","poster":"https://image.tmdb.org/t/p/w342/3AhTqNJVr1v7Jfplg8Y1YOzzdWE.jpg","year":"2021","result":"HD","language":["Hindi"],"country":["KR"],"original_language":"ko","genres":["Drama","War & Politics"],"imdb_id":"tt13304700","latest_uploaded_season":1,"total_uploaded_episodes":16},{"id":"70593","type":"tv","title":"Kingdom","poster":"https://image.tmdb.org/t/p/w342/AsICtiVtz4icMQQRwDvOzfaTzjK.jpg","year":"2020","result":"HD","language":["Hindi"],"country":["KR"],"original_language":"ko","genres":["Drama","Mystery"],"imdb_id":"tt6611916","latest_uploaded_season":2,"total_uploaded_episodes":12},{"id":"108261","type":"tv","title":"Mr. Queen","poster":"https://image.tmdb.org/t/p/w342/ozuyMnOO5pekDklyPpUL1Htkuzy.jpg","year":"2020","result":"HD","language":["Hindi"],"country":["KR"],"original_language":"ko","genres":["Drama","Comedy","Sci-Fi & Fantasy"],"imdb_id":"tt13400006","latest_uploaded_season":1,"total_uploaded_episodes":20},{"id":"108284","type":"tv","title":"Tale of the Nine Tailed","poster":"https://image.tmdb.org/t/p/w342/jXx9vLO9bwKxl81oVQnzEH7960V.jpg","year":"2020","result":"HD","language":["Hindi"],"country":["KR"],"original_language":"ko","genres":["Sci-Fi & Fantasy","Drama","Comedy","Mystery"],"imdb_id":"tt12879418","latest_uploaded_season":1,"total_uploaded_episodes":16},{"id":"111724","type":"tv","title":"Live On","poster":"https://image.tmdb.org/t/p/w342/dop9lujlpXaIGZImoTgUteHXt7a.jpg","year":"2020","result":"HD","language":["Hindi"],"country":["KR"],"original_language":"ko","genres":["Drama","Comedy"],"imdb_id":"tt13273946","latest_uploaded_season":1,"total_uploaded_episodes":8},{"id":"112568","type":"tv","title":"Please Don't Date Him","poster":"https://image.tmdb.org/t/p/w342/sP0ioyDyG1U5P2Bs2ZTc7FNlUIp.jpg","year":"2020","result":"HD","language":["Hindi"],"country":["KR"],"original_language":"ko","genres":["Comedy","Drama","Sci-Fi & Fantasy"],"imdb_id":"tt13394428","latest_uploaded_season":1,"total_uploaded_episodes":10},{"id":"99493","type":"tv","title":"Sweet Munchies","poster":"https://image.tmdb.org/t/p/w342/nPVxUVnGf6jTqoHik14YreBDPQj.jpg","year":"2020","result":"HD","language":["Hindi"],"country":["KR"],"original_language":"ko","genres":["Drama","Comedy"],"imdb_id":"tt12401208","latest_uploaded_season":1,"total_uploaded_episodes":12},{"id":"106697","type":"tv","title":"Lonely Enough to Love!","poster":"https://image.tmdb.org/t/p/w342/6qhKb5e9olZJ5XilDBkOdZpGXKq.jpg","year":"2020","result":"HD","language":["Hindi"],"country":["KR"],"original_language":"ko","genres":["Drama","Comedy"],"imdb_id":"","latest_uploaded_season":1,"total_uploaded_episodes":20},{"id":"99112","type":"tv","title":"A Piece of Your Mind","poster":"https://image.tmdb.org/t/p/w342/u25Bd08J1kdsLXdHymXkFJsseV7.jpg","year":"2020","result":"HD","language":["Hindi"],"country":["KR"],"original_language":"ko","genres":["Drama"],"imdb_id":"tt11505790","latest_uploaded_season":1,"total_uploaded_episodes":12},{"id":"70626","type":"tv","title":"Stranger","poster":"https://image.tmdb.org/t/p/w342/blbbtx7DyvZ3JTGyc9MCArDL79b.jpg","year":"2020","result":"HD","language":["Hindi"],"country":["KR"],"original_language":"ko","genres":["Crime","Drama","Mystery"],"imdb_id":"tt6461346","latest_uploaded_season":2,"total_uploaded_episodes":32},{"id":"693900","type":"movie","title":"Bodyguard","poster":"https://image.tmdb.org/t/p/w342/rghVxKlNdHgY7r3aDVt3BR6rz5o.jpg","year":"2020","result":"HD","language":["Hindi"],"country":["KR"],"original_language":"ko","genres":["Action","Drama","Crime"],"imdb_id":"tt21362766"},{"id":"97488","type":"tv","title":"The Cursed","poster":"https://image.tmdb.org/t/p/w342/7ZkWOHIdSDskDhlVthEuX60vWK.jpg","year":"2020","result":"HD","language":["Hindi"],"country":["KR"],"original_language":"ko","genres":["Drama","Mystery","Sci-Fi & Fantasy"],"imdb_id":"tt11841276","latest_uploaded_season":1,"total_uploaded_episodes":12},{"id":"117058","type":"tv","title":"7 Days of Romance","poster":"https://image.tmdb.org/t/p/w342/b1zh3YzVTHKLj5iCmUMR5jA1WWg.jpg","year":"2020","result":"HD","language":["Hindi"],"country":["KR"],"original_language":"ko","genres":["Drama"],"imdb_id":"","latest_uploaded_season":2,"total_uploaded_episodes":20},{"id":"750377","type":"movie","title":"For The New Emperor","poster":"https://image.tmdb.org/t/p/w342/iUQYA0yhRe3k9WGzZxkohAdAPPL.jpg","year":"2020","result":"HD","language":["Hindi"],"country":["KR"],"original_language":"ko","genres":["Action"],"imdb_id":""},{"id":"604362","type":"movie","title":"Hitman: Agent Jun","poster":"https://image.tmdb.org/t/p/w342/dAt3nolyXLEEuXiIXZwv1iikbcA.jpg","year":"2020","result":"HD","language":["Hindi"],"country":["KR"],"original_language":"ko","genres":["Action","Comedy"],"imdb_id":"tt11649614"},{"id":"581392","type":"movie","title":"Peninsula","poster":"https://image.tmdb.org/t/p/w342/eeqvAzCccAZOhU3RfbvHB3s44S6.jpg","year":"2020","result":"HD","language":["Hindi"],"country":["KR"],"original_language":"ko","genres":["Horror","Action","Thriller","Adventure"],"imdb_id":"tt8850222"},{"id":"112706","type":"tv","title":"Cheat On Me, If You Can","poster":"https://image.tmdb.org/t/p/w342/5nUrDZeZzJSXiY4eRJEg45TYavs.jpg","year":"2020","result":"HD","language":["Hindi"],"country":["KR"],"original_language":"ko","genres":["Comedy","Mystery"],"imdb_id":"tt13092070","latest_uploaded_season":1,"total_uploaded_episodes":16},{"id":"112119","type":"tv","title":"Kairos","poster":"https://image.tmdb.org/t/p/w342/cnThovHCzJ2YoKrZ0oBBZfkd26j.jpg","year":"2020","result":"HD","language":["Hindi"],"country":["KR"],"original_language":"ko","genres":["Action & Adventure","Crime","Drama","Sci-Fi & Fantasy"],"imdb_id":"tt12874950","latest_uploaded_season":1,"total_uploaded_episodes":32},{"id":"110267","type":"tv","title":"Strange School Tales","poster":"https://image.tmdb.org/t/p/w342/hGnY0ZVm8GuuQSsR49ENQW8OiOt.jpg","year":"2020","result":"HD","language":["Hindi"],"country":["KR"],"original_language":"ko","genres":["Drama","Mystery","Crime"],"imdb_id":"tt13094066","latest_uploaded_season":1,"total_uploaded_episodes":12},{"id":"107393","type":"tv","title":"Twenty-Twenty","poster":"https://image.tmdb.org/t/p/w342/5iX4K96n5oRLK6q27fXzU3qn7Wu.jpg","year":"2020","result":"HD","language":["Hindi"],"country":["KR"],"original_language":"ko","genres":["Drama"],"imdb_id":"tt13080612","latest_uploaded_season":1,"total_uploaded_episodes":20},{"id":"106935","type":"tv","title":"Kiss Goblin","poster":"https://image.tmdb.org/t/p/w342/1cRHbcm77dBvqMGvHOJgjziteqZ.jpg","year":"2020","result":"HD","language":["Hindi"],"country":["KR"],"original_language":"ko","genres":["Comedy","Drama","Sci-Fi & Fantasy"],"imdb_id":"tt14212332","latest_uploaded_season":1,"total_uploaded_episodes":12},{"id":"104308","type":"tv","title":"She Knows Everything","poster":"https://image.tmdb.org/t/p/w342/pYbaPdAN3M5FJ6IFLJCoAwjUTBM.jpg","year":"2020","result":"HD","language":["Hindi"],"country":["KR"],"original_language":"ko","genres":["Crime","Mystery"],"imdb_id":"tt12538770","latest_uploaded_season":1,"total_uploaded_episodes":8},{"id":"101243","type":"tv","title":"Oh My Baby","poster":"https://image.tmdb.org/t/p/w342/83H0ji4wWHVngwQ1EdxhwHZymvq.jpg","year":"2020","result":"HD","language":["Hindi"],"country":["KR"],"original_language":"ko","genres":["Family","Drama","Comedy"],"imdb_id":"tt12324660","latest_uploaded_season":1,"total_uploaded_episodes":16},{"id":"99654","type":"tv","title":"18 Again","poster":"https://image.tmdb.org/t/p/w342/AwoC5PiNdi1RZTZTgOGGdHqCzrC.jpg","year":"2020","result":"HD","language":["Hindi"],"country":["KR"],"original_language":"ko","genres":["Drama","Comedy","Sci-Fi & Fantasy"],"imdb_id":"tt12846096","latest_uploaded_season":1,"total_uploaded_episodes":16},{"id":"99048","type":"tv","title":"Start-Up","poster":"https://image.tmdb.org/t/p/w342/hxJQ3A2wtreuWDnVBbzzXI3YlOE.jpg","year":"2020","result":"HD","language":["Hindi"],"country":["KR"],"original_language":"ko","genres":["Drama","Comedy"],"imdb_id":"tt12867810","latest_uploaded_season":1,"total_uploaded_episodes":16},{"id":"96462","type":"tv","title":"It's Okay to Not Be Okay","poster":"https://image.tmdb.org/t/p/w342/8XSJfLeImX8NszDUFnK1lbseCi8.jpg","year":"2020","result":"HD","language":["Hindi"],"country":["KR"],"original_language":"ko","genres":["Drama","Comedy"],"imdb_id":"tt12451520","latest_uploaded_season":1,"total_uploaded_episodes":25},{"id":"96162","type":"tv","title":"Itaewon Class","poster":"https://image.tmdb.org/t/p/w342/qg7q0piY0fTt2enlIRHwKKRwNjS.jpg","year":"2020","result":"HD","language":["Hindi"],"country":["KR"],"original_language":"ko","genres":["Drama"],"imdb_id":"tt11239552","latest_uploaded_season":1,"total_uploaded_episodes":16},{"id":"79070","type":"tv","title":"Partners for Justice","poster":"https://image.tmdb.org/t/p/w342/lPU34PKrjJNISguneRdAB7zQfTj.jpg","year":"2019","result":"HD","language":["Hindi"],"country":["KR"],"original_language":"ko","genres":["Drama","Mystery","Crime"],"imdb_id":"tt8243374","latest_uploaded_season":2,"total_uploaded_episodes":64},{"id":"88783","type":"tv","title":"The Secret Life of My Secretary","poster":"https://image.tmdb.org/t/p/w342/7owGMGmnlx2EMEm3yFPQ03C0zjr.jpg","year":"2019","result":"HD","language":["Hindi"],"country":["KR"],"original_language":"ko","genres":["Comedy"],"imdb_id":"tt10101272","latest_uploaded_season":1,"total_uploaded_episodes":16},{"id":"90720","type":"tv","title":"Be Melodramatic","poster":"https://image.tmdb.org/t/p/w342/fdPc2MoU8Cm87R3kYw1Hul0Dy76.jpg","year":"2019","result":"HD","language":["Hindi"],"country":["KR"],"original_language":"ko","genres":["Comedy","Drama"],"imdb_id":"tt10559276","latest_uploaded_season":1,"total_uploaded_episodes":16}]}