{"page":5,"total_pages":6,"total_items":295,"items":[{"id":"95212","type":"tv","title":"Love with Flaws","poster":"https://image.tmdb.org/t/p/w342/eq4ITUNT2SJTGuUkxO2aHyGyO96.jpg","year":"2019","result":"HD","language":["Hindi"],"country":["KR"],"original_language":"ko","genres":["Comedy"],"imdb_id":"tt11227980","latest_uploaded_season":1,"total_uploaded_episodes":16},{"id":"95015","type":"tv","title":"The Witch Store","poster":"https://image.tmdb.org/t/p/w342/4t66kig9TOKwzzEswRVvi4eAgBD.jpg","year":"2019","result":"HD","language":["Hindi"],"country":["KR"],"original_language":"ko","genres":["Sci-Fi & Fantasy","Drama"],"imdb_id":"","latest_uploaded_season":1,"total_uploaded_episodes":12},{"id":"90407","type":"tv","title":"At Eighteen","poster":"https://image.tmdb.org/t/p/w342/AbEoQOZO6xnXg52Ehrd8aXchpLF.jpg","year":"2019","result":"HD","language":["Hindi"],"country":["KR"],"original_language":"ko","genres":["Drama","Comedy"],"imdb_id":"tt10474124","latest_uploaded_season":1,"total_uploaded_episodes":16},{"id":"114615","type":"tv","title":"Stranger Kim","poster":"https://image.tmdb.org/t/p/w342/I3X4pVqIZsOkP5yX0XpP7KsNKe.jpg","year":"2019","result":"HD","language":["Hindi"],"country":["KR"],"original_language":"ko","genres":["Mystery","Comedy","Sci-Fi & Fantasy"],"imdb_id":"tt32536456","latest_uploaded_season":1,"total_uploaded_episodes":6},{"id":"616449","type":"movie","title":"Intern Detective","poster":"https://image.tmdb.org/t/p/w342/hxySfPUHtsVO2gEdK27yZGMGtHw.jpg","year":"2019","result":"HD","language":["Hindi"],"country":["KR"],"original_language":"ko","genres":["Action","Crime","Drama"],"imdb_id":"tt26599602"},{"id":"571627","type":"movie","title":"The Divine Fury","poster":"https://image.tmdb.org/t/p/w342/9Z2qT9iZYLzzsCSYu7A4SEQsKX0.jpg","year":"2019","result":"HD","language":["Hindi"],"country":["KR"],"original_language":"ko","genres":["Action","Horror","Thriller"],"imdb_id":"tt10550884"},{"id":"496243","type":"movie","title":"Parasite","poster":"https://image.tmdb.org/t/p/w342/7IiTTgloJzvGI1TAYymCfbfl3vT.jpg","year":"2019","result":"HD","language":["Hindi"],"country":["KR"],"original_language":"ko","genres":["Comedy","Thriller","Drama"],"imdb_id":"tt6751668"},{"id":"138031","type":"tv","title":"Love as You Taste","poster":"https://image.tmdb.org/t/p/w342/rJtx6qze00ypJCLJpM08QakP4VK.jpg","year":"2019","result":"HD","language":["Hindi"],"country":["KR"],"original_language":"ko","genres":[],"imdb_id":"tt15740698","latest_uploaded_season":1,"total_uploaded_episodes":10},{"id":"94615","type":"tv","title":"Catch The Ghost","poster":"https://image.tmdb.org/t/p/w342/7CbhB19d9PlcxAW8YRzKSDBK1RG.jpg","year":"2019","result":"HD","language":["Hindi"],"country":["KR"],"original_language":"ko","genres":["Comedy","Crime","Mystery"],"imdb_id":"tt10712926","latest_uploaded_season":1,"total_uploaded_episodes":16},{"id":"92911","type":"tv","title":"Melting Me Softly","poster":"https://image.tmdb.org/t/p/w342/tci1NuarDuRJqCVKYzsX4FVUL91.jpg","year":"2019","result":"HD","language":["Hindi"],"country":["KR"],"original_language":"ko","genres":["Mystery","Comedy","Sci-Fi & Fantasy"],"imdb_id":"tt10656392","latest_uploaded_season":1,"total_uploaded_episodes":16},{"id":"92732","type":"tv","title":"Flower Crew: Joseon Marriage Agency","poster":"https://image.tmdb.org/t/p/w342/aLGLRySmfI8Us6IFOfziT1cQeJF.jpg","year":"2019","result":"HD","language":["Hindi"],"country":["KR"],"original_language":"ko","genres":["Comedy","Drama"],"imdb_id":"tt10614024","latest_uploaded_season":1,"total_uploaded_episodes":16},{"id":"90706","type":"tv","title":"Doctor John","poster":"https://image.tmdb.org/t/p/w342/2EtZ91FzsFRe3FFtAr29ESgW9QK.jpg","year":"2019","result":"HD","language":["Hindi"],"country":["KR"],"original_language":"ko","genres":["Drama"],"imdb_id":"tt10544464","latest_uploaded_season":1,"total_uploaded_episodes":16},{"id":"90335","type":"tv","title":"Doctor Detective","poster":"https://image.tmdb.org/t/p/w342/693tpPhfqQhlqfw77nQmz9t3299.jpg","year":"2019","result":"HD","language":["Hindi"],"country":["KR"],"original_language":"ko","genres":["Drama","Mystery"],"imdb_id":"tt10473780","latest_uploaded_season":1,"total_uploaded_episodes":32},{"id":"87185","type":"tv","title":"Kill It","poster":"https://image.tmdb.org/t/p/w342/lxTNyRhEUBK6r3o3ZJakcSsvO2b.jpg","year":"2019","result":"HD","language":["Hindi"],"country":["KR"],"original_language":"ko","genres":["Drama","Action & Adventure","Crime","Mystery"],"imdb_id":"tt9772814","latest_uploaded_season":1,"total_uploaded_episodes":12},{"id":"85404","type":"tv","title":"Touch Your Heart","poster":"https://image.tmdb.org/t/p/w342/kVFflfTOFqFBh34jcVRI1QCWSre.jpg","year":"2019","result":"HD","language":["Hindi"],"country":["KR"],"original_language":"ko","genres":["Comedy","Drama"],"imdb_id":"tt9466990","latest_uploaded_season":1,"total_uploaded_episodes":16},{"id":"76557","type":"tv","title":"Welcome to Waikiki","poster":"https://image.tmdb.org/t/p/w342/pggzZamoLNTiRgoYz8WVCISMCqv.jpg","year":"2018","result":"HD","language":["Hindi"],"country":["KR"],"original_language":"ko","genres":["Drama","Comedy"],"imdb_id":"tt7890304","latest_uploaded_season":1,"total_uploaded_episodes":24},{"id":"79434","type":"tv","title":"What's Wrong with Secretary Kim","poster":"https://image.tmdb.org/t/p/w342/qmq7vKRPoK2VHOTeaUdwwe3l5bB.jpg","year":"2018","result":"HD","language":["Hindi"],"country":["KR"],"original_language":"ko","genres":["Comedy","Drama"],"imdb_id":"tt8242904","latest_uploaded_season":1,"total_uploaded_episodes":16},{"id":"79991","type":"tv","title":"Life","poster":"https://image.tmdb.org/t/p/w342/bnZ84kmXw9OlnAaVJlEYKOMlJmt.jpg","year":"2018","result":"HD","language":["Hindi"],"country":["KR"],"original_language":"ko","genres":["Drama"],"imdb_id":"tt8243158","latest_uploaded_season":1,"total_uploaded_episodes":16},{"id":"215984","type":"tv","title":"My Roommate Ghost Diva","poster":"https://i.ibb.co/nMpHW6m2/Gemini-Generated-Image-b15w8wb15w8wb15w-1.png","year":"2018","result":"HD","language":["Hindi"],"country":["KR"],"original_language":"ko","genres":["Drama","Sci-Fi & Fantasy"],"imdb_id":"tt9109028","latest_uploaded_season":1,"total_uploaded_episodes":4},{"id":"78385","type":"tv","title":"Something in the Rain","poster":"https://image.tmdb.org/t/p/w342/sTNXMCASbNn7cSzcQ7DVazixnAc.jpg","year":"2018","result":"HD","language":["Hindi"],"country":["KR"],"original_language":"ko","genres":["Drama"],"imdb_id":"tt8078816","latest_uploaded_season":1,"total_uploaded_episodes":16},{"id":"82642","type":"tv","title":"Sweet and Salty Office","poster":"https://image.tmdb.org/t/p/w342/oTdY3jgmjM8OHA0J41SMnsEKEXO.jpg","year":"2018","result":"HD","language":["Hindi"],"country":["KR"],"original_language":"ko","genres":["Comedy","Drama"],"imdb_id":"tt34422526","latest_uploaded_season":1,"total_uploaded_episodes":20},{"id":"78797","type":"tv","title":"Wok of Love","poster":"https://image.tmdb.org/t/p/w342/dTh81YtdEzacHhnmLw1Tef7cBRl.jpg","year":"2018","result":"HD","language":["Hindi"],"country":["KR"],"original_language":"ko","genres":["Drama","Comedy"],"imdb_id":"tt8236528","latest_uploaded_season":1,"total_uploaded_episodes":19},{"id":"81957","type":"tv","title":"The Ghost Detective","poster":"https://image.tmdb.org/t/p/w342/bbGOIFF4QNyTDygDBqMQSc76Anr.jpg","year":"2018","result":"HD","language":["Hindi"],"country":["KR"],"original_language":"ko","genres":["Action & Adventure","Crime"],"imdb_id":"tt8784636","latest_uploaded_season":1,"total_uploaded_episodes":16},{"id":"80919","type":"tv","title":"Still 17","poster":"https://image.tmdb.org/t/p/w342/rufDz8f0SD86RyFwDNSQUROK51s.jpg","year":"2018","result":"HD","language":["Hindi"],"country":["KR"],"original_language":"ko","genres":["Drama","Comedy","Crime","Mystery"],"imdb_id":"tt8648696","latest_uploaded_season":1,"total_uploaded_episodes":16},{"id":"83941","type":"tv","title":"Encounter","poster":"https://image.tmdb.org/t/p/w342/dtP3ZJoMrKYVqPyz6ypHvveaKFo.jpg","year":"2018","result":"HD","language":["Hindi"],"country":["KR"],"original_language":"ko","genres":["Drama"],"imdb_id":"tt8769260","latest_uploaded_season":1,"total_uploaded_episodes":16},{"id":"82714","type":"tv","title":"Room No. 9","poster":"https://image.tmdb.org/t/p/w342/8jCKwe2AoFpnS2uiftmuCMjjdUb.jpg","year":"2018","result":"HD","language":["Hindi"],"country":["KR"],"original_language":"ko","genres":["Drama","Mystery","Sci-Fi & Fantasy"],"imdb_id":"tt8970084","latest_uploaded_season":1,"total_uploaded_episodes":16},{"id":"82462","type":"tv","title":"The Third Charm","poster":"https://image.tmdb.org/t/p/w342/80Pauk4xKUzwK9hf94ZJSTpZtBB.jpg","year":"2018","result":"HD","language":["Hindi"],"country":["KR"],"original_language":"ko","genres":["Drama"],"imdb_id":"tt8954026","latest_uploaded_season":1,"total_uploaded_episodes":16},{"id":"78869","type":"tv","title":"Clean with Passion for Now","poster":"https://image.tmdb.org/t/p/w342/6ig2QeFmZuiHi07wpD4OULQiUmx.jpg","year":"2018","result":"HD","language":["Hindi"],"country":["KR"],"original_language":"ko","genres":["Comedy","Drama"],"imdb_id":"tt7981562","latest_uploaded_season":1,"total_uploaded_episodes":16},{"id":"79238","type":"tv","title":"Come and Hug Me","poster":"https://image.tmdb.org/t/p/w342/ph5aNGwzi2ktTcCKBUtr4SIAcTy.jpg","year":"2018","result":"HD","language":["Hindi"],"country":["KR"],"original_language":"ko","genres":["Drama","Mystery"],"imdb_id":"tt8269398","latest_uploaded_season":1,"total_uploaded_episodes":16},{"id":"80741","type":"tv","title":"Familiar Wife","poster":"https://image.tmdb.org/t/p/w342/ds84fVavAJX872qh4kUHAfqjp3b.jpg","year":"2018","result":"HD","language":["Hindi"],"country":["KR"],"original_language":"ko","genres":["Drama","Sci-Fi & Fantasy"],"imdb_id":"tt8487786","latest_uploaded_season":1,"total_uploaded_episodes":16},{"id":"84464","type":"tv","title":"My Strange Hero","poster":"https://image.tmdb.org/t/p/w342/p8Uzpksp6TRKwyn6L6EtZd4fJcx.jpg","year":"2018","result":"HD","language":["Hindi"],"country":["KR"],"original_language":"ko","genres":["Drama","Comedy","Mystery"],"imdb_id":"tt9165992","latest_uploaded_season":1,"total_uploaded_episodes":16},{"id":"557972","type":"movie","title":"Take Point","poster":"https://image.tmdb.org/t/p/w342/fl9VBbIGHUoBY6Ixzt9lEGjhxzs.jpg","year":"2018","result":"HD","language":["Hindi"],"country":["KR"],"original_language":"ko","genres":["Action","Thriller"],"imdb_id":"tt7156436"},{"id":"535389","type":"movie","title":"The Great Battle","poster":"https://image.tmdb.org/t/p/w342/gv5ByLHZfn7MUKpjJovRTr5URGg.jpg","year":"2018","result":"HD","language":["E-Subtitles"],"country":["KR"],"original_language":"ko","genres":["War","History","Action"],"imdb_id":"tt6931414"},{"id":"530254","type":"movie","title":"The Witch: Part 1. The Subversion","poster":"https://image.tmdb.org/t/p/w342/4i2wo2ja5g2PmUxWa1a2eYIboZf.jpg","year":"2018","result":"HD","language":["Hindi"],"country":["HK","KR"],"original_language":"ko","genres":["Action","Mystery","Science Fiction"],"imdb_id":"tt8574252"},{"id":"83140","type":"tv","title":"Mama Fairy and the Woodcutter","poster":"https://image.tmdb.org/t/p/w342/b5oKVV5veLu1ZzpPRlzMqA48I49.jpg","year":"2018","result":"HD","language":["Hindi"],"country":["KR"],"original_language":"ko","genres":["Comedy","Drama"],"imdb_id":"tt8523030","latest_uploaded_season":1,"total_uploaded_episodes":16},{"id":"82237","type":"tv","title":"The Beauty Inside","poster":"https://image.tmdb.org/t/p/w342/u3UGsVYD0nxsucvN7NHLzXP0FHu.jpg","year":"2018","result":"HD","language":["Hindi"],"country":["KR"],"original_language":"ko","genres":["Drama","Comedy","Sci-Fi & Fantasy"],"imdb_id":"tt8801708","latest_uploaded_season":1,"total_uploaded_episodes":16},{"id":"81745","type":"tv","title":"Hide and Seek","poster":"https://image.tmdb.org/t/p/w342/b9gtm0gCYlysKhax6z5tz4nx3y4.jpg","year":"2018","result":"HD","language":["Hindi"],"country":["KR"],"original_language":"ko","genres":["Drama"],"imdb_id":"tt8769302","latest_uploaded_season":1,"total_uploaded_episodes":24},{"id":"80964","type":"tv","title":"Time","poster":"https://image.tmdb.org/t/p/w342/wioiG18yMZ8IIhl1PVi7LkkTWZq.jpg","year":"2018","result":"HD","language":["Hindi"],"country":["KR"],"original_language":"ko","genres":["Drama"],"imdb_id":"tt8487682","latest_uploaded_season":1,"total_uploaded_episodes":32},{"id":"80737","type":"tv","title":"My ID is Gangnam Beauty","poster":"https://image.tmdb.org/t/p/w342/8lj40cE1DhW9jBe07fOI18MDQDK.jpg","year":"2018","result":"HD","language":["Hindi"],"country":["KR"],"original_language":"ko","genres":["Comedy","Drama"],"imdb_id":"tt8585954","latest_uploaded_season":1,"total_uploaded_episodes":16},{"id":"77284","type":"tv","title":"Tempted","poster":"https://image.tmdb.org/t/p/w342/asRKD4SlynwMgvl9XXasNoktZoP.jpg","year":"2018","result":"HD","language":["Hindi"],"country":["KR"],"original_language":"ko","genres":["Drama"],"imdb_id":"tt7923816","latest_uploaded_season":1,"total_uploaded_episodes":32},{"id":"71347","type":"tv","title":"My Sassy Girl","poster":"https://image.tmdb.org/t/p/w342/llSHPKnZWaFvvTKqslvUVeyrK4O.jpg","year":"2017","result":"HD","language":["Hindi"],"country":["KR"],"original_language":"ko","genres":["Comedy","Drama"],"imdb_id":"tt6175760","latest_uploaded_season":1,"total_uploaded_episodes":16},{"id":"73921","type":"tv","title":"Borg Mom","poster":"https://image.tmdb.org/t/p/w342/q4YahNUyCcHL9HzvY4lbtsyAmbo.jpg","year":"2017","result":"HD","language":["Hindi"],"country":["KR"],"original_language":"ko","genres":["Comedy"],"imdb_id":"tt7340770","latest_uploaded_season":1,"total_uploaded_episodes":24},{"id":"68250","type":"tv","title":"Tomorrow with You","poster":"https://image.tmdb.org/t/p/w342/d1m1RVnxnHJifBe6ytykc25UPAd.jpg","year":"2017","result":"HD","language":["Hindi"],"country":["KR"],"original_language":"ko","genres":["Drama"],"imdb_id":"tt5994346","latest_uploaded_season":1,"total_uploaded_episodes":16},{"id":"74000","type":"tv","title":"20th Century Boy and Girl","poster":"https://image.tmdb.org/t/p/w342/4Wdz7OvRycgYbd9EHFYdVTcBNJ1.jpg","year":"2017","result":"HD","language":["Hindi"],"country":["KR"],"original_language":"ko","genres":["Comedy"],"imdb_id":"tt7208216","latest_uploaded_season":1,"total_uploaded_episodes":16},{"id":"74887","type":"tv","title":"Money Flower","poster":"https://image.tmdb.org/t/p/w342/8Ep2HCbLX7wm1zGt9LJO5rFrNqk.jpg","year":"2017","result":"HD","language":["Hindi"],"country":["KR"],"original_language":"ko","genres":["Drama"],"imdb_id":"tt7521802","latest_uploaded_season":1,"total_uploaded_episodes":48},{"id":"437109","type":"movie","title":"The Villainess","poster":"https://image.tmdb.org/t/p/w342/tJlOV2SU6qTxR540H9VtoCAOVm.jpg","year":"2017","result":"HD","language":["Hindi"],"country":["KR"],"original_language":"ko","genres":["Action","Thriller"],"imdb_id":"tt6777338"},{"id":"74785","type":"tv","title":"Two Cops","poster":"https://image.tmdb.org/t/p/w342/eOxQhCu8tSXDhbfkTlny3dgLjnA.jpg","year":"2017","result":"HD","language":["Hindi"],"country":["KR"],"original_language":"ko","genres":["Comedy","Mystery"],"imdb_id":"tt7525432","latest_uploaded_season":1,"total_uploaded_episodes":16},{"id":"74064","type":"tv","title":"Go Back Couple","poster":"https://image.tmdb.org/t/p/w342/2OzDKStSL3oGKQMlASeqvCFZsHz.jpg","year":"2017","result":"HD","language":["Hindi"],"country":["KR"],"original_language":"ko","genres":["Comedy","Sci-Fi & Fantasy"],"imdb_id":"tt7418578","latest_uploaded_season":1,"total_uploaded_episodes":12},{"id":"71349","type":"tv","title":"Suspicious Partner","poster":"https://image.tmdb.org/t/p/w342/e5ytMZlkGlVWtxSoLypobMaqZEO.jpg","year":"2017","result":"HD","language":["Hindi"],"country":["KR"],"original_language":"ko","genres":["Comedy","Crime","Drama"],"imdb_id":"tt6720154","latest_uploaded_season":1,"total_uploaded_episodes":40},{"id":"70813","type":"tv","title":"Fight for My Way","poster":"https://image.tmdb.org/t/p/w342/55w33JzFKBkz1evjBjqeF0enDd1.jpg","year":"2017","result":"HD","language":["Hindi"],"country":["KR"],"original_language":"ko","genres":["Comedy","Drama"],"imdb_id":"tt6824234","latest_uploaded_season":1,"total_uploaded_episodes":16}]}