{"page":2,"total_pages":6,"total_items":295,"items":[{"id":"238458","type":"tv","title":"Cashero","poster":"https://image.tmdb.org/t/p/w342/dm6RoaKgkGUxckamMDzsbqtLhFv.jpg","year":"2025","result":"HD","language":["Hindi"],"country":["KR"],"original_language":"ko","genres":["Action & Adventure","Drama"],"imdb_id":"tt30413044","latest_uploaded_season":1,"total_uploaded_episodes":8},{"id":"233742","type":"tv","title":"Newtopia","poster":"https://image.tmdb.org/t/p/w342/cIC36RA59lg9ruYtPc7UA3f72yy.jpg","year":"2025","result":"HD","language":["Hindi"],"country":["KR"],"original_language":"ko","genres":["Sci-Fi & Fantasy","Action & Adventure","Comedy","Drama"],"imdb_id":"tt32199328","latest_uploaded_season":1,"total_uploaded_episodes":8},{"id":"233686","type":"tv","title":"Karma","poster":"https://image.tmdb.org/t/p/w342/nZ7SFBgEhgSCaQFFActjcBQeIV1.jpg","year":"2025","result":"HD","language":["Hindi"],"country":["KR"],"original_language":"ko","genres":["Crime","Drama"],"imdb_id":"tt29921070","latest_uploaded_season":1,"total_uploaded_episodes":6},{"id":"233347","type":"tv","title":"Study Group","poster":"https://image.tmdb.org/t/p/w342/1x3xfnXQpxVfiRXUTqzX4CxU8yf.jpg","year":"2025","result":"HD","language":["E-Subtitles"],"country":["KR"],"original_language":"ko","genres":["Action & Adventure","Comedy","Drama"],"imdb_id":"tt35304338","latest_uploaded_season":1,"total_uploaded_episodes":10},{"id":"232402","type":"tv","title":"S Line","poster":"https://image.tmdb.org/t/p/w342/7TGolwcia6AI6uvInBOoedAi9Il.jpg","year":"2025","result":"HD","language":["Hindi"],"country":["KR"],"original_language":"ko","genres":["Sci-Fi & Fantasy","Drama","Mystery"],"imdb_id":"tt36056620","latest_uploaded_season":1,"total_uploaded_episodes":6},{"id":"231280","type":"tv","title":"Good Boy","poster":"https://image.tmdb.org/t/p/w342/59MAdHaHepsz3uDCU1LyoNQcLlT.jpg","year":"2025","result":"HD","language":["Hindi"],"country":["KR"],"original_language":"ko","genres":["Crime","Comedy","Action & Adventure","Drama"],"imdb_id":"tt32361930","latest_uploaded_season":1,"total_uploaded_episodes":16},{"id":"229958","type":"tv","title":"Aema","poster":"https://image.tmdb.org/t/p/w342/jD8uwm1fvt6y2yxjSO6R9IOFwQQ.jpg","year":"2025","result":"HD","language":["Hindi"],"country":["KR"],"original_language":"ko","genres":["Drama","Comedy"],"imdb_id":"tt29059394","latest_uploaded_season":1,"total_uploaded_episodes":6},{"id":"228689","type":"tv","title":"Genie, Make a Wish","poster":"https://image.tmdb.org/t/p/w342/opop2u7Jav6lMNL8fSBTzOeFBDz.jpg","year":"2025","result":"HD","language":["Hindi"],"country":["KR"],"original_language":"ko","genres":["Sci-Fi & Fantasy","Comedy","Drama"],"imdb_id":"tt32409807","latest_uploaded_season":1,"total_uploaded_episodes":13},{"id":"224414","type":"tv","title":"You and Everything Else","poster":"https://image.tmdb.org/t/p/w342/o6h56VuZMmBDxmpRGwCYqGkMGCj.jpg","year":"2025","result":"HD","language":["Hindi"],"country":["KR"],"original_language":"ko","genres":["Drama"],"imdb_id":"tt31014107","latest_uploaded_season":1,"total_uploaded_episodes":15},{"id":"219246","type":"tv","title":"When Life Gives You Tangerines","poster":"https://image.tmdb.org/t/p/w342/1VC3sEFxYXYDqQUCAnvWfUsYg1s.jpg","year":"2025","result":"HD","language":["Hindi"],"country":["KR"],"original_language":"ko","genres":["Drama"],"imdb_id":"tt26471411","latest_uploaded_season":1,"total_uploaded_episodes":16},{"id":"217553","type":"tv","title":"The Trauma Code: Heroes on Call","poster":"https://image.tmdb.org/t/p/w342/y8h2RwUZM5chv9tuaKVwSPoo3KE.jpg","year":"2025","result":"HD","language":["Hindi"],"country":["KR"],"original_language":"ko","genres":["Drama","Comedy"],"imdb_id":"tt28106730","latest_uploaded_season":1,"total_uploaded_episodes":8},{"id":"209110","type":"tv","title":"The Price of Confession","poster":"https://image.tmdb.org/t/p/w342/gPb8k63HrpvTxHc9yKWZEBR4Kml.jpg","year":"2025","result":"HD","language":["Hindi"],"country":["KR"],"original_language":"ko","genres":["Mystery","Drama"],"imdb_id":"tt37218592","latest_uploaded_season":1,"total_uploaded_episodes":12},{"id":"106651","type":"tv","title":"Hellbound","poster":"https://image.tmdb.org/t/p/w342/5NYdSAnDVIXePrSG2dznHdiibMk.jpg","year":"2024","result":"HD","language":["Hindi"],"country":["KR"],"original_language":"ko","genres":["Drama","Mystery","Sci-Fi & Fantasy"],"imdb_id":"tt12235718","latest_uploaded_season":2,"total_uploaded_episodes":12},{"id":"96648","type":"tv","title":"Sweet Home","poster":"https://image.tmdb.org/t/p/w342/ovLdkMclsr9NjkfRPgMaGDTHyGk.jpg","year":"2024","result":"HD","language":["Hindi"],"country":["KR"],"original_language":"ko","genres":["Sci-Fi & Fantasy","Action & Adventure"],"imdb_id":"tt11612120","latest_uploaded_season":3,"total_uploaded_episodes":26},{"id":"1075676","type":"movie","title":"Uprising","poster":"https://image.tmdb.org/t/p/w342/hg9OeaCRSpazrfqYyEFr6BDaZW8.jpg","year":"2024","result":"HD","language":["Hindi"],"country":["KR"],"original_language":"ko","genres":["Action","Drama","History"],"imdb_id":"tt27987046"},{"id":"223329","type":"tv","title":"The Whirlwind","poster":"https://image.tmdb.org/t/p/w342/dMNPN1cxX0CuL9POyT5xoiTk10h.jpg","year":"2024","result":"HD","language":["Hindi"],"country":["KR"],"original_language":"ko","genres":["Drama","War & Politics"],"imdb_id":"tt27368132","latest_uploaded_season":1,"total_uploaded_episodes":12},{"id":"635996","type":"movie","title":"Wonderland","poster":"https://image.tmdb.org/t/p/w342/xGFjhFkqpOpFFUkEQjetKS11AWz.jpg","year":"2024","result":"HD","language":["Hindi"],"country":["KR"],"original_language":"ko","genres":["Science Fiction","Drama"],"imdb_id":"tt31254554"},{"id":"206686","type":"tv","title":"Chicken Nugget","poster":"https://image.tmdb.org/t/p/w342/9hefpkltcFLcZSKXr65l0mPMRKn.jpg","year":"2024","result":"HD","language":["Hindi"],"country":["KR"],"original_language":"ko","genres":["Comedy","Mystery","Sci-Fi & Fantasy"],"imdb_id":"tt28642797","latest_uploaded_season":1,"total_uploaded_episodes":10},{"id":"226527","type":"tv","title":"Hierarchy","poster":"https://image.tmdb.org/t/p/w342/szr7QFNnuspcyhW0rsoDMDN73pP.jpg","year":"2024","result":"HD","language":["Hindi"],"country":["KR"],"original_language":"ko","genres":["Drama"],"imdb_id":"tt27763561","latest_uploaded_season":1,"total_uploaded_episodes":7},{"id":"221851","type":"tv","title":"Marry My Husband","poster":"https://image.tmdb.org/t/p/w342/899KcBqooj8nEyPcAEU3h7AdfUo.jpg","year":"2024","result":"HD","language":["Hindi"],"country":["KR"],"original_language":"ko","genres":["Drama","Sci-Fi & Fantasy","Comedy"],"imdb_id":"tt26628595","latest_uploaded_season":1,"total_uploaded_episodes":16},{"id":"156484","type":"tv","title":"The 8 Show","poster":"https://image.tmdb.org/t/p/w342/umBNBnKThMmF1QQZixZ7rsYOowq.jpg","year":"2024","result":"HD","language":["Hindi"],"country":["KR"],"original_language":"ko","genres":["Mystery","Comedy","Drama"],"imdb_id":"tt30423279","latest_uploaded_season":1,"total_uploaded_episodes":8},{"id":"736720","type":"movie","title":"Handsome Guys","poster":"https://image.tmdb.org/t/p/w342/x8QdSeTe02X8f1EcO7yk90lTGNi.jpg","year":"2024","result":"HD","language":["Hindi"],"country":["KR"],"original_language":"ko","genres":["Comedy","Horror"],"imdb_id":"tt32475217"},{"id":"865910","type":"movie","title":"The Plot","poster":"https://image.tmdb.org/t/p/w342/pBZ1N68Ral2rtNzeQAmGFhDadq0.jpg","year":"2024","result":"HD","language":["Hindi"],"country":["KR"],"original_language":"ko","genres":["Crime","Thriller"],"imdb_id":"tt26591189"},{"id":"1139817","type":"movie","title":"Officer Black Belt","poster":"https://image.tmdb.org/t/p/w342/pWOiCearczq7zmWo4ASbUIF6HYS.jpg","year":"2024","result":"HD","language":["Hindi"],"country":["KR"],"original_language":"ko","genres":["Action","Comedy","Crime"],"imdb_id":"tt28494829"},{"id":"202783","type":"tv","title":"A Killer Paradox","poster":"https://image.tmdb.org/t/p/w342/i2yYZGT2If8XcCZS9ASF1g13MiT.jpg","year":"2024","result":"HD","language":["Hindi"],"country":["KR"],"original_language":"ko","genres":["Crime","Comedy","Mystery","Drama"],"imdb_id":"tt28642796","latest_uploaded_season":1,"total_uploaded_episodes":8},{"id":"626412","type":"movie","title":"Alienoid: Return to the Future","poster":"https://image.tmdb.org/t/p/w342/4RClncz0GTKPZzSAcAalHCw0h3g.jpg","year":"2024","result":"HD","language":["Hindi"],"country":["KR"],"original_language":"ko","genres":["Action","Fantasy","Adventure","Science Fiction"],"imdb_id":"tt20201212"},{"id":"933131","type":"movie","title":"Badland Hunters","poster":"https://image.tmdb.org/t/p/w342/zVMyvNowgbsBAL6O6esWfRpAcOb.jpg","year":"2024","result":"HD","language":["Hindi"],"country":["KR"],"original_language":"ko","genres":["Action","Adventure","Thriller","Horror"],"imdb_id":"tt29722855"},{"id":"1039882","type":"movie","title":"My Name Is Loh Kiwan","poster":"https://image.tmdb.org/t/p/w342/x4BkphLO6abbGhceYEMhJERkvHo.jpg","year":"2024","result":"HD","language":["Hindi"],"country":["KR"],"original_language":"ko","genres":["Romance","Drama"],"imdb_id":"tt26672512"},{"id":"1002088","type":"movie","title":"Mission: Cross","poster":"https://image.tmdb.org/t/p/w342/aE9WqOApdRYsowsGE0118dyA4c9.jpg","year":"2024","result":"HD","language":["Hindi"],"country":["KR"],"original_language":"ko","genres":["Action","Comedy"],"imdb_id":"tt30515931"},{"id":"1147710","type":"movie","title":"Hijack 1971","poster":"https://image.tmdb.org/t/p/w342/68jNkFi61MQjrJEqj2up5wZ4w5R.jpg","year":"2024","result":"HD","language":["Hindi"],"country":["KR"],"original_language":"ko","genres":["Action","Thriller","Crime"],"imdb_id":"tt31624258"},{"id":"1017163","type":"movie","title":"The Roundup 4: Punishment","poster":"https://image.tmdb.org/t/p/w342/yk38mNoJpsswmk9o7i7eLhO4mc.jpg","year":"2024","result":"HD","language":["Hindi"],"country":["KR"],"original_language":"ko","genres":["Action","Crime","Thriller","Comedy"],"imdb_id":"tt27811040"},{"id":"1007127","type":"movie","title":"Troll Factory","poster":"https://image.tmdb.org/t/p/w342/1joLg8gwVTZe7tarh0isaWntdhQ.jpg","year":"2024","result":"HD","language":["Hindi"],"country":["KR"],"original_language":"ko","genres":["Crime","Drama"],"imdb_id":"tt31315820"},{"id":"838209","type":"movie","title":"Exhuma","poster":"https://image.tmdb.org/t/p/w342/6dasJ58GGFcC62H9KuukAryltUp.jpg","year":"2024","result":"HD","language":["Hindi"],"country":["KR"],"original_language":"ko","genres":["Mystery","Horror","Thriller"],"imdb_id":"tt27802490"},{"id":"743815","type":"movie","title":"Following","poster":"https://image.tmdb.org/t/p/w342/1TSnW71f1J63XgtZIHojLcclm7c.jpg","year":"2024","result":"HD","language":["Hindi"],"country":["KR"],"original_language":"ko","genres":["Thriller","Mystery"],"imdb_id":"tt32220831"},{"id":"239779","type":"tv","title":"True Beauty","poster":"https://image.tmdb.org/t/p/w342/9gpc8kIhNEG7r0VTkyI9aVBxdO3.jpg","year":"2024","result":"HD","language":["Hindi"],"country":["KR"],"original_language":"ko","genres":["Animation","Comedy","Drama"],"imdb_id":"tt33054444","latest_uploaded_season":1,"total_uploaded_episodes":13},{"id":"236356","type":"tv","title":"Family Matters","poster":"https://image.tmdb.org/t/p/w342/aQt92o4IOZis7rFRNpo15sflZde.jpg","year":"2024","result":"HD","language":["Hindi"],"country":["KR"],"original_language":"ko","genres":["Drama","Crime","Comedy","Mystery"],"imdb_id":"tt31510539","latest_uploaded_season":1,"total_uploaded_episodes":6},{"id":"230923","type":"tv","title":"Lovely Runner","poster":"https://image.tmdb.org/t/p/w342/xJQyrif5M4UMoVBrBlwUabtaRxB.jpg","year":"2024","result":"HD","language":["Hindi"],"country":["KR"],"original_language":"ko","genres":["Drama","Sci-Fi & Fantasy","Comedy","Mystery"],"imdb_id":"tt31324295","latest_uploaded_season":1,"total_uploaded_episodes":16},{"id":"230777","type":"tv","title":"The Trunk","poster":"https://image.tmdb.org/t/p/w342/3YQtEqg923Os5w5Qg8sbQL41shw.jpg","year":"2024","result":"HD","language":["Hindi"],"country":["KR"],"original_language":"ko","genres":["Drama","Mystery"],"imdb_id":"tt26773401","latest_uploaded_season":1,"total_uploaded_episodes":8},{"id":"230448","type":"tv","title":"Mr. Plankton","poster":"https://image.tmdb.org/t/p/w342/c31cvdNNiAMvb4XVjAwYLNn3LNO.jpg","year":"2024","result":"HD","language":["Hindi"],"country":["KR"],"original_language":"ko","genres":["Comedy","Drama"],"imdb_id":"tt27539317","latest_uploaded_season":1,"total_uploaded_episodes":10},{"id":"230198","type":"tv","title":"Wedding Impossible","poster":"https://image.tmdb.org/t/p/w342/auP4DnCCUHNH1CBlpL8TWBZya2f.jpg","year":"2024","result":"HD","language":["Hindi"],"country":["KR"],"original_language":"ko","genres":["Drama","Comedy"],"imdb_id":"tt30301176","latest_uploaded_season":1,"total_uploaded_episodes":12},{"id":"229480","type":"tv","title":"No Gain No Love","poster":"https://image.tmdb.org/t/p/w342/jiGxkMP3lzPDaPw4F0EZAEiTSgL.jpg","year":"2024","result":"HD","language":["Hindi"],"country":["KR"],"original_language":"ko","genres":["Drama","Comedy"],"imdb_id":"tt32981987","latest_uploaded_season":1,"total_uploaded_episodes":12},{"id":"224030","type":"tv","title":"High School Return of a Gangster","poster":"https://image.tmdb.org/t/p/w342/bK5kGsWq9vGALbDgPmNiLFNFVI1.jpg","year":"2024","result":"HD","language":["Hindi"],"country":["KR"],"original_language":"ko","genres":["Sci-Fi & Fantasy","Drama"],"imdb_id":"tt32499943","latest_uploaded_season":1,"total_uploaded_episodes":8},{"id":"219652","type":"tv","title":"The Frog","poster":"https://image.tmdb.org/t/p/w342/uMl2TzRs1LzTR9jyRNHnf5keqMV.jpg","year":"2024","result":"HD","language":["Hindi"],"country":["KR"],"original_language":"ko","genres":["Mystery","Crime","Drama"],"imdb_id":"tt26767508","latest_uploaded_season":1,"total_uploaded_episodes":8},{"id":"215720","type":"tv","title":"Queen of Tears","poster":"https://image.tmdb.org/t/p/w342/7ZXLZ3KYL3IVvsSHBZaHjcNQzNU.jpg","year":"2024","result":"HD","language":["Hindi"],"country":["KR"],"original_language":"ko","genres":["Drama","Comedy"],"imdb_id":"tt27668559","latest_uploaded_season":1,"total_uploaded_episodes":16},{"id":"212553","type":"tv","title":"The Bequeathed","poster":"https://image.tmdb.org/t/p/w342/iExLDuclzOp06ro9929UTDQRDm1.jpg","year":"2024","result":"HD","language":["Hindi"],"country":["KR"],"original_language":"ko","genres":["Drama","Mystery","Crime"],"imdb_id":"tt28225048","latest_uploaded_season":1,"total_uploaded_episodes":6},{"id":"208825","type":"tv","title":"Parasyte: The Grey","poster":"https://image.tmdb.org/t/p/w342/9UPneQ4NF7g6WDNSFE5qyt88wJn.jpg","year":"2024","result":"HD","language":["Hindi"],"country":["KR"],"original_language":"ko","genres":["Sci-Fi & Fantasy","Action & Adventure","Drama"],"imdb_id":"tt21874396","latest_uploaded_season":1,"total_uploaded_episodes":6},{"id":"139547","type":"tv","title":"Goodbye Earth","poster":"https://image.tmdb.org/t/p/w342/i1LvLQSKRoGlU5egMHagDtsZ4K1.jpg","year":"2024","result":"HD","language":["Hindi"],"country":["KR"],"original_language":"ko","genres":["Drama"],"imdb_id":"tt17492848","latest_uploaded_season":1,"total_uploaded_episodes":12},{"id":"68398","type":"tv","title":"Dr. Romantic","poster":"https://image.tmdb.org/t/p/w342/9fbRJgZ2zDTnSUId1bOwsllHNr7.jpg","year":"2023","result":"HD","language":["Hindi"],"country":["KR"],"original_language":"ko","genres":["Drama"],"imdb_id":"tt6157190","latest_uploaded_season":3,"total_uploaded_episodes":52},{"id":"214582","type":"tv","title":"The Devil's Plan","poster":"https://image.tmdb.org/t/p/w342/jNY6UVgvKz03yrSgCflkF5NF25K.jpg","year":"2023","result":"HD","language":["Hindi"],"country":["KR"],"original_language":"ko","genres":["Reality"],"imdb_id":"tt27995115","latest_uploaded_season":3,"total_uploaded_episodes":24},{"id":"206715","type":"tv","title":"Joseon Attorney: A Morality","poster":"https://image.tmdb.org/t/p/w342/r9s6F4IgFyPyjSh7n7wGMRO6Mp0.jpg","year":"2023","result":"HD","language":["Hindi"],"country":["KR"],"original_language":"ko","genres":["Drama"],"imdb_id":"tt26599669","latest_uploaded_season":1,"total_uploaded_episodes":16}]}