{"page":1,"total_pages":6,"total_items":295,"items":[{"id":"285838","type":"tv","title":"If Wishes Could Kill","poster":"https://image.tmdb.org/t/p/w342/2CfTNVaR8kZQkWtWWE3Cntaiq33.jpg","year":"2026","result":"HD","language":["Hindi"],"country":["KR"],"original_language":"ko","genres":["Mystery","Drama"],"imdb_id":"tt36104233","latest_uploaded_season":1,"total_uploaded_episodes":8},{"id":"127529","type":"tv","title":"Bloodhounds","poster":"https://image.tmdb.org/t/p/w342/yu4oHDi6kO3cYXdmEnYT6SibATj.jpg","year":"2026","result":"HD","language":["Hindi"],"country":["KR"],"original_language":"ko","genres":["Drama","Action & Adventure","Crime"],"imdb_id":"tt26315487","latest_uploaded_season":2,"total_uploaded_episodes":15},{"id":"1401542","type":"movie","title":"Project Y","poster":"https://image.tmdb.org/t/p/w342/1KMG1inDAnKaGZ1W8Ac3wn6bdXu.jpg","year":"2026","result":"HD","language":["Hindi"],"country":["KR"],"original_language":"ko","genres":["Crime","Drama"],"imdb_id":"tt37658798"},{"id":"259837","type":"tv","title":"The WONDERfools","poster":"https://image.tmdb.org/t/p/w342/jj7AYkz2OLRDL1wfJmjTXyWQ5I4.jpg","year":"2026","result":"HD","language":["Hindi"],"country":["KR"],"original_language":"ko","genres":["Action & Adventure","Comedy","Sci-Fi & Fantasy","Drama"],"imdb_id":"tt34440854","latest_uploaded_season":1,"total_uploaded_episodes":8},{"id":"1628116","type":"movie","title":"BTS: THE RETURN","poster":"https://image.tmdb.org/t/p/w342/9CNUWleZWN9EGMZjvaSTcxmAAGg.jpg","year":"2026","result":"HD","language":["Hindi"],"country":["US","KR"],"original_language":"ko","genres":["Documentary","Music"],"imdb_id":"tt39578551"},{"id":"1268609","type":"movie","title":"Pavane","poster":"https://image.tmdb.org/t/p/w342/wOXc8stx1CLvM6GC0ABKfWOkbYw.jpg","year":"2026","result":"HD","language":["Hindi"],"country":["KR"],"original_language":"ko","genres":["Romance","Drama"],"imdb_id":"tt39387657"},{"id":"1268127","type":"movie","title":"Humint","poster":"https://image.tmdb.org/t/p/w342/82bX2GK4PhaJQtfkTnfmd2P7erG.jpg","year":"2026","result":"HD","language":["Hindi"],"country":["KR"],"original_language":"ko","genres":["Thriller","Action","Drama"],"imdb_id":"tt32606470"},{"id":"310800","type":"tv","title":"Siren's Kiss","poster":"https://image.tmdb.org/t/p/w342/8r8YU97YfSf6QtMKfePmTqhFTeQ.jpg","year":"2026","result":"HD","language":["Hindi"],"country":["KR"],"original_language":"ko","genres":["Drama","Crime","Mystery"],"imdb_id":"tt39303992","latest_uploaded_season":1,"total_uploaded_episodes":12},{"id":"281016","type":"tv","title":"Boyfriend on Demand","poster":"https://image.tmdb.org/t/p/w342/8vBWQjdCnK7xSGuNbK1gBK1iIQL.jpg","year":"2026","result":"HD","language":["Hindi"],"country":["KR"],"original_language":"ko","genres":["Comedy","Sci-Fi & Fantasy","Drama"],"imdb_id":"tt35848827","latest_uploaded_season":1,"total_uploaded_episodes":10},{"id":"280948","type":"tv","title":"Spring Fever","poster":"https://image.tmdb.org/t/p/w342/50e9qtv8rKmcayAQSgB9P9XELpQ.jpg","year":"2026","result":"HD","language":["Hindi"],"country":["KR"],"original_language":"ko","genres":["Comedy","Drama"],"imdb_id":"tt39137681","latest_uploaded_season":1,"total_uploaded_episodes":12},{"id":"273977","type":"tv","title":"The Art of Sarah","poster":"https://image.tmdb.org/t/p/w342/nP2PRGSmLdbZtQtoXPPppcDAsNw.jpg","year":"2026","result":"HD","language":["Hindi"],"country":["KR"],"original_language":"ko","genres":["Crime","Mystery","Drama"],"imdb_id":"tt35149250","latest_uploaded_season":1,"total_uploaded_episodes":8},{"id":"270420","type":"tv","title":"No Tail to Tell","poster":"https://image.tmdb.org/t/p/w342/bSX49M4tjDsnC8dOVQxt1sLgH6z.jpg","year":"2026","result":"HD","language":["E-Subtitles"],"country":["KR"],"original_language":"ko","genres":["Sci-Fi & Fantasy","Comedy","Drama"],"imdb_id":"tt33429144","latest_uploaded_season":1,"total_uploaded_episodes":12},{"id":"229891","type":"tv","title":"Can This Love Be Translated?","poster":"https://image.tmdb.org/t/p/w342/zgUh4cgalSzBjbsT5P0qmU7Rjzk.jpg","year":"2026","result":"HD","language":["Hindi"],"country":["KR"],"original_language":"ko","genres":["Drama","Comedy"],"imdb_id":"tt30293074","latest_uploaded_season":1,"total_uploaded_episodes":12},{"id":"93405","type":"tv","title":"Squid Game","poster":"https://image.tmdb.org/t/p/w342/1QdXdRYfktUSONkl1oD5gc6Be0s.jpg","year":"2025","result":"HD","language":["Hindi"],"country":["KR"],"original_language":"ko","genres":["Action & Adventure","Mystery","Drama"],"imdb_id":"tt10919420","latest_uploaded_season":3,"total_uploaded_episodes":22},{"id":"200709","type":"tv","title":"Weak Hero","poster":"https://image.tmdb.org/t/p/w342/hS9VVF5ffTVWNoC9B48QNsZFGy9.jpg","year":"2025","result":"HD","language":["Hindi"],"country":["KR"],"original_language":"ko","genres":["Action & Adventure","Drama"],"imdb_id":"tt20234568","latest_uploaded_season":2,"total_uploaded_episodes":16},{"id":"238084","type":"tv","title":"Trigger","poster":"https://image.tmdb.org/t/p/w342/9eDF8Z4iFFCmQROiuej54rSK9LT.jpg","year":"2025","result":"HD","language":["Hindi"],"country":["KR"],"original_language":"ko","genres":["Action & Adventure","Drama","Crime"],"imdb_id":"tt27898511","latest_uploaded_season":1,"total_uploaded_episodes":10},{"id":"224819","type":"tv","title":"Dear Hongrang","poster":"https://image.tmdb.org/t/p/w342/mWGil4jL1jaCoZkZuaNThh0aoVC.jpg","year":"2025","result":"HD","language":["Hindi"],"country":["KR"],"original_language":"ko","genres":["Drama","Mystery"],"imdb_id":"tt27554348","latest_uploaded_season":1,"total_uploaded_episodes":11},{"id":"243964","type":"tv","title":"Melo Movie","poster":"https://image.tmdb.org/t/p/w342/4Aat5liR3Aepisn0fhxegpBSGKF.jpg","year":"2025","result":"HD","language":["Hindi"],"country":["KR"],"original_language":"ko","genres":["Comedy","Drama"],"imdb_id":"tt35450649","latest_uploaded_season":1,"total_uploaded_episodes":10},{"id":"232766","type":"tv","title":"Mercy for None","poster":"https://image.tmdb.org/t/p/w342/AjL335mFBe7LgCqo3w0RNBSbbZU.jpg","year":"2025","result":"HD","language":["Hindi"],"country":["KR"],"original_language":"ko","genres":["Action & Adventure","Drama"],"imdb_id":"tt29650530","latest_uploaded_season":1,"total_uploaded_episodes":7},{"id":"1504735","type":"movie","title":"Squid Game in Conversation","poster":"https://image.tmdb.org/t/p/w342/vMNcd8up1wvgBJnjNkOkWpZLHPC.jpg","year":"2025","result":"HD","language":["Hindi"],"country":["KR"],"original_language":"ko","genres":["Documentary"],"imdb_id":"tt37455270"},{"id":"1466115","type":"movie","title":"Even If This Love Disappears Tonight","poster":"https://image.tmdb.org/t/p/w342/5eNN8KLDPUXDqIkTdCbmn1gx5P7.jpg","year":"2025","result":"HD","language":["Hindi"],"country":["KR"],"original_language":"ko","genres":["Romance","Drama"],"imdb_id":"tt39049192"},{"id":"1355666","type":"movie","title":"Love Untangled","poster":"https://image.tmdb.org/t/p/w342/e7jStO2xfBUAUK37LbINHd1qtgy.jpg","year":"2025","result":"HD","language":["Hindi"],"country":["KR"],"original_language":"ko","genres":["Romance","Drama","Comedy"],"imdb_id":"tt33549683"},{"id":"1316719","type":"movie","title":"The Ugly","poster":"https://image.tmdb.org/t/p/w342/sNLTSYHRfQJ2gpdrA2UXjkfEije.jpg","year":"2025","result":"HD","language":["Hindi"],"country":["KR"],"original_language":"ko","genres":["Mystery","Thriller"],"imdb_id":"tt33514451"},{"id":"1296404","type":"movie","title":"Good News","poster":"https://image.tmdb.org/t/p/w342/uA3o8q7JTym6lUM8pnITwQDfvhO.jpg","year":"2025","result":"HD","language":["Hindi"],"country":["KR"],"original_language":"ko","genres":["Thriller","Comedy","History"],"imdb_id":"tt33550069"},{"id":"1267319","type":"movie","title":"Mantis","poster":"https://image.tmdb.org/t/p/w342/pzsXKLJsZ26HUV1oCMa7WiFFQbW.jpg","year":"2025","result":"HD","language":["Hindi"],"country":["KR"],"original_language":"ko","genres":["Action","Crime","Thriller"],"imdb_id":"tt33312131"},{"id":"1224993","type":"movie","title":"Dark Nuns","poster":"https://image.tmdb.org/t/p/w342/2Abt2GgscAGtGAXTrhH44qPhugI.jpg","year":"2025","result":"HD","language":["Hindi"],"country":["KR"],"original_language":"ko","genres":["Horror","Mystery","Thriller","Drama"],"imdb_id":"tt32491690"},{"id":"1204889","type":"movie","title":"Crypto Man","poster":"https://image.tmdb.org/t/p/w342/zTucIUYXTjvCT6PQnUyU7vdJPB9.jpg","year":"2025","result":"HD","language":["Hindi"],"country":["KR"],"original_language":"ko","genres":["Drama","Crime"],"imdb_id":"tt35311650"},{"id":"1194963","type":"movie","title":"Noise","poster":"https://image.tmdb.org/t/p/w342/uU3NXe7QqjJNxVpYPdz8dscFWlj.jpg","year":"2025","result":"HD","language":["Hindi"],"country":["KR"],"original_language":"ko","genres":["Horror","Thriller"],"imdb_id":"tt29845247"},{"id":"1151766","type":"movie","title":"Murderer Report","poster":"https://image.tmdb.org/t/p/w342/dl0sMMjMkdkziSGeSwiQ1DAb6Ci.jpg","year":"2025","result":"HD","language":["Hindi"],"country":["KR"],"original_language":"ko","genres":["Drama","Thriller"],"imdb_id":"tt37718411"},{"id":"1137179","type":"movie","title":"Yadang: The Snitch","poster":"https://image.tmdb.org/t/p/w342/y7dsDbG8zVWkrkyOhA6ckZXX1uC.jpg","year":"2025","result":"HD","language":["Hindi"],"country":["KR"],"original_language":"ko","genres":["Crime","Action","Comedy","Drama","Thriller"],"imdb_id":"tt35851026"},{"id":"1129923","type":"movie","title":"Hitman 2","poster":"https://image.tmdb.org/t/p/w342/efCaYlRl0LcZNX15dEz3KxcUigi.jpg","year":"2025","result":"HD","language":["Hindi"],"country":["KR"],"original_language":"ko","genres":["Action","Comedy"],"imdb_id":"tt30788876"},{"id":"1000520","type":"movie","title":"Midnight Sun","poster":"https://image.tmdb.org/t/p/w342/yn66Fjc25hf0GnFN0CFbBxnAYhD.jpg","year":"2025","result":"HD","language":["Hindi"],"country":["KR"],"original_language":"ko","genres":["Music","Drama","Romance"],"imdb_id":"tt26736926"},{"id":"982843","type":"movie","title":"The Great Flood","poster":"https://image.tmdb.org/t/p/w342/1tUOZQDgZaGqZtrB21MieiXARL2.jpg","year":"2025","result":"HD","language":["Hindi"],"country":["KR"],"original_language":"ko","genres":["Science Fiction","Adventure","Drama"],"imdb_id":"tt29927663"},{"id":"793387","type":"movie","title":"Holy Night: Demon Hunters","poster":"https://image.tmdb.org/t/p/w342/v3Mo77Qjp6pctpD4eJaNT6kFRSB.jpg","year":"2025","result":"HD","language":["Hindi"],"country":["KR"],"original_language":"ko","genres":["Action","Fantasy","Horror","Thriller"],"imdb_id":"tt15766876"},{"id":"766369","type":"movie","title":"Nocturnal","poster":"https://image.tmdb.org/t/p/w342/3C1vdtKVdtBCQaM2SZG9YUe6tuW.jpg","year":"2025","result":"HD","language":["Hindi"],"country":["KR"],"original_language":"ko","genres":["Mystery","Thriller"],"imdb_id":"tt34574758"},{"id":"701387","type":"movie","title":"Bugonia","poster":"https://image.tmdb.org/t/p/w342/rSdOua3wKMEaFWDcKAYWRjXQWOt.jpg","year":"2025","result":"HD","language":["Hindi"],"country":["IE","KR","US","CA"],"original_language":"en","genres":["Science Fiction","Thriller","Comedy"],"imdb_id":"tt12300742"},{"id":"293613","type":"tv","title":"Physical: Asia","poster":"https://image.tmdb.org/t/p/w342/osa3I6CuabnCEpNgFOvFMLLS7yP.jpg","year":"2025","result":"HD","language":["Hindi"],"country":["KR"],"original_language":"ko","genres":["Reality"],"imdb_id":"tt35664835","latest_uploaded_season":1,"total_uploaded_episodes":12},{"id":"285770","type":"tv","title":"Nice to Not Meet You","poster":"https://image.tmdb.org/t/p/w342/h14bGZcVxYQzLoxC8KYqUVWvYfU.jpg","year":"2025","result":"HD","language":["Hindi"],"country":["KR"],"original_language":"ko","genres":["Comedy","Drama"],"imdb_id":"tt37506062","latest_uploaded_season":1,"total_uploaded_episodes":16},{"id":"285278","type":"tv","title":"Idol I","poster":"https://image.tmdb.org/t/p/w342/pKJLNbUh4uO2jwGsMfP4B37pamS.jpg","year":"2025","result":"HD","language":["E-Subtitles"],"country":["KR"],"original_language":"ko","genres":["Mystery","Drama","Crime","Comedy"],"imdb_id":"tt39068875","latest_uploaded_season":1,"total_uploaded_episodes":12},{"id":"281013","type":"tv","title":"Dynamite Kiss","poster":"https://image.tmdb.org/t/p/w342/zkE2pVFNaRaObXgauc2wfwYQCEE.jpg","year":"2025","result":"HD","language":["Hindi"],"country":["KR"],"original_language":"ko","genres":["Drama","Comedy"],"imdb_id":"tt38353551","latest_uploaded_season":1,"total_uploaded_episodes":14},{"id":"281005","type":"tv","title":"Surely Tomorrow","poster":"https://image.tmdb.org/t/p/w342/k9xPcIsxXbc1Xuf45K0FU8yM2m5.jpg","year":"2025","result":"HD","language":["Hindi"],"country":["KR"],"original_language":"ko","genres":["Comedy","Drama"],"imdb_id":"tt38221085","latest_uploaded_season":1,"total_uploaded_episodes":12},{"id":"281004","type":"tv","title":"Beyond the Bar","poster":"https://image.tmdb.org/t/p/w342/nN6mZZxJBPZXBjLxnjgpnoRvswk.jpg","year":"2025","result":"HD","language":["Hindi"],"country":["KR"],"original_language":"ko","genres":["Drama"],"imdb_id":"tt37660730","latest_uploaded_season":1,"total_uploaded_episodes":12},{"id":"280945","type":"tv","title":"Bon Appétit, Your Majesty","poster":"https://image.tmdb.org/t/p/w342/bzYSIw9FTzQXUcWsnDSwlcwok3C.jpg","year":"2025","result":"HD","language":["Hindi"],"country":["KR"],"original_language":"ko","genres":["Drama","Sci-Fi & Fantasy"],"imdb_id":"tt37600136","latest_uploaded_season":1,"total_uploaded_episodes":12},{"id":"274875","type":"tv","title":"Twelve","poster":"https://image.tmdb.org/t/p/w342/6q66Psq2cDrCsoz8cGDVa6gFmMm.jpg","year":"2025","result":"HD","language":["Hindi"],"country":["KR"],"original_language":"ko","genres":["Sci-Fi & Fantasy","Action & Adventure","Drama"],"imdb_id":"tt37492797","latest_uploaded_season":1,"total_uploaded_episodes":8},{"id":"271885","type":"tv","title":"As You Stood By","poster":"https://image.tmdb.org/t/p/w342/3ciqsMz21p8xp5udriFjRGM5OYs.jpg","year":"2025","result":"HD","language":["Hindi"],"country":["KR"],"original_language":"ko","genres":["Crime","Drama","Mystery"],"imdb_id":"tt33550045","latest_uploaded_season":1,"total_uploaded_episodes":8},{"id":"259710","type":"tv","title":"Confidence Queen","poster":"https://image.tmdb.org/t/p/w342/wUCmw1B6MBRiN6TUSbssKHuJnV0.jpg","year":"2025","result":"HD","language":["Hindi"],"country":["KR"],"original_language":"ko","genres":["Crime","Comedy","Drama"],"imdb_id":"tt37262316","latest_uploaded_season":1,"total_uploaded_episodes":12},{"id":"258025","type":"tv","title":"Head Over Heels","poster":"https://image.tmdb.org/t/p/w342/kL42DhVhqjO3NxlB0oNg2Z4TAWP.jpg","year":"2025","result":"HD","language":["Hindi"],"country":["KR"],"original_language":"ko","genres":["Sci-Fi & Fantasy","Drama","Comedy"],"imdb_id":"tt37146661","latest_uploaded_season":1,"total_uploaded_episodes":12},{"id":"249054","type":"tv","title":"Romantics Anonymous","poster":"https://image.tmdb.org/t/p/w342/jEP3ZQLzwy50sWYpJQGuS6SKrw6.jpg","year":"2025","result":"HD","language":["Hindi"],"country":["KR","JP"],"original_language":"ja","genres":["Comedy","Drama"],"imdb_id":"tt32524691","latest_uploaded_season":1,"total_uploaded_episodes":8},{"id":"248244","type":"tv","title":"Undercover High School","poster":"https://image.tmdb.org/t/p/w342/vXAWUI1pYrBvZoUarGxWj1mtlXp.jpg","year":"2025","result":"HD","language":["Hindi"],"country":["KR"],"original_language":"ko","genres":["Action & Adventure","Comedy","Drama"],"imdb_id":"tt33364760","latest_uploaded_season":1,"total_uploaded_episodes":12},{"id":"239385","type":"tv","title":"The Manipulated","poster":"https://image.tmdb.org/t/p/w342/nOj4nsomFyAVJgpp68L0xq3cREc.jpg","year":"2025","result":"HD","language":["Hindi"],"country":["KR"],"original_language":"ko","genres":["Crime","Drama"],"imdb_id":"tt36188448","latest_uploaded_season":1,"total_uploaded_episodes":12}]}