{"page":15,"total_pages":26,"total_items":1255,"items":[{"id":"1072342","type":"movie","title":"Night Swim","poster":"https://image.tmdb.org/t/p/w342/gSkfBGdxdialBMM7P02V4hcI6Ij.jpg","year":"2024","result":"HD","language":["Hindi"],"country":["US"],"original_language":"en","genres":["Horror","Mystery"],"imdb_id":"tt9682428"},{"id":"1096197","type":"movie","title":"No Way Up","poster":"https://image.tmdb.org/t/p/w342/hu40Uxp9WtpL34jv3zyWLb5zEVY.jpg","year":"2024","result":"HD","language":["Hindi"],"country":["GB"],"original_language":"en","genres":["Thriller","Horror","Action"],"imdb_id":"tt16253418"},{"id":"974036","type":"movie","title":"Ordinary Angels","poster":"https://image.tmdb.org/t/p/w342/wdi9kEU4W2UeBTtdqOPZISGMtDR.jpg","year":"2024","result":"HD","language":["Hindi"],"country":["US"],"original_language":"en","genres":["Drama"],"imdb_id":"tt4996328"},{"id":"1139829","type":"movie","title":"Orion and the Dark","poster":"https://image.tmdb.org/t/p/w342/N2ddXhBX5kqwA9flbm2yqFtX6b.jpg","year":"2024","result":"HD","language":["Hindi"],"country":["US"],"original_language":"en","genres":["Animation","Family","Comedy","Fantasy","Adventure"],"imdb_id":"tt28066777"},{"id":"843617","type":"movie","title":"Players","poster":"https://image.tmdb.org/t/p/w342/eA94hAGntLm7Lfol5FQJNxd53Hw.jpg","year":"2024","result":"HD","language":["Hindi"],"country":["US"],"original_language":"en","genres":["Romance","Comedy"],"imdb_id":"tt14833464"},{"id":"1022690","type":"movie","title":"Ricky Stanicky","poster":"https://image.tmdb.org/t/p/w342/oJQdLfrpl4CQsHAKIxd3DJqYTVq.jpg","year":"2024","result":"HD","language":["Hindi"],"country":["AU","GB","US"],"original_language":"en","genres":["Comedy"],"imdb_id":"tt1660648"},{"id":"359410","type":"movie","title":"Road House","poster":"https://image.tmdb.org/t/p/w342/fDEdtS4P0gJsxHDIt8dG8TR5dx1.jpg","year":"2024","result":"HD","language":["Hindi"],"country":["US"],"original_language":"en","genres":["Action","Thriller","Drama"],"imdb_id":"tt3359350"},{"id":"831815","type":"movie","title":"Saving Bikini Bottom: The Sandy Cheeks Movie","poster":"https://image.tmdb.org/t/p/w342/30YnfZdMNIV7noWLdvmcJS0cbnQ.jpg","year":"2024","result":"HD","language":["Hindi"],"country":["US"],"original_language":"en","genres":["Family","Comedy","Adventure","Animation"],"imdb_id":"tt23063732"},{"id":"1083658","type":"movie","title":"Scoop","poster":"https://image.tmdb.org/t/p/w342/ib3H2ZSeVRTAmd7EtGWV31LswaZ.jpg","year":"2024","result":"HD","language":["Hindi"],"country":["GB"],"original_language":"en","genres":["Drama","TV Movie"],"imdb_id":"tt21279806"},{"id":"1255030","type":"movie","title":"Secrets of the Neanderthals","poster":"https://image.tmdb.org/t/p/w342/j0CWLFH50qVjEbPZ1TowFxjOVFW.jpg","year":"2024","result":"HD","language":["Hindi"],"country":["GB"],"original_language":"en","genres":["Documentary","Mystery","History"],"imdb_id":"tt32065103"},{"id":"798612","type":"movie","title":"Shirley","poster":"https://image.tmdb.org/t/p/w342/ooo4D4kyZyFee5aiNfwZ43oKOkc.jpg","year":"2024","result":"HD","language":["Hindi"],"country":["US"],"original_language":"en","genres":["History","Drama"],"imdb_id":"tt14077516"},{"id":"978592","type":"movie","title":"Sleeping Dogs","poster":"https://image.tmdb.org/t/p/w342/5DwQhh1HvTo7edaOeMX49NUyZqy.jpg","year":"2024","result":"HD","language":["Hindi"],"country":["US","AU"],"original_language":"en","genres":["Mystery","Thriller","Crime","Drama"],"imdb_id":"tt8542964"},{"id":"1242384","type":"movie","title":"The Antisocial Network: Memes to Mayhem","poster":"https://image.tmdb.org/t/p/w342/AlJKsIzkSU629hEhbRzRb1cSxA1.jpg","year":"2024","result":"HD","language":["Hindi"],"country":["US"],"original_language":"en","genres":["Documentary"],"imdb_id":"tt31189868"},{"id":"1216512","type":"movie","title":"The Casagrandes Movie","poster":"https://image.tmdb.org/t/p/w342/1ZHetsKD44xB63ZjTjqryC0CtoL.jpg","year":"2024","result":"HD","language":["Hindi"],"country":["US"],"original_language":"en","genres":["Animation","Comedy","Family"],"imdb_id":"tt31123288"},{"id":"746036","type":"movie","title":"The Fall Guy","poster":"https://image.tmdb.org/t/p/w342/e7olqFmzcIX5c23kX4zSmLPJi8c.jpg","year":"2024","result":"HD","language":["Hindi"],"country":["US","AU"],"original_language":"en","genres":["Action","Comedy","Romance"],"imdb_id":"tt1684562"},{"id":"739547","type":"movie","title":"Thelma the Unicorn","poster":"https://image.tmdb.org/t/p/w342/yutiEZ7taGDNau2jGjKIdDwQpDw.jpg","year":"2024","result":"HD","language":["Hindi"],"country":["US"],"original_language":"en","genres":["Animation","Fantasy","Family"],"imdb_id":"tt10442352"},{"id":"253913","type":"tv","title":"Toughest Forces on Earth","poster":"https://image.tmdb.org/t/p/w342/4Ncb3dfoJCUNE2UGlmmVZdqeua7.jpg","year":"2024","result":"HD","language":["Hindi"],"country":["GB"],"original_language":"en","genres":["Documentary"],"imdb_id":"tt25166726","latest_uploaded_season":1,"total_uploaded_episodes":1},{"id":"844185","type":"movie","title":"Unfrosted","poster":"https://image.tmdb.org/t/p/w342/zxcpbkiyv81u1frI7b0f6qaYufE.jpg","year":"2024","result":"HD","language":["Hindi"],"country":["US"],"original_language":"en","genres":["Comedy","History"],"imdb_id":"tt14914430"},{"id":"1014590","type":"movie","title":"Upgraded","poster":"https://image.tmdb.org/t/p/w342/uhOXS17gRpTwA85WsZLlYFK3rz0.jpg","year":"2024","result":"HD","language":["Hindi"],"country":["GB","US"],"original_language":"en","genres":["Romance","Comedy"],"imdb_id":"tt21830902"},{"id":"666035","type":"movie","title":"Wanted Man","poster":"https://image.tmdb.org/t/p/w342/pmdgdb8biQLLzTjySZLPdK13KwM.jpg","year":"2024","result":"HD","language":["Hindi"],"country":["US"],"original_language":"en","genres":["Action"],"imdb_id":"tt15791574"},{"id":"1239146","type":"movie","title":"Woody Woodpecker Goes to Camp","poster":"https://image.tmdb.org/t/p/w342/gaINMBMGIow4kd8Dq06aytoomtS.jpg","year":"2024","result":"HD","language":["Hindi"],"country":["US"],"original_language":"en","genres":["Family","Comedy","Animation"],"imdb_id":"tt20221690"},{"id":"114479","type":"tv","title":"The Acolyte","poster":"https://image.tmdb.org/t/p/w342/mztdt3y6GBsJR69zHtszFezTCLT.jpg","year":"2024","result":"HD","language":["Hindi"],"country":["US"],"original_language":"en","genres":["Mystery","Sci-Fi & Fantasy","Action & Adventure"],"imdb_id":"tt12262202","latest_uploaded_season":1,"total_uploaded_episodes":8},{"id":"863873","type":"movie","title":"Caddo Lake","poster":"https://image.tmdb.org/t/p/w342/86dAl9HAGDOhvOIM8uPVjfk9P1v.jpg","year":"2024","result":"HD","language":["ENGLISH"],"country":["US"],"original_language":"en","genres":["Mystery","Science Fiction","Thriller"],"imdb_id":"tt15552142"},{"id":"214032","type":"tv","title":"Citadel: Diana","poster":"https://image.tmdb.org/t/p/w342/pXfgTz0uYUfYVEiJ0gRra6tKoAp.jpg","year":"2024","result":"HD","language":["Hindi"],"country":["IT","US"],"original_language":"it","genres":["Action & Adventure","Drama"],"imdb_id":"tt22754212","latest_uploaded_season":1,"total_uploaded_episodes":6},{"id":"77169","type":"tv","title":"Cobra Kai","poster":"https://image.tmdb.org/t/p/original/dC88tPr0RwuKe0O16hh8AevlKcO.jpg","year":"2024","result":"HD","language":["Hindi"],"country":["US"],"original_language":"en","genres":["Action & Adventure","Drama","Comedy"],"imdb_id":"tt7221388","latest_uploaded_season":6,"total_uploaded_episodes":65},{"id":"1243186","type":"movie","title":"Demise","poster":"https://image.tmdb.org/t/p/w342/3RFkqeMh0lsoBdlsHNmJ2I0uec8.jpg","year":"2024","result":"HD","language":["Hindi"],"country":["US"],"original_language":"en","genres":["Thriller"],"imdb_id":"tt15558362"},{"id":"693134","type":"movie","title":"Dune: Part Two","poster":"https://image.tmdb.org/t/p/w342/1pdfLvkbY9ohJlCjQH2CZjjYVvJ.jpg","year":"2024","result":"HD","language":["Hindi"],"country":["US"],"original_language":"en","genres":["Science Fiction","Adventure"],"imdb_id":"tt15239678"},{"id":"261649","type":"tv","title":"Into the Fire: The Lost Daughter","poster":"https://image.tmdb.org/t/p/w342/mMs6mEHPPtrTQ4mjc6hBHl6bApJ.jpg","year":"2024","result":"HD","language":["Hindi"],"country":["US"],"original_language":"en","genres":["Mystery","Crime","Documentary"],"imdb_id":"tt33163756","latest_uploaded_season":1,"total_uploaded_episodes":2},{"id":"1079091","type":"movie","title":"It Ends with Us","poster":"https://image.tmdb.org/t/p/w342/AjV6jFJ2YFIluYo4GQf13AA1tqu.jpg","year":"2024","result":"HD","language":["Hindi"],"country":["US"],"original_language":"en","genres":["Drama","Romance"],"imdb_id":"tt10655524"},{"id":"1081680","type":"movie","title":"Jackdaw","poster":"https://image.tmdb.org/t/p/w342/m3OwT2vQ468E6b05pNCcCKY0Q7u.jpg","year":"2024","result":"HD","language":["Hindi"],"country":["GB"],"original_language":"en","genres":["Action","Drama","Crime","Thriller"],"imdb_id":"tt26594543"},{"id":"102621","type":"tv","title":"KAOS","poster":"https://image.tmdb.org/t/p/w342/dDBTUSl3tRsOeKC1jZugBSFHy9I.jpg","year":"2024","result":"HD","language":["Hindi"],"country":["GB"],"original_language":"en","genres":["Comedy","Sci-Fi & Fantasy","Drama"],"imdb_id":"tt8550732","latest_uploaded_season":1,"total_uploaded_episodes":8},{"id":"1108566","type":"movie","title":"Killer Heat","poster":"https://image.tmdb.org/t/p/w342/WiAEiqelck0NGWplhL5JQR12eg.jpg","year":"2024","result":"HD","language":["Hindi"],"country":["US","GR","GB"],"original_language":"en","genres":["Crime","Drama","Romance"],"imdb_id":"tt27419292"},{"id":"225634","type":"tv","title":"Monsters: The Lyle and Erik Menendez Story","poster":"https://image.tmdb.org/t/p/w342/x9YC2rpXHUFMqI1hCekKDm9UE4w.jpg","year":"2024","result":"HD","language":["Hindi"],"country":["US"],"original_language":"en","genres":["Drama","Crime"],"imdb_id":"","latest_uploaded_season":1,"total_uploaded_episodes":9},{"id":"263089","type":"tv","title":"Mr. McMahon","poster":"https://image.tmdb.org/t/p/w342/mtLYsALvuHlnw7PHg0frCCwSRVy.jpg","year":"2024","result":"HD","language":["Hindi"],"country":["US"],"original_language":"en","genres":["Documentary"],"imdb_id":"tt33301469","latest_uploaded_season":1,"total_uploaded_episodes":6},{"id":"858414","type":"movie","title":"Rez Ball","poster":"https://image.tmdb.org/t/p/w342/5MKpjuiCTk8nYnsUf5QegiPKEDh.jpg","year":"2024","result":"HD","language":["Hindi"],"country":["US"],"original_language":"en","genres":["Drama"],"imdb_id":"tt15181360"},{"id":"261579","type":"tv","title":"Secret Level","poster":"https://image.tmdb.org/t/p/w342/856MRq23grNxpeVl1PdFgmmLiT0.jpg","year":"2024","result":"HD","language":["Hindi"],"country":["US"],"original_language":"en","genres":["Animation","Sci-Fi & Fantasy","Action & Adventure"],"imdb_id":"tt33204697","latest_uploaded_season":1,"total_uploaded_episodes":15},{"id":"1047020","type":"movie","title":"The Last Stop in Yuma County","poster":"https://image.tmdb.org/t/p/w342/u6ae2MMh8PpSamO3cIttLM5B18v.jpg","year":"2024","result":"HD","language":["Hindi"],"country":["US"],"original_language":"en","genres":["Thriller","Crime","Drama"],"imdb_id":"tt11674730"},{"id":"129398","type":"tv","title":"The Sympathizer","poster":"https://image.tmdb.org/t/p/w342/zAxObqiOEooIuQtH338b8zOaFEu.jpg","year":"2024","result":"HD","language":["Hindi"],"country":["US"],"original_language":"en","genres":["Drama","War & Politics"],"imdb_id":"tt14404618","latest_uploaded_season":1,"total_uploaded_episodes":7},{"id":"117830","type":"tv","title":"Tomb Raider: The Legend of Lara Croft","poster":"https://image.tmdb.org/t/p/w342/hBqYte464epKcSaOufl3SXPqKfj.jpg","year":"2024","result":"HD","language":["Hindi"],"country":["US"],"original_language":"en","genres":["Action & Adventure","Animation"],"imdb_id":"tt13930822","latest_uploaded_season":1,"total_uploaded_episodes":8},{"id":"97333","type":"tv","title":"Twilight of the Gods","poster":"https://image.tmdb.org/t/p/w342/n0rqWDT1oYGcNIuLydZD4J4JpwK.jpg","year":"2024","result":"HD","language":["Hindi"],"country":["US"],"original_language":"en","genres":["Animation","Sci-Fi & Fantasy","Action & Adventure"],"imdb_id":"tt10625492","latest_uploaded_season":1,"total_uploaded_episodes":8},{"id":"748167","type":"movie","title":"Uglies","poster":"https://image.tmdb.org/t/p/w342/jaUu9zHtbcFwrB5Y1DNYE09HMex.jpg","year":"2024","result":"HD","language":["Hindi"],"country":["US"],"original_language":"en","genres":["Science Fiction","Adventure","Action"],"imdb_id":"tt13186604"},{"id":"1101448","type":"movie","title":"Unstoppable","poster":"https://image.tmdb.org/t/p/w342/xanYKxuFkDPrMngvm1NSHVGOEjS.jpg","year":"2024","result":"HD","language":["Hindi"],"country":["US"],"original_language":"en","genres":["Drama","History"],"imdb_id":"tt3864060"},{"id":"91363","type":"tv","title":"What If...?","poster":"https://image.tmdb.org/t/p/w342/lztz5XBMG1x6Y5ubz7CxfPFsAcW.jpg","year":"2024","result":"HD","language":["Fan Dub"],"country":["US"],"original_language":"en","genres":["Animation","Action & Adventure","Sci-Fi & Fantasy"],"imdb_id":"tt10168312","latest_uploaded_season":3,"total_uploaded_episodes":26},{"id":"261646","type":"tv","title":"What's Next? The Future with Bill Gates","poster":"https://image.tmdb.org/t/p/w342/s2uNbATWA2qZTVgsrJeqWmQPb4V.jpg","year":"2024","result":"HD","language":["Hindi"],"country":["US"],"original_language":"en","genres":["Documentary"],"imdb_id":"tt33184626","latest_uploaded_season":1,"total_uploaded_episodes":1},{"id":"879412","type":"movie","title":"You Can't Run Forever","poster":"https://image.tmdb.org/t/p/w342/mkQEa3W4UbkAaL8kwv7pj7AiM0u.jpg","year":"2024","result":"HD","language":["Hindi"],"country":["US"],"original_language":"en","genres":["Thriller"],"imdb_id":"tt15451150"},{"id":"762441","type":"movie","title":"A Quiet Place: Day One","poster":"https://image.tmdb.org/t/p/w342/hU42CRk14JuPEdqZG3AWmagiPAP.jpg","year":"2024","result":"HD","language":["Hindi"],"country":["US"],"original_language":"en","genres":["Horror","Science Fiction","Thriller"],"imdb_id":"tt13433802"},{"id":"1062215","type":"movie","title":"Afraid","poster":"https://image.tmdb.org/t/p/w342/gUREuXCnJLVHsvKXDH9fgIcfM6e.jpg","year":"2024","result":"HD","language":["Hindi"],"country":["US"],"original_language":"en","genres":["Horror","Science Fiction","Thriller"],"imdb_id":"tt24577462"},{"id":"1198899","type":"movie","title":"Agent Recon","poster":"https://image.tmdb.org/t/p/w342/fxxPAowtYuGj4WHrNqbPTfLHRLF.jpg","year":"2024","result":"HD","language":["Hindi"],"country":["US"],"original_language":"en","genres":["Action","Science Fiction"],"imdb_id":"tt26743864"},{"id":"1249216","type":"movie","title":"Apollo 13: Survival","poster":"https://image.tmdb.org/t/p/w342/9tuK9kKSB2L6rMVlNOjwiWQaWxh.jpg","year":"2024","result":"HD","language":["Hindi"],"country":["GB","US"],"original_language":"en","genres":["Documentary","History"],"imdb_id":"tt31852716"},{"id":"614933","type":"movie","title":"Atlas","poster":"https://image.tmdb.org/t/p/w342/bcM2Tl5HlsvPBnL8DKP9Ie6vU4r.jpg","year":"2024","result":"HD","language":["Hindi"],"country":["US"],"original_language":"en","genres":["Science Fiction","Action"],"imdb_id":"tt14856980"}]}