{"page":17,"total_pages":26,"total_items":1255,"items":[{"id":"1341538","type":"movie","title":"Pad Gaye Pange","poster":"https://image.tmdb.org/t/p/w342/sr4kVpnt7mBwyqbl1wFsPZrpbze.jpg","year":"2024","result":"HD","language":["Hindi"],"country":[],"original_language":"en","genres":["Comedy"],"imdb_id":"tt33089434"},{"id":"1321700","type":"movie","title":"Daaru Na Peenda Hove","poster":"https://image.tmdb.org/t/p/w342/jGzjAvwUkvTMEN8Yn0E1opHd4vM.jpg","year":"2024","result":"HD","language":["Hindi"],"country":["CA","IN"],"original_language":"pa","genres":["Comedy","Drama","Family"],"imdb_id":"tt27736430"},{"id":"1251687","type":"movie","title":"Don't Tell Mom the Babysitter's Dead","poster":"https://image.tmdb.org/t/p/w342/aMLrX8qaagRUESyPSJCARNlT8Xd.jpg","year":"2024","result":"HD","language":["Hindi"],"country":["US"],"original_language":"en","genres":["Comedy"],"imdb_id":"tt12444168"},{"id":"1249812","type":"movie","title":"Checkmate","poster":"https://image.tmdb.org/t/p/w342/2hUTyzhfB0CUo43p7udAqL7Rkh8.jpg","year":"2024","result":"HD","language":["Hindi"],"country":["IN","US"],"original_language":"ml","genres":["Crime","Thriller"],"imdb_id":"tt28213147"},{"id":"1213742","type":"movie","title":"Tyler Perry's Divorce in the Black","poster":"https://image.tmdb.org/t/p/w342/d5X03SA51Ezd02iF9BCjWXC9X9F.jpg","year":"2024","result":"HD","language":["Hindi"],"country":["US"],"original_language":"en","genres":["Drama","Thriller"],"imdb_id":"tt28248897"},{"id":"1170784","type":"movie","title":"Qaid: No Wayyy Out","poster":"https://image.tmdb.org/t/p/w342/jcCeHn4AlEvQ1RtiUFIPlr4sKkm.jpg","year":"2024","result":"HD","language":["Hindi"],"country":["GB"],"original_language":"hi","genres":["Thriller"],"imdb_id":"tt15484752"},{"id":"1167271","type":"movie","title":"Weekend in Taipei","poster":"https://image.tmdb.org/t/p/w342/qSc0AUvs8mRy00R9y8QYEHWIAQ9.jpg","year":"2024","result":"HD","language":["Hindi"],"country":["FR","US"],"original_language":"en","genres":["Action","Adventure","Thriller"],"imdb_id":"tt28142896"},{"id":"1156593","type":"movie","title":"Your Fault","poster":"https://image.tmdb.org/t/p/w342/1sQA7lfcF9yUyoLYC0e6Zo3jmxE.jpg","year":"2024","result":"HD","language":["Hindi"],"country":["ES","US"],"original_language":"es","genres":["Drama","Romance"],"imdb_id":"tt28510079"},{"id":"1144911","type":"movie","title":"Skincare","poster":"https://image.tmdb.org/t/p/w342/ikPzv7el0RcBhtXj3ElCoH54icd.jpg","year":"2024","result":"HD","language":["Hindi"],"country":["FR","IT","US"],"original_language":"en","genres":["Thriller","Drama","Comedy","Mystery"],"imdb_id":"tt28223926"},{"id":"1122418","type":"movie","title":"This Time Next Year","poster":"https://image.tmdb.org/t/p/w342/ckLPzRl9ZDHzNt4tDjkTGUyCYg7.jpg","year":"2024","result":"HD","language":["Hindi"],"country":["GB","DE","IT"],"original_language":"en","genres":["Romance","Comedy"],"imdb_id":"tt16301164"},{"id":"1105407","type":"movie","title":"Damaged","poster":"https://image.tmdb.org/t/p/w342/tMO0YLXgJZBnIAjoTSz26zE33YN.jpg","year":"2024","result":"HD","language":["Hindi"],"country":["GB","US"],"original_language":"en","genres":["Action","Drama","Thriller","Crime"],"imdb_id":"tt27304026"},{"id":"1100099","type":"movie","title":"We Live in Time","poster":"https://image.tmdb.org/t/p/w342/oeDNBgnlGF6rnyX1P1K8Vl2f3lW.jpg","year":"2024","result":"HD","language":["Hindi"],"country":["GB"],"original_language":"en","genres":["Romance","Drama"],"imdb_id":"tt27131358"},{"id":"1084514","type":"movie","title":"Rob Peace","poster":"https://image.tmdb.org/t/p/w342/1BwKbTidW5QaEKb1pVY3p4u9cVg.jpg","year":"2024","result":"HD","language":["Hindi"],"country":["US"],"original_language":"en","genres":["Drama","History"],"imdb_id":"tt10740926"},{"id":"1064486","type":"movie","title":"Memoir of a Snail","poster":"https://image.tmdb.org/t/p/w342/woaN8CbloH0akyX0E72ayxlJAB4.jpg","year":"2024","result":"HD","language":["Hindi"],"country":["AU","GB","FR"],"original_language":"en","genres":["Animation","Drama","Comedy"],"imdb_id":"tt23770030"},{"id":"1058537","type":"movie","title":"Angels Fallen: Warriors of Peace","poster":"https://image.tmdb.org/t/p/w342/dKdKUSGQ9E0G73WPr9xIHrofpkT.jpg","year":"2024","result":"HD","language":["Hindi"],"country":["US"],"original_language":"en","genres":["Action","Adventure","Fantasy","Horror"],"imdb_id":"tt20258220"},{"id":"1051891","type":"movie","title":"Thelma","poster":"https://image.tmdb.org/t/p/w342/rUcuageYgv9SsJoWuc0seRWG6JC.jpg","year":"2024","result":"HD","language":["Hindi"],"country":["US","CH"],"original_language":"en","genres":["Action","Comedy","Adventure"],"imdb_id":"tt23778968"},{"id":"1035048","type":"movie","title":"Elevation","poster":"https://image.tmdb.org/t/p/w342/tnfc0NJ3BzhJrGJhkkEd6MHBdq5.jpg","year":"2024","result":"HD","language":["Hindi"],"country":["US"],"original_language":"en","genres":["Action","Science Fiction","Thriller"],"imdb_id":"tt23558280"},{"id":"1023922","type":"movie","title":"MaXXXine","poster":"https://image.tmdb.org/t/p/w342/ArvoFK6nlouZRxYmtIOUzKIrg90.jpg","year":"2024","result":"HD","language":["Hindi"],"country":["US"],"original_language":"en","genres":["Horror","Thriller"],"imdb_id":"tt22048412"},{"id":"1016848","type":"movie","title":"The Front Room","poster":"https://image.tmdb.org/t/p/w342/zjkU6mZH9dMbQK2B622MlsRT8uw.jpg","year":"2024","result":"HD","language":["Hindi"],"country":["GB","US"],"original_language":"en","genres":["Horror"],"imdb_id":"tt21905744"},{"id":"1010600","type":"movie","title":"The Strangers: Chapter 1","poster":"https://image.tmdb.org/t/p/w342/oYsCNpW4k7Pd7ac3uQfBhr2ihtW.jpg","year":"2024","result":"HD","language":["Hindi"],"country":["GB","US"],"original_language":"en","genres":["Horror","Thriller"],"imdb_id":"tt22050754"},{"id":"1005076","type":"movie","title":"Duchess","poster":"https://image.tmdb.org/t/p/w342/5TR7JlJbKucNSq84rkbnjLd1JB5.jpg","year":"2024","result":"HD","language":["Hindi"],"country":["GB"],"original_language":"en","genres":["Action","Crime","Thriller"],"imdb_id":"tt18300732"},{"id":"999582","type":"movie","title":"Babes","poster":"https://image.tmdb.org/t/p/w342/1Cg4G1iQpisGXmWqns5uo4I6fPk.jpg","year":"2024","result":"HD","language":["Hindi"],"country":["US"],"original_language":"en","genres":["Comedy"],"imdb_id":"tt21276958"},{"id":"997162","type":"movie","title":"Marmalade","poster":"https://image.tmdb.org/t/p/w342/yt66TPbmJn8E4LepeLhBO5V1AED.jpg","year":"2024","result":"HD","language":["Hindi"],"country":["GB","US"],"original_language":"en","genres":["Crime","Thriller","Romance","Drama","Comedy"],"imdb_id":"tt21275544"},{"id":"933088","type":"movie","title":"The Abandon","poster":"https://image.tmdb.org/t/p/w342/vjno0bsWumTvpjQt4D910nUTG3a.jpg","year":"2024","result":"HD","language":["Hindi"],"country":["US"],"original_language":"en","genres":["Science Fiction","Horror","Thriller"],"imdb_id":"tt10273738"},{"id":"931940","type":"movie","title":"The Fix","poster":"https://image.tmdb.org/t/p/w342/vY7bY2xZymoIOti4WM5K29OMzCS.jpg","year":"2024","result":"HD","language":["Hindi"],"country":["ZA"],"original_language":"en","genres":["Science Fiction","Action","Horror"],"imdb_id":"tt10284944"},{"id":"928480","type":"movie","title":"Monster Summer","poster":"https://image.tmdb.org/t/p/w342/zD2UZkh0DwbDEMuOKIR7jgwgulZ.jpg","year":"2024","result":"HD","language":["Hindi"],"country":["US"],"original_language":"en","genres":["Adventure","Fantasy","Mystery","Horror"],"imdb_id":"tt3954936"},{"id":"832964","type":"movie","title":"Lee","poster":"https://image.tmdb.org/t/p/w342/zdNWyuim8gpJHe1LtKaDrs43dWz.jpg","year":"2024","result":"HD","language":["Hindi"],"country":["AU","US","GB","LU"],"original_language":"en","genres":["History","Drama","War"],"imdb_id":"tt5112584"},{"id":"786892","type":"movie","title":"Furiosa: A Mad Max Saga","poster":"https://image.tmdb.org/t/p/w342/iADOJ8Zymht2JPMoy3R7xceZprc.jpg","year":"2024","result":"HD","language":["Hindi"],"country":["AU","US"],"original_language":"en","genres":["Action","Science Fiction","Adventure"],"imdb_id":"tt12037194"},{"id":"762509","type":"movie","title":"Mufasa: The Lion King","poster":"https://image.tmdb.org/t/p/w342/lurEK87kukWNaHd0zYnsi3yzJrs.jpg","year":"2024","result":"HD","language":["Hindi"],"country":["US"],"original_language":"en","genres":["Adventure","Family","Animation"],"imdb_id":"tt13186482"},{"id":"720321","type":"movie","title":"Breathe","poster":"https://image.tmdb.org/t/p/w342/wTW2t8ocWDlHns8I7vQxuqkyK58.jpg","year":"2024","result":"HD","language":["Hindi"],"country":["US"],"original_language":"en","genres":["Action","Science Fiction","Mystery","Thriller"],"imdb_id":"tt11540468"},{"id":"719221","type":"movie","title":"Tarot","poster":"https://image.tmdb.org/t/p/w342/gAEUXC37vl1SnM7PXsHTF23I2vq.jpg","year":"2024","result":"HD","language":["Hindi"],"country":["US"],"original_language":"en","genres":["Horror"],"imdb_id":"tt14088510"},{"id":"598387","type":"movie","title":"The Tiger's Apprentice","poster":"https://image.tmdb.org/t/p/w342/64ZktFMmTzsm47wdsaMOID0DzcY.jpg","year":"2024","result":"HD","language":["Hindi"],"country":["US"],"original_language":"en","genres":["Animation","Family","Fantasy"],"imdb_id":"tt5834410"},{"id":"402431","type":"movie","title":"Wicked","poster":"https://image.tmdb.org/t/p/w342/xDGbZ0JJ3mYaGKy4Nzd9Kph6M9L.jpg","year":"2024","result":"HD","language":["Hindi"],"country":["US"],"original_language":"en","genres":["Drama","Romance","Fantasy"],"imdb_id":"tt1262426"},{"id":"395817","type":"movie","title":"The Thicket","poster":"https://image.tmdb.org/t/p/w342/jsvk8e0HgITFX0gbDEjj6hOytsP.jpg","year":"2024","result":"HD","language":["Hindi"],"country":["CA","US"],"original_language":"en","genres":["Western","Crime","Thriller"],"imdb_id":"tt4058618"},{"id":"244324","type":"tv","title":"Dead and Buried","poster":"https://image.tmdb.org/t/p/w342/mNOtgyHuat5xZWLKl15JjBz8yqQ.jpg","year":"2024","result":"HD","language":["Hindi"],"country":["IE","GB"],"original_language":"en","genres":["Drama"],"imdb_id":"tt31499843","latest_uploaded_season":1,"total_uploaded_episodes":4},{"id":"217667","type":"tv","title":"Eric","poster":"https://image.tmdb.org/t/p/w342/9OV6McrRh1BAnrak3yVP9xYuUId.jpg","year":"2024","result":"HD","language":["Hindi"],"country":["GB"],"original_language":"en","genres":["Drama","Mystery"],"imdb_id":"tt16283824","latest_uploaded_season":1,"total_uploaded_episodes":6},{"id":"194764","type":"tv","title":"The Penguin","poster":"https://image.tmdb.org/t/p/w342/vOWcqC4oDQws1doDWLO7d3dh5qc.jpg","year":"2024","result":"HD","language":["Hindi"],"country":["US"],"original_language":"en","genres":["Drama","Crime"],"imdb_id":"tt15435876","latest_uploaded_season":1,"total_uploaded_episodes":8},{"id":"108545","type":"tv","title":"3 Body Problem","poster":"https://image.tmdb.org/t/p/w342/ykZ7hlShkdRQaL2aiieXdEMmrLb.jpg","year":"2024","result":"HD","language":["Hindi"],"country":["US"],"original_language":"en","genres":["Sci-Fi & Fantasy","Mystery","Drama"],"imdb_id":"tt13016388","latest_uploaded_season":1,"total_uploaded_episodes":8},{"id":"126280","type":"tv","title":"Sex/Life","poster":"https://image.tmdb.org/t/p/w342/kfcJl5e8CRWDU7e4vX6uNABPRbS.jpg","year":"2023","result":"HD","language":["Hindi"],"country":["US"],"original_language":"en","genres":["Drama"],"imdb_id":"tt10839422","latest_uploaded_season":2,"total_uploaded_episodes":14},{"id":"940551","type":"movie","title":"Migration","poster":"https://image.tmdb.org/t/p/w342/ldfCF9RhR40mppkzmftxapaHeTo.jpg","year":"2023","result":"HD","language":["Hindi"],"country":["US"],"original_language":"en","genres":["Family","Comedy","Adventure","Animation"],"imdb_id":"tt6495056"},{"id":"155421","type":"tv","title":"All the Light We Cannot See","poster":"https://image.tmdb.org/t/p/w342/5vctOvdEXakZWTJrP8bgPEoCbqS.jpg","year":"2023","result":"HD","language":["Hindi"],"country":["US"],"original_language":"en","genres":["Drama"],"imdb_id":"tt15320362","latest_uploaded_season":1,"total_uploaded_episodes":4},{"id":"233629","type":"tv","title":"Bodies","poster":"https://image.tmdb.org/t/p/w342/qWX71nLvoLsBNPEjddZMC75lq6I.jpg","year":"2023","result":"HD","language":["Hindi"],"country":["GB"],"original_language":"en","genres":["Crime","Mystery","Sci-Fi & Fantasy","Drama"],"imdb_id":"tt18347622","latest_uploaded_season":1,"total_uploaded_episodes":8},{"id":"891699","type":"movie","title":"Silent Night","poster":"https://image.tmdb.org/t/p/w342/tlcuhdNMKNGEVpGqBZrAaOOf1A6.jpg","year":"2023","result":"HD","language":["Hindi"],"country":["US"],"original_language":"en","genres":["Action","Thriller","Crime","Drama"],"imdb_id":"tt15799866"},{"id":"910571","type":"movie","title":"Fair Play","poster":"https://image.tmdb.org/t/p/w342/tGgojtD6vJKYeCfktAhhA1pmH0n.jpg","year":"2023","result":"HD","language":["Hindi"],"country":["US"],"original_language":"en","genres":["Drama","Thriller","Romance"],"imdb_id":"tt16304446"},{"id":"1027356","type":"movie","title":"Girls on Film","poster":"https://image.tmdb.org/t/p/w342/dsJJtg51dJC3WtRlb1ht5m19xhF.jpg","year":"2023","result":"HD","language":["Hindi"],"country":["US"],"original_language":"en","genres":["Drama","Romance","Thriller"],"imdb_id":"tt28225049"},{"id":"1073079","type":"movie","title":"Kill Her Goats","poster":"https://image.tmdb.org/t/p/w342/mFzyMEQvKwf2rXxB1GsSocJfL11.jpg","year":"2023","result":"HD","language":["Hindi"],"country":["US"],"original_language":"en","genres":["Horror"],"imdb_id":"tt13174108"},{"id":"979806","type":"movie","title":"Shades of Desire","poster":"https://image.tmdb.org/t/p/w342/qLW0ufxvu4Xl4k1gZXNxiRXnsos.jpg","year":"2023","result":"HD","language":["Hindi"],"country":["GB"],"original_language":"en","genres":["Horror","Thriller"],"imdb_id":"tt27444133"},{"id":"94244","type":"tv","title":"Obliterated","poster":"https://image.tmdb.org/t/p/w342/tWPAKr5RaZCQ1jaO2VRmvcIOrKh.jpg","year":"2023","result":"HD","language":["Hindi"],"country":["US"],"original_language":"en","genres":["Comedy","Action & Adventure","Drama"],"imdb_id":"tt11097240","latest_uploaded_season":1,"total_uploaded_episodes":8},{"id":"223313","type":"tv","title":"Obsession","poster":"https://image.tmdb.org/t/p/w342/8nQmxCYvidrCMxYCPdhuls94cl9.jpg","year":"2023","result":"HD","language":["Hindi"],"country":["GB"],"original_language":"en","genres":["Drama","Mystery"],"imdb_id":"tt18831118","latest_uploaded_season":1,"total_uploaded_episodes":4},{"id":"81356","type":"tv","title":"Sex Education","poster":"https://image.tmdb.org/t/p/w342/bc3bmTdnoKcRuO9xdQKgAbB7Y9Z.jpg","year":"2023","result":"HD","language":["Hindi"],"country":["GB"],"original_language":"en","genres":["Comedy","Drama"],"imdb_id":"tt7767422","latest_uploaded_season":4,"total_uploaded_episodes":32}]}