{"page":2,"total_pages":26,"total_items":1255,"items":[{"id":"1380291","type":"movie","title":"Tom Clancy's Jack Ryan: Ghost War","poster":"https://image.tmdb.org/t/p/w342/8ehYxUh5MWE41AeE9gkHE8DKzvB.jpg","year":"2026","result":"HD","language":["Hindi"],"country":["US"],"original_language":"en","genres":["Action","Thriller","Adventure"],"imdb_id":"tt34378301"},{"id":"1684244","type":"movie","title":"Untold UK: Liverpool's Miracle of Istanbul","poster":"https://image.tmdb.org/t/p/w342/sfYVdE3RyRKA0VAz0I2fdTyscCG.jpg","year":"2026","result":"HD","language":["Hindi"],"country":["GB"],"original_language":"en","genres":["Documentary","History"],"imdb_id":"tt41801280"},{"id":"287230","type":"tv","title":"The Cage","poster":"https://image.tmdb.org/t/p/w342/rO6IPnLOuZdBAYtY9rEoxALH27x.jpg","year":"2026","result":"HD","language":["Hindi"],"country":["GB"],"original_language":"en","genres":["Drama","Crime"],"imdb_id":"tt33995822","latest_uploaded_season":1,"total_uploaded_episodes":5},{"id":"1228710","type":"movie","title":"Star Wars: The Mandalorian and Grogu","poster":"https://image.tmdb.org/t/p/w342/5Vi8dSauVwH1HOsiZceDMbRr1Ca.jpg","year":"2026","result":"HD","language":["CAM RESULT"],"country":["US"],"original_language":"en","genres":["Action","Adventure","Science Fiction"],"imdb_id":"tt30825738"},{"id":"82452","type":"tv","title":"Avatar the Last Airbender","poster":"https://image.tmdb.org/t/p/w342/lzZpWEaqzP0qVA5nkCc5ASbNcSy.jpg","year":"2026","result":"HD","language":["Hindi"],"country":["US"],"original_language":"en","genres":["Action & Adventure","Drama","Family","Sci-Fi & Fantasy"],"imdb_id":"tt9018736","latest_uploaded_season":2,"total_uploaded_episodes":15},{"id":"1422120","type":"movie","title":"Mermaid","poster":"https://image.tmdb.org/t/p/w342/qHpurzepx8ERBtAiGq7bSXpMnDD.jpg","year":"2026","result":"HD","language":["Hindi"],"country":["US"],"original_language":"en","genres":["Drama","Comedy","Horror"],"imdb_id":"tt34435532"},{"id":"218342","type":"tv","title":"A Good Girl's Guide to Murder","poster":"https://image.tmdb.org/t/p/w342/mzkstyDSsTRswCMRvoBD5ULPnIt.jpg","year":"2026","result":"HD","language":["Hindi"],"country":["GB"],"original_language":"en","genres":["Crime","Mystery","Drama"],"imdb_id":"tt28118211","latest_uploaded_season":2,"total_uploaded_episodes":12},{"id":"220102","type":"tv","title":"Spider-Noir","poster":"https://image.tmdb.org/t/p/w342/oD8WSVqz84ZRfelkr7JPeJwR9Iv.jpg","year":"2026","result":"HD","language":["Hindi"],"country":["US"],"original_language":"en","genres":["Action & Adventure","Crime","Mystery"],"imdb_id":"tt30460310","latest_uploaded_season":1,"total_uploaded_episodes":8},{"id":"243316","type":"tv","title":"The Four Seasons","poster":"https://image.tmdb.org/t/p/original/9Jz395MIUXyuglZQj8B98KGYUDs.jpg","year":"2026","result":"HD","language":["Hindi"],"country":["US"],"original_language":"en","genres":["Comedy"],"imdb_id":"tt30826447","latest_uploaded_season":2,"total_uploaded_episodes":16},{"id":"972232","type":"movie","title":"K-Pops!","poster":"https://image.tmdb.org/t/p/w342/72KQHN1xUO6gWHLRRPyJcCQXlve.jpg","year":"2026","result":"HD","language":["Hindi"],"country":["US"],"original_language":"en","genres":["Comedy","Drama","Music"],"imdb_id":"tt19896510"},{"id":"1641319","type":"movie","title":"Sniper: No Nation","poster":"https://image.tmdb.org/t/p/w342/tUmARo0TZEK1EaSuS6dU35FhDyU.jpg","year":"2026","result":"HD","language":["Hindi"],"country":["US","CA","ZA"],"original_language":"en","genres":["Action","Thriller"],"imdb_id":"tt39538786"},{"id":"1659087","type":"movie","title":"180","poster":"https://image.tmdb.org/t/p/w342/9ISjrhA38HpSSGtfiCk8lpziC3K.jpg","year":"2026","result":"HD","language":["Hindi"],"country":["ZA"],"original_language":"en","genres":["Thriller","Crime","Drama"],"imdb_id":"tt40891145"},{"id":"1658464","type":"movie","title":"WWE WrestleMania 42 Sunday","poster":"https://image.tmdb.org/t/p/w342/1wA1uEoVY9QL2JGhNSGecue8euP.jpg","year":"2026","result":"HD","language":["Hindi"],"country":["US"],"original_language":"en","genres":["Drama","Action"],"imdb_id":""},{"id":"1641965","type":"movie","title":"Untold: Jail Blazers","poster":"https://image.tmdb.org/t/p/w342/vmp45llJTRr6JLaIamt3RlfxgTH.jpg","year":"2026","result":"HD","language":["Hindi"],"country":["US"],"original_language":"en","genres":["Documentary"],"imdb_id":"tt40224401"},{"id":"1641961","type":"movie","title":"Untold: The Death & Life of Lamar Odom","poster":"https://image.tmdb.org/t/p/w342/9Go8VKSzJIzn65b9c9l02ymHRlv.jpg","year":"2026","result":"HD","language":["Hindi"],"country":["US"],"original_language":"en","genres":["Documentary"],"imdb_id":"tt40224397"},{"id":"1634790","type":"movie","title":"Elimination Chamber","poster":"https://image.tmdb.org/t/p/w342/tlcqashIw55ptqJBRZ9997ZlGcZ.jpg","year":"2026","result":"HD","language":["Hindi"],"country":["US"],"original_language":"en","genres":["Action"],"imdb_id":"tt38806791"},{"id":"1633264","type":"movie","title":"Louis Theroux: Inside the Manosphere","poster":"https://image.tmdb.org/t/p/w342/ouOvRvsgF37yEx3D6ZLWyuxZFjE.jpg","year":"2026","result":"HD","language":["Hindi"],"country":["GB"],"original_language":"en","genres":["Documentary"],"imdb_id":"tt39792948"},{"id":"1629369","type":"movie","title":"The Truth and Tragedy of Moriah Wilson","poster":"https://image.tmdb.org/t/p/w342/zoa2XatA43nKhF1kx8nVcVyH1M0.jpg","year":"2026","result":"HD","language":["Hindi"],"country":["US"],"original_language":"en","genres":["Documentary"],"imdb_id":"tt32572716"},{"id":"1628116","type":"movie","title":"BTS: THE RETURN","poster":"https://image.tmdb.org/t/p/w342/9CNUWleZWN9EGMZjvaSTcxmAAGg.jpg","year":"2026","result":"HD","language":["Hindi"],"country":["US","KR"],"original_language":"ko","genres":["Documentary","Music"],"imdb_id":"tt39578551"},{"id":"1620991","type":"movie","title":"The Investigation of Lucy Letby","poster":"https://image.tmdb.org/t/p/w342/qhNThwc72GqihJhXaP29Af5hJ2A.jpg","year":"2026","result":"HD","language":["Hindi"],"country":["GB"],"original_language":"en","genres":["Documentary","Crime"],"imdb_id":"tt39389929"},{"id":"1610866","type":"movie","title":"Is It Cake? Valentines","poster":"https://image.tmdb.org/t/p/w342/p0FvNm1dZnGTnUiYOGMTLl3eD9N.jpg","year":"2026","result":"HD","language":["Hindi"],"country":["US"],"original_language":"en","genres":["Comedy"],"imdb_id":"tt39309902"},{"id":"1610413","type":"movie","title":"One Last Adventure: The Making of Stranger Things 5","poster":"https://image.tmdb.org/t/p/w342/aZhrAx5CevLfjXcGIG3wBXxDiAL.jpg","year":"2026","result":"HD","language":["Hindi"],"country":["US"],"original_language":"en","genres":["Documentary"],"imdb_id":"tt39307872"},{"id":"1604829","type":"movie","title":"Godaan","poster":"https://image.tmdb.org/t/p/w342/A13J7VV2QM8n7ZVawcPjq2lWoiA.jpg","year":"2026","result":"HD","language":["Cam"],"country":["IN"],"original_language":"en","genres":["Drama","Family"],"imdb_id":"tt39281437"},{"id":"1596291","type":"movie","title":"Queen of Chess","poster":"https://image.tmdb.org/t/p/w342/ag5TZNcK3vHdCCpZIY8syjwzgfr.jpg","year":"2026","result":"HD","language":["Hindi"],"country":["US"],"original_language":"en","genres":["Documentary"],"imdb_id":"tt39162904"},{"id":"1595481","type":"movie","title":"Kidnapped: Elizabeth Smart","poster":"https://image.tmdb.org/t/p/w342/hMVhZxgbFLXZcDUIZ10NGb6s8w4.jpg","year":"2026","result":"HD","language":["Hindi"],"country":["US"],"original_language":"en","genres":["Documentary","Crime"],"imdb_id":"tt39140662"},{"id":"1584215","type":"movie","title":"The Internship","poster":"https://image.tmdb.org/t/p/w342/fYqSOkix4rbDiZW0ACNnvZCpT6X.jpg","year":"2026","result":"HD","language":["Hindi"],"country":["US"],"original_language":"en","genres":["Action"],"imdb_id":"tt38238651"},{"id":"1573913","type":"movie","title":"Hejjaru","poster":"https://i.ibb.co/Y7rPxK4x/Gemini-Generated-Image-57k7di57k7di57k7-1.png","year":"2026","result":"HD","language":["Hindi"],"country":[],"original_language":"en","genres":[],"imdb_id":"tt27996583"},{"id":"1569202","type":"movie","title":"Dirty Entertainers: The Business of Indian Erotica","poster":"https://i.ibb.co/67XS8GKv/Screenshot-2026-02-03-125234.png","year":"2026","result":"HD","language":["Hindi"],"country":[],"original_language":"en","genres":[],"imdb_id":"tt38638837"},{"id":"1539798","type":"movie","title":"Yeh Hai Mera Watan","poster":"https://i.ibb.co/4wsHh1Tb/Gemini-Generated-Image-qwq79dqwq79dqwq7-2.png","year":"2026","result":"HD","language":["Hindi"],"country":[],"original_language":"en","genres":[],"imdb_id":"tt37895069"},{"id":"1527981","type":"movie","title":"Dr. Hedgewar","poster":"https://i.ibb.co/DfLjndT9/Gemini-Generated-Image-uwkl63uwkl63uwkl-1.png","year":"2026","result":"HD","language":["Hindi"],"country":[],"original_language":"en","genres":[],"imdb_id":"tt35304503"},{"id":"1492341","type":"movie","title":"Noah Kahan: Out of Body","poster":"https://image.tmdb.org/t/p/w342/8VtZAonOgK8hae7FwOZCSg7XmCu.jpg","year":"2026","result":"HD","language":["Hindi"],"country":["US"],"original_language":"en","genres":["Documentary","Music"],"imdb_id":"tt37172278"},{"id":"1482168","type":"movie","title":"The Rise of the Red Hot Chili Peppers: Our Brother, Hillel","poster":"https://image.tmdb.org/t/p/w342/y9hHoO3eB7l3ZjYUZoJUJpZW22V.jpg","year":"2026","result":"HD","language":["Hindi"],"country":["US"],"original_language":"en","genres":["Documentary","Music"],"imdb_id":"tt36971084"},{"id":"1440049","type":"movie","title":"Preschool","poster":"https://image.tmdb.org/t/p/w342/o6JYj1sZDdLgKb6GW39AfGfrGhw.jpg","year":"2026","result":"HD","language":["Hindi"],"country":["US","GB"],"original_language":"en","genres":["Comedy"],"imdb_id":"tt34890320"},{"id":"1433842","type":"movie","title":"Relationship Goals","poster":"https://image.tmdb.org/t/p/w342/o7dVxvZIKnAB7k1eeeWp2k14Es7.jpg","year":"2026","result":"HD","language":["Hindi"],"country":["US"],"original_language":"en","genres":["Romance","Comedy"],"imdb_id":"tt35718349"},{"id":"1412598","type":"movie","title":"Killer Whale","poster":"https://image.tmdb.org/t/p/w342/xC6zdIoIHjhOIFmjNyGgtzhuhiF.jpg","year":"2026","result":"HD","language":["Hindi"],"country":["AU","US","GB"],"original_language":"en","genres":["Thriller","Horror","Action","Mystery","Science Fiction"],"imdb_id":"tt33479805"},{"id":"1373198","type":"movie","title":"Twisted","poster":"https://image.tmdb.org/t/p/w342/rF6txsM6cgF9vg6Ra5sNbkvUwrw.jpg","year":"2026","result":"HD","language":["Hindi"],"country":["US"],"original_language":"en","genres":["Horror","Thriller"],"imdb_id":"tt14201728"},{"id":"1367642","type":"movie","title":"Reminders of Him","poster":"https://image.tmdb.org/t/p/w342/7L6rceYgzQ0NeHD7PRDNrRoQ291.jpg","year":"2026","result":"HD","language":["Hindi"],"country":["US"],"original_language":"en","genres":["Romance","Drama"],"imdb_id":"tt33714084"},{"id":"1340110","type":"movie","title":"Redux Redux","poster":"https://image.tmdb.org/t/p/w342/rHstdDcn1Kh6xAwilZL8CyMtZV7.jpg","year":"2026","result":"HD","language":["Hindi"],"country":["US"],"original_language":"en","genres":["Science Fiction","Mystery","Thriller"],"imdb_id":"tt33295741"},{"id":"1327819","type":"movie","title":"Hoppers","poster":"https://image.tmdb.org/t/p/w342/xjtWQ2CL1mpmMNwuU5HeS4Iuwuu.jpg","year":"2026","result":"HD","language":["Hindi"],"country":["US"],"original_language":"en","genres":["Animation","Family","Science Fiction","Comedy","Adventure"],"imdb_id":"tt26443616"},{"id":"1327690","type":"movie","title":"One Mile: Chapter Two","poster":"https://image.tmdb.org/t/p/w342/3sjc9qXXmQoUWKQ3qIjS1nZaUJy.jpg","year":"2026","result":"HD","language":["Hindi"],"country":["US","CA"],"original_language":"en","genres":["Action","Crime"],"imdb_id":"tt24326462"},{"id":"1317672","type":"movie","title":"Love Me Love Me","poster":"https://image.tmdb.org/t/p/w342/jfwHKRHRE2X4NTexdzblaioHH51.jpg","year":"2026","result":"HD","language":["Hindi"],"country":["IT","US"],"original_language":"en","genres":["Romance","Drama"],"imdb_id":"tt36331860"},{"id":"1315303","type":"movie","title":"Primate","poster":"https://image.tmdb.org/t/p/w342/rKleYiEj4pFqxedTRWfujLooi84.jpg","year":"2026","result":"HD","language":["Hindi"],"country":["US"],"original_language":"en","genres":["Horror","Thriller"],"imdb_id":"tt33028778"},{"id":"1309083","type":"movie","title":"Dolly","poster":"https://image.tmdb.org/t/p/w342/sTPUg3XtdcKRAS5Vwsi1GYPFhNZ.jpg","year":"2026","result":"HD","language":["Hindi"],"country":["US"],"original_language":"en","genres":["Horror"],"imdb_id":"tt32639175"},{"id":"1306368","type":"movie","title":"The Rip","poster":"https://image.tmdb.org/t/p/w342/eZo31Dhl5BQ6GfbMNf3oU0tUvPZ.jpg","year":"2026","result":"HD","language":["Hindi"],"country":["US"],"original_language":"en","genres":["Action","Thriller","Crime"],"imdb_id":"tt32642706"},{"id":"1297842","type":"movie","title":"GOAT","poster":"https://image.tmdb.org/t/p/w342/wfuqMlaExcoYiUEvKfVpUTt1v4u.jpg","year":"2026","result":"HD","language":["Hindi"],"country":["US"],"original_language":"en","genres":["Animation","Comedy","Family"],"imdb_id":"tt27613895"},{"id":"1290417","type":"movie","title":"Thrash","poster":"https://image.tmdb.org/t/p/w342/adk8weka3O5648g3de4z3y4aE7G.jpg","year":"2026","result":"HD","language":["Hindi"],"country":["US","AU"],"original_language":"en","genres":["Horror","Thriller"],"imdb_id":"tt32362890"},{"id":"1272837","type":"movie","title":"28 Years Later: The Bone Temple","poster":"https://image.tmdb.org/t/p/w342/kK1BGkG3KAvWB0WMV1DfOx9yTMZ.jpg","year":"2026","result":"HD","language":["Hindi"],"country":["GB","US"],"original_language":"en","genres":["Horror","Thriller","Science Fiction"],"imdb_id":"tt32141377"},{"id":"1265609","type":"movie","title":"War Machine","poster":"https://image.tmdb.org/t/p/w342/tlPgDzwIE7VYYIIAGCTUOnN4wI1.jpg","year":"2026","result":"HD","language":["Hindi"],"country":["AU","US"],"original_language":"en","genres":["Action","Science Fiction","Thriller"],"imdb_id":"tt15940132"},{"id":"1243460","type":"movie","title":"Joe's College Road Trip","poster":"https://image.tmdb.org/t/p/w342/jWGOCUlzF4aCVLwHoiuqWWfhcrA.jpg","year":"2026","result":"HD","language":["Hindi"],"country":["US"],"original_language":"en","genres":["Comedy"],"imdb_id":"tt33603921"},{"id":"1236153","type":"movie","title":"Mercy","poster":"https://image.tmdb.org/t/p/w342/pyok1kZJCfyuFapYXzHcy7BLlQa.jpg","year":"2026","result":"HD","language":["Hindi"],"country":["US"],"original_language":"en","genres":["Science Fiction","Action","Thriller","Crime"],"imdb_id":"tt31050594"}]}