{"page":10,"total_pages":26,"total_items":1255,"items":[{"id":"244447","type":"tv","title":"The Hunting Wives","poster":"https://image.tmdb.org/t/p/w342/knR0tDKgFwsUMxe0MqZSWQYhwpL.jpg","year":"2025","result":"HD","language":["Hindi"],"country":["US"],"original_language":"en","genres":["Drama","Mystery"],"imdb_id":"tt31038430","latest_uploaded_season":1,"total_uploaded_episodes":8},{"id":"244416","type":"tv","title":"Malice","poster":"https://image.tmdb.org/t/p/w342/fKhHzRk1VIJY1nz1cRhAfAaYfnA.jpg","year":"2025","result":"HD","language":["Hindi"],"country":["GB"],"original_language":"en","genres":["Drama","Mystery"],"imdb_id":"tt31036715","latest_uploaded_season":1,"total_uploaded_episodes":6},{"id":"243881","type":"tv","title":"House of David","poster":"https://image.tmdb.org/t/p/w342/9pxRMetW8ZwnepLnIf37YWuNvgk.jpg","year":"2025","result":"HD","language":["Hindi"],"country":["US"],"original_language":"en","genres":["Drama"],"imdb_id":"tt30955673","latest_uploaded_season":1,"total_uploaded_episodes":8},{"id":"243217","type":"tv","title":"Happy Face","poster":"https://image.tmdb.org/t/p/w342/sGHZrYxOU2U2JLrmYO12qGl1VK4.jpg","year":"2025","result":"HD","language":["Hindi"],"country":["US"],"original_language":"en","genres":["Drama","Crime"],"imdb_id":"tt15977292","latest_uploaded_season":1,"total_uploaded_episodes":8},{"id":"240558","type":"tv","title":"King & Conqueror","poster":"https://image.tmdb.org/t/p/w342/8SW0c0tUFWjpWBz2UYr0U57a8kB.jpg","year":"2025","result":"HD","language":["Hindi"],"country":["GB"],"original_language":"en","genres":["Drama","Action & Adventure"],"imdb_id":"tt30221531","latest_uploaded_season":1,"total_uploaded_episodes":8},{"id":"239826","type":"tv","title":"Ballard","poster":"https://image.tmdb.org/t/p/w342/vHQGu6ducKC7JcDU6lqWyx7tWW5.jpg","year":"2025","result":"HD","language":["Hindi"],"country":["US"],"original_language":"en","genres":["Drama","Crime"],"imdb_id":"tt26676904","latest_uploaded_season":1,"total_uploaded_episodes":10},{"id":"231727","type":"tv","title":"Wolf King","poster":"https://image.tmdb.org/t/p/w342/jgs2AtxtOMRuVHYjSofbv3P9WnN.jpg","year":"2025","result":"HD","language":["Hindi"],"country":["GB"],"original_language":"en","genres":["Animation","Action & Adventure","Kids","Sci-Fi & Fantasy"],"imdb_id":"tt20917940","latest_uploaded_season":2,"total_uploaded_episodes":16},{"id":"227114","type":"tv","title":"Butterfly","poster":"https://image.tmdb.org/t/p/w342/8x1W0TR2VIe7ORaRI9zwDqeJn9q.jpg","year":"2025","result":"HD","language":["Hindi"],"country":["US"],"original_language":"en","genres":["Action & Adventure","Drama"],"imdb_id":"tt26672404","latest_uploaded_season":1,"total_uploaded_episodes":6},{"id":"225647","type":"tv","title":"Boots","poster":"https://image.tmdb.org/t/p/w342/eEwe68oPFFDU4ehZ3sXiETE44Rt.jpg","year":"2025","result":"HD","language":["Hindi"],"country":["US"],"original_language":"en","genres":["Comedy","Drama","War & Politics"],"imdb_id":"tt27987047","latest_uploaded_season":1,"total_uploaded_episodes":8},{"id":"225361","type":"tv","title":"BAT-FAM","poster":"https://image.tmdb.org/t/p/w342/8C34YTylNBt4DWM1a9oAAXqmTSr.jpg","year":"2025","result":"HD","language":["Hindi"],"country":["US"],"original_language":"en","genres":["Animation","Family"],"imdb_id":"tt27621333","latest_uploaded_season":1,"total_uploaded_episodes":10},{"id":"223300","type":"tv","title":"The Abandons","poster":"https://image.tmdb.org/t/p/w342/rQRzdfc0IlyiwM5HdzHdSYag9FG.jpg","year":"2025","result":"HD","language":["Hindi"],"country":["US"],"original_language":"en","genres":["Drama","Western"],"imdb_id":"tt16280546","latest_uploaded_season":1,"total_uploaded_episodes":7},{"id":"219760","type":"tv","title":"The Terminal List: Dark Wolf","poster":"https://image.tmdb.org/t/p/w342/9mYeRoWguq5etbwJRdF8BXFKiF.jpg","year":"2025","result":"HD","language":["Hindi"],"country":["US"],"original_language":"en","genres":["Action & Adventure","Drama"],"imdb_id":"tt26576161","latest_uploaded_season":1,"total_uploaded_episodes":7},{"id":"219080","type":"tv","title":"The Mighty Nein","poster":"https://image.tmdb.org/t/p/w342/qJTZanXDiJKABLNGRM9LmSg8YT7.jpg","year":"2025","result":"HD","language":["Hindi"],"country":["US"],"original_language":"en","genres":["Animation","Sci-Fi & Fantasy","Action & Adventure"],"imdb_id":"tt26453092","latest_uploaded_season":1,"total_uploaded_episodes":8},{"id":"200875","type":"tv","title":"IT: Welcome to Derry","poster":"https://image.tmdb.org/t/p/w342/nyy3BITeIjviv6PFIXtqvc8i6xi.jpg","year":"2025","result":"HD","language":["Hindi"],"country":["US"],"original_language":"en","genres":["Drama","Mystery"],"imdb_id":"tt19244304","latest_uploaded_season":1,"total_uploaded_episodes":8},{"id":"157239","type":"tv","title":"Alien: Earth","poster":"https://image.tmdb.org/t/p/w342/yueXS3q8BtoWekcHOATFHicLl3e.jpg","year":"2025","result":"HD","language":["Hindi"],"country":["US"],"original_language":"en","genres":["Sci-Fi & Fantasy","Drama"],"imdb_id":"tt13623632","latest_uploaded_season":1,"total_uploaded_episodes":8},{"id":"138505","type":"tv","title":"Marvel Zombies","poster":"https://image.tmdb.org/t/p/w342/mwKj9ERGFXsWot0nXgQ5yMQf9I7.jpg","year":"2025","result":"HD","language":["Hindi"],"country":["US"],"original_language":"en","genres":["Sci-Fi & Fantasy","Animation","Action & Adventure"],"imdb_id":"tt16027014","latest_uploaded_season":1,"total_uploaded_episodes":4},{"id":"127366","type":"tv","title":"Splinter Cell: Deathwatch","poster":"https://image.tmdb.org/t/p/w342/tgKYnJlze79IUKkPmtsW2nSUeeB.jpg","year":"2025","result":"HD","language":["Hindi"],"country":["FR","US"],"original_language":"en","genres":["Animation","Action & Adventure"],"imdb_id":"tt12809802","latest_uploaded_season":1,"total_uploaded_episodes":8},{"id":"114471","type":"tv","title":"Ironheart","poster":"https://image.tmdb.org/t/p/w342/dOh6MJpdlQhYpLBhzhNQeYGKTZ5.jpg","year":"2025","result":"HD","language":["Hindi"],"country":["US"],"original_language":"en","genres":["Sci-Fi & Fantasy","Crime","Action & Adventure"],"imdb_id":"tt13623126","latest_uploaded_season":1,"total_uploaded_episodes":6},{"id":"84092","type":"movie","title":"Ramayana : The Legend of Prince Rama","poster":"https://image.tmdb.org/t/p/w342/jnwUw88Zq5tS0BFNvDwhISQ7p8Y.jpg","year":"2025","result":"HD","language":["Hindi"],"country":["IN","JP"],"original_language":"en","genres":["Animation","Action","Adventure","Fantasy"],"imdb_id":"tt0259534"},{"id":"83533","type":"movie","title":"Avatar: Fire and Ash","poster":"https://image.tmdb.org/t/p/w342/bRBeSHfGHwkEpImlhxPmOcUsaeg.jpg","year":"2025","result":"HD","language":["Hindi"],"country":["US"],"original_language":"en","genres":["Science Fiction","Adventure","Fantasy"],"imdb_id":"tt1757678"},{"id":"13494","type":"movie","title":"Red Sonja","poster":"https://image.tmdb.org/t/p/w342/aE3yh4y0h96CZZpLo0UDFMWZAA9.jpg","year":"2025","result":"HD","language":["Hindi"],"country":["US","BG"],"original_language":"en","genres":["Adventure","Action","Fantasy","Drama"],"imdb_id":"tt0800175"},{"id":"220564","type":"tv","title":"The Perfect Couple","poster":"https://image.tmdb.org/t/p/w342/weyR73iYr1lWg17Q2r4sc7aEr2p.jpg","year":"2024","result":"HD","language":["Hindi"],"country":["US"],"original_language":"en","genres":["Drama","Mystery","Crime"],"imdb_id":"tt11514868","latest_uploaded_season":1,"total_uploaded_episodes":6},{"id":"123542","type":"tv","title":"LINK CLICK","poster":"https://image.tmdb.org/t/p/w342/hCt2bLRGTCjHGqtV5FP3Img6w1h.jpg","year":"2024","result":"HD","language":["English"],"country":["CN"],"original_language":"zh","genres":["Animation","Sci-Fi & Fantasy","Mystery","Drama"],"imdb_id":"tt14976292","latest_uploaded_season":3,"total_uploaded_episodes":29},{"id":"100757","type":"tv","title":"Outer Banks","poster":"https://image.tmdb.org/t/p/w342/ovDgO2LPfwdVRfvScAqo9aMiIW.jpg","year":"2024","result":"HD","language":["Hindi"],"country":["US"],"original_language":"en","genres":["Action & Adventure","Drama","Mystery"],"imdb_id":"tt10293938","latest_uploaded_season":4,"total_uploaded_episodes":40},{"id":"103768","type":"tv","title":"Sweet Tooth","poster":"https://image.tmdb.org/t/p/w342/rgMfhcrVZjuy5b7Pn0KzCRCEnMX.jpg","year":"2024","result":"HD","language":["Hindi"],"country":["US"],"original_language":"en","genres":["Drama","Sci-Fi & Fantasy"],"imdb_id":"tt12809988","latest_uploaded_season":3,"total_uploaded_episodes":24},{"id":"84773","type":"tv","title":"The Lord of the Rings: The Rings of Power","poster":"https://image.tmdb.org/t/p/w342/kf5Hz70tjNAHg4swGDzOr9BfoZ1.jpg","year":"2024","result":"HD","language":["Hindi"],"country":["US"],"original_language":"en","genres":["Action & Adventure","Sci-Fi & Fantasy","Drama"],"imdb_id":"tt7631058","latest_uploaded_season":2,"total_uploaded_episodes":16},{"id":"116135","type":"tv","title":"Vikings: Valhalla","poster":"https://image.tmdb.org/t/p/w342/rDFy1fUU6OC3Mm0CLFB7u0fGwVN.jpg","year":"2024","result":"HD","language":["Hindi"],"country":["US"],"original_language":"en","genres":["Action & Adventure","Drama","War & Politics"],"imdb_id":"tt11311302","latest_uploaded_season":3,"total_uploaded_episodes":24},{"id":"976576","type":"movie","title":"Emmanuelle","poster":"https://image.tmdb.org/t/p/w342/s9gmKus9YPTDzdMKZQJYPh0VoGk.jpg","year":"2024","result":"HD","language":["Hindi"],"country":["FR"],"original_language":"en","genres":["Drama","Romance"],"imdb_id":"tt20247888"},{"id":"1217647","type":"movie","title":"Iconic","poster":"https://image.tmdb.org/t/p/w342/62GtFUBzKGrVi5ta26izATtuFBH.jpg","year":"2024","result":"HD","language":["Hindi"],"country":["US"],"original_language":"en","genres":["Thriller","Drama","Horror"],"imdb_id":"tt31565932"},{"id":"1184495","type":"movie","title":"Joy","poster":"https://image.tmdb.org/t/p/w342/inL3nv3hAqlvoBSIWFMYydlwULE.jpg","year":"2024","result":"HD","language":["Hindi"],"country":["GB"],"original_language":"en","genres":["Drama"],"imdb_id":"tt10243672"},{"id":"1120911","type":"movie","title":"Saturday Night","poster":"https://image.tmdb.org/t/p/w342/oCf5O6uxooTvRwKVnLHwGqZUifq.jpg","year":"2024","result":"HD","language":["Hindi"],"country":["US"],"original_language":"en","genres":["Comedy","Drama"],"imdb_id":"tt27657135"},{"id":"1073087","type":"movie","title":"Scrambled","poster":"https://image.tmdb.org/t/p/w342/yzwERLkcxNh9uve42IAUBHckU0s.jpg","year":"2024","result":"HD","language":["Hindi"],"country":["US"],"original_language":"en","genres":["Comedy"],"imdb_id":"tt21270966"},{"id":"804406","type":"movie","title":"The Piano Lesson","poster":"https://image.tmdb.org/t/p/w342/cgampq63AqCrza6bnvmWqCcvCzY.jpg","year":"2024","result":"HD","language":["Hindi"],"country":["US"],"original_language":"en","genres":["Drama","Music"],"imdb_id":"tt15507512"},{"id":"989662","type":"movie","title":"A Different Man","poster":"https://image.tmdb.org/t/p/w342/lZZKTEvo92u1J5pm7QoEA5yN3du.jpg","year":"2024","result":"HD","language":["Hindi"],"country":["US"],"original_language":"en","genres":["Comedy","Drama","Thriller"],"imdb_id":"tt21097228"},{"id":"1269024","type":"movie","title":"A Game in the Woods","poster":"https://image.tmdb.org/t/p/w342/5sZ9mhdnjHsCGMRXwveCogGbabE.jpg","year":"2024","result":"HD","language":["Hindi"],"country":["US"],"original_language":"en","genres":["Horror"],"imdb_id":"tt31615218"},{"id":"1091298","type":"movie","title":"Attack of the Meth Gator","poster":"https://image.tmdb.org/t/p/w342/td0L3VZvBFPYb6hZ3WTbq0VD9q2.jpg","year":"2024","result":"HD","language":["Hindi"],"country":["US"],"original_language":"en","genres":["Horror","Science Fiction","Action"],"imdb_id":"tt26899693"},{"id":"929590","type":"movie","title":"Civil War","poster":"https://image.tmdb.org/t/p/w342/sh7Rg8Er3tFcN9BpKIPOMvALgZd.jpg","year":"2024","result":"HD","language":["Hindi"],"country":["FI","GB","US"],"original_language":"en","genres":["War","Action","Drama"],"imdb_id":"tt17279496"},{"id":"869291","type":"movie","title":"Cuckoo","poster":"https://image.tmdb.org/t/p/w342/4bGP5cnSZbfBJfIidZNSEIKnav7.jpg","year":"2024","result":"HD","language":["Hindi"],"country":["DE","US"],"original_language":"en","genres":["Horror","Mystery","Thriller"],"imdb_id":"tt12349832"},{"id":"1160923","type":"movie","title":"DarkGame","poster":"https://image.tmdb.org/t/p/w342/kaARRhlsuJGnpOGeDmIhraxmOxi.jpg","year":"2024","result":"HD","language":["Hindi"],"country":["GB"],"original_language":"en","genres":["Horror","Thriller"],"imdb_id":"tt5613018"},{"id":"1308757","type":"movie","title":"Dead Sea","poster":"https://image.tmdb.org/t/p/w342/ohisXa9ArEoV05ajLfX2T5D6NNF.jpg","year":"2024","result":"HD","language":["Hindi"],"country":["US"],"original_language":"en","genres":["Crime","Horror","Thriller"],"imdb_id":"tt11724920"},{"id":"1236769","type":"movie","title":"Dr. Sander's Sleep Cure","poster":"https://image.tmdb.org/t/p/w342/iyslMalSLEDJzOoJDafLR9rKOt4.jpg","year":"2024","result":"HD","language":["Hindi"],"country":["EE"],"original_language":"en","genres":["Fantasy","Horror"],"imdb_id":"tt30018159"},{"id":"1369679","type":"movie","title":"Get Fast","poster":"https://image.tmdb.org/t/p/w342/tDpTR7xhHu9cz1X4JAIRFwXyf6U.jpg","year":"2024","result":"HD","language":["Hindi"],"country":["CA"],"original_language":"en","genres":["Action","Crime","Thriller"],"imdb_id":"tt27357183"},{"id":"558449","type":"movie","title":"Gladiator II","poster":"https://image.tmdb.org/t/p/w342/2cxhvwyEwRlysAmRH4iodkvo0z5.jpg","year":"2024","result":"HD","language":["Hindi"],"country":["US"],"original_language":"en","genres":["Action","Adventure","Drama"],"imdb_id":"tt9218128"},{"id":"823464","type":"movie","title":"Godzilla x Kong: The New Empire","poster":"https://image.tmdb.org/t/p/w342/z1p34vh7dEOnLDmyCrlUVLuoDzd.jpg","year":"2024","result":"HD","language":["Hindi"],"country":["US"],"original_language":"en","genres":["Action","Adventure","Science Fiction"],"imdb_id":"tt14539740"},{"id":"1201262","type":"movie","title":"Grafted","poster":"https://image.tmdb.org/t/p/w342/u53wFzLoJD7om52Hjma8G27LS2h.jpg","year":"2024","result":"HD","language":["Hindi"],"country":["NZ","GB"],"original_language":"en","genres":["Horror"],"imdb_id":"tt11162260"},{"id":"1275998","type":"movie","title":"Lake George","poster":"https://image.tmdb.org/t/p/w342/7nqwvs1DORz65GtV7MeNBfqBxQW.jpg","year":"2024","result":"HD","language":["Hindi"],"country":["US"],"original_language":"en","genres":["Comedy","Crime","Thriller"],"imdb_id":"tt29536384"},{"id":"1197619","type":"movie","title":"Lost on a Mountain in Maine","poster":"https://image.tmdb.org/t/p/w342/elKEzHpbdoTMkK0IpUKcK6x1Ttl.jpg","year":"2024","result":"HD","language":["Hindi"],"country":["US"],"original_language":"en","genres":["Adventure","Drama","Family"],"imdb_id":"tt2965408"},{"id":"948549","type":"movie","title":"Love Lies Bleeding","poster":"https://image.tmdb.org/t/p/w342/xImj8RLe39YK0lyVu9kXv7ApN8p.jpg","year":"2024","result":"HD","language":["Hindi"],"country":["GB","US"],"original_language":"en","genres":["Crime","Romance","Thriller"],"imdb_id":"tt19637052"},{"id":"1090874","type":"movie","title":"Mea Culpa","poster":"https://image.tmdb.org/t/p/w342/roxD9VCTTXYfPjVj9HiSC5IMtc7.jpg","year":"2024","result":"HD","language":["Hindi"],"country":["US"],"original_language":"en","genres":["Drama","Crime","Thriller"],"imdb_id":"tt26861992"},{"id":"1104171","type":"movie","title":"Meet Me Next Christmas","poster":"https://image.tmdb.org/t/p/w342/tPRH0Rm00esNefnI1ZxQqTTIpzJ.jpg","year":"2024","result":"HD","language":["Hindi"],"country":["US"],"original_language":"en","genres":["Romance","Comedy"],"imdb_id":"tt20502488"}]}