{"page":8,"total_pages":26,"total_items":1255,"items":[{"id":"1106289","type":"movie","title":"The Pickup","poster":"https://image.tmdb.org/t/p/w342/vFWvWhfAvij8UIngg2Vf6JV95Cr.jpg","year":"2025","result":"HD","language":["Hindi"],"country":["US"],"original_language":"en","genres":["Action","Comedy","Crime"],"imdb_id":"tt30445556"},{"id":"1100988","type":"movie","title":"28 Years Later","poster":"https://image.tmdb.org/t/p/w342/n5FygjEppOvac6yEaowi26nTyw3.jpg","year":"2025","result":"HD","language":["Hindi"],"country":["GB","US"],"original_language":"en","genres":["Horror","Thriller","Science Fiction"],"imdb_id":"tt10548174"},{"id":"1093237","type":"movie","title":"Hurry Up Tomorrow","poster":"https://image.tmdb.org/t/p/w342/9W44XSMYbjXdlXcQhD104zPhhhJ.jpg","year":"2025","result":"HD","language":["Hindi"],"country":["US"],"original_language":"en","genres":["Music","Thriller","Drama"],"imdb_id":"tt26927452"},{"id":"1088166","type":"movie","title":"Relay","poster":"https://image.tmdb.org/t/p/w342/mpwccO2L8LUVtVTJTdgUVgoQqAo.jpg","year":"2025","result":"HD","language":["Hindi"],"country":["US","GB"],"original_language":"en","genres":["Action","Drama","Thriller"],"imdb_id":"tt11539996"},{"id":"1087192","type":"movie","title":"How to Train Your Dragon","poster":"https://image.tmdb.org/t/p/w342/53dsJ3oEnBhTBVMigWJ9tkA5bzJ.jpg","year":"2025","result":"HD","language":["Hindi"],"country":["US"],"original_language":"en","genres":["Fantasy","Family","Action","Adventure"],"imdb_id":"tt26743210"},{"id":"1084242","type":"movie","title":"Zootopia 2","poster":"https://image.tmdb.org/t/p/w342/oJ7g2CifqpStmoYQyaLQgEU32qO.jpg","year":"2025","result":"HD","language":["Hindi"],"country":["US","CA"],"original_language":"en","genres":["Animation","Family","Mystery","Adventure","Comedy"],"imdb_id":"tt26443597"},{"id":"1083968","type":"movie","title":"Locked","poster":"https://image.tmdb.org/t/p/w342/hhkiqXpfpufwxVrdSftzeKIANl3.jpg","year":"2025","result":"HD","language":["Hindi"],"country":["US","CA","CZ"],"original_language":"en","genres":["Horror","Thriller"],"imdb_id":"tt26671996"},{"id":"1083433","type":"movie","title":"I Know What You Did Last Summer","poster":"https://image.tmdb.org/t/p/w342/A06yXys3hrCWu8xiNoHCFLTG5SH.jpg","year":"2025","result":"HD","language":["Hindi"],"country":["US","AU"],"original_language":"en","genres":["Horror","Thriller","Mystery"],"imdb_id":"tt4045450"},{"id":"1078605","type":"movie","title":"Weapons","poster":"https://image.tmdb.org/t/p/w342/cpf7vsRZ0MYRQcnLWteD5jK9ymT.jpg","year":"2025","result":"HD","language":["Hindi"],"country":["US"],"original_language":"en","genres":["Horror","Mystery"],"imdb_id":"tt26581740"},{"id":"1078600","type":"movie","title":"Marked Men: Rule + Shaw","poster":"https://image.tmdb.org/t/p/w342/gZQU8BtCH2IbMZq6QETiU4HXQSR.jpg","year":"2025","result":"HD","language":["Hindi"],"country":["US"],"original_language":"en","genres":["Romance","Drama"],"imdb_id":"tt26452781"},{"id":"1071585","type":"movie","title":"M3GAN 2.0","poster":"https://image.tmdb.org/t/p/w342/oekamLQrwlJjRNmfaBE4llIvkir.jpg","year":"2025","result":"HD","language":["Hindi"],"country":["US"],"original_language":"en","genres":["Action","Science Fiction","Thriller"],"imdb_id":"tt26342662"},{"id":"1069905","type":"movie","title":"Jay Kelly","poster":"https://image.tmdb.org/t/p/w342/lEXYpY9X17pGC7xYYy17Guv0L3J.jpg","year":"2025","result":"HD","language":["Hindi"],"country":["US","GB"],"original_language":"en","genres":["Drama","Comedy"],"imdb_id":"tt30446847"},{"id":"1062722","type":"movie","title":"Frankenstein","poster":"https://image.tmdb.org/t/p/w342/g4JtvGlQO7DByTI6frUobqvSL3R.jpg","year":"2025","result":"HD","language":["Hindi"],"country":["US","CA"],"original_language":"en","genres":["Drama","Fantasy","Horror"],"imdb_id":"tt1312221"},{"id":"1061474","type":"movie","title":"Superman","poster":"https://image.tmdb.org/t/p/w342/wPLysNDLffQLOVebZQCbXJEv6E6.jpg","year":"2025","result":"HD","language":["Hindi"],"country":["US"],"original_language":"en","genres":["Science Fiction","Adventure","Action"],"imdb_id":"tt5950044"},{"id":"1049942","type":"movie","title":"Bambi: The Reckoning","poster":"https://image.tmdb.org/t/p/w342/8oBbWxWDJrrDtNkmd0OzZpPFFUR.jpg","year":"2025","result":"HD","language":["Hindi"],"country":["GB"],"original_language":"en","genres":["Horror","Thriller"],"imdb_id":"tt23621682"},{"id":"1042834","type":"movie","title":"Eden","poster":"https://image.tmdb.org/t/p/w342/jbFEESMVbpJU8IjZBjiWGJdEsxR.jpg","year":"2025","result":"HD","language":["Hindi"],"country":["US"],"original_language":"en","genres":["Thriller","Drama"],"imdb_id":"tt23149780"},{"id":"1038392","type":"movie","title":"The Conjuring: Last Rites","poster":"https://image.tmdb.org/t/p/w342/byWgphT74ClOVa8EOGzYDkl8DVL.jpg","year":"2025","result":"HD","language":["Hindi"],"country":["US"],"original_language":"en","genres":["Horror"],"imdb_id":"tt22898462"},{"id":"1035259","type":"movie","title":"The Naked Gun","poster":"https://image.tmdb.org/t/p/w342/rmwQ8GsdQ1M3LtemNWLErle2nBU.jpg","year":"2025","result":"HD","language":["Hindi"],"country":["US"],"original_language":"en","genres":["Action","Comedy","Crime"],"imdb_id":"tt3402138"},{"id":"1022787","type":"movie","title":"Elio","poster":"https://image.tmdb.org/t/p/w342/7z8jDiTZZco9moIKpTUImFtTy7o.jpg","year":"2025","result":"HD","language":["Hindi"],"country":["US"],"original_language":"en","genres":["Animation","Family","Science Fiction","Adventure","Comedy"],"imdb_id":"tt4900148"},{"id":"1010756","type":"movie","title":"The Strangers: Chapter 2","poster":"https://image.tmdb.org/t/p/w342/aEk9jLbiKTVssdATbrF879NvyyJ.jpg","year":"2025","result":"HD","language":["Hindi"],"country":["GB","US"],"original_language":"en","genres":["Horror","Thriller"],"imdb_id":"tt28671344"},{"id":"1007734","type":"movie","title":"Nobody 2","poster":"https://image.tmdb.org/t/p/w342/iyxwxDZCpIm0vIORaHpmgJv2BGF.jpg","year":"2025","result":"HD","language":["Hindi"],"country":["US"],"original_language":"en","genres":["Action","Thriller"],"imdb_id":"tt28996126"},{"id":"1001414","type":"movie","title":"Fear Street: Prom Queen","poster":"https://image.tmdb.org/t/p/w342/gevScWYkF8l5i9NjFSXo8HfPNyy.jpg","year":"2025","result":"HD","language":["Hindi"],"country":["US"],"original_language":"en","genres":["Horror","Mystery"],"imdb_id":"tt31433402"},{"id":"1001270","type":"movie","title":"The Things You Kill","poster":"https://image.tmdb.org/t/p/w342/kR8CHANk8KwQLWarMIQsk2mthhW.jpg","year":"2025","result":"HD","language":["Hindi"],"country":["CA","FR","PL","TR","SG"],"original_language":"tr","genres":["Thriller","Drama"],"imdb_id":"tt32367116"},{"id":"1000438","type":"movie","title":"Emergency","poster":"https://image.tmdb.org/t/p/w342/yp5eg70g6LaZoBiApOv9oerzvvX.jpg","year":"2025","result":"HD","language":["English"],"country":["IN"],"original_language":"hi","genres":["Drama","History","War"],"imdb_id":"tt21279420"},{"id":"997113","type":"movie","title":"Hedda","poster":"https://image.tmdb.org/t/p/w342/ecflk7AZf0ij205yDswjlvdxlCO.jpg","year":"2025","result":"HD","language":["Hindi"],"country":["US"],"original_language":"en","genres":["Drama","Thriller","Romance"],"imdb_id":"tt27953589"},{"id":"991494","type":"movie","title":"The SpongeBob Movie: Search for SquarePants","poster":"https://image.tmdb.org/t/p/w342/pDWYW9v8fmJdA7N0I1MOdQA3ETq.jpg","year":"2025","result":"HD","language":["Hindi"],"country":["US"],"original_language":"en","genres":["Animation","Family","Comedy","Adventure","Fantasy"],"imdb_id":"tt23572848"},{"id":"986097","type":"movie","title":"HIM","poster":"https://image.tmdb.org/t/p/w342/qPJzcYR2f1O1uynYBCVPPJuOiAH.jpg","year":"2025","result":"HD","language":["Hindi"],"country":["US","JP"],"original_language":"en","genres":["Horror","Mystery"],"imdb_id":"tt20990442"},{"id":"986056","type":"movie","title":"Thunderbolts*","poster":"https://image.tmdb.org/t/p/w342/hqcexYHbiTBfDIdDWxrxPtVndBX.jpg","year":"2025","result":"HD","language":["Hindi"],"country":["US"],"original_language":"en","genres":["Action","Science Fiction","Adventure"],"imdb_id":"tt20969586"},{"id":"967941","type":"movie","title":"Wicked: For Good","poster":"https://image.tmdb.org/t/p/w342/lDL8vPUuJs2LsPHPjAGhkbYTpNX.jpg","year":"2025","result":"HD","language":["Hindi"],"country":["US"],"original_language":"en","genres":["Fantasy","Adventure","Romance"],"imdb_id":"tt19847976"},{"id":"957119","type":"movie","title":"Sidelined: The QB and Me","poster":"https://image.tmdb.org/t/p/w342/mSL6truNrWP1Bn9ng1rN0SkMI4f.jpg","year":"2025","result":"HD","language":["Hindi"],"country":["CA"],"original_language":"en","genres":["Comedy","Romance"],"imdb_id":"tt19704542"},{"id":"950387","type":"movie","title":"A Minecraft Movie","poster":"https://image.tmdb.org/t/p/w342/yFHHfHcUgGAxziP1C3lLt0q2T4s.jpg","year":"2025","result":"HD","language":["Hindi"],"country":["SE","US"],"original_language":"en","genres":["Family","Fantasy","Comedy","Adventure"],"imdb_id":"tt3566834"},{"id":"941109","type":"movie","title":"Play Dirty","poster":"https://image.tmdb.org/t/p/w342/ovZ0zq0NwRghtWI1oLaM0lWuoEw.jpg","year":"2025","result":"HD","language":["Hindi"],"country":["US"],"original_language":"en","genres":["Crime","Action","Thriller"],"imdb_id":"tt18392014"},{"id":"936108","type":"movie","title":"Smurfs","poster":"https://image.tmdb.org/t/p/w342/8o6lkhL32xQJeB52IIG1us5BVey.jpg","year":"2025","result":"HD","language":["Hindi"],"country":["US","BE"],"original_language":"en","genres":["Animation","Family","Fantasy"],"imdb_id":"tt18069420"},{"id":"934456","type":"movie","title":"Americana","poster":"https://image.tmdb.org/t/p/w342/83Gis9pOKCvAdaKXCNChey4IZyL.jpg","year":"2025","result":"HD","language":["Hindi"],"country":["LU","CA","US"],"original_language":"en","genres":["Crime","Thriller","Western","Action"],"imdb_id":"tt17676734"},{"id":"927254","type":"movie","title":"The Twits","poster":"https://image.tmdb.org/t/p/w342/zNP1nMRFqa9qAkpCkLeHa1V7kDR.jpg","year":"2025","result":"HD","language":["Hindi"],"country":["GB","US"],"original_language":"en","genres":["Animation","Comedy","Family","Fantasy"],"imdb_id":"tt0498396"},{"id":"926606","type":"movie","title":"The Home","poster":"https://image.tmdb.org/t/p/w342/r0NUt1M62StNgvSLmLsmJADbHpg.jpg","year":"2025","result":"HD","language":["Hindi"],"country":["US"],"original_language":"en","genres":["Mystery","Horror","Thriller"],"imdb_id":"tt17023012"},{"id":"911430","type":"movie","title":"F1","poster":"https://image.tmdb.org/t/p/w342/vqBmyAj0Xm9LnS1xe1MSlMAJyHq.jpg","year":"2025","result":"HD","language":["Hindi"],"country":["US"],"original_language":"en","genres":["Action","Drama"],"imdb_id":"tt16311594"},{"id":"896536","type":"movie","title":"The Legend of Ochi","poster":"https://image.tmdb.org/t/p/w342/qYyEelO4JfOwE0Ui5KsrCE0O8UA.jpg","year":"2025","result":"HD","language":["Hindi"],"country":["US","FI"],"original_language":"en","genres":["Family","Fantasy","Adventure"],"imdb_id":"tt8866456"},{"id":"870028","type":"movie","title":"The Accountant²","poster":"https://image.tmdb.org/t/p/w342/lUvfTcOZiK0sdcX0WNLPbMyKjGm.jpg","year":"2025","result":"HD","language":["Hindi"],"country":["US"],"original_language":"en","genres":["Mystery","Crime","Thriller"],"imdb_id":"tt7068946"},{"id":"846422","type":"movie","title":"The Old Guard 2","poster":"https://image.tmdb.org/t/p/w342/wqfu3bPLJaEWJVk3QOm0rKhxf1A.jpg","year":"2025","result":"HD","language":["Hindi"],"country":["US"],"original_language":"en","genres":["Action","Fantasy"],"imdb_id":"tt14961624"},{"id":"822119","type":"movie","title":"Captain America: Brave New World","poster":"https://image.tmdb.org/t/p/w342/pzIddUEMWhWzfvLI3TwxUG2wGoi.jpg","year":"2025","result":"HD","language":["Hindi"],"country":["US"],"original_language":"en","genres":["Action","Thriller","Science Fiction"],"imdb_id":"tt14513804"},{"id":"812583","type":"movie","title":"Wake Up Dead Man: A Knives Out Mystery","poster":"https://image.tmdb.org/t/p/w342/qCOGGi8JBVEZMc3DVby8rUivyXz.jpg","year":"2025","result":"HD","language":["Hindi"],"country":["US"],"original_language":"en","genres":["Thriller","Mystery","Comedy"],"imdb_id":"tt14364480"},{"id":"803796","type":"movie","title":"KPop Demon Hunters","poster":"https://image.tmdb.org/t/p/w342/zT7Lhw3BhJbMkRqm9Zlx2YGMsY0.jpg","year":"2025","result":"HD","language":["Hindi"],"country":["US"],"original_language":"en","genres":["Fantasy","Music","Comedy","Animation"],"imdb_id":"tt14205554"},{"id":"798645","type":"movie","title":"The Running Man","poster":"https://image.tmdb.org/t/p/w342/dKL78O9zxczVgjtNcQ9UkbYLzqX.jpg","year":"2025","result":"HD","language":["Hindi"],"country":["US","GB"],"original_language":"en","genres":["Action","Thriller","Science Fiction"],"imdb_id":"tt14107334"},{"id":"787747","type":"movie","title":"Shell","poster":"https://image.tmdb.org/t/p/w342/2XBNS8DxMFP7qOoTOY7cc8OYFwI.jpg","year":"2025","result":"HD","language":["Hindi"],"country":["US"],"original_language":"en","genres":["Horror","Drama","Thriller"],"imdb_id":"tt12706836"},{"id":"777443","type":"movie","title":"The Electric State","poster":"https://image.tmdb.org/t/p/w342/tn6gDIrQMwHSivF01igLfbggmYD.jpg","year":"2025","result":"HD","language":["Hindi"],"country":["US"],"original_language":"en","genres":["Science Fiction","Adventure","Action"],"imdb_id":"tt7766378"},{"id":"760329","type":"movie","title":"The Smashing Machine","poster":"https://image.tmdb.org/t/p/w342/mPuBDGrVIBGOymBxR6rO3iIvBSe.jpg","year":"2025","result":"HD","language":["Hindi"],"country":["US"],"original_language":"en","genres":["Drama","History"],"imdb_id":"tt11214558"},{"id":"757725","type":"movie","title":"Shadow Force","poster":"https://image.tmdb.org/t/p/w342/9LCpHFXZgkqp2AWiYq0mGbfZauk.jpg","year":"2025","result":"HD","language":["Hindi"],"country":["US"],"original_language":"en","genres":["Action","Thriller"],"imdb_id":"tt11092020"},{"id":"744653","type":"movie","title":"The Thursday Murder Club","poster":"https://image.tmdb.org/t/p/w342/jbnazCHr8S2l2glyvjPTpa4NbEw.jpg","year":"2025","result":"HD","language":["Hindi"],"country":["US"],"original_language":"en","genres":["Comedy","Mystery","Crime"],"imdb_id":"tt12001534"},{"id":"729713","type":"movie","title":"Mom","poster":"https://image.tmdb.org/t/p/w342/2830dGe0I5KNBf2VT9h4iKHZQIS.jpg","year":"2025","result":"HD","language":["Hindi"],"country":["CA","US"],"original_language":"en","genres":["Horror","Thriller"],"imdb_id":"tt5923662"}]}