{"page":12,"total_pages":26,"total_items":1255,"items":[{"id":"869597","type":"movie","title":"Reunion","poster":"https://image.tmdb.org/t/p/w342/k5XWnBAkMJIOjHbpkYb4ofLRJNy.jpg","year":"2024","result":"HD","language":["Hindi"],"country":["US"],"original_language":"en","genres":["Comedy","Mystery"],"imdb_id":"tt15338966"},{"id":"1371727","type":"movie","title":"Sing: Thriller","poster":"https://image.tmdb.org/t/p/w342/zdT3LmTSNL4GAsS3cKjaCBzOrId.jpg","year":"2024","result":"HD","language":["Hindi"],"country":["US"],"original_language":"en","genres":["Animation","Family","Comedy","Music"],"imdb_id":"tt33999453"},{"id":"1100782","type":"movie","title":"Smile 2","poster":"https://image.tmdb.org/t/p/w342/ht8Uv9QPv9y7K0RvUyJIaXOZTfd.jpg","year":"2024","result":"HD","language":["Hindi"],"country":["US"],"original_language":"en","genres":["Horror","Music","Mystery","Thriller"],"imdb_id":"tt29268110"},{"id":"592983","type":"movie","title":"Spellbound","poster":"https://image.tmdb.org/t/p/w342/4dSrwXJNKtMtlkwJPgZMkjjuHvD.jpg","year":"2024","result":"HD","language":["Hindi"],"country":["ES","US"],"original_language":"en","genres":["Animation","Fantasy","Family","Adventure","Comedy"],"imdb_id":"tt7215232"},{"id":"202879","type":"tv","title":"Star Wars: Skeleton Crew","poster":"https://image.tmdb.org/t/p/w342/srQbJhLRKoAwRrNN5ga7webPHbC.jpg","year":"2024","result":"HD","language":["Hindi"],"country":["US"],"original_language":"en","genres":["Action & Adventure","Sci-Fi & Fantasy","Family"],"imdb_id":"tt20600980","latest_uploaded_season":1,"total_uploaded_episodes":8},{"id":"1087388","type":"movie","title":"Sting","poster":"https://image.tmdb.org/t/p/w342/97XZtLd461e5e0WBIBJREK1lzqC.jpg","year":"2024","result":"HD","language":["Hindi"],"country":["AU","GB","US"],"original_language":"en","genres":["Horror","Thriller"],"imdb_id":"tt20112746"},{"id":"1029281","type":"movie","title":"Strange Darling","poster":"https://image.tmdb.org/t/p/w342/kWNCRgt3ocv19bYO0sk7TRuZuFY.jpg","year":"2024","result":"HD","language":["Hindi"],"country":["US"],"original_language":"en","genres":["Horror","Thriller"],"imdb_id":"tt22375054"},{"id":"1361048","type":"movie","title":"Sweet Bobby: My Catfish Nightmare","poster":"https://image.tmdb.org/t/p/w342/vOYSWDkW3lKOZNHkR4WdHG0sb8R.jpg","year":"2024","result":"HD","language":["Hindi"],"country":["GB"],"original_language":"en","genres":["Documentary"],"imdb_id":"tt33484071"},{"id":"243396","type":"tv","title":"Territory","poster":"https://image.tmdb.org/t/p/w342/jPoNveBQWYwwWf2UnK27LEtWiqb.jpg","year":"2024","result":"HD","language":["Hindi"],"country":["AU"],"original_language":"en","genres":["Western","Drama","Action & Adventure"],"imdb_id":"tt28703559","latest_uploaded_season":1,"total_uploaded_episodes":6},{"id":"645757","type":"movie","title":"That Christmas","poster":"https://image.tmdb.org/t/p/w342/uR3uhztTAxGGK7Co0yyxVy4Gc7H.jpg","year":"2024","result":"HD","language":["Hindi"],"country":["GB"],"original_language":"en","genres":["Animation","Comedy","Family","Fantasy","Adventure"],"imdb_id":"tt14855468"},{"id":"270977","type":"tv","title":"The Comeback: 2004 Boston Red Sox","poster":"https://image.tmdb.org/t/p/w342/uEzoVKUurlDjQ0vyJgAuTXQBZO0.jpg","year":"2024","result":"HD","language":["Hindi"],"country":["US"],"original_language":"en","genres":["Documentary"],"imdb_id":"tt31186041","latest_uploaded_season":1,"total_uploaded_episodes":3},{"id":"277010","type":"tv","title":"The Later Daters","poster":"https://image.tmdb.org/t/p/w342/9wHrltQGEqaKObKTX5FfOMYzoIJ.jpg","year":"2024","result":"HD","language":["Hindi"],"country":["US"],"original_language":"en","genres":["Reality"],"imdb_id":"tt34599590","latest_uploaded_season":1,"total_uploaded_episodes":8},{"id":"135934","type":"tv","title":"The Legend of Vox Machina","poster":"https://image.tmdb.org/t/p/w342/b5A0qkGrZJTyVv3gT6b8clFEz9R.jpg","year":"2024","result":"HD","language":["Hindi"],"country":["US"],"original_language":"en","genres":["Animation","Sci-Fi & Fantasy"],"imdb_id":"tt11247158","latest_uploaded_season":3,"total_uploaded_episodes":14},{"id":"220056","type":"tv","title":"The Madness","poster":"https://image.tmdb.org/t/p/w342/lASJAqmKLt5xkr3sZZGQUOK5l2e.jpg","year":"2024","result":"HD","language":["Hindi"],"country":["US"],"original_language":"en","genres":["Drama","Crime","Action & Adventure"],"imdb_id":"tt26676489","latest_uploaded_season":1,"total_uploaded_episodes":8},{"id":"1290486","type":"movie","title":"The Merry Gentlemen","poster":"https://image.tmdb.org/t/p/w342/4t80WORFWqDYf4BRwV2jrXNHJdN.jpg","year":"2024","result":"HD","language":["Hindi"],"country":["US"],"original_language":"en","genres":["Romance","Comedy"],"imdb_id":"tt32368345"},{"id":"256480","type":"tv","title":"The Office","poster":"https://image.tmdb.org/t/p/w342/wVS8a4sJmD9sP4NOo6qr4PTnlF9.jpg","year":"2024","result":"HD","language":["Hindi"],"country":["AU"],"original_language":"en","genres":["Comedy"],"imdb_id":"tt10193026","latest_uploaded_season":1,"total_uploaded_episodes":8},{"id":"1118028","type":"movie","title":"The Red Virgin","poster":"https://image.tmdb.org/t/p/w342/rWI9nlFB1bMWlU7xExJ4WmkQUyV.jpg","year":"2024","result":"HD","language":["Hindi"],"country":["ES","US"],"original_language":"es","genres":["Drama","History","Thriller"],"imdb_id":"tt27599713"},{"id":"1151949","type":"movie","title":"The Shadow Strays","poster":"https://image.tmdb.org/t/p/w342/7UYeDUzFIscGVr0mo7isvnrVYvO.jpg","year":"2024","result":"HD","language":["Hindi"],"country":["ID","US"],"original_language":"id","genres":["Action","Crime","Thriller"],"imdb_id":"tt28349451"},{"id":"197543","type":"tv","title":"The Sticky","poster":"https://image.tmdb.org/t/p/w342/iNy4BMVVaAUt8S32fbotSOh4ka5.jpg","year":"2024","result":"HD","language":["Hindi"],"country":["CA","US"],"original_language":"en","genres":["Comedy","Drama"],"imdb_id":"tt19636984","latest_uploaded_season":1,"total_uploaded_episodes":6},{"id":"1184918","type":"movie","title":"The Wild Robot","poster":"https://image.tmdb.org/t/p/w342/eG9lz41mJqsI4J6ubMtVqD26q2J.jpg","year":"2024","result":"HD","language":["Hindi"],"country":["US"],"original_language":"en","genres":["Family","Animation","Science Fiction","Adventure"],"imdb_id":"tt29623480"},{"id":"272299","type":"tv","title":"This Is the Zodiac Speaking","poster":"https://image.tmdb.org/t/p/w342/crvYcZTN7TTEa85nClY3JqL2F0O.jpg","year":"2024","result":"HD","language":["Hindi"],"country":["US"],"original_language":"en","genres":["Documentary","Crime"],"imdb_id":"tt33480540","latest_uploaded_season":1,"total_uploaded_episodes":3},{"id":"827931","type":"movie","title":"Time Cut","poster":"https://image.tmdb.org/t/p/w342/gzMFMmpJHOmOFKsAhSDac62Dyg2.jpg","year":"2024","result":"HD","language":["Hindi"],"country":["US"],"original_language":"en","genres":["Horror","Science Fiction","Thriller"],"imdb_id":"tt14857528"},{"id":"1320330","type":"movie","title":"Year 10","poster":"https://image.tmdb.org/t/p/w342/zqeFM6cjHjYmgjqJExjt1NPBPdd.jpg","year":"2024","result":"HD","language":["Hindi"],"country":["GB"],"original_language":"en","genres":["Horror","Science Fiction"],"imdb_id":"tt21154574"},{"id":"974453","type":"movie","title":"Absolution","poster":"https://image.tmdb.org/t/p/w342/gt70JOD9xsPlpJnuBJAWdOT4yRg.jpg","year":"2024","result":"HD","language":["Hindi"],"country":["US"],"original_language":"en","genres":["Action","Crime","Thriller","Mystery"],"imdb_id":"tt8337290"},{"id":"1064213","type":"movie","title":"Anora","poster":"https://image.tmdb.org/t/p/w342/oN0o3owobFjePDc5vMdLRAd0jkd.jpg","year":"2024","result":"HD","language":["Hindi"],"country":["US"],"original_language":"en","genres":["Drama","Comedy","Romance"],"imdb_id":"tt28607951"},{"id":"807339","type":"movie","title":"Apartment 7A","poster":"https://image.tmdb.org/t/p/w342/uipHKJHY1nNEQyprXjfNzH0GIOF.jpg","year":"2024","result":"HD","language":["Hindi"],"country":["US"],"original_language":"en","genres":["Horror","Thriller"],"imdb_id":"tt14371860"},{"id":"1173019","type":"movie","title":"Assassin's Guild","poster":"https://image.tmdb.org/t/p/w342/zUv8lBLSrr1j2Nfz8NBDeWbuyHn.jpg","year":"2024","result":"HD","language":["Hindi"],"country":["GB"],"original_language":"en","genres":["Fantasy","Action","Adventure"],"imdb_id":"tt29414852"},{"id":"1029235","type":"movie","title":"Azrael","poster":"https://image.tmdb.org/t/p/w342/qpdFKDvJS7oLKTcBLXOaMwUESbs.jpg","year":"2024","result":"HD","language":["Hindi"],"country":["US"],"original_language":"en","genres":["Action","Horror","Thriller"],"imdb_id":"tt22173666"},{"id":"998846","type":"movie","title":"Back to Black","poster":"https://image.tmdb.org/t/p/w342/xHQEeUT3Ac4fTY72UeNrI75xLtE.jpg","year":"2024","result":"HD","language":["Hindi"],"country":["GB","US"],"original_language":"en","genres":["Music","History","Drama"],"imdb_id":"tt21261712"},{"id":"934866","type":"movie","title":"Bad Genius","poster":"https://image.tmdb.org/t/p/w342/h5hONXZ4hPgniv1DXMB1IZohhpO.jpg","year":"2024","result":"HD","language":["Hindi"],"country":["CA"],"original_language":"en","genres":["Thriller","Drama"],"imdb_id":"tt17717416"},{"id":"882059","type":"movie","title":"Boy Kills World","poster":"https://image.tmdb.org/t/p/w342/25JskXmchcYwj3jHRmcPm738MpB.jpg","year":"2024","result":"HD","language":["Hindi"],"country":["US"],"original_language":"en","genres":["Crime","Thriller","Action"],"imdb_id":"tt13923084"},{"id":"1376704","type":"movie","title":"Buy Now! The Shopping Conspiracy","poster":"https://image.tmdb.org/t/p/w342/n49IHIjqreWrIh6ty0aAxmR6SCs.jpg","year":"2024","result":"HD","language":["Hindi"],"country":["GB"],"original_language":"en","genres":["Documentary"],"imdb_id":"tt34350086"},{"id":"1005331","type":"movie","title":"Carry-On","poster":"https://image.tmdb.org/t/p/w342/sjMN7DRi4sGiledsmllEw5HJjPy.jpg","year":"2024","result":"HD","language":["Hindi"],"country":["US"],"original_language":"en","genres":["Thriller","Action"],"imdb_id":"tt21382296"},{"id":"1093995","type":"movie","title":"Chief of Station","poster":"https://image.tmdb.org/t/p/w342/bammLc9ixvwx1qFoWdkSK2rIwGT.jpg","year":"2024","result":"HD","language":["Hindi"],"country":["US"],"original_language":"en","genres":["Action","Thriller"],"imdb_id":"tt21301418"},{"id":"834966","type":"movie","title":"Chosen Family","poster":"https://image.tmdb.org/t/p/w342/b6mTPplRvjtWUTwJQf90sZLrOFI.jpg","year":"2024","result":"HD","language":["Hindi"],"country":["US"],"original_language":"en","genres":["Romance","Comedy","Drama"],"imdb_id":"tt27799825"},{"id":"974576","type":"movie","title":"Conclave","poster":"https://image.tmdb.org/t/p/w342/vYEyxF1UT779RiEalpMjUT6kfdf.jpg","year":"2024","result":"HD","language":["Hindi"],"country":["GB","US"],"original_language":"en","genres":["Drama","Thriller"],"imdb_id":"tt20215234"},{"id":"763215","type":"movie","title":"Damsel","poster":"https://image.tmdb.org/t/p/w342/AgHbB9DCE9aE57zkHjSmseszh6e.jpg","year":"2024","result":"HD","language":["Hindi"],"country":["ES","US"],"original_language":"en","genres":["Fantasy","Action","Adventure"],"imdb_id":"tt13452446"},{"id":"533535","type":"movie","title":"Deadpool & Wolverine","poster":"https://image.tmdb.org/t/p/w342/8cdWjvZQUExUUTzyp4t6EDMubfO.jpg","year":"2024","result":"HD","language":["Hindi"],"country":["US"],"original_language":"en","genres":["Action","Comedy","Science Fiction"],"imdb_id":"tt6263850"},{"id":"1097870","type":"movie","title":"Dear Santa","poster":"https://image.tmdb.org/t/p/w342/fRbDHbGBXg6kwQYr3CRYeKPJW5q.jpg","year":"2024","result":"HD","language":["Hindi"],"country":["US"],"original_language":"en","genres":["Comedy","Fantasy"],"imdb_id":"tt2396431"},{"id":"1043905","type":"movie","title":"Dirty Angels","poster":"https://image.tmdb.org/t/p/w342/1y3TG8N8zwwMxqh0qzdyDs3IyCq.jpg","year":"2024","result":"HD","language":["Hindi"],"country":["US","BG"],"original_language":"en","genres":["Drama","Thriller","War"],"imdb_id":"tt23872640"},{"id":"1331375","type":"movie","title":"Dominique","poster":"https://image.tmdb.org/t/p/w342/jvug7Esd89yNLJwGvUfeQ9j69cE.jpg","year":"2024","result":"HD","language":["Hindi"],"country":["CO","US"],"original_language":"en","genres":["Action","Thriller"],"imdb_id":"tt14972766"},{"id":"1158915","type":"movie","title":"Dìdi (弟弟)","poster":"https://image.tmdb.org/t/p/w342/3UCTNaZgxW6BbeHMMTe6uL07MpV.jpg","year":"2024","result":"HD","language":["Hindi"],"country":["US"],"original_language":"en","genres":["Comedy","Drama"],"imdb_id":"tt30319503"},{"id":"974250","type":"movie","title":"Greedy People","poster":"https://image.tmdb.org/t/p/w342/aIUZiciO0nMh8MrhmsTaMWZvEWK.jpg","year":"2024","result":"HD","language":["Hindi"],"country":["US"],"original_language":"en","genres":["Comedy","Mystery","Crime"],"imdb_id":"tt20201748"},{"id":"5492","type":"movie","title":"Gunner","poster":"https://image.tmdb.org/t/p/w342/cS2TXN1YlrCvkZmMxaevC1ZKtEz.jpg","year":"2024","result":"HD","language":["Hindi"],"country":["US"],"original_language":"en","genres":["Action","Thriller","Crime"],"imdb_id":"tt12598606"},{"id":"1181214","type":"movie","title":"Guy Manley: Super Spy","poster":"https://image.tmdb.org/t/p/w342/sQIElGaXYAnQZKt5FzGSLl4P4Kh.jpg","year":"2024","result":"HD","language":["Hindi"],"country":["SE"],"original_language":"en","genres":["Action","Comedy","Science Fiction","Thriller"],"imdb_id":"tt29005580"},{"id":"1087822","type":"movie","title":"Hellboy: The Crooked Man","poster":"https://image.tmdb.org/t/p/w342/iz2GabtToVB05gLTVSH7ZvFtsMM.jpg","year":"2024","result":"HD","language":["Hindi"],"country":["US","DE","BG"],"original_language":"en","genres":["Fantasy","Horror","Action"],"imdb_id":"tt26757462"},{"id":"1138194","type":"movie","title":"Heretic","poster":"https://image.tmdb.org/t/p/w342/fr96XzlzsONrQrGfdLMiwtQjott.jpg","year":"2024","result":"HD","language":["Hindi"],"country":["US"],"original_language":"en","genres":["Thriller","Horror"],"imdb_id":"tt28015403"},{"id":"1290287","type":"movie","title":"Hot Frosty","poster":"https://image.tmdb.org/t/p/w342/waW6R5WJQSxq65gwBkvnKlseU6n.jpg","year":"2024","result":"HD","language":["Hindi"],"country":["US","CA"],"original_language":"en","genres":["Romance","Comedy"],"imdb_id":"tt32359447"},{"id":"858017","type":"movie","title":"I Saw the TV Glow","poster":"https://image.tmdb.org/t/p/w342/hS4GYkYpN1rfl4GIxyc02sCyfAj.jpg","year":"2024","result":"HD","language":["Hindi"],"country":["US"],"original_language":"en","genres":["Horror","Drama"],"imdb_id":"tt15574270"},{"id":"1214509","type":"movie","title":"In a Violent Nature","poster":"https://image.tmdb.org/t/p/w342/hPfWHgq07nXbeldwEGxWB4JqwtE.jpg","year":"2024","result":"HD","language":["Hindi"],"country":["CA","US"],"original_language":"en","genres":["Drama","Horror","Thriller"],"imdb_id":"tt30321146"}]}