{"page":5,"total_pages":26,"total_items":1255,"items":[{"id":"1330443","type":"movie","title":"Strange Harvest","poster":"https://image.tmdb.org/t/p/w342/fYe0FNJNy0EIb8q4JUMLbbSmCth.jpg","year":"2025","result":"HD","language":["Hindi"],"country":["US"],"original_language":"en","genres":["Horror","Crime","Mystery"],"imdb_id":"tt33400719"},{"id":"1215798","type":"movie","title":"The Cut","poster":"https://image.tmdb.org/t/p/w342/6iseyProRsPyu3rOCzsXDDnDGrl.jpg","year":"2025","result":"HD","language":["Hindi"],"country":["GB","US"],"original_language":"en","genres":["Thriller","Drama"],"imdb_id":"tt26697087"},{"id":"97085","type":"tv","title":"Van der Valk","poster":"https://image.tmdb.org/t/p/w342/hXhLu31ro2O8C5vRBzLjFP4yACO.jpg","year":"2025","result":"HD","language":["Hindi"],"country":["NL"],"original_language":"en","genres":["Crime","Drama"],"imdb_id":"tt9128874","latest_uploaded_season":4,"total_uploaded_episodes":24},{"id":"1273783","type":"movie","title":"6 Hours Away","poster":"https://image.tmdb.org/t/p/w342/Aa1RyMKcOhwhfdaW5OVaPxgrkjt.jpg","year":"2025","result":"HD","language":["Hindi"],"country":["MX"],"original_language":"en","genres":["Action","Thriller"],"imdb_id":"tt22897544"},{"id":"111111","type":"tv","title":"Blood of Zeus","poster":"https://image.tmdb.org/t/p/w342/zXRR5tgGLtKrRmuN4ko9SLAdCiZ.jpg","year":"2025","result":"HD","language":["Hindi"],"country":["US"],"original_language":"en","genres":["Animation","Action & Adventure","Sci-Fi & Fantasy"],"imdb_id":"tt10009170","latest_uploaded_season":3,"total_uploaded_episodes":24},{"id":"244321","type":"tv","title":"Lockerbie: A Search for Truth","poster":"https://image.tmdb.org/t/p/w342/1N0dY2EIxNyEjSAPyrROsGt9jlR.jpg","year":"2025","result":"HD","language":["Hindi"],"country":["GB"],"original_language":"en","genres":["Drama"],"imdb_id":"tt31029686","latest_uploaded_season":1,"total_uploaded_episodes":5},{"id":"1181704","type":"movie","title":"Earthquake Underground","poster":"https://image.tmdb.org/t/p/w342/eL91oFnvXAdlW4KN6qXAXTG567u.jpg","year":"2025","result":"HD","language":["Hindi"],"country":["US"],"original_language":"en","genres":["Action","Thriller"],"imdb_id":"tt29001749"},{"id":"1200801","type":"movie","title":"F Marry Kill","poster":"https://image.tmdb.org/t/p/w342/v7eHvzCoRFXhqt0XM2d8MQ1FBKa.jpg","year":"2025","result":"HD","language":["Hindi"],"country":["CA","US"],"original_language":"en","genres":["Comedy","Thriller","Horror"],"imdb_id":"tt22528200"},{"id":"1127767","type":"movie","title":"Riff Raff","poster":"https://image.tmdb.org/t/p/w342/xPSur71bxvFVdQ6RdKv0yaVKT2n.jpg","year":"2025","result":"HD","language":["Hindi"],"country":["US"],"original_language":"en","genres":["Comedy","Crime","Drama"],"imdb_id":"tt27775403"},{"id":"1317088","type":"movie","title":"The Assessment","poster":"https://image.tmdb.org/t/p/w342/o1K7be85FAauSbVPzCQ0GjOXUqu.jpg","year":"2025","result":"HD","language":["Hindi"],"country":["DE","GB","US"],"original_language":"en","genres":["Science Fiction","Drama","Thriller"],"imdb_id":"tt32768323"},{"id":"135152","type":"tv","title":"Indu / Indrani","poster":"https://image.tmdb.org/t/p/w342/kvV1kn1T7K7Y6gSkH7lmQNsCyFk.jpg","year":"2025","result":"HD","language":["Hindi"],"country":[],"original_language":"en","genres":["Drama","Mystery"],"imdb_id":"tt15502918","latest_uploaded_season":3,"total_uploaded_episodes":9},{"id":"1405301","type":"movie","title":"Pyaar Taan Hai Na","poster":"https://image.tmdb.org/t/p/w342/fUsspabzgR8qaQlACg9Okgk5DcO.jpg","year":"2025","result":"HD","language":["Punjabi"],"country":["AU"],"original_language":"pa","genres":[],"imdb_id":"tt35077028"},{"id":"1275248","type":"movie","title":"Sister Midnight","poster":"https://image.tmdb.org/t/p/w342/bV054lxZay3OWFTmjjHKZYDx5PO.jpg","year":"2025","result":"HD","language":["Hindi"],"country":["IN","GB","SE"],"original_language":"en","genres":["Comedy","Drama"],"imdb_id":"tt32060445"},{"id":"1527769","type":"movie","title":"Teda Meda Chal Canada","poster":"https://image.tmdb.org/t/p/w342/9PPXSzmCxNV1LMwEFmTSEpwC2mA.jpg","year":"2025","result":"HD","language":["PUNJABI"],"country":[],"original_language":"en","genres":["Drama"],"imdb_id":""},{"id":"1602459","type":"movie","title":"Tera Bhanna Mitha Laage","poster":"https://image.tmdb.org/t/p/w342/hd61wAwJtQ96L5rqhJO2XPWpe9H.jpg","year":"2025","result":"HD","language":["PUNJABI"],"country":[],"original_language":"en","genres":["Drama"],"imdb_id":""},{"id":"202667","type":"tv","title":"The Second Best Hospital in the Galaxy","poster":"https://image.tmdb.org/t/p/w342/syTzEpti66IsK1ezkkBehROOVzD.jpg","year":"2025","result":"HD","language":["Hindi"],"country":["US"],"original_language":"en","genres":["Animation","Sci-Fi & Fantasy","Comedy"],"imdb_id":"tt11828386","latest_uploaded_season":2,"total_uploaded_episodes":16},{"id":"252257","type":"tv","title":"AMERICA'S SWEETHEARTS: Dallas Cowboys Cheerleaders","poster":"https://image.tmdb.org/t/p/w342/dM3fGD2uDhE9Z5HDieeWXhpXyG0.jpg","year":"2025","result":"HD","language":["Hindi"],"country":["US"],"original_language":"en","genres":["Documentary"],"imdb_id":"tt32146518","latest_uploaded_season":2,"total_uploaded_episodes":14},{"id":"255728","type":"tv","title":"Selling the City","poster":"https://image.tmdb.org/t/p/w342/1MSrHTti0XJODwwtwJsjLs6oDsj.jpg","year":"2025","result":"HD","language":["Hindi"],"country":["US"],"original_language":"en","genres":["Reality"],"imdb_id":"tt32501221","latest_uploaded_season":1,"total_uploaded_episodes":8},{"id":"247522","type":"tv","title":"Tires","poster":"https://image.tmdb.org/t/p/w342/cNHTFUV39qyEsm7edSaJdSqJYtJ.jpg","year":"2025","result":"HD","language":["Hindi"],"country":["US"],"original_language":"en","genres":["Comedy"],"imdb_id":"tt31491435","latest_uploaded_season":2,"total_uploaded_episodes":18},{"id":"809787","type":"movie","title":"Mafia - Game for Life","poster":"https://akamaividz2.zee5.com/image/upload/w_336,h_504,c_scale,f_webp,q_auto:eco/resources/0-0-1z5790150/portrait/1920x770439f2a7462e348c7aef35d253d26175d6e41b5e6ca024f638766da39229d181e82b4fdc9e20f4f1e9c890b2c5bdcbf13.jpg","year":"2025","result":"HD","language":["Hindi"],"country":["GB","US","IT"],"original_language":"en","genres":["Comedy","Crime","Action"],"imdb_id":"tt13923456"},{"id":"1134048","type":"movie","title":"Marshmallow","poster":"https://image.tmdb.org/t/p/w342/qZseaOw1BgLkJsfiEmNpS1KhH8d.jpg","year":"2025","result":"HD","language":["Hindi"],"country":["US"],"original_language":"en","genres":["Horror","Science Fiction"],"imdb_id":"tt15220066"},{"id":"1471491","type":"movie","title":"Room to Move","poster":"https://image.tmdb.org/t/p/w342/4UCqZj1Eki00mJUf8oyq5Vyo6QT.jpg","year":"2025","result":"HD","language":["Hindi"],"country":["US"],"original_language":"en","genres":["Documentary"],"imdb_id":"tt33098576"},{"id":"1255674","type":"movie","title":"Crazy Old Lady","poster":"https://image.tmdb.org/t/p/w342/pT28lZl2eYCNYFyxyThpSKttLfI.jpg","year":"2025","result":"HD","language":["Hindi"],"country":["AR","ES","US"],"original_language":"es","genres":["Horror","Thriller","Comedy"],"imdb_id":"tt31613162"},{"id":"1603224","type":"movie","title":"Real Kashmir Football Club","poster":"https://image.tmdb.org/t/p/w342/mR1ccqIWs7cC5KvYY4XmIOZXHrO.jpg","year":"2025","result":"HD","language":["Hindi"],"country":[],"original_language":"en","genres":[],"imdb_id":""},{"id":"1598138","type":"movie","title":"Red Letter","poster":"https://image.tmdb.org/t/p/w342/8qkYcdBA1XXs7vd9eCmSBmKb6c9.jpg","year":"2025","result":"HD","language":["Hindi"],"country":[],"original_language":"en","genres":["Thriller","Crime"],"imdb_id":"tt37728726"},{"id":"1595325","type":"movie","title":"The Anacondas","poster":"https://image.tmdb.org/t/p/w342/yphysF14qWFvrIbFVg3vEnbudwT.jpg","year":"2025","result":"HD","language":["Hindi"],"country":["US"],"original_language":"en","genres":["Action","Adventure","Horror"],"imdb_id":"tt38043316"},{"id":"1586820","type":"movie","title":"Elmo and Mark Rober's Merry Giftmas","poster":"https://image.tmdb.org/t/p/w342/gcFxbtsgyMMripGtUIxPmmFxQXT.jpg","year":"2025","result":"HD","language":["Hindi"],"country":["US"],"original_language":"en","genres":["Family","TV Movie"],"imdb_id":"tt38984593"},{"id":"1584619","type":"movie","title":"Murder in Monaco","poster":"https://image.tmdb.org/t/p/w342/hW93OYJnnHwGaGa4S2mNxlEhgsF.jpg","year":"2025","result":"HD","language":["Hindi"],"country":["GB","US"],"original_language":"en","genres":["Crime","Documentary"],"imdb_id":"tt38984577"},{"id":"1571470","type":"movie","title":"The Rats: A Witcher Tale","poster":"https://image.tmdb.org/t/p/w342/1T0kO1cgR430AC9I6jurMOezKwg.jpg","year":"2025","result":"HD","language":["Hindi"],"country":["US","PL"],"original_language":"en","genres":["Fantasy","Drama","Adventure"],"imdb_id":"tt28283547"},{"id":"1566269","type":"movie","title":"The First Snow of Fraggle Rock","poster":"https://image.tmdb.org/t/p/w342/xyxAOTToALUkeFS9x5V6MOv8YWr.jpg","year":"2025","result":"HD","language":["Hindi"],"country":["US"],"original_language":"en","genres":["Family","Comedy","Music"],"imdb_id":"tt39089423"},{"id":"1560664","type":"movie","title":"The Roughneck","poster":"https://image.tmdb.org/t/p/w342/bRPI3ZLSPJehbnb1OCpWBVBBx0c.jpg","year":"2025","result":"HD","language":["Hindi"],"country":["US"],"original_language":"en","genres":["Thriller","Action","Drama"],"imdb_id":"tt35303601"},{"id":"1554565","type":"movie","title":"Evil Nun","poster":"https://image.tmdb.org/t/p/w342/fLJQgDd9qXZiCEYM9XQqtg1raAC.jpg","year":"2025","result":"HD","language":["Hindi"],"country":["US"],"original_language":"en","genres":["Horror"],"imdb_id":"tt38265135"},{"id":"1553347","type":"movie","title":"Tu Meri Poori Kahani","poster":"https://image.tmdb.org/t/p/w342/2V0Qjds0tHzCiB0PoSLQkrvrqsa.jpg","year":"2025","result":"HD","language":["Hindi"],"country":["IN"],"original_language":"en","genres":["Romance","Drama"],"imdb_id":"tt33097892"},{"id":"1552117","type":"movie","title":"Chalo Bulaava Aaya Hai","poster":"https://image.tmdb.org/t/p/w342/469JpVpXBucgfGVS7J2OMqinTAf.jpg","year":"2025","result":"HD","language":["Hindi"],"country":["IN","GB"],"original_language":"pa","genres":["Drama","Family"],"imdb_id":"tt38043583"},{"id":"1550785","type":"movie","title":"My Father, the BTK Killer","poster":"https://image.tmdb.org/t/p/w342/47EblKlcEQ4lHdTVnay4P1d6thf.jpg","year":"2025","result":"HD","language":["Hindi"],"country":["US"],"original_language":"en","genres":["Crime","Documentary"],"imdb_id":"tt38466379"},{"id":"1550569","type":"movie","title":"Aileen: Queen of the Serial Killers","poster":"https://image.tmdb.org/t/p/w342/iBCorGTwpXhIOeWwTA21HC5Rprx.jpg","year":"2025","result":"HD","language":["Hindi"],"country":["GB","US"],"original_language":"en","genres":["Documentary","Crime"],"imdb_id":"tt38457052"},{"id":"1538573","type":"movie","title":"Cleopatra's Final Secret","poster":"https://image.tmdb.org/t/p/w342/3S1f8REqAu3kUjN6M8hWAgdQh8s.jpg","year":"2025","result":"HD","language":["Hindi"],"country":["GB","US"],"original_language":"en","genres":["Documentary","History"],"imdb_id":"tt37975375"},{"id":"1536876","type":"movie","title":"Mirage","poster":"https://image.tmdb.org/t/p/w342/glSCReT2vcnD7PO2P2959BtNTdC.jpg","year":"2025","result":"HD","language":["Hindi"],"country":[],"original_language":"en","genres":["Drama"],"imdb_id":"tt37762576"},{"id":"1535385","type":"movie","title":"Rebel Royals: An Unlikely Love Story","poster":"https://image.tmdb.org/t/p/w342/7vIkk6WNThpI89dyJMZ8IFrIz7n.jpg","year":"2025","result":"HD","language":["Hindi"],"country":["US"],"original_language":"en","genres":["Documentary"],"imdb_id":"tt37996139"},{"id":"1530875","type":"movie","title":"All the Devils Are Here","poster":"https://image.tmdb.org/t/p/w342/4GJTUSjbCGynQo4PpTTNzzxYfBM.jpg","year":"2025","result":"HD","language":["Hindi"],"country":["US"],"original_language":"en","genres":["Thriller","Crime","Mystery"],"imdb_id":"tt26896414"},{"id":"1528660","type":"movie","title":"Holy Ghost","poster":"https://image.tmdb.org/t/p/w342/z1lwn6GWAjJ7CSn80ZcURb0Cj4G.jpg","year":"2025","result":"HD","language":["Hindi"],"country":[],"original_language":"en","genres":["Horror","Mystery","Thriller"],"imdb_id":"tt36364273"},{"id":"1525091","type":"movie","title":"All the Empty Rooms","poster":"https://image.tmdb.org/t/p/w342/38odJEJiluUBLI58tO6oTmv5wZl.jpg","year":"2025","result":"HD","language":["Hindi"],"country":["US"],"original_language":"en","genres":["Documentary"],"imdb_id":"tt37798645"},{"id":"1523579","type":"movie","title":"Enna Nu Rehna Sehna Ni Aaunda","poster":"https://image.tmdb.org/t/p/w342/gm0BcnnxiHVGgnO5xczlyp5mXCw.jpg","year":"2025","result":"HD","language":["Hindi"],"country":["CA","PK"],"original_language":"pa","genres":["Comedy"],"imdb_id":"tt33044546"},{"id":"1519168","type":"movie","title":"The Jester 2","poster":"https://image.tmdb.org/t/p/w342/47dsw1jSOV0Be5zmy7CtLhYpqU.jpg","year":"2025","result":"HD","language":["Hindi"],"country":["US"],"original_language":"en","genres":["Horror","Thriller","Crime"],"imdb_id":"tt37334010"},{"id":"1517212","type":"movie","title":"The Truth About Jussie Smollett?","poster":"https://image.tmdb.org/t/p/w342/iRR9Ri2GX3c5bikrz1Zuj4u5bkl.jpg","year":"2025","result":"HD","language":["Hindi"],"country":["GB","US"],"original_language":"en","genres":["Documentary"],"imdb_id":"tt37670615"},{"id":"1516391","type":"movie","title":"Cover-Up","poster":"https://image.tmdb.org/t/p/w342/3kVAkwPrNNw3kxe2yJVatj86QKo.jpg","year":"2025","result":"HD","language":["Hindi"],"country":["US"],"original_language":"en","genres":["Documentary"],"imdb_id":"tt37660887"},{"id":"1513598","type":"movie","title":"Stolen: Heist of the Century","poster":"https://image.tmdb.org/t/p/w342/aqZOJkBd3DR6ioacm136lP7BGvi.jpg","year":"2025","result":"HD","language":["Hindi"],"country":[],"original_language":"en","genres":["Documentary","Crime"],"imdb_id":"tt37543886"},{"id":"1511556","type":"movie","title":"Under Fire","poster":"https://image.tmdb.org/t/p/w342/dIQcDDuDPewwELfhmYMnt25AyZ6.jpg","year":"2025","result":"HD","language":["Hindi"],"country":["US"],"original_language":"en","genres":["Action","Comedy","Thriller","Drama"],"imdb_id":"tt32212611"},{"id":"1497036","type":"movie","title":"Dr. Seuss's The Sneetches","poster":"https://image.tmdb.org/t/p/w342/5jqpfOY6q8ltnCFEfUPY3c0bpR5.jpg","year":"2025","result":"HD","language":["Hindi"],"country":["IE"],"original_language":"en","genres":["Animation","Family"],"imdb_id":"tt37677952"},{"id":"1479030","type":"movie","title":"Stolen","poster":"https://image.tmdb.org/t/p/w342/8XR1tGffFOH4QYV2RYShh0fexYg.jpg","year":"2025","result":"HD","language":["Hindi"],"country":[],"original_language":"en","genres":["Crime","Mystery","Drama"],"imdb_id":""}]}