{"page":9,"total_pages":26,"total_items":1255,"items":[{"id":"701387","type":"movie","title":"Bugonia","poster":"https://image.tmdb.org/t/p/w342/rSdOua3wKMEaFWDcKAYWRjXQWOt.jpg","year":"2025","result":"HD","language":["Hindi"],"country":["IE","KR","US","CA"],"original_language":"en","genres":["Science Fiction","Thriller","Comedy"],"imdb_id":"tt12300742"},{"id":"668489","type":"movie","title":"Havoc","poster":"https://image.tmdb.org/t/p/w342/ubP2OsF3GlfqYPvXyLw9d78djGX.jpg","year":"2025","result":"HD","language":["Hindi"],"country":["GB","US"],"original_language":"en","genres":["Action","Crime","Thriller","Drama"],"imdb_id":"tt14123284"},{"id":"628847","type":"movie","title":"Trap House","poster":"https://image.tmdb.org/t/p/w342/6tpAPeuuqbVnYWWPoOLEDLSBU7a.jpg","year":"2025","result":"HD","language":["Hindi"],"country":["GB","US"],"original_language":"en","genres":["Action","Crime","Thriller"],"imdb_id":"tt10799690"},{"id":"617126","type":"movie","title":"The Fantastic 4: First Steps","poster":"https://image.tmdb.org/t/p/w342/abqOz6EL3yXyOOafCPZxjL1M5bQ.jpg","year":"2025","result":"HD","language":["Hindi"],"country":["US"],"original_language":"en","genres":["Science Fiction","Adventure","Action"],"imdb_id":"tt10676052"},{"id":"607141","type":"movie","title":"Be Happy","poster":"https://image.tmdb.org/t/p/w342/6bvW47MtJKo2ipPYJ2xDvdf4zbz.jpg","year":"2025","result":"HD","language":["Hindi"],"country":["IN","US"],"original_language":"hi","genres":["Drama","Music","Family"],"imdb_id":"tt6649234"},{"id":"575265","type":"movie","title":"Mission: Impossible - The Final Reckoning","poster":"https://image.tmdb.org/t/p/w342/z53D72EAOxGRqdr7KXXWp9dJiDe.jpg","year":"2025","result":"HD","language":["Hindi"],"country":["US"],"original_language":"en","genres":["Action","Thriller","Adventure"],"imdb_id":"tt9603208"},{"id":"574475","type":"movie","title":"Final Destination Bloodlines","poster":"https://image.tmdb.org/t/p/w342/6WxhEvFsauuACfv8HyoVX6mZKFj.jpg","year":"2025","result":"HD","language":["Hindi"],"country":["US"],"original_language":"en","genres":["Horror","Mystery"],"imdb_id":"tt9619824"},{"id":"552524","type":"movie","title":"Lilo & Stitch","poster":"https://image.tmdb.org/t/p/w342/ckQzKpQJO4ZQDCN5evdpKcfm7Ys.jpg","year":"2025","result":"HD","language":["Hindi"],"country":["US"],"original_language":"en","genres":["Family","Science Fiction","Comedy"],"imdb_id":"tt11655566"},{"id":"541671","type":"movie","title":"Ballerina","poster":"https://image.tmdb.org/t/p/w342/2VUmvqsHb6cEtdfscEA6fqqVzLg.jpg","year":"2025","result":"HD","language":["Hindi"],"country":["US"],"original_language":"en","genres":["Action","Thriller","Crime"],"imdb_id":"tt7181546"},{"id":"533533","type":"movie","title":"TRON: Ares","poster":"https://image.tmdb.org/t/p/w342/chpWmskl3aKm1aTZqUHRCtviwPy.jpg","year":"2025","result":"HD","language":["Hindi"],"country":["US"],"original_language":"en","genres":["Science Fiction","Adventure","Action"],"imdb_id":"tt6604188"},{"id":"507244","type":"movie","title":"Afterburn","poster":"https://image.tmdb.org/t/p/w342/hrze9JXp2QJpc2WjLfSUtRxyYSb.jpg","year":"2025","result":"HD","language":["Hindi"],"country":["US","GB"],"original_language":"en","genres":["Action","Science Fiction","Comedy"],"imdb_id":"tt1210027"},{"id":"338969","type":"movie","title":"The Toxic Avenger Unrated","poster":"https://image.tmdb.org/t/p/w342/cCWojb6N9UcTzNVtS4bOM3vQ30x.jpg","year":"2025","result":"HD","language":["Hindi"],"country":["US"],"original_language":"en","genres":["Action","Comedy","Science Fiction"],"imdb_id":"tt1633359"},{"id":"309081","type":"tv","title":"Let's Play Blind Har Chaal Ek Dhokha","poster":"https://image.tmdb.org/t/p/w342/eEMaz3jBAf069hyAwfEN5mmDQXD.jpg","year":"2025","result":"HD","language":["Hindi"],"country":["US"],"original_language":"en","genres":[],"imdb_id":"tt37895286","latest_uploaded_season":1,"total_uploaded_episodes":6},{"id":"306517","type":"tv","title":"Members Only: Palm Beach","poster":"https://image.tmdb.org/t/p/w342/shteveRMvIbcdlPsMVqqQeCIGOS.jpg","year":"2025","result":"HD","language":["Hindi"],"country":["US"],"original_language":"en","genres":["Reality"],"imdb_id":"tt37677376","latest_uploaded_season":1,"total_uploaded_episodes":8},{"id":"305995","type":"tv","title":"What's in the Box?","poster":"https://image.tmdb.org/t/p/w342/riwRl7TPRH8OqMmleaPGtL1VBDC.jpg","year":"2025","result":"HD","language":["Hindi"],"country":["GB"],"original_language":"en","genres":["Reality"],"imdb_id":"tt37507058","latest_uploaded_season":1,"total_uploaded_episodes":6},{"id":"303173","type":"tv","title":"MARINES","poster":"https://image.tmdb.org/t/p/w342/rpXGvTyNT6Crsu5ZzCy1h1SgRep.jpg","year":"2025","result":"HD","language":["Hindi"],"country":["US"],"original_language":"en","genres":["Documentary"],"imdb_id":"tt38696262","latest_uploaded_season":1,"total_uploaded_episodes":4},{"id":"302540","type":"tv","title":"The Bad Guys: Breaking In","poster":"https://image.tmdb.org/t/p/w342/12ybD4BvgSpmhSjknFPvf1Nu7CC.jpg","year":"2025","result":"HD","language":["Hindi"],"country":["US"],"original_language":"en","genres":["Animation","Crime","Comedy","Family"],"imdb_id":"tt31392119","latest_uploaded_season":1,"total_uploaded_episodes":9},{"id":"301498","type":"tv","title":"Mob War: Philadelphia vs. the Mafia","poster":"https://image.tmdb.org/t/p/w342/5vtAydTEQuOVj144b3ob80KUryg.jpg","year":"2025","result":"HD","language":["Hindi"],"country":["US"],"original_language":"en","genres":["Documentary","Crime"],"imdb_id":"tt38501655","latest_uploaded_season":1,"total_uploaded_episodes":3},{"id":"300999","type":"tv","title":"True Haunting","poster":"https://image.tmdb.org/t/p/w342/8XK4kBkP7QVIPnl6dFfdPSCICs6.jpg","year":"2025","result":"HD","language":["Hindi"],"country":["US"],"original_language":"en","genres":["Documentary","Mystery"],"imdb_id":"tt38362312","latest_uploaded_season":1,"total_uploaded_episodes":5},{"id":"300594","type":"tv","title":"Is It Cake? Halloween","poster":"https://image.tmdb.org/t/p/w342/msfCGuLiZwLV8O5JZ3EoY6aeiim.jpg","year":"2025","result":"HD","language":["Hindi"],"country":["US"],"original_language":"en","genres":["Reality"],"imdb_id":"tt37610484","latest_uploaded_season":1,"total_uploaded_episodes":4},{"id":"300101","type":"tv","title":"Rishton Ka Chakravyuh","poster":"https://image.tmdb.org/t/p/w342/8dUfqpNLZXGUun3LJqPas6mDsXC.jpg","year":"2025","result":"HD","language":["Hindi"],"country":["US"],"original_language":"en","genres":[],"imdb_id":"","latest_uploaded_season":1,"total_uploaded_episodes":6},{"id":"299713","type":"tv","title":"Simon Cowell: The Next Act","poster":"https://image.tmdb.org/t/p/w342/fHDbFaPAj0H1UuXUb7MVueHqrpb.jpg","year":"2025","result":"HD","language":["Hindi"],"country":["GB"],"original_language":"en","genres":["Reality"],"imdb_id":"tt37610565","latest_uploaded_season":1,"total_uploaded_episodes":6},{"id":"298234","type":"tv","title":"aka Charlie Sheen","poster":"https://image.tmdb.org/t/p/w342/pHAM8Fzek7xwTbqmaxPXAjCAjz1.jpg","year":"2025","result":"HD","language":["Hindi"],"country":["US"],"original_language":"en","genres":["Documentary"],"imdb_id":"tt37898320","latest_uploaded_season":1,"total_uploaded_episodes":2},{"id":"297791","type":"tv","title":"Love Con Revenge","poster":"https://image.tmdb.org/t/p/w342/55nrhtg03edW32acGz0UEjWpKuO.jpg","year":"2025","result":"HD","language":["Hindi"],"country":["GB"],"original_language":"en","genres":["Crime","Documentary"],"imdb_id":"tt37694034","latest_uploaded_season":1,"total_uploaded_episodes":6},{"id":"296549","type":"tv","title":"Fit for TV: The Reality of the Biggest Loser","poster":"https://image.tmdb.org/t/p/w342/bxf5rfk5f0qYf3aH7vgh5zwh5Y7.jpg","year":"2025","result":"HD","language":["Hindi"],"country":["US"],"original_language":"en","genres":["Documentary"],"imdb_id":"tt37666468","latest_uploaded_season":1,"total_uploaded_episodes":3},{"id":"296547","type":"tv","title":"Rose Garden","poster":"https://image.tmdb.org/t/p/w342/7usDnfowGZn9tXQddl6SQb5eZ2d.jpg","year":"2025","result":"HD","language":["Hindi"],"country":["US"],"original_language":"en","genres":[],"imdb_id":"tt37618499","latest_uploaded_season":1,"total_uploaded_episodes":1},{"id":"294765","type":"tv","title":"Badass Begum","poster":"https://i.ibb.co/LXyCLw0M/Gemini-Generated-Image-8v0dev8v0dev8v0d.avif","year":"2025","result":"HD","language":["Hindi"],"country":["US"],"original_language":"en","genres":[],"imdb_id":"","latest_uploaded_season":1,"total_uploaded_episodes":1},{"id":"290148","type":"tv","title":"Formula E: DRIVER","poster":"https://image.tmdb.org/t/p/w342/s4FE3H2L91JaXh95EgGzfIVwNl6.jpg","year":"2025","result":"HD","language":["Hindi"],"country":["GB"],"original_language":"en","genres":["Documentary"],"imdb_id":"tt36674331","latest_uploaded_season":1,"total_uploaded_episodes":4},{"id":"286801","type":"tv","title":"Monster: The Ed Gein Story","poster":"https://image.tmdb.org/t/p/w342/iDHzRALtZCzHVmx7uyjTTKvMAPB.jpg","year":"2025","result":"HD","language":["Hindi"],"country":["US"],"original_language":"en","genres":["Crime"],"imdb_id":"","latest_uploaded_season":1,"total_uploaded_episodes":8},{"id":"286603","type":"tv","title":"Khadaan","poster":"https://image.tmdb.org/t/p/w342/mBQbVL4vBSwQJWCRXNN50CaMCLe.jpg","year":"2025","result":"HD","language":["Hindi"],"country":["IN","GB","US"],"original_language":"en","genres":["Crime"],"imdb_id":"tt36151454","latest_uploaded_season":1,"total_uploaded_episodes":1},{"id":"285754","type":"tv","title":"Kanneda","poster":"https://image.tmdb.org/t/p/w342/hlICsD9V4HIyu93jjALz6QEQdvi.jpg","year":"2025","result":"HD","language":["Hindi"],"country":["IN","GB"],"original_language":"hi","genres":["Crime"],"imdb_id":"tt35834854","latest_uploaded_season":1,"total_uploaded_episodes":8},{"id":"283354","type":"tv","title":"Katrina: Come Hell and High Water","poster":"https://image.tmdb.org/t/p/w342/f16yvVS9QJf1x0dxx1bPE7cnKKR.jpg","year":"2025","result":"HD","language":["Hindi"],"country":["US"],"original_language":"en","genres":["Documentary"],"imdb_id":"tt35629490","latest_uploaded_season":1,"total_uploaded_episodes":3},{"id":"279942","type":"tv","title":"America's Team: The Gambler and His Cowboys","poster":"https://image.tmdb.org/t/p/w342/2LZegU8xUyhiWDJ4vXA03DjXtPU.jpg","year":"2025","result":"HD","language":["Hindi"],"country":["US"],"original_language":"en","genres":["Documentary"],"imdb_id":"tt32376299","latest_uploaded_season":1,"total_uploaded_episodes":8},{"id":"279601","type":"tv","title":"Man vs Baby","poster":"https://image.tmdb.org/t/p/w342/x7UZVTEr26H5yCSVQoKTeBdvUvg.jpg","year":"2025","result":"HD","language":["Hindi"],"country":["GB"],"original_language":"en","genres":["Comedy","Family"],"imdb_id":"tt35047134","latest_uploaded_season":1,"total_uploaded_episodes":4},{"id":"271823","type":"tv","title":"Playing Gracie Darling","poster":"https://image.tmdb.org/t/p/w342/7UWdkbSUd1d1GB28IyIKDbftzhM.jpg","year":"2025","result":"HD","language":["Hindi"],"country":["AU"],"original_language":"en","genres":["Drama","Mystery"],"imdb_id":"tt33384059","latest_uploaded_season":1,"total_uploaded_episodes":6},{"id":"262281","type":"tv","title":"Victoria Beckham","poster":"https://image.tmdb.org/t/p/w342/dJjWMwWk86zMGPQlMvAsptVEDYm.jpg","year":"2025","result":"HD","language":["Hindi"],"country":["GB"],"original_language":"en","genres":["Documentary"],"imdb_id":"tt33241853","latest_uploaded_season":1,"total_uploaded_episodes":3},{"id":"262279","type":"tv","title":"Matchroom: The Greatest Showmen","poster":"https://image.tmdb.org/t/p/w342/mRIPc4ISxovSrUFycg3g7LcSvdQ.jpg","year":"2025","result":"HD","language":["Hindi"],"country":["GB"],"original_language":"en","genres":["Documentary"],"imdb_id":"tt37981481","latest_uploaded_season":1,"total_uploaded_episodes":6},{"id":"256317","type":"tv","title":"Countdown","poster":"https://image.tmdb.org/t/p/w342/gcSNS5cy1iOmYawIdJCzoc873rQ.jpg","year":"2025","result":"HD","language":["Hindi"],"country":["US"],"original_language":"en","genres":["Crime","Mystery"],"imdb_id":"tt32559610","latest_uploaded_season":1,"total_uploaded_episodes":13},{"id":"255859","type":"tv","title":"Wayward","poster":"https://image.tmdb.org/t/p/w342/t6bk8g9DsITWZXwnw9jrA9RDdCB.jpg","year":"2025","result":"HD","language":["Hindi"],"country":["CA"],"original_language":"en","genres":["Drama","Mystery"],"imdb_id":"tt27427326","latest_uploaded_season":1,"total_uploaded_episodes":8},{"id":"253376","type":"tv","title":"The Girlfriend","poster":"https://image.tmdb.org/t/p/w342/ktrp3tdZ5IQpFux4nLy8z70bt3n.jpg","year":"2025","result":"HD","language":["Hindi"],"country":["US","GB"],"original_language":"en","genres":["Drama","Mystery"],"imdb_id":"tt32267726","latest_uploaded_season":1,"total_uploaded_episodes":6},{"id":"250988","type":"tv","title":"House of Guinness","poster":"https://image.tmdb.org/t/p/w342/cDjJBbJcOj7PsWAveLFdSa4J8zJ.jpg","year":"2025","result":"HD","language":["Hindi"],"country":["GB"],"original_language":"en","genres":["Drama"],"imdb_id":"tt13542714","latest_uploaded_season":1,"total_uploaded_episodes":8},{"id":"250504","type":"tv","title":"The Beast in Me","poster":"https://image.tmdb.org/t/p/w342/jxf7JCfIMvGONWTNUIJ068sFixK.jpg","year":"2025","result":"HD","language":["Hindi"],"country":["US"],"original_language":"en","genres":["Drama","Mystery"],"imdb_id":"tt31974367","latest_uploaded_season":1,"total_uploaded_episodes":8},{"id":"249039","type":"tv","title":"Black Rabbit","poster":"https://image.tmdb.org/t/p/w342/4e9CraVtGY00jLP2YGwsuEtaIjR.jpg","year":"2025","result":"HD","language":["Hindi"],"country":["GB","US"],"original_language":"en","genres":["Drama","Crime"],"imdb_id":"tt23055142","latest_uploaded_season":1,"total_uploaded_episodes":8},{"id":"248937","type":"tv","title":"Hostage","poster":"https://image.tmdb.org/t/p/w342/ghcxxmSLByYyFLAL8TNWmAel1Ym.jpg","year":"2025","result":"HD","language":["Hindi"],"country":["GB"],"original_language":"en","genres":["Drama","War & Politics"],"imdb_id":"tt31407004","latest_uploaded_season":1,"total_uploaded_episodes":5},{"id":"248852","type":"tv","title":"UNTAMED","poster":"https://image.tmdb.org/t/p/w342/tclYY8RGieQwkJXDxZGf505Zybr.jpg","year":"2025","result":"HD","language":["Hindi"],"country":["US"],"original_language":"en","genres":["Mystery","Drama"],"imdb_id":"tt31710822","latest_uploaded_season":1,"total_uploaded_episodes":6},{"id":"248833","type":"tv","title":"The Runarounds","poster":"https://image.tmdb.org/t/p/w342/653V492dSynzQcSDPubzZLJAjkf.jpg","year":"2025","result":"HD","language":["Hindi"],"country":["US"],"original_language":"en","genres":["Drama","Comedy","Family"],"imdb_id":"tt30274061","latest_uploaded_season":1,"total_uploaded_episodes":8},{"id":"247732","type":"tv","title":"NCIS: Tony & Ziva","poster":"https://image.tmdb.org/t/p/w342/zNIANQsAs2kbxbzbTTe5dTBzhKe.jpg","year":"2025","result":"HD","language":["Hindi"],"country":["US"],"original_language":"en","genres":["Action & Adventure","Drama","Crime"],"imdb_id":"tt31512256","latest_uploaded_season":1,"total_uploaded_episodes":10},{"id":"247619","type":"tv","title":"Overcompensating","poster":"https://image.tmdb.org/t/p/w342/9g5QRUSPBK4ABLzhO9D8ooir6tS.jpg","year":"2025","result":"HD","language":["Hindi"],"country":["US"],"original_language":"en","genres":["Comedy"],"imdb_id":"tt23488694","latest_uploaded_season":1,"total_uploaded_episodes":8},{"id":"245827","type":"tv","title":"Harlan Coben's Lazarus","poster":"https://image.tmdb.org/t/p/w342/lxUlUBGnYJNxqOwc3baBdLpa3Lx.jpg","year":"2025","result":"HD","language":["Hindi"],"country":["US"],"original_language":"en","genres":["Mystery"],"imdb_id":"tt31186865","latest_uploaded_season":1,"total_uploaded_episodes":6},{"id":"245219","type":"tv","title":"Death by Lightning","poster":"https://image.tmdb.org/t/p/w342/KyUrz3GA1FML3XnKkY795XxDxN.jpg","year":"2025","result":"HD","language":["Hindi"],"country":["US"],"original_language":"en","genres":["Drama","Crime"],"imdb_id":"tt31121364","latest_uploaded_season":1,"total_uploaded_episodes":4}]}