{"page":7,"total_pages":26,"total_items":1255,"items":[{"id":"1245347","type":"movie","title":"Twinless","poster":"https://image.tmdb.org/t/p/w342/9vaw9Az5tPLMjNLj426KgKsp0k8.jpg","year":"2025","result":"HD","language":["Hindi"],"country":["US"],"original_language":"en","genres":["Comedy","Drama"],"imdb_id":"tt31322753"},{"id":"1244953","type":"movie","title":"Trust","poster":"https://image.tmdb.org/t/p/w342/n9GS1mUAVMiC3gBn9rb8jrDoK4D.jpg","year":"2025","result":"HD","language":["Hindi"],"country":["US"],"original_language":"en","genres":["Thriller"],"imdb_id":"tt31314745"},{"id":"1244944","type":"movie","title":"The Woman in the Yard","poster":"https://image.tmdb.org/t/p/w342/n0WS2TsNcS6dtaZKzxipyO7LuCJ.jpg","year":"2025","result":"HD","language":["Hindi"],"country":["US"],"original_language":"en","genres":["Horror","Mystery"],"imdb_id":"tt31314296"},{"id":"1242898","type":"movie","title":"Predator: Badlands","poster":"https://image.tmdb.org/t/p/w342/pHpq9yNUIo6aDoCXEBzjSolywgz.jpg","year":"2025","result":"HD","language":["Hindi"],"country":["US"],"original_language":"en","genres":["Action","Science Fiction","Adventure"],"imdb_id":"tt31227572"},{"id":"1242419","type":"movie","title":"Roofman","poster":"https://image.tmdb.org/t/p/w342/wXDFtcnYtevleGzCmAD2ReQnJ4l.jpg","year":"2025","result":"HD","language":["Hindi"],"country":["US"],"original_language":"en","genres":["Crime","Comedy","Drama"],"imdb_id":"tt4627382"},{"id":"1242404","type":"movie","title":"Steve","poster":"https://image.tmdb.org/t/p/w342/wmLoMyofbseLfxiGgk1Iz5H97c3.jpg","year":"2025","result":"HD","language":["Hindi"],"country":["IE"],"original_language":"en","genres":["Drama"],"imdb_id":"tt32985279"},{"id":"1242011","type":"movie","title":"Together","poster":"https://image.tmdb.org/t/p/w342/80slKYVM5teFH3kz6ouWrZXveqj.jpg","year":"2025","result":"HD","language":["Hindi"],"country":["AU","US"],"original_language":"en","genres":["Horror","Romance"],"imdb_id":"tt31184028"},{"id":"1241983","type":"movie","title":"Train Dreams","poster":"https://image.tmdb.org/t/p/w342/wfzYOVdafdbD1d3SxNqiBtV2Yhx.jpg","year":"2025","result":"HD","language":["Hindi"],"country":["US"],"original_language":"en","genres":["Drama"],"imdb_id":"tt29768334"},{"id":"1241921","type":"movie","title":"A Big Bold Beautiful Journey","poster":"https://image.tmdb.org/t/p/w342/uMAkmQlKthQpTMiyPAKOYK3JnMs.jpg","year":"2025","result":"HD","language":["Hindi"],"country":["US","IE"],"original_language":"en","genres":["Romance","Fantasy","Drama"],"imdb_id":"tt13650700"},{"id":"1241470","type":"movie","title":"Osiris","poster":"https://image.tmdb.org/t/p/w342/3YtZHtXPNG5AleisgEatEfZOT2w.jpg","year":"2025","result":"HD","language":["Hindi"],"country":["US"],"original_language":"en","genres":["Science Fiction","Action","Horror"],"imdb_id":"tt31179712"},{"id":"1239655","type":"movie","title":"Friendship","poster":"https://image.tmdb.org/t/p/w342/eikAu9gPJTQQmwFwa1zX5Hfz96P.jpg","year":"2025","result":"HD","language":["Hindi"],"country":["US"],"original_language":"en","genres":["Comedy","Drama"],"imdb_id":"tt30505698"},{"id":"1238198","type":"movie","title":"Songs of Paradise","poster":"https://image.tmdb.org/t/p/w342/bnfP3bX21VC536U9vdzDDWQM3pH.jpg","year":"2025","result":"HD","language":["Hindi"],"country":["IN","US"],"original_language":"hi","genres":["Music","Drama","Family"],"imdb_id":"tt6540996"},{"id":"1234821","type":"movie","title":"Jurassic World Rebirth","poster":"https://image.tmdb.org/t/p/w342/1RICxzeoNCAO5NpcRMIgg1XT6fm.jpg","year":"2025","result":"HD","language":["Hindi"],"country":["US"],"original_language":"en","genres":["Science Fiction","Adventure","Action"],"imdb_id":"tt31036941"},{"id":"1234731","type":"movie","title":"Anaconda","poster":"https://image.tmdb.org/t/p/w342/qxMv3HwAB3XPuwNLMhVRg795Ktp.jpg","year":"2025","result":"HD","language":["Hindi"],"country":["US"],"original_language":"en","genres":["Adventure","Comedy","Horror"],"imdb_id":"tt33244668"},{"id":"1234603","type":"movie","title":"The Fable","poster":"https://image.tmdb.org/t/p/w342/xpFx3aG0CpK3CMo62BuUlqu5ySD.jpg","year":"2025","result":"HD","language":["Hindi"],"country":["IN","US"],"original_language":"hi","genres":["Drama","Fantasy","Mystery"],"imdb_id":"tt31015496"},{"id":"1232933","type":"movie","title":"Fear Below","poster":"https://image.tmdb.org/t/p/w342/f90xO280gGQArVP2GU4IshAClt.jpg","year":"2025","result":"HD","language":["Hindi"],"country":["AU"],"original_language":"en","genres":["Horror","Action","Adventure","Thriller"],"imdb_id":"tt13098590"},{"id":"1228246","type":"movie","title":"Five Nights at Freddy's 2","poster":"https://image.tmdb.org/t/p/w342/udAxQEORq2I5wxI97N2TEqdhzBE.jpg","year":"2025","result":"HD","language":["Hindi"],"country":["US"],"original_language":"en","genres":["Horror","Thriller"],"imdb_id":"tt30274401"},{"id":"1227739","type":"movie","title":"Homebound","poster":"https://image.tmdb.org/t/p/w342/vyezjSvSdLO0bvr6jSNuFi6yuiw.jpg","year":"2025","result":"HD","language":["Hindi"],"country":["IN","US","FR"],"original_language":"hi","genres":["Drama"],"imdb_id":"tt26733325"},{"id":"1226406","type":"movie","title":"Love Hurts","poster":"https://image.tmdb.org/t/p/w342/skPPVeHoTTVVSJlb0Ib5vrqiuA4.jpg","year":"2025","result":"HD","language":["Hindi"],"country":["US","JP"],"original_language":"en","genres":["Action","Comedy","Romance"],"imdb_id":"tt30788842"},{"id":"1223690","type":"movie","title":"Pretty Thing","poster":"https://image.tmdb.org/t/p/w342/xWVbtqUvuhAOYzkZV6YDQOnN5fQ.jpg","year":"2025","result":"HD","language":["Hindi"],"country":["US"],"original_language":"en","genres":["Thriller","Drama"],"imdb_id":"tt29474633"},{"id":"1223601","type":"movie","title":"Sisu: Road to Revenge","poster":"https://image.tmdb.org/t/p/w342/jNsttCWZyPtW66MjhUozBzVsRb7.jpg","year":"2025","result":"HD","language":["Hindi"],"country":["FI","GB"],"original_language":"fi","genres":["Action","War"],"imdb_id":"tt31844586"},{"id":"1218762","type":"movie","title":"Jingle Bell Heist","poster":"https://image.tmdb.org/t/p/w342/rVOQF2Ucekug1B80A9crVx7Jn90.jpg","year":"2025","result":"HD","language":["Hindi"],"country":["US","GB"],"original_language":"en","genres":["Romance","Crime","Comedy"],"imdb_id":"tt24852126"},{"id":"1217602","type":"movie","title":"London Calling","poster":"https://image.tmdb.org/t/p/w342/cpQ4VxBJO7vGV3IUdKzSNf4tH9V.jpg","year":"2025","result":"HD","language":["Hindi"],"country":["ZA","US"],"original_language":"en","genres":["Action","Crime","Comedy","Thriller"],"imdb_id":"tt30425872"},{"id":"1214931","type":"movie","title":"Nuremberg","poster":"https://image.tmdb.org/t/p/w342/7cWTGH2svfNHWVRjsfKIBob9pDj.jpg","year":"2025","result":"HD","language":["Hindi"],"country":["US","HU"],"original_language":"en","genres":["History","Drama"],"imdb_id":"tt29567915"},{"id":"1212742","type":"movie","title":"The Rule of Jenny Pen","poster":"https://image.tmdb.org/t/p/w342/5vqK1wbrgmUvqHn6yPt9b6qT9iL.jpg","year":"2025","result":"HD","language":["Hindi"],"country":["NZ"],"original_language":"en","genres":["Horror","Thriller"],"imdb_id":"tt6874690"},{"id":"1211886","type":"movie","title":"Kidnapping Inc.","poster":"https://image.tmdb.org/t/p/w342/n6Mn9Xe7Yy0lo4WHKm4jR3QmmM0.jpg","year":"2025","result":"HD","language":["Hindi"],"country":["CA","FR","HT","PK"],"original_language":"ht","genres":["Comedy","Thriller","Drama","Crime","Action"],"imdb_id":"tt4726640"},{"id":"1208983","type":"movie","title":"Neighborhood Watch","poster":"https://image.tmdb.org/t/p/w342/n1KcNdCrz5s3ruij9eiT5IARter.jpg","year":"2025","result":"HD","language":["Hindi"],"country":["US"],"original_language":"en","genres":["Thriller","Crime"],"imdb_id":"tt1714918"},{"id":"1197137","type":"movie","title":"Black Phone 2","poster":"https://image.tmdb.org/t/p/w342/gFddBLQ8wj9M9O82iPzgX5KVNHz.jpg","year":"2025","result":"HD","language":["Hindi"],"country":["US"],"original_language":"en","genres":["Horror","Thriller"],"imdb_id":"tt29644189"},{"id":"1196573","type":"movie","title":"She Rides Shotgun","poster":"https://image.tmdb.org/t/p/w342/nvqW8mOm818QDio3GKKmPLK8kXj.jpg","year":"2025","result":"HD","language":["Hindi"],"country":["US"],"original_language":"en","genres":["Action","Thriller","Crime"],"imdb_id":"tt27986457"},{"id":"1193824","type":"movie","title":"Rabbit Trap","poster":"https://image.tmdb.org/t/p/w342/sKnwnnmBpjo9BEskHtja6ToXUV1.jpg","year":"2025","result":"HD","language":["Hindi"],"country":["US","GB"],"original_language":"en","genres":["Thriller","Horror","Mystery","Fantasy"],"imdb_id":"tt29567402"},{"id":"1181540","type":"movie","title":"Guns Up","poster":"https://image.tmdb.org/t/p/w342/3RokBWEkQqJRZEVP3DPwGm5MYh6.jpg","year":"2025","result":"HD","language":["Hindi"],"country":["US"],"original_language":"en","genres":["Action","Comedy","Crime"],"imdb_id":"tt28026215"},{"id":"1175942","type":"movie","title":"The Bad Guys 2","poster":"https://image.tmdb.org/t/p/w342/c1msaKf1wyuKcmLjjJd6rIBPFcd.jpg","year":"2025","result":"HD","language":["Hindi"],"country":["US"],"original_language":"en","genres":["Family","Comedy","Crime","Adventure","Animation"],"imdb_id":"tt30017619"},{"id":"1156594","type":"movie","title":"Our Fault","poster":"https://image.tmdb.org/t/p/w342/yzqHt4m1SeY9FbPrfZ0C2Hi9x1s.jpg","year":"2025","result":"HD","language":["Hindi"],"country":["ES","US"],"original_language":"es","genres":["Romance","Drama"],"imdb_id":"tt33311244"},{"id":"1146210","type":"movie","title":"Housefull 5","poster":"https://image.tmdb.org/t/p/w342/iGvGkVOfsooO0ZBrhN5i6zXYUCy.jpg","year":"2025","result":"HD","language":["Hindi"],"country":["IN","GB"],"original_language":"hi","genres":["Comedy","Mystery","Thriller"],"imdb_id":"tt9104736"},{"id":"1145221","type":"movie","title":"It Feeds","poster":"https://image.tmdb.org/t/p/w342/uC3lzzgOUgkubje7HR20qznAAGj.jpg","year":"2025","result":"HD","language":["Hindi"],"country":["CA"],"original_language":"en","genres":["Horror"],"imdb_id":"tt28230296"},{"id":"1144443","type":"movie","title":"Follow My Voice","poster":"https://image.tmdb.org/t/p/w342/kBd17L811S97JESH9ma1pPMO0o0.jpg","year":"2025","result":"HD","language":["Hindi"],"country":["ES","US"],"original_language":"es","genres":["Romance","Drama"],"imdb_id":"tt23899310"},{"id":"1140535","type":"movie","title":"Presence","poster":"https://image.tmdb.org/t/p/w342/xZIGHoHj0DF0zdibwa66cRWHdHO.jpg","year":"2025","result":"HD","language":["Hindi"],"country":["US"],"original_language":"en","genres":["Horror","Thriller","Drama"],"imdb_id":"tt28249919"},{"id":"1136867","type":"movie","title":"Materialists","poster":"https://image.tmdb.org/t/p/w342/zh4kaa2dGhVjojHulCWt3AR4b2l.jpg","year":"2025","result":"HD","language":["Hindi"],"country":["US","FI"],"original_language":"en","genres":["Romance","Drama"],"imdb_id":"tt30253473"},{"id":"1128655","type":"movie","title":"The Surfer","poster":"https://image.tmdb.org/t/p/w342/gm9Ou0dkxhb1vcrkB6uRhoifcHC.jpg","year":"2025","result":"HD","language":["Hindi"],"country":["AU","IE","GB","US"],"original_language":"en","genres":["Thriller","Drama"],"imdb_id":"tt27813235"},{"id":"1128614","type":"movie","title":"A Nice Indian Boy","poster":"https://image.tmdb.org/t/p/w342/xfY2FZlnm5uaQbaWR9IYW41J1xG.jpg","year":"2025","result":"HD","language":["Hindi"],"country":["US"],"original_language":"en","genres":["Romance","Comedy"],"imdb_id":"tt16431330"},{"id":"1127628","type":"movie","title":"The Thing with Feathers","poster":"https://image.tmdb.org/t/p/w342/j3kM0tMW7EQaOrit0JW9NvoPPrp.jpg","year":"2025","result":"HD","language":["Hindi"],"country":["GB"],"original_language":"en","genres":["Drama"],"imdb_id":"tt27773954"},{"id":"1127110","type":"movie","title":"Diablo","poster":"https://image.tmdb.org/t/p/w342/uFQduVyYIinJy3eLjozgfl6Xtcn.jpg","year":"2025","result":"HD","language":["Hindi"],"country":["US","CO"],"original_language":"en","genres":["Action","Thriller","Crime"],"imdb_id":"tt27757546"},{"id":"1126915","type":"movie","title":"Tornado","poster":"https://image.tmdb.org/t/p/w342/iow3KuKBJN2Hfqi7i7Tq3pZUbAa.jpg","year":"2025","result":"HD","language":["Hindi"],"country":["GB","US"],"original_language":"en","genres":["Drama","Action","Western"],"imdb_id":"tt27721490"},{"id":"1125257","type":"movie","title":"Freakier Friday","poster":"https://image.tmdb.org/t/p/w342/9wV65OmsjLAqBfDnYTkMPutXH8j.jpg","year":"2025","result":"HD","language":["Hindi"],"country":["US"],"original_language":"en","genres":["Comedy","Fantasy","Family"],"imdb_id":"tt31956415"},{"id":"1119878","type":"movie","title":"Ice Road: Vengeance","poster":"https://image.tmdb.org/t/p/w342/cQN9rZj06rXMVkk76UF1DfBAico.jpg","year":"2025","result":"HD","language":["Hindi"],"country":["US"],"original_language":"en","genres":["Action","Thriller","Drama"],"imdb_id":"tt27621210"},{"id":"1117857","type":"movie","title":"In Your Dreams","poster":"https://image.tmdb.org/t/p/w342/ug0TqgmByPCEYzR9lQWQmyAa7sw.jpg","year":"2025","result":"HD","language":["Hindi"],"country":["US"],"original_language":"en","genres":["Animation","Family","Comedy","Adventure","Fantasy"],"imdb_id":"tt27604215"},{"id":"1115982","type":"movie","title":"Everything's Going to Be Great","poster":"https://image.tmdb.org/t/p/w342/v64pw0k8FvWb7fvfpWCNj8il8Ei.jpg","year":"2025","result":"HD","language":["Hindi"],"country":["US","CA"],"original_language":"en","genres":["Comedy","Drama"],"imdb_id":"tt27560723"},{"id":"1107325","type":"movie","title":"Witchboard","poster":"https://image.tmdb.org/t/p/w342/8RcN5FHkJVNJdOaL6WtTePU7CyF.jpg","year":"2025","result":"HD","language":["Hindi"],"country":["US"],"original_language":"en","genres":["Horror"],"imdb_id":"tt2256055"},{"id":"1107216","type":"movie","title":"Pets on a Train","poster":"https://image.tmdb.org/t/p/w342/b10qy1KwrfmH0MGS2rBUJ0BxgYB.jpg","year":"2025","result":"HD","language":["Hindi"],"country":["FR","US"],"original_language":"fr","genres":["Animation","Comedy","Adventure","Thriller"],"imdb_id":"tt36424914"},{"id":"1106382","type":"movie","title":"Bau, Artist at War","poster":"https://image.tmdb.org/t/p/w342/pMLKb0U2XctHx7xAeMxdko4kpCD.jpg","year":"2025","result":"HD","language":["Hindi"],"country":["US"],"original_language":"en","genres":["Drama","History","Romance"],"imdb_id":"tt8839576"}]}