{"page":23,"total_pages":26,"total_items":1255,"items":[{"id":"64685","type":"movie","title":"Extremely Loud & Incredibly Close","poster":"https://image.tmdb.org/t/p/w342/6pszViNvKr1r31pP7gJNYDHEx5P.jpg","year":"2011","result":"HD","language":["Hindi"],"country":["US"],"original_language":"en","genres":["Drama"],"imdb_id":"tt0477302"},{"id":"58574","type":"movie","title":"Sherlock Holmes: A Game of Shadows","poster":"https://image.tmdb.org/t/p/w342/vskIKrMNUAhns05dx8WYBQfcJEs.jpg","year":"2011","result":"HD","language":["Hindi"],"country":["US"],"original_language":"en","genres":["Adventure","Crime","Mystery","Action"],"imdb_id":"tt1515091"},{"id":"55680","type":"movie","title":"The Craigslist Killer","poster":"https://image.tmdb.org/t/p/w342/6kv8tLMxL3OkotgmESuTVM0ihb5.jpg","year":"2011","result":"HD","language":["Hindi"],"country":["US"],"original_language":"en","genres":["Drama","Thriller"],"imdb_id":"tt1772373"},{"id":"12445","type":"movie","title":"Harry Potter and the Deathly Hallows: Part 2","poster":"https://image.tmdb.org/t/p/w342/c54HpQmuwXjHq2C9wmoACjxoom3.jpg","year":"2011","result":"HD","language":["Hindi"],"country":["GB","US"],"original_language":"en","genres":["Adventure","Fantasy"],"imdb_id":"tt1201607"},{"id":"1771","type":"movie","title":"Captain America: The First Avenger","poster":"https://image.tmdb.org/t/p/w342/vSNxAJTlD0r02V9sPYpOjqDZXUK.jpg","year":"2011","result":"HD","language":["Hindi"],"country":["US"],"original_language":"en","genres":["Action","Adventure","Science Fiction"],"imdb_id":"tt0458339"},{"id":"4607","type":"tv","title":"Lost","poster":"https://image.tmdb.org/t/p/w342/og6S0aTZU6YUJAbqxeKjCa3kY1E.jpg","year":"2010","result":"HD","language":["Hindi"],"country":["US"],"original_language":"en","genres":["Mystery","Action & Adventure","Drama"],"imdb_id":"tt0411008","latest_uploaded_season":6,"total_uploaded_episodes":118},{"id":"10192","type":"movie","title":"Shrek Forever After","poster":"https://image.tmdb.org/t/p/w342/6HrfPZtKcGmX2tUWW3cnciZTaSD.jpg","year":"2010","result":"HD","language":["Hindi"],"country":["US"],"original_language":"en","genres":["Comedy","Adventure","Fantasy","Animation","Family"],"imdb_id":"tt0892791"},{"id":"12685","type":"movie","title":"BloodRayne: The Third Reich","poster":"https://image.tmdb.org/t/p/w342/kS48eBvmVXtNJGXWW5QMQmm1JbO.jpg","year":"2010","result":"HD","language":["Hindi"],"country":["CA","DE","US"],"original_language":"en","genres":["Action","Adventure","Fantasy","Horror"],"imdb_id":"tt1153546"},{"id":"44014","type":"movie","title":"Groupie","poster":"https://image.tmdb.org/t/p/w342/nTRKVxWXA1R1xOsKQmVPpN0fUZa.jpg","year":"2010","result":"HD","language":["Hindi"],"country":["US"],"original_language":"en","genres":["Horror","Thriller"],"imdb_id":"tt1422653"},{"id":"43947","type":"movie","title":"I Spit on Your Grave","poster":"https://image.tmdb.org/t/p/w342/xDbNbIqsdA1D0W2gve2QRTp4z83.jpg","year":"2010","result":"HD","language":["Hindi"],"country":["US"],"original_language":"en","genres":["Thriller","Crime","Horror"],"imdb_id":"tt1242432"},{"id":"43593","type":"movie","title":"Piranha 3D","poster":"https://image.tmdb.org/t/p/w342/lMLS2OFBbNYMSB1ZbVp4q2S4zTU.jpg","year":"2010","result":"HD","language":["Hindi"],"country":["US"],"original_language":"en","genres":["Comedy","Horror"],"imdb_id":"tt0464154"},{"id":"50393","type":"movie","title":"Kung Fu Panda Holiday","poster":"https://image.tmdb.org/t/p/w342/vJv3pI8pyS13rLjy0ok7a3BiE0a.jpg","year":"2010","result":"HD","language":["Hindi"],"country":["US"],"original_language":"en","genres":["Animation","Family","TV Movie","Comedy","Fantasy"],"imdb_id":"tt1702433"},{"id":"20352","type":"movie","title":"Despicable Me","poster":"https://image.tmdb.org/t/p/w342/b1BT309QWjtFUlJPLmXmrcHOWEL.jpg","year":"2010","result":"HD","language":["Hindi"],"country":["US"],"original_language":"en","genres":["Animation","Comedy","Crime","Family","Science Fiction"],"imdb_id":"tt1323594"},{"id":"45317","type":"movie","title":"The Fighter","poster":"https://image.tmdb.org/t/p/w342/xfsFerGhO1h6rLk8vwLgMyQ8WVJ.jpg","year":"2010","result":"HD","language":["Hindi"],"country":["US"],"original_language":"en","genres":["Drama"],"imdb_id":"tt0964517"},{"id":"34851","type":"movie","title":"Predators","poster":"https://image.tmdb.org/t/p/w342/wdniP8NDaJIydi1hMxhpbJMUfr6.jpg","year":"2010","result":"HD","language":["Hindi"],"country":["US"],"original_language":"en","genres":["Science Fiction","Action","Thriller"],"imdb_id":"tt1424381"},{"id":"26389","type":"movie","title":"From Paris with Love","poster":"https://image.tmdb.org/t/p/w342/2nD0RAWVOccomLp1iToVJn6KC2a.jpg","year":"2010","result":"HD","language":["Hindi"],"country":["GB","FR"],"original_language":"en","genres":["Action","Crime","Thriller"],"imdb_id":"tt1179034"},{"id":"12444","type":"movie","title":"Harry Potter and the Deathly Hallows: Part 1","poster":"https://image.tmdb.org/t/p/w342/iGoXIpQb7Pot00EEdwpwPajheZ5.jpg","year":"2010","result":"HD","language":["Hindi"],"country":["GB","US"],"original_language":"en","genres":["Adventure","Fantasy"],"imdb_id":"tt0926084"},{"id":"26123","type":"movie","title":"American Pie Presents: The Book of Love","poster":"https://image.tmdb.org/t/p/w342/hwP0GEP0zy8ar965Xaht19SmMd3.jpg","year":"2009","result":"HD","language":["Hindi"],"country":["US"],"original_language":"en","genres":["Comedy"],"imdb_id":"tt1407050"},{"id":"15092","type":"movie","title":"Crank: High Voltage","poster":"https://image.tmdb.org/t/p/w342/tzTC4EEvF0OPL63frEiogxL2T8M.jpg","year":"2009","result":"HD","language":["Hindi"],"country":["US"],"original_language":"en","genres":["Action","Thriller","Crime"],"imdb_id":"tt1121931"},{"id":"17609","type":"movie","title":"Antichrist","poster":"https://image.tmdb.org/t/p/w342/ge7zbYvpfsDP3luKi0iSpzOgncM.jpg","year":"2009","result":"HD","language":["Hindi"],"country":["DK","FR","DE","IT","PL","SE"],"original_language":"en","genres":["Drama","Horror","Thriller"],"imdb_id":"tt0870984"},{"id":"16258","type":"movie","title":"The Butterfly Effect 3: Revelations","poster":"https://image.tmdb.org/t/p/w342/7utgDyfae053YExAuUKcwkzUKMs.jpg","year":"2009","result":"HD","language":["ENGLISH"],"country":["US"],"original_language":"en","genres":["Science Fiction","Thriller","Drama","Crime"],"imdb_id":"tt1234541"},{"id":"26466","type":"movie","title":"Triangle","poster":"https://image.tmdb.org/t/p/w342/cRlMrbc4Iof7vN0ZqHwJnMBYBLi.jpg","year":"2009","result":"HD","language":["ENGLISH"],"country":["AU","GB"],"original_language":"en","genres":["Horror"],"imdb_id":"tt1187064"},{"id":"34496","type":"movie","title":"Storage","poster":"https://image.tmdb.org/t/p/w342/31Yi65s8gdhBpjfbrIbpXCPyVvP.jpg","year":"2009","result":"HD","language":["Hindi"],"country":["AU"],"original_language":"en","genres":["Crime","Thriller"],"imdb_id":"tt1223893"},{"id":"32985","type":"movie","title":"Solomon Kane","poster":"https://image.tmdb.org/t/p/w342/jwwVNuGRUBXcudG6wOKP9U60BzU.jpg","year":"2009","result":"HD","language":["Hindi"],"country":["CZ","FR","GB","US"],"original_language":"en","genres":["Adventure","Fantasy","Action"],"imdb_id":"tt0970452"},{"id":"24756","type":"movie","title":"The Art of War III: Retribution","poster":"https://image.tmdb.org/t/p/w342/igxwKUqgGh5gD1Z2TzVmW1f4DZQ.jpg","year":"2009","result":"HD","language":["Hindi"],"country":["US"],"original_language":"en","genres":["Action","Adventure","Thriller"],"imdb_id":"tt0878647"},{"id":"19995","type":"movie","title":"Avatar","poster":"https://image.tmdb.org/t/p/w342/gKY6q7SjCkAU6FqvqWybDYgUKIF.jpg","year":"2009","result":"HD","language":["Hindi"],"country":["US","GB"],"original_language":"en","genres":["Science Fiction","Action","Adventure"],"imdb_id":"tt0499549"},{"id":"10528","type":"movie","title":"Sherlock Holmes","poster":"https://image.tmdb.org/t/p/w342/zz0vClg5NdYbhpqaEGyJENrGVSw.jpg","year":"2009","result":"HD","language":["Hindi"],"country":["US","DE","GB"],"original_language":"en","genres":["Adventure","Crime","Mystery","Action"],"imdb_id":"tt0988045"},{"id":"7980","type":"movie","title":"The Lovely Bones","poster":"https://image.tmdb.org/t/p/w342/sn0iDphRxQ7I6aLd9igIgACITak.jpg","year":"2009","result":"HD","language":["Hindi"],"country":["GB","NZ","US"],"original_language":"en","genres":["Fantasy","Drama"],"imdb_id":"tt0380510"},{"id":"8247","type":"movie","title":"Jumper","poster":"https://image.tmdb.org/t/p/w342/3pPZ9JhNz3VMmASVir5SMHvTDUU.jpg","year":"2008","result":"HD","language":["Hindi"],"country":["US"],"original_language":"en","genres":["Action","Adventure","Science Fiction"],"imdb_id":"tt0489099"},{"id":"14503","type":"movie","title":"Bachelor Party 2: The Last Temptation","poster":"https://image.tmdb.org/t/p/w342/5jYCn53G4oqNnGLh6TThQduJqxT.jpg","year":"2008","result":"HD","language":["Hindi"],"country":["US"],"original_language":"en","genres":["Comedy"],"imdb_id":"tt0954541"},{"id":"17166","type":"movie","title":"Insanitarium","poster":"https://image.tmdb.org/t/p/w342/osefLZ4RWntoKHbut9bwphsCRDX.jpg","year":"2008","result":"HD","language":["Hindi"],"country":["US"],"original_language":"en","genres":["Horror","Thriller"],"imdb_id":"tt1103984"},{"id":"13009","type":"movie","title":"Zombie Strippers!","poster":"https://image.tmdb.org/t/p/w342/iQcOzXCpewM9pbEwLoIrHLjpMvB.jpg","year":"2008","result":"HD","language":["Hindi"],"country":["US"],"original_language":"en","genres":["Comedy","Horror","Science Fiction"],"imdb_id":"tt0960890"},{"id":"9502","type":"movie","title":"Kung Fu Panda","poster":"https://image.tmdb.org/t/p/w342/wWt4JYXTg5Wr3xBW2phBrMKgp3x.jpg","year":"2008","result":"HD","language":["Hindi"],"country":["US"],"original_language":"en","genres":["Action","Animation","Comedy","Family"],"imdb_id":"tt0441773"},{"id":"14212","type":"movie","title":"Pulse 2: Afterlife","poster":"https://image.tmdb.org/t/p/w342/z0SGvrvvTlGosfA16yPmp4HpfWg.jpg","year":"2008","result":"HD","language":["Hindi"],"country":["US"],"original_language":"en","genres":["Drama","Horror","Science Fiction"],"imdb_id":"tt1038072"},{"id":"13988","type":"movie","title":"The Art of War II: Betrayal","poster":"https://image.tmdb.org/t/p/w342/gJmkrZSJmPckuB3uwhZTOqZIRDo.jpg","year":"2008","result":"HD","language":["Hindi"],"country":["CA"],"original_language":"en","genres":["Action","Thriller"],"imdb_id":"tt1233571"},{"id":"13460","type":"movie","title":"Doomsday","poster":"https://image.tmdb.org/t/p/w342/cKUmTyXgmhv8cMRCY9RYTKcAeTn.jpg","year":"2008","result":"HD","language":["Hindi"],"country":["DE","GB","US","ZA"],"original_language":"en","genres":["Action","Thriller","Science Fiction"],"imdb_id":"tt0483607"},{"id":"8456","type":"movie","title":"Never Back Down","poster":"https://image.tmdb.org/t/p/w342/8oRUTyP1QAtGDMvRpKZyuyFPG0U.jpg","year":"2008","result":"HD","language":["Hindi"],"country":["US"],"original_language":"en","genres":["Drama","Action"],"imdb_id":"tt1023111"},{"id":"1726","type":"movie","title":"Iron Man","poster":"https://image.tmdb.org/t/p/w342/78lPtwv72eTNqFW9COBYI0dWDJa.jpg","year":"2008","result":"HD","language":["Hindi"],"country":["US"],"original_language":"en","genres":["Action","Science Fiction","Adventure"],"imdb_id":"tt0371746"},{"id":"155","type":"movie","title":"The Dark Knight","poster":"https://image.tmdb.org/t/p/w342/qJ2tW6WMUDux911r6m7haRef0WH.jpg","year":"2008","result":"HD","language":["Hindi"],"country":["GB","US"],"original_language":"en","genres":["Action","Crime","Thriller"],"imdb_id":"tt0468569"},{"id":"8277","type":"movie","title":"American Pie Presents: Beta House","poster":"https://image.tmdb.org/t/p/w342/j7eGbwVb9hTaRFWMlSa7C1OYp3T.jpg","year":"2007","result":"HD","language":["Hindi"],"country":["US","CA"],"original_language":"en","genres":["Comedy"],"imdb_id":"tt0974959"},{"id":"810","type":"movie","title":"Shrek the Third","poster":"https://image.tmdb.org/t/p/w342/n4SexGGQzI26E269tfpa80MZaGV.jpg","year":"2007","result":"HD","language":["Hindi"],"country":["US"],"original_language":"en","genres":["Fantasy","Adventure","Animation","Comedy","Family"],"imdb_id":"tt0413267"},{"id":"70024","type":"movie","title":"Bats: Human Harvest","poster":"https://image.tmdb.org/t/p/w342/ykRiMerjJPWeVlPamivyWhBgnM0.jpg","year":"2007","result":"HD","language":["Hindi"],"country":["US","BG"],"original_language":"en","genres":["Horror"],"imdb_id":"tt0482163"},{"id":"14144","type":"movie","title":"Daddy Day Camp","poster":"https://image.tmdb.org/t/p/w342/fhuhSVb3j8SShe6FhnVUAfSRg6h.jpg","year":"2007","result":"HD","language":["Hindi"],"country":["US"],"original_language":"en","genres":["Family","Comedy"],"imdb_id":"tt0462244"},{"id":"4556","type":"movie","title":"Nightwatching","poster":"https://image.tmdb.org/t/p/w342/vcwa1RqvoYLQIKOA4EjjPNhrkJx.jpg","year":"2007","result":"HD","language":["Hindi"],"country":["CA","NL","PL","GB"],"original_language":"en","genres":["Drama","History"],"imdb_id":"tt0446750"},{"id":"1691","type":"movie","title":"Hostel: Part II","poster":"https://image.tmdb.org/t/p/w342/qB20aiY8Ah3pQikkBxm3j7jQVc8.jpg","year":"2007","result":"HD","language":["Hindi"],"country":["US","CZ"],"original_language":"en","genres":["Horror"],"imdb_id":"tt0498353"},{"id":"4588","type":"movie","title":"Lust, Caution","poster":"https://image.tmdb.org/t/p/w342/6c1tqfJEBuIyhQC19SLlLQAUAvJ.jpg","year":"2007","result":"HD","language":["Hindi"],"country":["CN","HK","TW","US"],"original_language":"zh","genres":["Action","Drama","Romance","Thriller"],"imdb_id":"tt0808357"},{"id":"1991","type":"movie","title":"Death Proof","poster":"https://image.tmdb.org/t/p/w342/vtu6H4NWnQVqEp3aanUq3hNeeot.jpg","year":"2007","result":"HD","language":["Hindi"],"country":["US"],"original_language":"en","genres":["Action","Thriller"],"imdb_id":"tt1028528"},{"id":"8275","type":"movie","title":"American Pie Presents: The Naked Mile","poster":"https://image.tmdb.org/t/p/w342/6CPJVJrqVjibP5Uub8yCg4FKtJi.jpg","year":"2006","result":"HD","language":["Hindi"],"country":["US"],"original_language":"en","genres":["Comedy"],"imdb_id":"tt0808146"},{"id":"8997","type":"movie","title":"Hollow Man II","poster":"https://image.tmdb.org/t/p/w342/c6Ga1AUGPe3GwlpX3qDYrD9y3EZ.jpg","year":"2006","result":"HD","language":["Hindi"],"country":["US"],"original_language":"en","genres":["Horror","Thriller","Science Fiction"],"imdb_id":"tt0469916"},{"id":"15420","type":"movie","title":"The Plague","poster":"https://image.tmdb.org/t/p/w342/oC1IDjpUXbWwmJnWGb9FBldinoG.jpg","year":"2006","result":"HD","language":["Hindi"],"country":["US"],"original_language":"en","genres":["Thriller","Horror"],"imdb_id":"tt0479125"}]}