{"page":21,"total_pages":26,"total_items":1255,"items":[{"id":"443109","type":"movie","title":"Oceans Rising","poster":"https://image.tmdb.org/t/p/w342/3PzeV1qxvSQnu5BdG5tbTmEszDz.jpg","year":"2017","result":"HD","language":["Hindi"],"country":["US"],"original_language":"en","genres":["Action","Science Fiction"],"imdb_id":"tt6215044"},{"id":"452551","type":"movie","title":"The Adventurers","poster":"https://image.tmdb.org/t/p/w342/iVKVucELauvZGsNUd37LgSusQWb.jpg","year":"2017","result":"HD","language":["Hindi"],"country":["CN","CZ","HK","US"],"original_language":"cn","genres":["Action","Crime","Adventure"],"imdb_id":"tt5866930"},{"id":"405815","type":"movie","title":"The Sex Trip","poster":"https://image.tmdb.org/t/p/w342/y0hqdbBvKcDIue4rQLOgzdGqwEA.jpg","year":"2017","result":"HD","language":["Hindi"],"country":["US"],"original_language":"en","genres":["Comedy","Fantasy"],"imdb_id":"tt4357714"},{"id":"370663","type":"movie","title":"Below Her Mouth","poster":"https://image.tmdb.org/t/p/w342/tPhBftWySbanfEialbsUzOuccgN.jpg","year":"2017","result":"HD","language":["Hindi"],"country":["CA"],"original_language":"en","genres":["Drama","Romance"],"imdb_id":"tt5073620"},{"id":"335984","type":"movie","title":"Blade Runner 2049","poster":"https://image.tmdb.org/t/p/w342/gajva2L0rPYkEWjzgFlBXCAVBE5.jpg","year":"2017","result":"HD","language":["Hindi"],"country":["CA","GB","US"],"original_language":"en","genres":["Science Fiction","Drama"],"imdb_id":"tt1856101"},{"id":"324852","type":"movie","title":"Despicable Me 3","poster":"https://image.tmdb.org/t/p/w342/6t3YWl7hrr88lCEFlGVqW5yV99R.jpg","year":"2017","result":"HD","language":["Hindi"],"country":["US"],"original_language":"en","genres":["Action","Animation","Comedy","Family","Adventure"],"imdb_id":"tt3469046"},{"id":"453296","type":"movie","title":"The Wrong Babysitter","poster":"https://image.tmdb.org/t/p/w342/doteEUlowLBDOBqA9VBKH1VetJJ.jpg","year":"2017","result":"HD","language":["Hindi"],"country":["US"],"original_language":"en","genres":["TV Movie","Thriller"],"imdb_id":"tt6145232"},{"id":"496311","type":"movie","title":"Viking Siege","poster":"https://image.tmdb.org/t/p/w342/gc9OwXheYzQbUTG3oe9WHCXrzSm.jpg","year":"2017","result":"HD","language":["Hindi"],"country":["GB"],"original_language":"en","genres":["Action","Adventure"],"imdb_id":"tt5555824"},{"id":"472722","type":"movie","title":"Party Boat","poster":"https://image.tmdb.org/t/p/w342/kWk9NJvlEqIcl98wK3nQDYTFmys.jpg","year":"2017","result":"HD","language":["Hindi"],"country":["US"],"original_language":"en","genres":["Comedy"],"imdb_id":"tt6944936"},{"id":"452068","type":"movie","title":"Drone","poster":"https://image.tmdb.org/t/p/w342/o1Zp7DBOkxDhGCg6fXhuaFaFwsN.jpg","year":"2017","result":"HD","language":["Hindi"],"country":["CA"],"original_language":"en","genres":["Thriller"],"imdb_id":"tt5352846"},{"id":"382614","type":"movie","title":"The Book of Henry","poster":"https://image.tmdb.org/t/p/w342/suLFg4UjvM5BoDipg2Wu3gZ802T.jpg","year":"2017","result":"HD","language":["Hindi"],"country":["US"],"original_language":"en","genres":["Drama","Thriller","Mystery"],"imdb_id":"tt4572792"},{"id":"346364","type":"movie","title":"It","poster":"https://image.tmdb.org/t/p/w342/9E2y5Q7WlCVNEhP5GiVTjhEhx1o.jpg","year":"2017","result":"HD","language":["Hindi"],"country":["US"],"original_language":"en","genres":["Horror","Thriller","Drama"],"imdb_id":"tt1396484"},{"id":"334521","type":"movie","title":"Free Fire","poster":"https://image.tmdb.org/t/p/w342/olpgs0OPE8sdBGcuuWhKYzxAwN4.jpg","year":"2017","result":"HD","language":["Hindi"],"country":["GB"],"original_language":"en","genres":["Action","Crime","Mystery"],"imdb_id":"tt4158096"},{"id":"71693","type":"tv","title":"Blood Drive","poster":"https://image.tmdb.org/t/p/w342/qB9PBQMyKrp8diKGxVpfayKZbgd.jpg","year":"2017","result":"HD","language":["Hindi"],"country":["US"],"original_language":"en","genres":["Drama","Sci-Fi & Fantasy"],"imdb_id":"tt4898282","latest_uploaded_season":1,"total_uploaded_episodes":13},{"id":"402446","type":"movie","title":"Edge of Winter","poster":"https://image.tmdb.org/t/p/w342/mgvdyOJV1Xv6XzhENFphtyW9XVV.jpg","year":"2016","result":"HD","language":["Hindi"],"country":["US","CA"],"original_language":"en","genres":["Drama","Thriller"],"imdb_id":"tt4526546"},{"id":"323675","type":"movie","title":"Ride Along 2","poster":"https://image.tmdb.org/t/p/w342/qKvVUHdiwqkXdlRsW4fHO7SAZef.jpg","year":"2016","result":"HD","language":["Hindi"],"country":["US"],"original_language":"en","genres":["Action","Comedy"],"imdb_id":"tt2869728"},{"id":"61550","type":"tv","title":"Marvel's Agent Carter","poster":"https://image.tmdb.org/t/p/w342/fe79VYyLp5ZBstpJ4oukpuUT3B.jpg","year":"2016","result":"HD","language":["Hindi"],"country":["US"],"original_language":"en","genres":["Drama","Sci-Fi & Fantasy"],"imdb_id":"tt3475734","latest_uploaded_season":2,"total_uploaded_episodes":18},{"id":"343611","type":"movie","title":"Jack Reacher: Never Go Back","poster":"https://image.tmdb.org/t/p/w342/cOg3UT2NYWHZxp41vpxAnVCOC4M.jpg","year":"2016","result":"HD","language":["Hindi"],"country":["CN","US"],"original_language":"en","genres":["Action","Thriller","Drama","Crime"],"imdb_id":"tt3393786"},{"id":"318781","type":"movie","title":"Colonia","poster":"https://image.tmdb.org/t/p/w342/p7oGFkMGaQR27R1olN9RoMzg4vS.jpg","year":"2016","result":"HD","language":["Hindi"],"country":["DE","LU","GB","FR"],"original_language":"de","genres":["Drama","History"],"imdb_id":"tt4005402"},{"id":"308529","type":"movie","title":"Kickboxer: Vengeance","poster":"https://image.tmdb.org/t/p/w342/9suFyXDE1MhZ8I8tuhmTd0fJ7G8.jpg","year":"2016","result":"HD","language":["Hindi"],"country":["US"],"original_language":"en","genres":["Action","Drama"],"imdb_id":"tt3082898"},{"id":"399173","type":"movie","title":"The Assignment","poster":"https://image.tmdb.org/t/p/w342/3wx83iGCATiIAyrZHI6AeeNfiAT.jpg","year":"2016","result":"HD","language":["Hindi"],"country":["US","FR"],"original_language":"en","genres":["Action","Crime","Thriller"],"imdb_id":"tt5034474"},{"id":"308453","type":"movie","title":"The Bronze","poster":"https://image.tmdb.org/t/p/w342/Ah2nD3Kml59svErVsz6DUsxlJ8.jpg","year":"2016","result":"HD","language":["Hindi"],"country":["US"],"original_language":"en","genres":["Drama","Comedy"],"imdb_id":"tt3859304"},{"id":"300673","type":"movie","title":"The Finest Hours","poster":"https://image.tmdb.org/t/p/w342/6UG91TJ4DKI6FGdqXZfDBeRZHX8.jpg","year":"2016","result":"HD","language":["Hindi"],"country":["US"],"original_language":"en","genres":["Action","Drama","History","Thriller"],"imdb_id":"tt2025690"},{"id":"433819","type":"movie","title":"Beyond Redemption","poster":"https://image.tmdb.org/t/p/w342/bms90luw8wFh11IddXdKjiK2Ky2.jpg","year":"2016","result":"HD","language":["Hindi"],"country":["CA"],"original_language":"en","genres":["Action"],"imdb_id":"tt4059112"},{"id":"418691","type":"movie","title":"Shadows of the Dead","poster":"https://image.tmdb.org/t/p/w342/lwdUaNK2gAZbm2ZYUrwlwreZjBA.jpg","year":"2016","result":"HD","language":["Hindi"],"country":["US"],"original_language":"en","genres":["Horror"],"imdb_id":"tt6149120"},{"id":"416777","type":"movie","title":"Viking Legacy","poster":"https://image.tmdb.org/t/p/w342/lMPPPBTgsDLPRtKz56KehsFEHO7.jpg","year":"2016","result":"HD","language":["Hindi"],"country":["GB"],"original_language":"en","genres":["Action","Adventure"],"imdb_id":"tt5555554"},{"id":"400649","type":"movie","title":"Attack of the Killer Donuts","poster":"https://image.tmdb.org/t/p/w342/jYvWEvt9k2Zn2g5kCjicu51E6Pt.jpg","year":"2016","result":"HD","language":["Hindi"],"country":["US"],"original_language":"en","genres":["Comedy","Horror"],"imdb_id":"tt4480398"},{"id":"391757","type":"movie","title":"Never Back Down: No Surrender","poster":"https://image.tmdb.org/t/p/w342/pHVswTDHAvq9Npi0XCZ0qVMSiM2.jpg","year":"2016","result":"HD","language":["Hindi"],"country":["US"],"original_language":"en","genres":["Drama","Action"],"imdb_id":"tt4790268"},{"id":"313297","type":"movie","title":"Kubo and the Two Strings","poster":"https://image.tmdb.org/t/p/w342/la6QA9tk4Foq8OBH2Dyh5dTcw6H.jpg","year":"2016","result":"HD","language":["Hindi"],"country":["US","GB"],"original_language":"en","genres":["Animation","Adventure","Family"],"imdb_id":"tt4302938"},{"id":"301804","type":"movie","title":"Before I Wake","poster":"https://image.tmdb.org/t/p/w342/sI9neTbF3ECdpf2MpC88EMGJH13.jpg","year":"2016","result":"HD","language":["Hindi"],"country":["US"],"original_language":"en","genres":["Drama","Fantasy","Horror","Thriller"],"imdb_id":"tt3174376"},{"id":"271110","type":"movie","title":"Captain America: Civil War","poster":"https://image.tmdb.org/t/p/w342/rAGiXaUfPzY7CDEyNKUofk3Kw2e.jpg","year":"2016","result":"HD","language":["Hindi"],"country":["US"],"original_language":"en","genres":["Adventure","Action","Science Fiction"],"imdb_id":"tt3498820"},{"id":"213681","type":"movie","title":"Masterminds","poster":"https://image.tmdb.org/t/p/w342/4CXgye1p8Vr7taDG389QhhHDUZ4.jpg","year":"2016","result":"HD","language":["Hindi"],"country":["US"],"original_language":"en","genres":["Action","Comedy","Crime"],"imdb_id":"tt2461150"},{"id":"168098","type":"movie","title":"Cell","poster":"https://image.tmdb.org/t/p/w342/c5N6Pw3P6TqQnGcqiVkhO9u85KB.jpg","year":"2016","result":"HD","language":["Hindi"],"country":["US"],"original_language":"en","genres":["Horror","Science Fiction","Thriller"],"imdb_id":"tt0775440"},{"id":"146198","type":"movie","title":"Triple 9","poster":"https://image.tmdb.org/t/p/w342/q2kIq9yzEkOVhl1aeo0alJHtdfz.jpg","year":"2016","result":"HD","language":["Hindi"],"country":["US"],"original_language":"en","genres":["Action","Crime","Adventure","Thriller"],"imdb_id":"tt1712261"},{"id":"254470","type":"movie","title":"Pitch Perfect 2","poster":"https://image.tmdb.org/t/p/w342/oFBQUufCV4c8WZoNhtGM17p884H.jpg","year":"2015","result":"HD","language":["Hindi"],"country":["US"],"original_language":"en","genres":["Comedy","Music"],"imdb_id":"tt2848292"},{"id":"216015","type":"movie","title":"Fifty Shades of Grey","poster":"https://image.tmdb.org/t/p/w342/63kGofUkt1Mx0SIL4XI4Z5AoSgt.jpg","year":"2015","result":"HD","language":["Hindi"],"country":["US"],"original_language":"en","genres":["Drama","Romance","Thriller"],"imdb_id":"tt2322441"},{"id":"357096","type":"movie","title":"I Spit on Your Grave III: Vengeance Is Mine","poster":"https://image.tmdb.org/t/p/w342/qosIFCddpZjoMdsrkcQWB4UGm3o.jpg","year":"2015","result":"HD","language":["Hindi"],"country":["US"],"original_language":"en","genres":["Horror"],"imdb_id":"tt4530884"},{"id":"241251","type":"movie","title":"The Boy Next Door","poster":"https://image.tmdb.org/t/p/w342/gicmSeLG6Uh7BF1r1mxZHUQ8r26.jpg","year":"2015","result":"HD","language":["Hindi"],"country":["US"],"original_language":"en","genres":["Thriller"],"imdb_id":"tt3181822"},{"id":"263472","type":"movie","title":"Knock Knock","poster":"https://image.tmdb.org/t/p/w342/cUC4rUb1Cs2KMaZ6RD4uYUEEwls.jpg","year":"2015","result":"HD","language":["Hindi"],"country":["CL","DE","US"],"original_language":"en","genres":["Horror","Thriller","Crime"],"imdb_id":"tt3605418"},{"id":"332976","type":"movie","title":"Absolution","poster":"https://image.tmdb.org/t/p/w342/582SiBOAYRk17fou5lgOjdW7zNi.jpg","year":"2015","result":"HD","language":["Hindi"],"country":["US"],"original_language":"en","genres":["Action","Thriller","Adventure","Crime"],"imdb_id":"tt3503840"},{"id":"332177","type":"movie","title":"Vendetta","poster":"https://image.tmdb.org/t/p/w342/7hfZbdtuxmbDbXZocYOVQNmUeXy.jpg","year":"2015","result":"HD","language":["Hindi"],"country":["US"],"original_language":"en","genres":["Action","Drama"],"imdb_id":"tt3746298"},{"id":"328589","type":"movie","title":"The Lady in the Van","poster":"https://image.tmdb.org/t/p/w342/sqz4CGInI1bysFH674HYWtQSmYn.jpg","year":"2015","result":"HD","language":["Hindi"],"country":["GB"],"original_language":"en","genres":["Comedy","Drama"],"imdb_id":"tt3722070"},{"id":"301728","type":"movie","title":"Infini","poster":"https://image.tmdb.org/t/p/w342/3RpZabrzEKiwoG5Y74HkX4rMQHM.jpg","year":"2015","result":"HD","language":["Hindi"],"country":["AU"],"original_language":"en","genres":["Horror","Science Fiction","Thriller"],"imdb_id":"tt3327624"},{"id":"76341","type":"movie","title":"Mad Max: Fury Road","poster":"https://image.tmdb.org/t/p/w342/hA2ple9q4qnwxp3hKVNhroipsir.jpg","year":"2015","result":"HD","language":["Hindi"],"country":["AU","US"],"original_language":"en","genres":["Action","Adventure","Science Fiction"],"imdb_id":"tt1392190"},{"id":"168530","type":"movie","title":"Ride Along","poster":"https://image.tmdb.org/t/p/w342/qrt65VVaP5DEEBZgB5XYctA82Qv.jpg","year":"2014","result":"HD","language":["Hindi"],"country":["US"],"original_language":"en","genres":["Action","Comedy"],"imdb_id":"tt1408253"},{"id":"210577","type":"movie","title":"Gone Girl","poster":"https://image.tmdb.org/t/p/w342/ts996lKsxvjkO2yiYG0ht4qAicO.jpg","year":"2014","result":"HD","language":["English"],"country":["US"],"original_language":"en","genres":["Mystery","Thriller","Drama"],"imdb_id":"tt2267998"},{"id":"253046","type":"movie","title":"Jailbait","poster":"https://image.tmdb.org/t/p/w342/bNaKWcYARKnvDBCFEIc0uOQxX2v.jpg","year":"2014","result":"HD","language":["Hindi"],"country":["US"],"original_language":"en","genres":["Crime","Drama","Thriller"],"imdb_id":"tt3290276"},{"id":"225886","type":"movie","title":"Sex Tape","poster":"https://image.tmdb.org/t/p/w342/pFdS7SIdjcrYXtf141dabWVly9B.jpg","year":"2014","result":"HD","language":["Hindi"],"country":["US"],"original_language":"en","genres":["Comedy"],"imdb_id":"tt1956620"},{"id":"286554","type":"movie","title":"Two Night Stand","poster":"https://image.tmdb.org/t/p/w342/rz0YnlHieXP9SBuJU4ANBW8ttIw.jpg","year":"2014","result":"HD","language":["Hindi"],"country":["US"],"original_language":"en","genres":["Romance","Comedy"],"imdb_id":"tt2140619"},{"id":"284296","type":"movie","title":"Top Five","poster":"https://image.tmdb.org/t/p/w342/nM5zWv6zpWHsrKNMrPKg23UHZCA.jpg","year":"2014","result":"HD","language":["Hindi"],"country":["US"],"original_language":"en","genres":["Drama","Comedy","Romance"],"imdb_id":"tt2784678"}]}