{"page":25,"total_pages":26,"total_items":1255,"items":[{"id":"18392","type":"movie","title":"Embrace of the Vampire","poster":"https://image.tmdb.org/t/p/w342/3amk8h3a4xVdt3f5LG8Mo7TrAn0.jpg","year":"1995","result":"HD","language":["Hindi"],"country":["US"],"original_language":"en","genres":["Horror","Fantasy","Romance","Drama"],"imdb_id":"tt0109723"},{"id":"37333","type":"movie","title":"Lake Consequence","poster":"https://image.tmdb.org/t/p/w342/mU6CwKO7QwxRlutmUSIS4hjJJUa.jpg","year":"1995","result":"HD","language":["Hindi"],"country":["US"],"original_language":"en","genres":["Drama","Romance"],"imdb_id":"tt0107357"},{"id":"10802","type":"movie","title":"Showgirls","poster":"https://image.tmdb.org/t/p/w342/o4HT3Ap5c99W4FYpdXUtTvxGgPc.jpg","year":"1995","result":"HD","language":["Hindi"],"country":["US","FR"],"original_language":"en","genres":["Drama"],"imdb_id":"tt0114436"},{"id":"28529","type":"movie","title":"Sorceress","poster":"https://image.tmdb.org/t/p/w342/4yTPpffXf0WA33rgweZ1Y7PUe0L.jpg","year":"1995","result":"HD","language":["Hindi"],"country":["US"],"original_language":"en","genres":["Fantasy","Horror","Thriller"],"imdb_id":"tt0111244"},{"id":"58965","type":"movie","title":"Huntress: Spirit of the Night","poster":"https://image.tmdb.org/t/p/w342/hZgz3Pu3rrcFUTqFuF0dB4b60aL.jpg","year":"1995","result":"HD","language":["Hindi"],"country":["RO","US"],"original_language":"en","genres":["Horror"],"imdb_id":"tt0113361"},{"id":"95084","type":"movie","title":"Body of Influence","poster":"https://image.tmdb.org/t/p/w342/b6rMLugMP6WAHNqdTNBcLoxyNhp.jpg","year":"1994","result":"HD","language":["Hindi"],"country":["US"],"original_language":"en","genres":["Thriller","Romance"],"imdb_id":"tt0106454"},{"id":"49983","type":"movie","title":"Enemy Gold","poster":"https://image.tmdb.org/t/p/w342/bW3wf5KncLoMolW55k1Uvrrrs9d.jpg","year":"1994","result":"HD","language":["Hindi"],"country":["US"],"original_language":"en","genres":["Action","Thriller"],"imdb_id":"tt0106819"},{"id":"67398","type":"movie","title":"The Dallas Connection","poster":"https://image.tmdb.org/t/p/w342/yHrd3gMBi5VgZZEpxixtQpbNZEh.jpg","year":"1994","result":"HD","language":["Hindi"],"country":["US"],"original_language":"en","genres":["Action"],"imdb_id":"tt0112782"},{"id":"252264","type":"movie","title":"Eyes of the Serpent","poster":"https://image.tmdb.org/t/p/w342/cihCl224y7dqlZ5dl1IUVVkUYaX.jpg","year":"1994","result":"HD","language":["Hindi"],"country":["US"],"original_language":"en","genres":["Fantasy"],"imdb_id":"tt0109764"},{"id":"216358","type":"movie","title":"Secret Games 3","poster":"https://image.tmdb.org/t/p/w342/8GGyyLkp7Z0c5CWlDfwdQZWE2h6.jpg","year":"1994","result":"HD","language":["Hindi"],"country":["US"],"original_language":"en","genres":["Thriller","Drama"],"imdb_id":"tt0111104"},{"id":"278","type":"movie","title":"The Shawshank Redemption","poster":"https://image.tmdb.org/t/p/w342/9cqNxx0GxF0bflZmeSMuL5tnGzr.jpg","year":"1994","result":"HD","language":["Hindi"],"country":["US"],"original_language":"en","genres":["Drama","Crime"],"imdb_id":"tt0111161"},{"id":"13","type":"movie","title":"Forrest Gump","poster":"https://image.tmdb.org/t/p/w342/saHP97rTPS5eLmrLQEcANmKrsFl.jpg","year":"1994","result":"HD","language":["Hindi"],"country":["US"],"original_language":"en","genres":["Comedy","Drama","Romance"],"imdb_id":"tt0109830"},{"id":"29795","type":"movie","title":"Beach Babes from Beyond","poster":"https://image.tmdb.org/t/p/w342/v5TXbzoPvjsU1JAM8mS7E0gMJro.jpg","year":"1993","result":"HD","language":["Hindi"],"country":["US"],"original_language":"en","genres":["Science Fiction","Comedy"],"imdb_id":"tt0106366"},{"id":"45029","type":"movie","title":"Fit to Kill","poster":"https://image.tmdb.org/t/p/w342/tdaqSdk4FCrRAuslGjCDhwWPhik.jpg","year":"1993","result":"HD","language":["Hindi"],"country":["US"],"original_language":"en","genres":["Action","Romance","Thriller"],"imdb_id":"tt0106922"},{"id":"4478","type":"movie","title":"Indecent Proposal","poster":"https://image.tmdb.org/t/p/w342/a39WoiTJEG5kNLIrr3kOMwg3LFg.jpg","year":"1993","result":"HD","language":["Hindi"],"country":["US"],"original_language":"en","genres":["Romance","Drama"],"imdb_id":"tt0107211"},{"id":"27224","type":"movie","title":"Lost in Yonkers","poster":"https://image.tmdb.org/t/p/w342/9COy4RAhPzOw1ICecKMYQCexTgm.jpg","year":"1993","result":"HD","language":["Hindi"],"country":["US"],"original_language":"en","genres":["Drama","Comedy"],"imdb_id":"tt0107443"},{"id":"424","type":"movie","title":"Schindler's List","poster":"https://image.tmdb.org/t/p/w342/sF1U4EUQS8YHUYjNl3pMGNIQyr0.jpg","year":"1993","result":"HD","language":["Hindi"],"country":["US"],"original_language":"en","genres":["Drama","History","War"],"imdb_id":"tt0108052"},{"id":"10497","type":"movie","title":"Bitter Moon","poster":"https://image.tmdb.org/t/p/w342/bW7E4cLWh0elRRbp2VCrtXrY1if.jpg","year":"1992","result":"HD","language":["Hindi"],"country":["FR","GB"],"original_language":"en","genres":["Thriller","Drama","Romance"],"imdb_id":"tt0104779"},{"id":"39479","type":"movie","title":"Love Crimes","poster":"https://image.tmdb.org/t/p/w342/l2zE5VYf3SlC66GTpR80bwcWDn4.jpg","year":"1992","result":"HD","language":["Hindi"],"country":["GB","US"],"original_language":"en","genres":["Romance","Thriller"],"imdb_id":"tt0102340"},{"id":"402","type":"movie","title":"Basic Instinct","poster":"https://image.tmdb.org/t/p/w342/76Ts0yoHk8kVQj9MMnoMixhRWoh.jpg","year":"1992","result":"HD","language":["Hindi"],"country":["US","FR"],"original_language":"en","genres":["Thriller","Mystery"],"imdb_id":"tt0103772"},{"id":"45030","type":"movie","title":"Hard Hunted","poster":"https://image.tmdb.org/t/p/w342/esVXyG6o2tD42XmPKgAhPCfdEUY.jpg","year":"1992","result":"HD","language":["Hindi"],"country":["US"],"original_language":"en","genres":["Action","Thriller"],"imdb_id":"tt0104391"},{"id":"164660","type":"movie","title":"Secret Games","poster":"https://image.tmdb.org/t/p/w342/rAQpCP8YllNLslICW56F1ufzuJZ.jpg","year":"1992","result":"HD","language":["Hindi"],"country":["US"],"original_language":"en","genres":["Drama","Thriller"],"imdb_id":"tt0105338"},{"id":"28340","type":"movie","title":"The Invisible Maniac","poster":"https://image.tmdb.org/t/p/w342/t04IPymimKl1uK5dblZzuQIJIjL.jpg","year":"1990","result":"HD","language":["Hindi"],"country":["US"],"original_language":"en","genres":["Science Fiction","Comedy","Horror"],"imdb_id":"tt0099856"},{"id":"71853","type":"movie","title":"Def by Temptation","poster":"https://image.tmdb.org/t/p/w342/cC96OjOeYXmBF6RuePlxA709tkz.jpg","year":"1990","result":"HD","language":["Hindi"],"country":["US"],"original_language":"en","genres":["Horror","Thriller","Romance"],"imdb_id":"tt0099395"},{"id":"242","type":"movie","title":"The Godfather Part III","poster":"https://image.tmdb.org/t/p/w342/lm3pQ2QoQ16pextRsmnUbG2onES.jpg","year":"1990","result":"HD","language":["Hindi"],"country":["US"],"original_language":"en","genres":["Crime","Drama","Thriller"],"imdb_id":"tt0099674"},{"id":"11718","type":"movie","title":"Who's Harry Crumb?","poster":"https://image.tmdb.org/t/p/w342/6iUoyyaMklULVoGJDyHcN4nGgSX.jpg","year":"1989","result":"HD","language":["Hindi"],"country":["US"],"original_language":"en","genres":["Comedy","Crime","Mystery"],"imdb_id":"tt0098645"},{"id":"5203","type":"movie","title":"Wild Orchid","poster":"https://image.tmdb.org/t/p/w342/6UfS8J9Ixn0BAv1aeuAFWom5YEk.jpg","year":"1989","result":"HD","language":["Hindi"],"country":["US"],"original_language":"en","genres":["Drama","Romance"],"imdb_id":"tt0100934"},{"id":"77631","type":"movie","title":"Tears in the Rain","poster":"https://image.tmdb.org/t/p/w342/pEAsKBif5VwGOPcxjcHWmgunfiC.jpg","year":"1988","result":"HD","language":["Hindi"],"country":["GB"],"original_language":"en","genres":["TV Movie","Romance","Drama"],"imdb_id":"tt0096237"},{"id":"25920","type":"movie","title":"Born of Fire","poster":"https://image.tmdb.org/t/p/w342/j3Rs1fT2bpGTs1cRVtA1AlG9rNi.jpg","year":"1987","result":"HD","language":["Hindi"],"country":["TR","GB"],"original_language":"en","genres":["Fantasy","Horror","Drama"],"imdb_id":"tt0092691"},{"id":"26011","type":"movie","title":"Hard Ticket to Hawaii","poster":"https://image.tmdb.org/t/p/w342/yZBHqhCZYAAihDBgMvQziITtLUO.jpg","year":"1987","result":"HD","language":["Hindi"],"country":["US"],"original_language":"en","genres":["Action","Adventure"],"imdb_id":"tt0093146"},{"id":"52961","type":"movie","title":"That's Life!","poster":"https://image.tmdb.org/t/p/w342/opZSLqdoRoAIg6oW99iiNmrSgAp.jpg","year":"1986","result":"HD","language":["Hindi"],"country":["US"],"original_language":"en","genres":["Comedy","Drama"],"imdb_id":"tt0092079"},{"id":"9626","type":"movie","title":"Red Sonja","poster":"https://image.tmdb.org/t/p/w342/83v0W5cCSFsWpI0cAj8DRlihySN.jpg","year":"1985","result":"HD","language":["Hindi"],"country":["US"],"original_language":"en","genres":["Adventure","Fantasy","Action"],"imdb_id":"tt0089893"},{"id":"11904","type":"movie","title":"Young Sherlock Holmes","poster":"https://image.tmdb.org/t/p/w342/aOxVYvQoAfNSns4hW5Ah55GBzgq.jpg","year":"1985","result":"HD","language":["Hindi"],"country":["US"],"original_language":"en","genres":["Mystery","Adventure","Thriller"],"imdb_id":"tt0090357"},{"id":"9355","type":"movie","title":"Mad Max Beyond Thunderdome","poster":"https://image.tmdb.org/t/p/w342/jJlxcEVVUHnrUeEkQ0077VeHQpb.jpg","year":"1985","result":"HD","language":["Hindi"],"country":["AU"],"original_language":"en","genres":["Action","Adventure","Science Fiction"],"imdb_id":"tt0089530"},{"id":"841","type":"movie","title":"Dune","poster":"https://image.tmdb.org/t/p/w342/4kJmUCE7mkVJjXa7A0g2rY4IGTm.jpg","year":"1984","result":"HD","language":["Hindi"],"country":["US"],"original_language":"en","genres":["Action","Science Fiction","Adventure"],"imdb_id":"tt0087182"},{"id":"10179","type":"movie","title":"The Ice Pirates","poster":"https://image.tmdb.org/t/p/w342/tv2iZbQYWwKcWOUWVFxOhcchKZT.jpg","year":"1984","result":"HD","language":["Hindi"],"country":["US"],"original_language":"en","genres":["Science Fiction","Action","Adventure","Comedy"],"imdb_id":"tt0087451"},{"id":"2193","type":"movie","title":"My Tutor","poster":"https://image.tmdb.org/t/p/w342/gMIEasZXQImHpRHos5XsVg80ERV.jpg","year":"1983","result":"HD","language":["Hindi"],"country":["US"],"original_language":"en","genres":["Comedy","Drama","Romance"],"imdb_id":"tt0085980"},{"id":"31646","type":"movie","title":"Piranha II: The Spawning","poster":"https://image.tmdb.org/t/p/w342/rbcbLYbhc8ZmQmNHAt8E8knij88.jpg","year":"1982","result":"HD","language":["Hindi"],"country":["IT","NL","US"],"original_language":"en","genres":["Horror"],"imdb_id":"tt0082910"},{"id":"37795","type":"movie","title":"Taboo II","poster":"https://image.tmdb.org/t/p/w342/cxu0vWX5rXLA9oZXSfl8sgpctkg.jpg","year":"1982","result":"HD","language":["Hindi"],"country":["US"],"original_language":"en","genres":["Drama","Romance","Horror"],"imdb_id":"tt0084755"},{"id":"8810","type":"movie","title":"Mad Max 2","poster":"https://image.tmdb.org/t/p/w342/l1KVEhkGDpWRzQ0VqIhZqDDuOim.jpg","year":"1981","result":"HD","language":["Hindi"],"country":["AU"],"original_language":"en","genres":["Adventure","Action","Thriller","Science Fiction"],"imdb_id":"tt0082694"},{"id":"42019","type":"movie","title":"Taboo","poster":"https://image.tmdb.org/t/p/w342/fLh69JdW4chwaIOIMX9zLCmfJUy.jpg","year":"1980","result":"HD","language":["Hindi"],"country":["US"],"original_language":"en","genres":["Drama","Romance"],"imdb_id":"tt0081593"},{"id":"9659","type":"movie","title":"Mad Max","poster":"https://image.tmdb.org/t/p/w342/5LrI4GiCSrChgkdskVZiwv643Kg.jpg","year":"1979","result":"HD","language":["Hindi"],"country":["AU"],"original_language":"en","genres":["Adventure","Action","Thriller","Science Fiction"],"imdb_id":"tt0079501"},{"id":"25239","type":"movie","title":"Day of the Woman","poster":"https://image.tmdb.org/t/p/w342/nMCkOo26GtISoxJmpkTAJyMqBO8.jpg","year":"1978","result":"HD","language":["Hindi"],"country":["US"],"original_language":"en","genres":["Horror"],"imdb_id":"tt0077713"},{"id":"215746","type":"movie","title":"Dracula Sucks","poster":"https://image.tmdb.org/t/p/w342/3add7Z5fN6sC4r9LkgXin1UDU2Q.jpg","year":"1978","result":"HD","language":["Hindi"],"country":["US"],"original_language":"en","genres":["Comedy","Horror"],"imdb_id":"tt0079074"},{"id":"26686","type":"movie","title":"California Suite","poster":"https://image.tmdb.org/t/p/w342/2IlgL7m1ByY3RIghbXNGGNvYfEE.jpg","year":"1978","result":"HD","language":["Hindi"],"country":["US"],"original_language":"en","genres":["Comedy","Drama","Romance"],"imdb_id":"tt0077289"},{"id":"10138","type":"tv","title":"James at 16","poster":"https://image.tmdb.org/t/p/w342/w58QId6WdywHpZLdTyIV48Qmkaz.jpg","year":"1977","result":"HD","language":["Hindi"],"country":["US"],"original_language":"en","genres":["Drama"],"imdb_id":"tt0075519","latest_uploaded_season":1,"total_uploaded_episodes":1},{"id":"33301","type":"movie","title":"Confessions of a Driving Instructor","poster":"https://image.tmdb.org/t/p/w342/vMTf2j4cvAOMZU9rgpipqnGoe9O.jpg","year":"1976","result":"HD","language":["Hindi"],"country":["GB"],"original_language":"en","genres":["Comedy"],"imdb_id":"tt0074343"},{"id":"5336","type":"movie","title":"Salò, or the 120 Days of Sodom","poster":"https://image.tmdb.org/t/p/w342/xnaDdiRfZlJaTf6JRc4in40eaeI.jpg","year":"1976","result":"HD","language":["English"],"country":["IT","FR"],"original_language":"it","genres":["Drama","Horror"],"imdb_id":"tt0073650"},{"id":"13282","type":"movie","title":"Death Race 2000","poster":"https://image.tmdb.org/t/p/w342/kwM8kkNGtv62gfPWVhD6qFxjDzg.jpg","year":"1975","result":"HD","language":["Hindi"],"country":["US"],"original_language":"en","genres":["Action","Science Fiction","Comedy"],"imdb_id":"tt0072856"},{"id":"240","type":"movie","title":"The Godfather Part II","poster":"https://image.tmdb.org/t/p/w342/hek3koDUyRQk7FIhPXsa6mT2Zc3.jpg","year":"1974","result":"HD","language":["Hindi"],"country":["US"],"original_language":"en","genres":["Drama","Crime"],"imdb_id":"tt0071562"}]}