{"page":19,"total_pages":26,"total_items":1255,"items":[{"id":"629176","type":"movie","title":"Samaritan","poster":"https://image.tmdb.org/t/p/w342/zgH8Ej50n2cvJCMJrxd4twEwSqz.jpg","year":"2022","result":"HD","language":["Hindi"],"country":["US"],"original_language":"en","genres":["Science Fiction","Crime","Action"],"imdb_id":"tt5500218"},{"id":"292540","type":"tv","title":"Qubool Hai?","poster":"https://image.tmdb.org/t/p/w342/u4zK7eqMYZSlQyECgiA9VcaBS7D.jpg","year":"2022","result":"HD","language":["Hindi"],"country":["US"],"original_language":"en","genres":[],"imdb_id":"tt18556364","latest_uploaded_season":1,"total_uploaded_episodes":1},{"id":"83659","type":"tv","title":"Guillermo del Toro's Cabinet of Curiosities","poster":"https://image.tmdb.org/t/p/w342/a91e9hpWwfCqxJI4xM9Q2RhuxgI.jpg","year":"2022","result":"HD","language":["Hindi"],"country":["US"],"original_language":"en","genres":["Drama","Mystery","Sci-Fi & Fantasy"],"imdb_id":"tt8415836","latest_uploaded_season":1,"total_uploaded_episodes":8},{"id":"76600","type":"movie","title":"Avatar: The Way of Water","poster":"https://image.tmdb.org/t/p/w342/t6HIqrRAclMCA60NsSmeqe9RmNV.jpg","year":"2022","result":"HD","language":["Hindi"],"country":["US"],"original_language":"en","genres":["Action","Adventure","Science Fiction"],"imdb_id":"tt1630029"},{"id":"115194","type":"tv","title":"A Perfect Planet","poster":"https://image.tmdb.org/t/p/w342/8JJa4gduVytwpXQzFtZNibRA6S.jpg","year":"2021","result":"HD","language":["Hindi"],"country":["GB"],"original_language":"en","genres":["Documentary"],"imdb_id":"tt10219322","latest_uploaded_season":1,"total_uploaded_episodes":5},{"id":"95594","type":"tv","title":"Fast & Furious Spy Racers","poster":"https://image.tmdb.org/t/p/w342/cI7zYWuYTmKEdXITcUKPzjc2EW5.jpg","year":"2021","result":"HD","language":["Hindi"],"country":["US"],"original_language":"en","genres":["Animation","Action & Adventure","Kids","Family"],"imdb_id":"tt8322592","latest_uploaded_season":6,"total_uploaded_episodes":52},{"id":"645788","type":"movie","title":"The Protégé","poster":"https://image.tmdb.org/t/p/w342/iQUj7MptHUlcXpaMLrqRNZRxGA9.jpg","year":"2021","result":"HD","language":["Hindi"],"country":["BG","RO","GB","US"],"original_language":"en","genres":["Action","Thriller","Crime"],"imdb_id":"tt6079772"},{"id":"258008","type":"tv","title":"Teenage Textbook","poster":"https://image.tmdb.org/t/p/w342/x19HWqPmP3vwIAYURrfDiT4clZJ.jpg","year":"2021","result":"HD","language":["Hindi"],"country":["SG"],"original_language":"en","genres":["Drama","Comedy"],"imdb_id":"tt14272532","latest_uploaded_season":1,"total_uploaded_episodes":13},{"id":"1375538","type":"movie","title":"Evil Dead is Back","poster":"https://m.media-amazon.com/images/M/MV5BZDExMDMwNWUtOTY3NS00NWI1LWJlY2YtODE4MGMzNGQ0MDJiXkEyXkFqcGc@._V1_.jpg","year":"2021","result":"HD","language":["Hindi"],"country":[],"original_language":"en","genres":[],"imdb_id":""},{"id":"882251","type":"movie","title":"Silent Hours","poster":"https://image.tmdb.org/t/p/w342/re09M47jDGgoumSBrKtaOpIeLp7.jpg","year":"2021","result":"HD","language":["Hindi"],"country":[],"original_language":"en","genres":["Thriller","Mystery"],"imdb_id":"tt10360104"},{"id":"95557","type":"tv","title":"INVINCIBLE","poster":"https://image.tmdb.org/t/p/w342/4tblBrslcKSifMVZ3TmtT2ukMor.jpg","year":"2021","result":"HD","language":["Hindi"],"country":["US"],"original_language":"en","genres":["Animation","Drama","Sci-Fi & Fantasy","Action & Adventure"],"imdb_id":"tt6741278","latest_uploaded_season":5,"total_uploaded_episodes":32},{"id":"64387","type":"tv","title":"The Girlfriend Experience","poster":"https://image.tmdb.org/t/p/w342/vkXG4uqXQVwfwmE6CUSPFvz6MLn.jpg","year":"2021","result":"HD","language":["Hindi"],"country":["US"],"original_language":"en","genres":["Drama"],"imdb_id":"tt3846642","latest_uploaded_season":3,"total_uploaded_episodes":37},{"id":"628534","type":"movie","title":"The White Tiger","poster":"https://image.tmdb.org/t/p/w342/5JnmseS3DZ6ad2VMbrnbGCs8Rst.jpg","year":"2021","result":"HD","language":["Hindi"],"country":["SG","US","IN"],"original_language":"en","genres":["Drama"],"imdb_id":"tt6571548"},{"id":"1402","type":"tv","title":"The Walking Dead","poster":"https://image.tmdb.org/t/p/w342/ng3cMtxYKt1OSQYqFlnKWnVsqNO.jpg","year":"2021","result":"HD","language":["ENGLISH"],"country":["US"],"original_language":"en","genres":["Action & Adventure","Drama","Sci-Fi & Fantasy"],"imdb_id":"tt1520211","latest_uploaded_season":11,"total_uploaded_episodes":177},{"id":"438631","type":"movie","title":"Dune","poster":"https://image.tmdb.org/t/p/w342/gDzOcq0pfeCeqMBwKIJlSmQpjkZ.jpg","year":"2021","result":"HD","language":["Hindi"],"country":["US"],"original_language":"en","genres":["Science Fiction","Adventure"],"imdb_id":"tt1160419"},{"id":"942321","type":"movie","title":"The Gateway","poster":"https://image.tmdb.org/t/p/w342/eqLicrlG3FTXROqpV7Q9QBCTKYj.jpg","year":"2021","result":"HD","language":["Hindi"],"country":["US"],"original_language":"en","genres":["Horror"],"imdb_id":"tt15027550"},{"id":"814952","type":"movie","title":"Kuriyan Jawan Bapu Preshaan","poster":"https://image.tmdb.org/t/p/w342/g682EwEzJbl1nF3Rj0TvksEGx4e.jpg","year":"2021","result":"HD","language":["Hindi"],"country":[],"original_language":"en","genres":["Comedy","Drama"],"imdb_id":"tt14303124"},{"id":"763025","type":"movie","title":"Never Back Down: Revolt","poster":"https://image.tmdb.org/t/p/w342/icAG01wZyy1ZpS3UEnPReph3jMV.jpg","year":"2021","result":"HD","language":["Hindi"],"country":["US"],"original_language":"en","genres":["Action"],"imdb_id":"tt13470094"},{"id":"730840","type":"movie","title":"Trollhunters: Rise of the Titans","poster":"https://image.tmdb.org/t/p/w342/zvUNFeTz0Sssb210wSiIiHRjA4W.jpg","year":"2021","result":"HD","language":["Hindi"],"country":["US"],"original_language":"en","genres":["Animation","Fantasy","Family","Action","Adventure"],"imdb_id":"tt12851396"},{"id":"632357","type":"movie","title":"The Unholy","poster":"https://image.tmdb.org/t/p/w342/bShgiEQoPnWdw4LBrYT5u18JF34.jpg","year":"2021","result":"HD","language":["Hindi"],"country":["US"],"original_language":"en","genres":["Horror","Mystery"],"imdb_id":"tt9419056"},{"id":"630392","type":"movie","title":"The Cursed","poster":"https://image.tmdb.org/t/p/w342/bewmBcjJxHeipS1PNu9Lfyvt3zY.jpg","year":"2021","result":"HD","language":["E-Subtitles"],"country":["FR","US"],"original_language":"en","genres":["Horror","Drama","Thriller"],"imdb_id":"tt9907782"},{"id":"615457","type":"movie","title":"Nobody","poster":"https://image.tmdb.org/t/p/w342/oBgWY00bEFeZ9N25wWVyuQddbAo.jpg","year":"2021","result":"HD","language":["Hindi"],"country":["US"],"original_language":"en","genres":["Action","Thriller"],"imdb_id":"tt7888964"},{"id":"291212","type":"tv","title":"Murder Drones","poster":"https://image.tmdb.org/t/p/w342/ldUmo0NPUqEeTeJ6KdBkZudMtPu.jpg","year":"2021","result":"HD","language":["Hindi"],"country":["AU"],"original_language":"en","genres":["Animation","Action & Adventure","Sci-Fi & Fantasy"],"imdb_id":"tt15599734","latest_uploaded_season":1,"total_uploaded_episodes":8},{"id":"129418","type":"tv","title":"Brand New Cherry Flavor","poster":"https://image.tmdb.org/t/p/w342/cX4acZbi2l4v051NJZfonqY0E3X.jpg","year":"2021","result":"HD","language":["Hindi"],"country":["US"],"original_language":"en","genres":["Drama","Mystery","Sci-Fi & Fantasy"],"imdb_id":"tt11343600","latest_uploaded_season":1,"total_uploaded_episodes":8},{"id":"97173","type":"tv","title":"Behind Her Eyes","poster":"https://image.tmdb.org/t/p/w342/sfd90NIf778KoBFmpdBTow4xTm7.jpg","year":"2021","result":"HD","language":["Hindi"],"country":["GB"],"original_language":"en","genres":["Mystery","Sci-Fi & Fantasy","Drama"],"imdb_id":"tt9698442","latest_uploaded_season":1,"total_uploaded_episodes":6},{"id":"66788","type":"tv","title":"13 Reasons Why","poster":"https://image.tmdb.org/t/p/w342/nel144y4dIOdFFid6twN5mAX9Yd.jpg","year":"2020","result":"HD","language":["Hindi"],"country":["US"],"original_language":"en","genres":["Drama","Mystery"],"imdb_id":"tt1837492","latest_uploaded_season":4,"total_uploaded_episodes":49},{"id":"85273","type":"tv","title":"NOS4A2","poster":"https://image.tmdb.org/t/p/w342/gnosVTTRTCqooJuipwU6C0bgOGf.jpg","year":"2020","result":"HD","language":["Hindi"],"country":["US"],"original_language":"en","genres":["Sci-Fi & Fantasy","Drama"],"imdb_id":"tt5194792","latest_uploaded_season":2,"total_uploaded_episodes":20},{"id":"48866","type":"tv","title":"The 100","poster":"https://image.tmdb.org/t/p/w342/wcaDIAG1QdXQLRaj4vC1EFdBT2.jpg","year":"2020","result":"HD","language":["Hindi"],"country":["US"],"original_language":"en","genres":["Sci-Fi & Fantasy","Action & Adventure","Drama","Crime"],"imdb_id":"tt2661044","latest_uploaded_season":7,"total_uploaded_episodes":100},{"id":"660982","type":"movie","title":"American Pie Presents: Girls' Rules","poster":"https://image.tmdb.org/t/p/w342/xqvX5A24dbIWaeYsMTxxKX5qOfz.jpg","year":"2020","result":"HD","language":["English"],"country":["US"],"original_language":"en","genres":["Comedy"],"imdb_id":"tt11771594"},{"id":"549514","type":"movie","title":"Fatale","poster":"https://image.tmdb.org/t/p/w342/tGFXEyESXIuei5tZWXRkSRSFSxi.jpg","year":"2020","result":"HD","language":["Hindi"],"country":["US"],"original_language":"en","genres":["Drama","Thriller"],"imdb_id":"tt8829830"},{"id":"733049","type":"movie","title":"The Pizzagate Massacre","poster":"https://image.tmdb.org/t/p/w342/4MRYyz3CAzXsuUNDgt6L04GxP8H.jpg","year":"2020","result":"HD","language":["Hindi"],"country":["US"],"original_language":"en","genres":["Comedy","Action","Crime","Horror"],"imdb_id":"tt10725448"},{"id":"87050","type":"tv","title":"Hollywood","poster":"https://image.tmdb.org/t/p/w342/8AvVBcuCpESqdQicuX7s4WOGo1V.jpg","year":"2020","result":"HD","language":["Hindi"],"country":["US"],"original_language":"en","genres":["Drama"],"imdb_id":"tt9827854","latest_uploaded_season":1,"total_uploaded_episodes":7},{"id":"90265","type":"tv","title":"White Lines","poster":"https://image.tmdb.org/t/p/w342/3O1lB4ZhTMZ0Q3VsU7SHtFBDYI1.jpg","year":"2020","result":"HD","language":["Hindi"],"country":["GB"],"original_language":"en","genres":["Drama","Crime","Mystery"],"imdb_id":"tt9073958","latest_uploaded_season":1,"total_uploaded_episodes":10},{"id":"737586","type":"movie","title":"The Trees Have Eyes","poster":"https://image.tmdb.org/t/p/w342/oPNUbDbRXUbYDQU4hfQNSWkhp3T.jpg","year":"2020","result":"HD","language":["Hindi"],"country":[],"original_language":"en","genres":["Horror"],"imdb_id":"tt2990352"},{"id":"790227","type":"movie","title":"Ghost Light","poster":"https://image.tmdb.org/t/p/w342/75UGZrcUCMA1gQAmReapEd73vbz.jpg","year":"2020","result":"HD","language":["Hindi"],"country":["US"],"original_language":"en","genres":["Thriller","Horror"],"imdb_id":"tt10969668"},{"id":"766054","type":"movie","title":"Buoyancy","poster":"https://image.tmdb.org/t/p/w342/oFjdP2L9i9RtcytwChPQOCnIaQs.jpg","year":"2020","result":"HD","language":["Hindi"],"country":["NL"],"original_language":"en","genres":["Thriller"],"imdb_id":"tt8424638"},{"id":"746817","type":"movie","title":"The Call","poster":"https://image.tmdb.org/t/p/w342/iKmykghTmvQj6zum79TsdUL5mPF.jpg","year":"2020","result":"HD","language":["Hindi"],"country":["CA","US"],"original_language":"en","genres":["Horror","Thriller"],"imdb_id":"tt12971924"},{"id":"663459","type":"movie","title":"Jungle Beat: The Movie","poster":"https://image.tmdb.org/t/p/w342/cgC67SOxd9xkjN4Bnvjtuj1vI8T.jpg","year":"2020","result":"HD","language":["Hindi"],"country":["MU"],"original_language":"en","genres":["Family","Animation","Science Fiction","Comedy"],"imdb_id":"tt12139700"},{"id":"615677","type":"movie","title":"We Can Be Heroes","poster":"https://image.tmdb.org/t/p/w342/1S21HpcKY6uQ9UAw68aICmrJaq6.jpg","year":"2020","result":"HD","language":["Hindi"],"country":["US"],"original_language":"en","genres":["Family","Action","Fantasy","Comedy"],"imdb_id":"tt10600398"},{"id":"615466","type":"movie","title":"All Together Now","poster":"https://image.tmdb.org/t/p/w342/4QIpIHoYdlt9ekD6mSIxe0FylpR.jpg","year":"2020","result":"HD","language":["Hindi"],"country":["US"],"original_language":"en","genres":["Drama"],"imdb_id":"tt3155342"},{"id":"614560","type":"movie","title":"Mank","poster":"https://image.tmdb.org/t/p/w342/4yzTcAtvzyZLLto4z04xobUK9el.jpg","year":"2020","result":"HD","language":["Hindi"],"country":["US"],"original_language":"en","genres":["Drama","History"],"imdb_id":"tt10618286"},{"id":"611213","type":"movie","title":"The Prom","poster":"https://image.tmdb.org/t/p/w342/9oHvqd1QL5kaqt6zmCuDmM8esjV.jpg","year":"2020","result":"HD","language":["Hindi"],"country":["US"],"original_language":"en","genres":["Romance","Comedy"],"imdb_id":"tt10161886"},{"id":"597219","type":"movie","title":"The Half of It","poster":"https://image.tmdb.org/t/p/w342/jC1PNXGET1ZZQyrJvdFhPfXdPP1.jpg","year":"2020","result":"HD","language":["Hindi"],"country":["US"],"original_language":"en","genres":["Comedy","Romance","Drama"],"imdb_id":"tt9683478"},{"id":"595601","type":"movie","title":"Darkness in Tenement 45","poster":"https://image.tmdb.org/t/p/w342/tdzeisUZTQar9qSKS9Wsljmc6b4.jpg","year":"2020","result":"HD","language":["Hindi"],"country":["US"],"original_language":"en","genres":["Thriller","Drama","Horror"],"imdb_id":"tt6806766"},{"id":"533514","type":"movie","title":"Violet Evergarden: The Movie","poster":"https://image.tmdb.org/t/p/w342/bajajkoErDst0JxdFyBkABiF9rW.jpg","year":"2020","result":"HD","language":["English"],"country":["JP"],"original_language":"ja","genres":["Animation","Drama","Fantasy","Romance"],"imdb_id":"tt8652818"},{"id":"524047","type":"movie","title":"Greenland","poster":"https://image.tmdb.org/t/p/w342/bNo2mcvSwIvnx8K6y1euAc1TLVq.jpg","year":"2020","result":"HD","language":["Hindi"],"country":["GB","US"],"original_language":"en","genres":["Action","Adventure","Thriller","Science Fiction"],"imdb_id":"tt7737786"},{"id":"474764","type":"movie","title":"The Lodge","poster":"https://image.tmdb.org/t/p/w342/yake2myhbW7c6dKbmwYDy1i40bm.jpg","year":"2020","result":"HD","language":["Hindi"],"country":["GB","US"],"original_language":"en","genres":["Horror","Drama","Mystery","Thriller"],"imdb_id":"tt7347846"},{"id":"466622","type":"movie","title":"The Rhythm Section","poster":"https://image.tmdb.org/t/p/w342/spTr0VYyRtl36Lkk6nCnnbFXhus.jpg","year":"2020","result":"HD","language":["Hindi"],"country":["ES","GB","US"],"original_language":"en","genres":["Action","Thriller"],"imdb_id":"tt7134096"},{"id":"93826","type":"tv","title":"October Faction","poster":"https://image.tmdb.org/t/p/w342/7yrXh19tH2ThJHXriORT16WKbBi.jpg","year":"2020","result":"HD","language":["Hindi"],"country":["US"],"original_language":"en","genres":["Sci-Fi & Fantasy","Drama"],"imdb_id":"tt8826128","latest_uploaded_season":1,"total_uploaded_episodes":10},{"id":"81241","type":"tv","title":"Dispatches from Elsewhere","poster":"https://image.tmdb.org/t/p/w342/kWskCna5DnRutdc66XERYFGek5s.jpg","year":"2020","result":"HD","language":["Hindi"],"country":["US"],"original_language":"en","genres":["Drama","Mystery"],"imdb_id":"tt8965666","latest_uploaded_season":1,"total_uploaded_episodes":10}]}