{"page":6,"total_pages":26,"total_items":1255,"items":[{"id":"1449539","type":"movie","title":"RIWAJ","poster":"https://image.tmdb.org/t/p/w342/me7RIXcNdZqaBpXW4swBKNIN12Z.jpg","year":"2025","result":"HD","language":["Hindi"],"country":[],"original_language":"en","genres":["Drama","Family"],"imdb_id":"tt27940347"},{"id":"1448560","type":"movie","title":"Wildcat","poster":"https://image.tmdb.org/t/p/w342/h893ImjM6Fsv5DFhKJdlZFZIJno.jpg","year":"2025","result":"HD","language":["Hindi"],"country":["GB"],"original_language":"en","genres":["Action","Thriller"],"imdb_id":"tt36153493"},{"id":"1441563","type":"movie","title":"My Secret Santa","poster":"https://image.tmdb.org/t/p/w342/tpOAzBasKPsKwsUtPZOx1Mzuqq3.jpg","year":"2025","result":"HD","language":["Hindi"],"country":["US"],"original_language":"en","genres":["Comedy","Romance"],"imdb_id":"tt35219851"},{"id":"1436603","type":"movie","title":"Don't Talk to Strangers","poster":"https://image.tmdb.org/t/p/w342/9eAPRnVh4O5pJ5lofF2VQEWAn1J.jpg","year":"2025","result":"HD","language":["Hindi"],"country":[],"original_language":"en","genres":[],"imdb_id":""},{"id":"1435092","type":"movie","title":"Goodbye June","poster":"https://image.tmdb.org/t/p/w342/ygsMOnttVCekvJZgvmnvaemxPHA.jpg","year":"2025","result":"HD","language":["Hindi"],"country":["GB"],"original_language":"en","genres":["Drama"],"imdb_id":"tt35766629"},{"id":"1410082","type":"movie","title":"Sniper: The Last Stand","poster":"https://image.tmdb.org/t/p/w342/TVvIyCsFCmLk9MRLbAZi4X8f32.jpg","year":"2025","result":"HD","language":["Hindi"],"country":["US","CA","ZA"],"original_language":"en","genres":["Action","Thriller"],"imdb_id":"tt34910018"},{"id":"1401778","type":"movie","title":"Turbulence","poster":"https://image.tmdb.org/t/p/w342/jRuiKL4S9UpLma2ZlM47xIu2gbe.jpg","year":"2025","result":"HD","language":["Hindi"],"country":["US","GB"],"original_language":"en","genres":["Thriller","Action","Adventure","Drama","Fantasy"],"imdb_id":"tt33009027"},{"id":"1401318","type":"movie","title":"A Merry Little Ex-Mas","poster":"https://image.tmdb.org/t/p/w342/w4ytu75uJ1b0AgPd0wLm7iZMsWJ.jpg","year":"2025","result":"HD","language":["Hindi"],"country":["US"],"original_language":"en","genres":["Romance","Comedy"],"imdb_id":"tt34992378"},{"id":"1400782","type":"movie","title":"The Perfect Neighbor","poster":"https://image.tmdb.org/t/p/w342/2NE7yN45zo19o4LJr6JFxDWmh2b.jpg","year":"2025","result":"HD","language":["Hindi"],"country":["US"],"original_language":"en","genres":["Crime","Documentary"],"imdb_id":"tt34962891"},{"id":"1389255","type":"movie","title":"The Stranger in My Home","poster":"https://image.tmdb.org/t/p/w342/8rxFUdvtFwAxbyZfSBKPB2Vaal9.jpg","year":"2025","result":"HD","language":["Hindi"],"country":["US"],"original_language":"en","genres":["Thriller","Drama"],"imdb_id":"tt32147653"},{"id":"1388808","type":"movie","title":"Into the Deep","poster":"https://image.tmdb.org/t/p/w342/qPvw21Y5pxojLQYDrK4ft5IYLlY.jpg","year":"2025","result":"HD","language":["Hindi"],"country":["US"],"original_language":"en","genres":["Horror","Action","Thriller"],"imdb_id":"tt28637027"},{"id":"1371189","type":"movie","title":"Ruth & Boaz","poster":"https://image.tmdb.org/t/p/w342/mtMJEIHjeHcLtvP0tFPAptk1Var.jpg","year":"2025","result":"HD","language":["Hindi"],"country":["US"],"original_language":"en","genres":["Romance","Drama","Music"],"imdb_id":"tt32306048"},{"id":"1371185","type":"movie","title":"Song Sung Blue","poster":"https://image.tmdb.org/t/p/w342/kQzDdxI0F5z16qo2vzDoqdVMl4O.jpg","year":"2025","result":"HD","language":["Hindi"],"country":["US"],"original_language":"en","genres":["Music","Romance","Drama"],"imdb_id":"tt30343021"},{"id":"1363282","type":"movie","title":"The Carman Family Deaths","poster":"https://image.tmdb.org/t/p/w342/yFc6F5PmAIdqpAU9wReCqLHWwMm.jpg","year":"2025","result":"HD","language":["Hindi"],"country":["US"],"original_language":"en","genres":["Documentary","Crime"],"imdb_id":"tt31137117"},{"id":"1352755","type":"movie","title":"Maintenance Required","poster":"https://image.tmdb.org/t/p/w342/lM7Q1y0pmHPWZCPmGkAWGKdgu6W.jpg","year":"2025","result":"HD","language":["Hindi"],"country":["US","GB"],"original_language":"en","genres":["Romance","Comedy"],"imdb_id":"tt33335602"},{"id":"1337562","type":"movie","title":"Splitsville","poster":"https://image.tmdb.org/t/p/w342/cX6MVLl99pMDUmM3XKPFN4UKB8j.jpg","year":"2025","result":"HD","language":["Hindi"],"country":["US"],"original_language":"en","genres":["Comedy","Romance"],"imdb_id":"tt33247023"},{"id":"1327862","type":"movie","title":"Regretting You","poster":"https://image.tmdb.org/t/p/w342/z4gVnxTaks3anTycwKjDmvQSuWt.jpg","year":"2025","result":"HD","language":["Hindi"],"country":["US","DE"],"original_language":"en","genres":["Romance","Drama"],"imdb_id":"tt33088452"},{"id":"1323475","type":"movie","title":"Champagne Problems","poster":"https://image.tmdb.org/t/p/w342/A2TCPPkzmWd5SwjBlxMlB6yQ4yK.jpg","year":"2025","result":"HD","language":["Hindi"],"country":["US","FR"],"original_language":"en","genres":["Romance","Comedy"],"imdb_id":"tt33053440"},{"id":"1321439","type":"movie","title":"The Wrong Paris","poster":"https://image.tmdb.org/t/p/w342/A0KRoR842OgNByCfw9iFHbWoeR9.jpg","year":"2025","result":"HD","language":["Hindi"],"country":["US"],"original_language":"en","genres":["Romance","Comedy"],"imdb_id":"tt33039440"},{"id":"1319951","type":"movie","title":"40 Acres","poster":"https://image.tmdb.org/t/p/w342/3zCEo21Y9wVFBgGhgDVWCyvMZ47.jpg","year":"2025","result":"HD","language":["Hindi"],"country":["CA"],"original_language":"en","genres":["Action","Thriller","Drama","Science Fiction"],"imdb_id":"tt29634843"},{"id":"1314129","type":"movie","title":"Preparation for the Next Life","poster":"https://image.tmdb.org/t/p/w342/8JbuKgQBc8KlXopF1eege54HNQ5.jpg","year":"2025","result":"HD","language":["Hindi"],"country":["US"],"original_language":"en","genres":["Drama","Romance"],"imdb_id":"tt31727191"},{"id":"1312946","type":"movie","title":"The Map That Leads to You","poster":"https://image.tmdb.org/t/p/w342/uwvKQIjJpC37IEsEj4ZAn1ITyRy.jpg","year":"2025","result":"HD","language":["Hindi"],"country":["US","ES","PT"],"original_language":"en","genres":["Romance","Drama"],"imdb_id":"tt33549478"},{"id":"1307078","type":"movie","title":"My Oxford Year","poster":"https://image.tmdb.org/t/p/w342/jrhXbIOFingzdLjkccjg9vZnqIp.jpg","year":"2025","result":"HD","language":["Hindi"],"country":["US"],"original_language":"en","genres":["Romance","Comedy","Drama"],"imdb_id":"tt4978342"},{"id":"1301632","type":"movie","title":"Bhool Chuk Maaf","poster":"https://image.tmdb.org/t/p/w342/plWzFq6eVXOm8vpgJG0xUGmifHS.jpg","year":"2025","result":"HD","language":["Hindi"],"country":["IN","US"],"original_language":"hi","genres":["Comedy","Romance","Science Fiction"],"imdb_id":"tt32058735"},{"id":"1296504","type":"movie","title":"Stand Your Ground","poster":"https://image.tmdb.org/t/p/w342/vKB59pPIYvjRxxEXoRoyUfaiBoD.jpg","year":"2025","result":"HD","language":["Hindi"],"country":["US"],"original_language":"en","genres":["Action","Thriller","Crime"],"imdb_id":"tt30826955"},{"id":"1294203","type":"movie","title":"My Fault: London","poster":"https://image.tmdb.org/t/p/w342/ttN5D6GKOwKWHmCzDGctAvaNMAi.jpg","year":"2025","result":"HD","language":["Hindi"],"country":["ES","GB","US"],"original_language":"en","genres":["Drama","Romance"],"imdb_id":"tt32434379"},{"id":"1290879","type":"movie","title":"The Woman in Cabin 10","poster":"https://image.tmdb.org/t/p/w342/4kpdyePOlcELQQJcxXPF5GB1Adw.jpg","year":"2025","result":"HD","language":["Hindi"],"country":["GB"],"original_language":"en","genres":["Mystery","Thriller","Crime"],"imdb_id":"tt7130300"},{"id":"1290159","type":"movie","title":"A House of Dynamite","poster":"https://image.tmdb.org/t/p/w342/AiJ8L90ftPAwVf3SDx7Fj9IMZoy.jpg","year":"2025","result":"HD","language":["Hindi"],"country":["US"],"original_language":"en","genres":["Thriller"],"imdb_id":"tt32376165"},{"id":"1289936","type":"movie","title":"Downton Abbey: The Grand Finale","poster":"https://image.tmdb.org/t/p/w342/m1tLlMTCwc6oK6OjWTOI4b32wnA.jpg","year":"2025","result":"HD","language":["Hindi"],"country":["GB","US"],"original_language":"en","genres":["Drama","Romance"],"imdb_id":"tt31888477"},{"id":"1288072","type":"movie","title":"Keeper","poster":"https://image.tmdb.org/t/p/w342/mbGHijUc0C3fcM12l6ro6FgxIvg.jpg","year":"2025","result":"HD","language":["Hindi"],"country":["CA"],"original_language":"en","genres":["Horror","Mystery"],"imdb_id":"tt32332404"},{"id":"1287322","type":"movie","title":"Christy","poster":"https://image.tmdb.org/t/p/w342/ssy1uHGZkuXLkIWJWrtsBczPvVC.jpg","year":"2025","result":"HD","language":["Hindi"],"country":["US"],"original_language":"en","genres":["History","Drama"],"imdb_id":"tt32323252"},{"id":"1286185","type":"movie","title":"The Carpenter's Son","poster":"https://image.tmdb.org/t/p/w342/tXEtdZjoaHqjDjSxZJWwDVjIfx9.jpg","year":"2025","result":"HD","language":["Hindi"],"country":["FR","US","GB","GR"],"original_language":"en","genres":["Horror"],"imdb_id":"tt32304349"},{"id":"1285965","type":"movie","title":"Dangerous Animals","poster":"https://image.tmdb.org/t/p/w342/9tk3Si960hg4E49eMt81dS7Qe9Z.jpg","year":"2025","result":"HD","language":["Hindi"],"country":["AU","US","CA"],"original_language":"en","genres":["Horror","Thriller"],"imdb_id":"tt32299316"},{"id":"1280282","type":"movie","title":"Gabby's Dollhouse: The Movie","poster":"https://image.tmdb.org/t/p/w342/t6LLguAmu6iZUN8pWhT7Q0IcaQ5.jpg","year":"2025","result":"HD","language":["Hindi"],"country":["US"],"original_language":"en","genres":["Family","Comedy","Adventure","Animation"],"imdb_id":"tt32214143"},{"id":"1279947","type":"movie","title":"Sunray: Fallen Soldier","poster":"https://image.tmdb.org/t/p/w342/ghLaj5dBrdUsD4wjq3QERcisr5k.jpg","year":"2025","result":"HD","language":["Hindi"],"country":["GB"],"original_language":"en","genres":["Action","Thriller"],"imdb_id":"tt15128544"},{"id":"1278950","type":"movie","title":"The Ritual","poster":"https://image.tmdb.org/t/p/w342/uubL8yvtEBjz3V7DFQHjCuSQO8w.jpg","year":"2025","result":"HD","language":["Hindi"],"country":["US"],"original_language":"en","genres":["Horror","Drama","Thriller"],"imdb_id":"tt32194932"},{"id":"1272166","type":"movie","title":"Ballad of a Small Player","poster":"https://image.tmdb.org/t/p/w342/yiXpXNiBWENaSJmdKfoT5DU0bL4.jpg","year":"2025","result":"HD","language":["Hindi"],"country":["DE","GB"],"original_language":"en","genres":["Crime","Drama"],"imdb_id":"tt32063098"},{"id":"1265063","type":"movie","title":"After the Hunt","poster":"https://image.tmdb.org/t/p/w342/ryF8QPGUGlo8gRB4OYKb4J0r3aJ.jpg","year":"2025","result":"HD","language":["Hindi"],"country":["US","IT"],"original_language":"en","genres":["Drama"],"imdb_id":"tt32159989"},{"id":"1263256","type":"movie","title":"Happy Gilmore 2","poster":"https://image.tmdb.org/t/p/w342/nRwDPfYUzzzUQarfMxvPlasxzpL.jpg","year":"2025","result":"HD","language":["Hindi"],"country":["US"],"original_language":"en","genres":["Comedy"],"imdb_id":"tt31868189"},{"id":"1262815","type":"movie","title":"The Choral","poster":"https://image.tmdb.org/t/p/w342/yQtms7CSM0CE0W6dYbLLAATb5rL.jpg","year":"2025","result":"HD","language":["Hindi"],"country":["GB"],"original_language":"en","genres":["Comedy","Drama","Music"],"imdb_id":"tt31851518"},{"id":"1262548","type":"movie","title":"Uppu Kappurambu","poster":"https://image.tmdb.org/t/p/w342/xzduT5nNgmjvfD9pJom265S9te3.jpg","year":"2025","result":"HD","language":["Hindi"],"country":["IN","US"],"original_language":"te","genres":["Comedy","Drama"],"imdb_id":"tt31850758"},{"id":"1261825","type":"movie","title":"Oh. What. Fun.","poster":"https://image.tmdb.org/t/p/w342/qynCyBKCJUUcj4wo4PE2aQVvote.jpg","year":"2025","result":"HD","language":["Hindi"],"country":["US"],"original_language":"en","genres":["Comedy"],"imdb_id":"tt31998881"},{"id":"1257009","type":"movie","title":"Primitive War","poster":"https://image.tmdb.org/t/p/w342/fZnY97zAyATRH50Q1I92fQy1hUg.jpg","year":"2025","result":"HD","language":["Hindi"],"country":["AU"],"original_language":"en","genres":["Action","Horror","War","Science Fiction"],"imdb_id":"tt18312380"},{"id":"1255775","type":"movie","title":"Merv","poster":"https://image.tmdb.org/t/p/w342/nfGlYjINEcGtxV46viW4olwHHSz.jpg","year":"2025","result":"HD","language":["Hindi"],"country":["US"],"original_language":"en","genres":["Comedy","Romance"],"imdb_id":"tt31281659"},{"id":"1252382","type":"movie","title":"Tyler Perry's Finding Joy","poster":"https://image.tmdb.org/t/p/w342/sUMdbrjHhMFDY327B31ctpF9MuY.jpg","year":"2025","result":"HD","language":["Hindi"],"country":["US"],"original_language":"en","genres":["Drama"],"imdb_id":"tt31193547"},{"id":"1251717","type":"movie","title":"Vicious","poster":"https://image.tmdb.org/t/p/w342/shKGDGrwqmc9x2aTJcQszoXinq0.jpg","year":"2025","result":"HD","language":["Hindi"],"country":["US"],"original_language":"en","genres":["Horror","Thriller"],"imdb_id":"tt31511689"},{"id":"1249289","type":"movie","title":"Alarum","poster":"https://image.tmdb.org/t/p/w342/ckyYZf5cGTSOwF8LWIRqeThyh18.jpg","year":"2025","result":"HD","language":["Hindi"],"country":["US"],"original_language":"en","genres":["Action","Crime","Thriller"],"imdb_id":"tt31456973"},{"id":"1248226","type":"movie","title":"Playdate","poster":"https://image.tmdb.org/t/p/w342/fGodXWqJkkkbSebPIlxLSygV8GY.jpg","year":"2025","result":"HD","language":["Hindi"],"country":["US","CA"],"original_language":"en","genres":["Action","Comedy","Family"],"imdb_id":"tt31425731"},{"id":"1247528","type":"movie","title":"Ariella","poster":"https://image.tmdb.org/t/p/w342/cksGoj9rd20rH9I43hNd77pWlYR.jpg","year":"2025","result":"HD","language":["Hindi"],"country":["GB"],"original_language":"en","genres":["Drama"],"imdb_id":"tt28131866"},{"id":"1245993","type":"movie","title":"Caught Stealing","poster":"https://image.tmdb.org/t/p/w342/cvda8s5J8YaHjTyEyXQpvD6f3iV.jpg","year":"2025","result":"HD","language":["Hindi"],"country":["US"],"original_language":"en","genres":["Crime","Thriller","Comedy"],"imdb_id":"tt1493274"}]}