{"page":18,"total_pages":26,"total_items":1255,"items":[{"id":"135251","type":"tv","title":"The Idol","poster":"https://image.tmdb.org/t/p/w342/gO9k7t9jSdkkWVG0deMZDpELZGw.jpg","year":"2023","result":"HD","language":["Hindi"],"country":["US"],"original_language":"en","genres":["Drama"],"imdb_id":"tt14954666","latest_uploaded_season":1,"total_uploaded_episodes":5},{"id":"129959","type":"tv","title":"Kung Fu Panda: The Dragon Knight","poster":"https://image.tmdb.org/t/p/w342/7C9TKvU5dNyhvoG9kQvRFsg6vlA.jpg","year":"2023","result":"HD","language":["Hindi"],"country":["US"],"original_language":"en","genres":["Animation","Action & Adventure","Comedy","Kids","Sci-Fi & Fantasy"],"imdb_id":"tt18783984","latest_uploaded_season":3,"total_uploaded_episodes":21},{"id":"848326","type":"movie","title":"Rebel Moon - Part One: A Child of Fire","poster":"https://image.tmdb.org/t/p/w342/ui4DrH1cKk2vkHshcUcGt2lKxCm.jpg","year":"2023","result":"HD","language":["Hindi"],"country":["US"],"original_language":"en","genres":["Science Fiction","Action","Adventure"],"imdb_id":"tt14998742"},{"id":"906126","type":"movie","title":"Society of the Snow","poster":"https://image.tmdb.org/t/p/w342/2e853FDVSIso600RqAMunPxiZjq.jpg","year":"2023","result":"HD","language":["Hindi"],"country":["ES","US"],"original_language":"es","genres":["Drama","History"],"imdb_id":"tt16277242"},{"id":"1109534","type":"movie","title":"The Dive","poster":"https://image.tmdb.org/t/p/w342/1aLFglfGkTFG5p6KQg9o07EN3rl.jpg","year":"2023","result":"HD","language":["Hindi"],"country":["BE","FR","DE","MT","GB"],"original_language":"en","genres":["Thriller","Adventure"],"imdb_id":"tt13566172"},{"id":"1179085","type":"movie","title":"The PA and the Manhattan Prince","poster":"https://image.tmdb.org/t/p/w342/ehAxN7gYBtGkfDLPAMfMuXEL7Uy.jpg","year":"2023","result":"HD","language":["Hindi"],"country":["US"],"original_language":"en","genres":["TV Movie","Comedy","Romance","Family"],"imdb_id":"tt29137326"},{"id":"1093879","type":"movie","title":"The Keepers of the 5 Kingdoms","poster":"https://image.tmdb.org/t/p/w342/zITBvIWO2LRVAVx8BD1KyMWUx47.jpg","year":"2023","result":"HD","language":["Hindi"],"country":["US"],"original_language":"en","genres":["Adventure","Fantasy","Family"],"imdb_id":"tt8959084"},{"id":"572802","type":"movie","title":"Aquaman and the Lost Kingdom","poster":"https://image.tmdb.org/t/p/w342/7lTnXOy0iNtBAdRP3TZvaKJ77F6.jpg","year":"2023","result":"HD","language":["Hindi"],"country":["US"],"original_language":"en","genres":["Action","Adventure","Fantasy"],"imdb_id":"tt9663764"},{"id":"1081709","type":"movie","title":"Black Barbie","poster":"https://image.tmdb.org/t/p/w342/y6vyzS6gIhC8vriCf0axTZyxErg.jpg","year":"2023","result":"HD","language":["Hindi"],"country":["US"],"original_language":"en","genres":["Documentary"],"imdb_id":"tt26593387"},{"id":"1223272","type":"movie","title":"Contagion of Fear","poster":"https://image.tmdb.org/t/p/w342/A5muc6PtApC9ubfmJW3ADRnIIfi.jpg","year":"2023","result":"HD","language":["Hindi"],"country":["AU"],"original_language":"en","genres":["Science Fiction","Thriller"],"imdb_id":"tt27219087"},{"id":"62286","type":"tv","title":"Fear the Walking Dead","poster":"https://image.tmdb.org/t/p/w342/l7N9aS6VyYvjelKoCB2eZge0Qky.jpg","year":"2023","result":"HD","language":["Hindi"],"country":["US"],"original_language":"en","genres":["Action & Adventure","Drama"],"imdb_id":"tt3743822","latest_uploaded_season":8,"total_uploaded_episodes":113},{"id":"787699","type":"movie","title":"Wonka","poster":"https://image.tmdb.org/t/p/w342/qhb1qOilapbapxWQn9jtRCMwXJF.jpg","year":"2023","result":"HD","language":["Hindi"],"country":["GB","US"],"original_language":"en","genres":["Comedy","Family","Fantasy"],"imdb_id":"tt6166392"},{"id":"1036619","type":"movie","title":"Good Grief","poster":"https://image.tmdb.org/t/p/w342/wJFHUglmh7xlY7g9Ql85QAJBZ6n.jpg","year":"2023","result":"HD","language":["Hindi"],"country":["US"],"original_language":"en","genres":["Comedy","Drama"],"imdb_id":"tt19887550"},{"id":"927107","type":"movie","title":"The Bricklayer","poster":"https://image.tmdb.org/t/p/w342/36pYugctLa70NmwMEgXTR1G31Kq.jpg","year":"2023","result":"HD","language":["Hindi"],"country":["US"],"original_language":"en","genres":["Action","Thriller"],"imdb_id":"tt2016303"},{"id":"956262","type":"movie","title":"The Kitchen","poster":"https://image.tmdb.org/t/p/w342/tV0hK1BiqYrYlehChv4WJXIWgmZ.jpg","year":"2023","result":"HD","language":["Hindi"],"country":["GB","US"],"original_language":"en","genres":["Science Fiction","Thriller","Drama","Adventure","Comedy"],"imdb_id":"tt4460800"},{"id":"845643","type":"movie","title":"The Piper","poster":"https://image.tmdb.org/t/p/w342/A92IidYEd25UHJGh4baSsTcJ650.jpg","year":"2023","result":"HD","language":["Hindi"],"country":["US"],"original_language":"en","genres":["Horror"],"imdb_id":"tt14197038"},{"id":"1027073","type":"movie","title":"In the Land of Saints and Sinners","poster":"https://image.tmdb.org/t/p/w342/443c0xNTLackGkFOKfbPClKMpIk.jpg","year":"2023","result":"HD","language":["Hindi"],"country":["BE","FR","IE","CH","US"],"original_language":"en","genres":["Action","Thriller","Crime"],"imdb_id":"tt15782690"},{"id":"1104435","type":"movie","title":"Lucky Hearts","poster":"https://image.tmdb.org/t/p/w342/z9c2vWBUpMUQIBPQTnzSostzpvw.jpg","year":"2023","result":"HD","language":["Hindi"],"country":["CA","US"],"original_language":"en","genres":["TV Movie","Comedy","Romance"],"imdb_id":"tt27199056"},{"id":"1179317","type":"movie","title":"Lord Curzon Ki Haveli","poster":"https://image.tmdb.org/t/p/w342/3Hvhy3cVYCTWXvHDSX4XlCFfrec.jpg","year":"2023","result":"HD","language":["Hindi"],"country":["GB"],"original_language":"hi","genres":["Comedy","Thriller"],"imdb_id":"tt19223248"},{"id":"1121899","type":"movie","title":"Hard Copy","poster":"https://image.tmdb.org/t/p/w342/rmeFSzjQKlFQ5Arwh7UGu23odAM.jpg","year":"2023","result":"HD","language":["Hindi"],"country":["GB"],"original_language":"en","genres":["Thriller"],"imdb_id":"tt24802774"},{"id":"1113565","type":"movie","title":"Yaaran Da Rutbaa","poster":"https://image.tmdb.org/t/p/w342/w2P0BCRDun0E31zenFnEteozpSZ.jpg","year":"2023","result":"HD","language":["Hindi"],"country":[],"original_language":"en","genres":["Action","Drama"],"imdb_id":"tt27127629"},{"id":"964980","type":"movie","title":"Air","poster":"https://image.tmdb.org/t/p/w342/76AKQPdH3M8cvsFR9K8JsOzVlY5.jpg","year":"2023","result":"HD","language":["Hindi"],"country":["US"],"original_language":"en","genres":["Drama","History"],"imdb_id":"tt16419074"},{"id":"899524","type":"movie","title":"Golda","poster":"https://image.tmdb.org/t/p/w342/fqOOLq12rOMCTcWzxaJ5VUROxp3.jpg","year":"2023","result":"HD","language":["Hindi"],"country":["GB","US"],"original_language":"en","genres":["Drama","History","War"],"imdb_id":"tt14454876"},{"id":"872585","type":"movie","title":"Oppenheimer","poster":"https://image.tmdb.org/t/p/w342/8Gxv8gSFCU0XGDykEGv7zR1n2ua.jpg","year":"2023","result":"HD","language":["Hindi"],"country":["GB","US"],"original_language":"en","genres":["Drama","History"],"imdb_id":"tt15398776"},{"id":"758323","type":"movie","title":"The Pope's Exorcist","poster":"https://image.tmdb.org/t/p/w342/jFC4LS5qTAT3PinzdEzINfu1CV9.jpg","year":"2023","result":"HD","language":["Hindi"],"country":["US"],"original_language":"en","genres":["Horror","Thriller"],"imdb_id":"tt13375076"},{"id":"713704","type":"movie","title":"Evil Dead Rise","poster":"https://image.tmdb.org/t/p/w342/5ik4ATKmNtmJU6AYD0bLm56BCVM.jpg","year":"2023","result":"HD","language":["Hindi"],"country":["IE","NZ","US"],"original_language":"en","genres":["Horror","Thriller"],"imdb_id":"tt13345606"},{"id":"207493","type":"tv","title":"The Aristocrat's Otherworldly Adventure: Serving Gods Who Go Too Far","poster":"https://image.tmdb.org/t/p/w342/aH3EKIPW9XRaIJQeF7EYlOe7SEK.jpg","year":"2023","result":"HD","language":["English"],"country":["JP"],"original_language":"ja","genres":["Animation","Comedy","Action & Adventure","Sci-Fi & Fantasy"],"imdb_id":"tt27404658","latest_uploaded_season":1,"total_uploaded_episodes":12},{"id":"95558","type":"tv","title":"The Power","poster":"https://image.tmdb.org/t/p/w342/pTeb4EsTy3hoVFpg9FnLIF3glZ5.jpg","year":"2023","result":"HD","language":["Hindi"],"country":["US"],"original_language":"en","genres":["Sci-Fi & Fantasy","Mystery","Drama"],"imdb_id":"tt10369484","latest_uploaded_season":1,"total_uploaded_episodes":9},{"id":"60059","type":"tv","title":"Better Call Saul","poster":"https://image.tmdb.org/t/p/w342/zjg4jpK1Wp2kiRvtt5ND0kznako.jpg","year":"2022","result":"HD","language":["Hindi"],"country":["US"],"original_language":"en","genres":["Crime","Drama"],"imdb_id":"tt3032476","latest_uploaded_season":6,"total_uploaded_episodes":63},{"id":"289892","type":"tv","title":"Helluva Boss","poster":"https://image.tmdb.org/t/p/w342/dgtuBsG2F4cGiumtHBKDru7PW9j.jpg","year":"2022","result":"HD","language":["Hindi"],"country":["US"],"original_language":"en","genres":["Animation","Comedy","Drama","Sci-Fi & Fantasy"],"imdb_id":"tt10691770","latest_uploaded_season":2,"total_uploaded_episodes":20},{"id":"72636","type":"tv","title":"Made in Abyss","poster":"https://image.tmdb.org/t/p/w342/f6U3odfIb3pCXMGKRTQGGF9o1Qg.jpg","year":"2022","result":"HD","language":["English"],"country":["JP"],"original_language":"ja","genres":["Animation","Drama","Action & Adventure","Sci-Fi & Fantasy"],"imdb_id":"tt7222086","latest_uploaded_season":2,"total_uploaded_episodes":25},{"id":"69740","type":"tv","title":"Ozark","poster":"https://image.tmdb.org/t/p/w342/pCGyPVrI9Fzw6rE1Pvi4BIXF6ET.jpg","year":"2022","result":"HD","language":["Hindi"],"country":["US"],"original_language":"en","genres":["Crime","Drama"],"imdb_id":"tt5071412","latest_uploaded_season":4,"total_uploaded_episodes":44},{"id":"96481","type":"tv","title":"Rise of Empires: Ottoman","poster":"https://image.tmdb.org/t/p/w342/nkvdPFYo7o2IQWooJvA9UE0nvAp.jpg","year":"2022","result":"HD","language":["Hindi"],"country":["US"],"original_language":"en","genres":["Documentary","War & Politics","Action & Adventure"],"imdb_id":"tt9244578","latest_uploaded_season":2,"total_uploaded_episodes":12},{"id":"75450","type":"tv","title":"Titans","poster":"https://image.tmdb.org/t/p/w342/8e6QiSexmYKaiHGPvbhaFMmQEhc.jpg","year":"2022","result":"HD","language":["Hindi"],"country":["US"],"original_language":"en","genres":["Drama","Action & Adventure","Sci-Fi & Fantasy"],"imdb_id":"tt1043813","latest_uploaded_season":4,"total_uploaded_episodes":49},{"id":"520023","type":"movie","title":"Bodies Bodies Bodies","poster":"https://image.tmdb.org/t/p/w342/hSuTjDmqRdy7Dii8ymnF2WILTeP.jpg","year":"2022","result":"HD","language":["Hindi"],"country":["US","FR"],"original_language":"en","genres":["Horror","Comedy","Mystery","Thriller"],"imdb_id":"tt8110652"},{"id":"619979","type":"movie","title":"Deep Water","poster":"https://image.tmdb.org/t/p/w342/6yRMyWwjuhKg6IU66uiZIGhaSc8.jpg","year":"2022","result":"HD","language":["Hindi"],"country":["US"],"original_language":"en","genres":["Drama","Mystery","Thriller"],"imdb_id":"tt2180339"},{"id":"901454","type":"movie","title":"Dirty Games","poster":"https://image.tmdb.org/t/p/w342/j7bBSUzJq9m6hGEVSqLmyq4ilUw.jpg","year":"2022","result":"HD","language":["Hindi"],"country":["GB"],"original_language":"en","genres":["Romance"],"imdb_id":"tt14421754"},{"id":"758330","type":"movie","title":"Good Luck to You, Leo Grande","poster":"https://image.tmdb.org/t/p/w342/dxxOmTq4LgQxiyU4rW53qdj9FoN.jpg","year":"2022","result":"HD","language":["Hindi"],"country":["GB"],"original_language":"en","genres":["Romance","Drama"],"imdb_id":"tt13352968"},{"id":"814338","type":"movie","title":"Lady Chatterley's Lover","poster":"https://image.tmdb.org/t/p/w342/aSgl2DxPG3DuQXoaHr500KeULmT.jpg","year":"2022","result":"HD","language":["Hindi"],"country":["GB","US"],"original_language":"en","genres":["Drama","Romance"],"imdb_id":"tt14369780"},{"id":"844075","type":"movie","title":"New Gods: Yang Jian","poster":"https://image.tmdb.org/t/p/w342/tW5dFOemV4d7hxTcVI2bu4u0C9z.jpg","year":"2022","result":"HD","language":["Hindi"],"country":["CN","US"],"original_language":"zh","genres":["Animation","Adventure","Fantasy","Comedy"],"imdb_id":"tt19757204"},{"id":"869626","type":"movie","title":"Marcel the Shell with Shoes On","poster":"https://image.tmdb.org/t/p/w342/jaYmP4Ct8YLnxWAW2oYkUjeXtzm.jpg","year":"2022","result":"HD","language":["Hindi"],"country":["US"],"original_language":"en","genres":["Animation","Comedy","Drama","Family"],"imdb_id":"tt15339456"},{"id":"994052","type":"movie","title":"Romance in Style","poster":"https://image.tmdb.org/t/p/w342/gYcVRws4Hu5B36ji7BheKDnSbfP.jpg","year":"2022","result":"HD","language":["Hindi"],"country":["CA","US"],"original_language":"en","genres":["TV Movie","Comedy","Romance"],"imdb_id":"tt21653744"},{"id":"812025","type":"movie","title":"The Silent Twins","poster":"https://image.tmdb.org/t/p/w342/44zhSoVvpLDye6rJmU63TIpasUg.jpg","year":"2022","result":"HD","language":["Hindi"],"country":["GB","PL","US"],"original_language":"en","genres":["Drama"],"imdb_id":"tt11052678"},{"id":"1012910","type":"movie","title":"PR: Permanent Resident","poster":"https://image.tmdb.org/t/p/w342/uNn4AufR3i8GVaO2ssphMQeTtJi.jpg","year":"2022","result":"HD","language":["Hindi"],"country":[],"original_language":"en","genres":["Drama"],"imdb_id":"tt13161934"},{"id":"979971","type":"movie","title":"Dakuaan Da Munda 2","poster":"https://image.tmdb.org/t/p/w342/aBaBWIkMm6QIa4kee5zB1YRh5tW.jpg","year":"2022","result":"HD","language":["Hindi"],"country":["US"],"original_language":"pa","genres":["Action","Crime"],"imdb_id":"tt14888342"},{"id":"926899","type":"movie","title":"The House","poster":"https://image.tmdb.org/t/p/w342/xhE1EYcD6U7m5R8AT7yf29CCxia.jpg","year":"2022","result":"HD","language":["Hindi"],"country":["GB"],"original_language":"en","genres":["Animation","Drama","Comedy","Horror","Fantasy"],"imdb_id":"tt11703050"},{"id":"894169","type":"movie","title":"Vendetta","poster":"https://image.tmdb.org/t/p/w342/bvhmqU6GUkigo6SSYL3ttkBhNER.jpg","year":"2022","result":"HD","language":["Hindi"],"country":["US"],"original_language":"en","genres":["Action","Crime"],"imdb_id":"tt14849038"},{"id":"888479","type":"movie","title":"Game of Love","poster":"https://image.tmdb.org/t/p/w342/slLGOl6rTiMVySAYesYUFnJaaTf.jpg","year":"2022","result":"HD","language":["Hindi"],"country":["IT","US"],"original_language":"en","genres":["Romance","Drama"],"imdb_id":"tt15397918"},{"id":"698948","type":"movie","title":"Thirteen Lives","poster":"https://image.tmdb.org/t/p/w342/yi5KcJqFxy0D6yP8nCfcF8gJGg5.jpg","year":"2022","result":"HD","language":["Hindi"],"country":["GB","US"],"original_language":"en","genres":["Drama","Thriller","History"],"imdb_id":"tt12262116"},{"id":"639933","type":"movie","title":"The Northman","poster":"https://image.tmdb.org/t/p/w342/aSSJMnHknzKjlZ6zybwD7eyJ4Po.jpg","year":"2022","result":"HD","language":["Hindi"],"country":["US"],"original_language":"en","genres":["Action","Adventure","Fantasy"],"imdb_id":"tt11138512"}]}