{"page":3,"total_pages":26,"total_items":1255,"items":[{"id":"1226863","type":"movie","title":"The Super Mario Galaxy Movie","poster":"https://image.tmdb.org/t/p/w342/eJGWx219ZcEMVQJhAgMiqo8tYY.jpg","year":"2026","result":"HD","language":["Hindi"],"country":["JP","US"],"original_language":"en","genres":["Animation","Adventure","Fantasy","Family","Action","Comedy"],"imdb_id":"tt28650488"},{"id":"1171145","type":"movie","title":"Crime 101","poster":"https://image.tmdb.org/t/p/w342/tVvpFIoteRHNnoZMhdnwIVwJpCA.jpg","year":"2026","result":"HD","language":["Hindi"],"country":["GB","US"],"original_language":"en","genres":["Crime","Thriller"],"imdb_id":"tt32430579"},{"id":"1168190","type":"movie","title":"The Wrecking Crew","poster":"https://image.tmdb.org/t/p/w342/gbVwHl4YPSq6BcC92TQpe7qUTh6.jpg","year":"2026","result":"HD","language":["Hindi"],"country":["US","CA"],"original_language":"en","genres":["Action","Comedy","Crime","Mystery"],"imdb_id":"tt33046197"},{"id":"1159559","type":"movie","title":"Scream 7","poster":"https://image.tmdb.org/t/p/w342/jjyuk0edLiW8vOSnlfwWCCLpbh5.jpg","year":"2026","result":"HD","language":["Hindi"],"country":["US"],"original_language":"en","genres":["Horror","Mystery","Crime"],"imdb_id":"tt27047903"},{"id":"1084577","type":"movie","title":"Balls Up","poster":"https://image.tmdb.org/t/p/w342/xwvJ3WzdJ1OCuDoY8LAxBUlQyig.jpg","year":"2026","result":"HD","language":["Hindi"],"country":["US"],"original_language":"en","genres":["Comedy","Action","Adventure"],"imdb_id":"tt26735622"},{"id":"1084187","type":"movie","title":"Pretty Lethal","poster":"https://image.tmdb.org/t/p/w342/znTPnXCK3lEQJgqXCvP7e5FUz6f.jpg","year":"2026","result":"HD","language":["Hindi"],"country":["US","HU","GB"],"original_language":"en","genres":["Music","Thriller","Action","Horror"],"imdb_id":"tt26678938"},{"id":"1034716","type":"movie","title":"People We Meet on Vacation","poster":"https://image.tmdb.org/t/p/w342/kOrJqRyt1pklNgDwJMjzN1GuNXS.jpg","year":"2026","result":"HD","language":["Hindi"],"country":["US"],"original_language":"en","genres":["Comedy","Romance","Drama"],"imdb_id":"tt22740896"},{"id":"938150","type":"movie","title":"Wardriver","poster":"https://image.tmdb.org/t/p/w342/ipTXhWCJgeg5RN0CpmFZYDzOzQi.jpg","year":"2026","result":"HD","language":["Hindi"],"country":["US"],"original_language":"en","genres":["Crime","Thriller"],"imdb_id":"tt5095076"},{"id":"875828","type":"movie","title":"Peaky Blinders: The Immortal Man","poster":"https://image.tmdb.org/t/p/w342/gRMalasZEzsZi4w2VFuYusfSfqf.jpg","year":"2026","result":"HD","language":["Hindi"],"country":["GB"],"original_language":"en","genres":["Crime","Drama"],"imdb_id":"tt15574124"},{"id":"840464","type":"movie","title":"Greenland 2: Migration","poster":"https://image.tmdb.org/t/p/w342/z2tqCJLsw6uEJ8nJV8BsQXGa3dr.jpg","year":"2026","result":"HD","language":["Hindi"],"country":["GB","US"],"original_language":"en","genres":["Adventure","Thriller","Science Fiction"],"imdb_id":"tt14850054"},{"id":"799882","type":"movie","title":"The Bluff","poster":"https://image.tmdb.org/t/p/w342/dl1cA7wdwePc9QU2Rc24EPqlcyJ.jpg","year":"2026","result":"HD","language":["Hindi"],"country":["US","GB"],"original_language":"en","genres":["Drama","Action","Thriller"],"imdb_id":"tt14181714"},{"id":"687163","type":"movie","title":"Project Hail Mary","poster":"https://image.tmdb.org/t/p/w342/yihdXomYb5kTeSivtFndMy5iDmf.jpg","year":"2026","result":"HD","language":["Hindi"],"country":["US"],"original_language":"en","genres":["Science Fiction","Adventure"],"imdb_id":"tt12042730"},{"id":"319102","type":"tv","title":"Zung: The Rust","poster":"https://image.tmdb.org/t/p/w342/jzmmCVj05loavL4iW5NfD0q657N.jpg","year":"2026","result":"HD","language":["Hindi"],"country":["IN"],"original_language":"en","genres":[],"imdb_id":"tt40832405","latest_uploaded_season":1,"total_uploaded_episodes":1},{"id":"319059","type":"tv","title":"Adalat: Insaaf Ki Jung","poster":"https://image.tmdb.org/t/p/w342/5BVhF1GRtaInMFJrtA9uzTkx0To.jpg","year":"2026","result":"HD","language":["Hindi"],"country":["US"],"original_language":"hi","genres":[],"imdb_id":"","latest_uploaded_season":1,"total_uploaded_episodes":7},{"id":"316898","type":"tv","title":"Trust Me: The False Prophet","poster":"https://image.tmdb.org/t/p/w342/emukhfluHEAjj0oAPqwn4y6Reg.jpg","year":"2026","result":"HD","language":["Hindi"],"country":["US"],"original_language":"en","genres":["Documentary","Crime"],"imdb_id":"tt40826311","latest_uploaded_season":1,"total_uploaded_episodes":4},{"id":"316295","type":"tv","title":"The Predator of Seville","poster":"https://image.tmdb.org/t/p/w342/ayrLeA54JHe7qvmwAT3kAtWybb7.jpg","year":"2026","result":"HD","language":["Hindi"],"country":["ES","US"],"original_language":"es","genres":["Documentary","Crime"],"imdb_id":"tt40392206","latest_uploaded_season":1,"total_uploaded_episodes":3},{"id":"315159","type":"tv","title":"Dynasty: The Murdochs","poster":"https://image.tmdb.org/t/p/w342/j5wfKP6lxz6A2IBca5rqSXru5v0.jpg","year":"2026","result":"HD","language":["Hindi"],"country":["US"],"original_language":"en","genres":["Documentary"],"imdb_id":"tt40233617","latest_uploaded_season":1,"total_uploaded_episodes":4},{"id":"314297","type":"tv","title":"Blue Therapy","poster":"https://image.tmdb.org/t/p/w342/H8K1osuUf7OsMbtSVPvXJlcnWS.jpg","year":"2026","result":"HD","language":["Hindi"],"country":["GB"],"original_language":"en","genres":["Reality"],"imdb_id":"tt35836615","latest_uploaded_season":1,"total_uploaded_episodes":8},{"id":"313298","type":"tv","title":"The Dinosaurs","poster":"https://image.tmdb.org/t/p/w342/x37IK9WWhuzi7tgyMT4ff3kiT5X.jpg","year":"2026","result":"HD","language":["Hindi"],"country":["GB","US"],"original_language":"en","genres":["Documentary","Animation"],"imdb_id":"tt32493765","latest_uploaded_season":1,"total_uploaded_episodes":4},{"id":"312423","type":"tv","title":"Reality Check: Inside America's Next Top Model","poster":"https://image.tmdb.org/t/p/w342/lxlsvsgvEYlf2wrSV9qUipHRAuk.jpg","year":"2026","result":"HD","language":["Hindi"],"country":["US"],"original_language":"en","genres":["Reality","Documentary"],"imdb_id":"tt39398591","latest_uploaded_season":1,"total_uploaded_episodes":3},{"id":"312046","type":"tv","title":"Glitter & Gold: Ice Dancing","poster":"https://image.tmdb.org/t/p/w342/irrdulKrIPIjUwpZMwdtoo80CLW.jpg","year":"2026","result":"HD","language":["Hindi"],"country":["US"],"original_language":"en","genres":["Documentary","Reality"],"imdb_id":"tt39314120","latest_uploaded_season":1,"total_uploaded_episodes":3},{"id":"307534","type":"tv","title":"Free Bert","poster":"https://image.tmdb.org/t/p/w342/18jsL1sUIDL3ice67KoNkq22K6m.jpg","year":"2026","result":"HD","language":["Hindi"],"country":["US"],"original_language":"en","genres":["Comedy"],"imdb_id":"tt37449205","latest_uploaded_season":1,"total_uploaded_episodes":6},{"id":"291506","type":"tv","title":"Big Mistakes","poster":"https://image.tmdb.org/t/p/w342/mgXTCQ86lV3oudr2KXXO5zGEqIb.jpg","year":"2026","result":"HD","language":["Hindi"],"country":["US"],"original_language":"en","genres":["Comedy","Crime"],"imdb_id":"tt36957934","latest_uploaded_season":1,"total_uploaded_episodes":8},{"id":"285739","type":"tv","title":"Vladimir","poster":"https://image.tmdb.org/t/p/w342/j02VBIGVIk2OTwTUZ1YzyzcONAy.jpg","year":"2026","result":"HD","language":["Hindi"],"country":["US"],"original_language":"en","genres":["Drama"],"imdb_id":"tt35997699","latest_uploaded_season":1,"total_uploaded_episodes":8},{"id":"281401","type":"tv","title":"Finding Her Edge","poster":"https://image.tmdb.org/t/p/w342/7t6iXlbfoBSfVyINLRHms5kqfze.jpg","year":"2026","result":"HD","language":["Hindi"],"country":["CA"],"original_language":"en","genres":["Drama"],"imdb_id":"tt35495058","latest_uploaded_season":1,"total_uploaded_episodes":8},{"id":"262848","type":"tv","title":"Unchosen","poster":"https://image.tmdb.org/t/p/w342/oVl01a7R8rfmWrolWtrlPXYQqzj.jpg","year":"2026","result":"HD","language":["Hindi"],"country":["GB"],"original_language":"en","genres":["Drama"],"imdb_id":"tt31631142","latest_uploaded_season":1,"total_uploaded_episodes":6},{"id":"262273","type":"tv","title":"Being Gordon Ramsay","poster":"https://image.tmdb.org/t/p/w342/2n4dI6F0vRZJHSMep9vv9CS7FoE.jpg","year":"2026","result":"HD","language":["Hindi"],"country":["GB"],"original_language":"en","genres":["Documentary"],"imdb_id":"tt33241079","latest_uploaded_season":1,"total_uploaded_episodes":6},{"id":"259731","type":"tv","title":"HIS & HERS","poster":"https://image.tmdb.org/t/p/w342/cDSXLVQLkCSBIpBx3UW04TsfZ5c.jpg","year":"2026","result":"HD","language":["Hindi"],"country":["US"],"original_language":"en","genres":["Drama","Crime","Mystery"],"imdb_id":"tt33035373","latest_uploaded_season":1,"total_uploaded_episodes":6},{"id":"259265","type":"tv","title":"Something Very Bad Is Going to Happen","poster":"https://image.tmdb.org/t/p/w342/tuj37DlqEqib8sTO4h3nHJeTAJ2.jpg","year":"2026","result":"HD","language":["Hindi"],"country":["US"],"original_language":"en","genres":["Drama","Mystery","Sci-Fi & Fantasy"],"imdb_id":"tt32937780","latest_uploaded_season":1,"total_uploaded_episodes":8},{"id":"257519","type":"tv","title":"Bait","poster":"https://image.tmdb.org/t/p/w342/gX9zWmUnrjCZEPpultvvFtSUb93.jpg","year":"2026","result":"HD","language":["Hindi"],"country":["US"],"original_language":"en","genres":["Drama","Comedy","Sci-Fi & Fantasy"],"imdb_id":"tt32252887","latest_uploaded_season":1,"total_uploaded_episodes":6},{"id":"255661","type":"tv","title":"Young Sherlock","poster":"https://image.tmdb.org/t/p/w342/h3s0Cd2JppeWA4UjTuSRauL52P7.jpg","year":"2026","result":"HD","language":["Hindi"],"country":["GB","US"],"original_language":"en","genres":["Action & Adventure","Mystery"],"imdb_id":"tt8599532","latest_uploaded_season":1,"total_uploaded_episodes":8},{"id":"254071","type":"tv","title":"Steal","poster":"https://image.tmdb.org/t/p/w342/6KmlaPhsohh3Ki9XJUq0jiUYbf3.jpg","year":"2026","result":"HD","language":["Hindi"],"country":["GB"],"original_language":"en","genres":["Drama","Crime","Mystery"],"imdb_id":"tt32499731","latest_uploaded_season":1,"total_uploaded_episodes":6},{"id":"250505","type":"tv","title":"Agatha Christie's Seven Dials","poster":"https://image.tmdb.org/t/p/w342/3uRQi9HDEAGSadoKee1UHoFCaU9.jpg","year":"2026","result":"HD","language":["Hindi"],"country":["GB"],"original_language":"en","genres":["Mystery","Crime","Drama"],"imdb_id":"tt31974288","latest_uploaded_season":1,"total_uploaded_episodes":3},{"id":"249597","type":"tv","title":"Detective Hole","poster":"https://image.tmdb.org/t/p/w342/j61dmzEq4aRWJZk5tPyjzpHj8T2.jpg","year":"2026","result":"HD","language":["Hindi"],"country":["NO","GB","US"],"original_language":"no","genres":["Mystery","Crime"],"imdb_id":"tt31810018","latest_uploaded_season":1,"total_uploaded_episodes":9},{"id":"244244","type":"tv","title":"Run Away","poster":"https://image.tmdb.org/t/p/w342/frKxKytEHIA2vXg4RAz14Sc0UmS.jpg","year":"2026","result":"HD","language":["Hindi"],"country":["GB","US"],"original_language":"en","genres":["Drama","Mystery"],"imdb_id":"tt9169516","latest_uploaded_season":1,"total_uploaded_episodes":8},{"id":"241372","type":"tv","title":"56 Days","poster":"https://image.tmdb.org/t/p/w342/sdJLbucggwGj8NdX0UN2zt1Vwmn.jpg","year":"2026","result":"HD","language":["Hindi"],"country":["US"],"original_language":"en","genres":["Drama","Crime","Mystery"],"imdb_id":"tt30412869","latest_uploaded_season":1,"total_uploaded_episodes":8},{"id":"240740","type":"tv","title":"Scarpetta","poster":"https://image.tmdb.org/t/p/w342/zvkcHCJUPqv7R9ukaiDNkm75jy.jpg","year":"2026","result":"HD","language":["Hindi"],"country":["US"],"original_language":"en","genres":["Drama","Crime","Mystery"],"imdb_id":"tt14786934","latest_uploaded_season":1,"total_uploaded_episodes":8},{"id":"225891","type":"tv","title":"The Madison","poster":"https://image.tmdb.org/t/p/w342/6EXDfhfR2nNNK385rA49RY92qGt.jpg","year":"2026","result":"HD","language":["Hindi"],"country":["US"],"original_language":"en","genres":["Drama"],"imdb_id":"tt33204276","latest_uploaded_season":1,"total_uploaded_episodes":6},{"id":"224372","type":"tv","title":"A Knight of the Seven Kingdoms","poster":"https://image.tmdb.org/t/p/w342/3Ra3Wm6pyuyv7IDmJEBAgYJGlNF.jpg","year":"2026","result":"HD","language":["Hindi"],"country":["US"],"original_language":"en","genres":["Drama","Sci-Fi & Fantasy","Action & Adventure"],"imdb_id":"tt27497448","latest_uploaded_season":1,"total_uploaded_episodes":6},{"id":"198178","type":"tv","title":"Wonder Man","poster":"https://image.tmdb.org/t/p/w342/2XSHwBHIvIDPpbcH4ntQIItlThG.jpg","year":"2026","result":"HD","language":["Hindi"],"country":["US"],"original_language":"en","genres":["Comedy","Drama"],"imdb_id":"tt21066182","latest_uploaded_season":1,"total_uploaded_episodes":8},{"id":"1364608","type":"movie","title":"Anemone","poster":"https://image.tmdb.org/t/p/w342/dubKbJTRTJmji0VUEo5pVoZ92ra.jpg","year":"2025","result":"HD","language":["Hindi"],"country":["GB","US"],"original_language":"en","genres":["Drama"],"imdb_id":"tt33549447"},{"id":"1511789","type":"movie","title":"Captain Hook: The Cursed Tides","poster":"https://image.tmdb.org/t/p/w342/oKE2xPJs87V9DbDmoo8igAsDeH1.jpg","year":"2025","result":"HD","language":["Hindi"],"country":["GB"],"original_language":"en","genres":["Adventure","Action","Horror"],"imdb_id":"tt33458086"},{"id":"1235746","type":"movie","title":"Dead of Winter","poster":"https://image.tmdb.org/t/p/w342/5DcrN62sGAiRJxt8rXSRlSRLwIE.jpg","year":"2025","result":"HD","language":["Hindi"],"country":["DE","US","BE"],"original_language":"en","genres":["Thriller","Action"],"imdb_id":"tt7574556"},{"id":"1043197","type":"movie","title":"Dust Bunny","poster":"https://image.tmdb.org/t/p/w342/qa5aZpO8tQqhlDaE0flalS1TuIS.jpg","year":"2025","result":"HD","language":["Hindi"],"country":["US","CA","HU"],"original_language":"en","genres":["Fantasy","Action","Horror"],"imdb_id":"tt23172090"},{"id":"1114967","type":"movie","title":"Good Fortune","poster":"https://image.tmdb.org/t/p/w342/rywxUbd4zvHiRP7nOHeDzuQSLIZ.jpg","year":"2025","result":"HD","language":["Hindi"],"country":["US"],"original_language":"en","genres":["Comedy","Fantasy"],"imdb_id":"tt27543578"},{"id":"88989","type":"tv","title":"Nine Perfect Strangers","poster":"https://image.tmdb.org/t/p/w342/oPcqsZIFHrv7HoGgFQnsGDiPulD.jpg","year":"2025","result":"HD","language":["Hindi"],"country":["US"],"original_language":"en","genres":["Drama","Mystery"],"imdb_id":"tt8760932","latest_uploaded_season":2,"total_uploaded_episodes":16},{"id":"1512581","type":"movie","title":"No Tears in Hell","poster":"https://image.tmdb.org/t/p/w342/a0bODl3Ieix1qcGRLIx6PZvluzB.jpg","year":"2025","result":"HD","language":["Hindi"],"country":["US"],"original_language":"en","genres":["Horror","Crime"],"imdb_id":"tt28321883"},{"id":"425274","type":"movie","title":"Now You See Me: Now You Don't","poster":"https://image.tmdb.org/t/p/w342/oD3Eey4e4Z259XLm3eD3WGcoJAh.jpg","year":"2025","result":"HD","language":["Hindi"],"country":["US"],"original_language":"en","genres":["Crime","Thriller"],"imdb_id":"tt4712810"},{"id":"1371151","type":"movie","title":"Off the Grid","poster":"https://image.tmdb.org/t/p/w342/mMUVnkcx2VawTBJYnnnRN8fxJpb.jpg","year":"2025","result":"HD","language":["Hindi"],"country":["IT","US"],"original_language":"en","genres":["Action","Thriller"],"imdb_id":"tt27424511"},{"id":"1512623","type":"movie","title":"Risqué","poster":"https://image.tmdb.org/t/p/w342/h6OsRrDwbspLnKMvlFl57QFDP7d.jpg","year":"2025","result":"HD","language":["Hindi"],"country":["US"],"original_language":"en","genres":["Action","Crime","Thriller"],"imdb_id":"tt37268550"}]}