{"page":13,"total_pages":26,"total_items":1255,"items":[{"id":"539972","type":"movie","title":"Kraven the Hunter","poster":"https://image.tmdb.org/t/p/w342/1GvBhRxY6MELDfxFrete6BNhBB5.jpg","year":"2024","result":"HD","language":["Hindi"],"country":["US"],"original_language":"en","genres":["Action","Adventure","Thriller"],"imdb_id":"tt8790086"},{"id":"1011985","type":"movie","title":"Kung Fu Panda 4","poster":"https://image.tmdb.org/t/p/w342/kDp1vUBnMpe8ak4rjgl3cLELqjU.jpg","year":"2024","result":"HD","language":["Hindi"],"country":["US"],"original_language":"en","genres":["Action","Adventure","Animation","Comedy","Family","Fantasy"],"imdb_id":"tt21692408"},{"id":"1304168","type":"movie","title":"Love Kills","poster":"https://image.tmdb.org/t/p/w342/tNDQmXduXUXKq07mVrCTM2tBaRZ.jpg","year":"2024","result":"HD","language":["Hindi"],"country":["US"],"original_language":"en","genres":["Drama","Romance"],"imdb_id":"tt27833165"},{"id":"947891","type":"movie","title":"My Old Ass","poster":"https://image.tmdb.org/t/p/w342/yUs4Sw9AyTg2sA1qWBkNpD2mGSj.jpg","year":"2024","result":"HD","language":["Hindi"],"country":["US"],"original_language":"en","genres":["Comedy","Drama"],"imdb_id":"tt18559464"},{"id":"1028196","type":"movie","title":"Nickel Boys","poster":"https://image.tmdb.org/t/p/w342/lu2vmmtStmTNMmSZl2LgrrQpLZo.jpg","year":"2024","result":"HD","language":["Hindi"],"country":["US"],"original_language":"en","genres":["Drama","History"],"imdb_id":"tt23055660"},{"id":"426063","type":"movie","title":"Nosferatu","poster":"https://image.tmdb.org/t/p/w342/5qGIxdEO841C0tdY8vOdLoRVrr0.jpg","year":"2024","result":"HD","language":["Hindi"],"country":["US"],"original_language":"en","genres":["Horror","Fantasy"],"imdb_id":"tt5040012"},{"id":"1084222","type":"movie","title":"Operation Blood Hunt","poster":"https://image.tmdb.org/t/p/w342/u36L4VEFTRIw11eK3xw8zjT0blT.jpg","year":"2024","result":"HD","language":["Hindi"],"country":["TH","US"],"original_language":"en","genres":["Action","Adventure","Horror"],"imdb_id":"tt23553640"},{"id":"1234811","type":"movie","title":"Our Little Secret","poster":"https://image.tmdb.org/t/p/w342/gkydRYX3VTqMIjJGDT7kXJ6SrfZ.jpg","year":"2024","result":"HD","language":["Hindi"],"country":["US"],"original_language":"en","genres":["Romance","Comedy","Drama"],"imdb_id":"tt31022050"},{"id":"516729","type":"movie","title":"Paddington in Peru","poster":"https://image.tmdb.org/t/p/w342/1ffZAucqfvQu36x1C49XfOdjuOG.jpg","year":"2024","result":"HD","language":["Hindi"],"country":["GB","JP"],"original_language":"en","genres":["Adventure","Comedy","Family"],"imdb_id":"tt5822536"},{"id":"876911","type":"movie","title":"Parallel","poster":"https://image.tmdb.org/t/p/w342/4RQ2xOgRjw00ge7f2srg3bBAwZp.jpg","year":"2024","result":"HD","language":["Hindi"],"country":["US"],"original_language":"en","genres":["Science Fiction","Thriller","Drama"],"imdb_id":"tt14637386"},{"id":"1236419","type":"movie","title":"Piece by Piece","poster":"https://image.tmdb.org/t/p/w342/fmOPcP8WRvm8cok4Hz3REwD7rlJ.jpg","year":"2024","result":"HD","language":["Hindi"],"country":["US"],"original_language":"en","genres":["Animation","Music","Documentary","Comedy"],"imdb_id":"tt31064841"},{"id":"1222064","type":"movie","title":"River of Blood","poster":"https://image.tmdb.org/t/p/w342/kgCfN7zuC2k9VaqeDdquUwroC8u.jpg","year":"2024","result":"HD","language":["Hindi"],"country":["DK","GB","TH"],"original_language":"en","genres":["Horror","Thriller"],"imdb_id":"tt29708137"},{"id":"1211472","type":"movie","title":"September 5","poster":"https://image.tmdb.org/t/p/w342/3kcQOLwYKGPwyjiynFsvP8vHvRn.jpg","year":"2024","result":"HD","language":["Hindi"],"country":["DE","US"],"original_language":"en","genres":["Thriller","Drama","History"],"imdb_id":"tt28082769"},{"id":"1283707","type":"movie","title":"Shadow Land","poster":"https://image.tmdb.org/t/p/w342/n6tk8oqhUki6Zp4PIuQqr1aTSXq.jpg","year":"2024","result":"HD","language":["Hindi"],"country":["US"],"original_language":"en","genres":["Thriller","Action"],"imdb_id":"tt31956123"},{"id":"1037113","type":"movie","title":"Snack Shack","poster":"https://image.tmdb.org/t/p/w342/wCXd5tpUSc12LVPd2oN9OKU1EVQ.jpg","year":"2024","result":"HD","language":["Hindi"],"country":["US"],"original_language":"en","genres":["Comedy"],"imdb_id":"tt22004344"},{"id":"939243","type":"movie","title":"Sonic the Hedgehog 3","poster":"https://image.tmdb.org/t/p/w342/d8Ryb8AunYAuycVKDp5HpdWPKgC.jpg","year":"2024","result":"HD","language":["Hindi"],"country":["US","JP"],"original_language":"en","genres":["Action","Science Fiction","Comedy","Family"],"imdb_id":"tt18259086"},{"id":"1064028","type":"movie","title":"Subservience","poster":"https://image.tmdb.org/t/p/w342/gBenxR01Uy0Ev9RTIw6dVBPoyQU.jpg","year":"2024","result":"HD","language":["Hindi"],"country":["US"],"original_language":"en","genres":["Science Fiction","Horror","Thriller"],"imdb_id":"tt24871974"},{"id":"1094974","type":"movie","title":"Take Cover","poster":"https://image.tmdb.org/t/p/w342/xNLiMNyFzKTL9PVIEulG55Hei8j.jpg","year":"2024","result":"HD","language":["Hindi"],"country":["US"],"original_language":"en","genres":["Action","Thriller"],"imdb_id":"tt28129054"},{"id":"1034541","type":"movie","title":"Terrifier 3","poster":"https://image.tmdb.org/t/p/w342/ju10W5gl3PPK3b7TjEmVOZap51I.jpg","year":"2024","result":"HD","language":["Hindi"],"country":["US"],"original_language":"en","genres":["Horror"],"imdb_id":"tt27911000"},{"id":"1206617","type":"movie","title":"The Best Christmas Pageant Ever","poster":"https://image.tmdb.org/t/p/w342/6XjvhydAlXbQodoWbIf77H0Dd9R.jpg","year":"2024","result":"HD","language":["Hindi"],"country":["US"],"original_language":"en","genres":["Comedy","Drama","Family"],"imdb_id":"tt2347285"},{"id":"549509","type":"movie","title":"The Brutalist","poster":"https://image.tmdb.org/t/p/w342/vP7Yd6couiAaw9jgMd5cjMRj3hQ.jpg","year":"2024","result":"HD","language":["Hindi"],"country":["GB","US"],"original_language":"en","genres":["Drama"],"imdb_id":"tt8999762"},{"id":"957452","type":"movie","title":"The Crow","poster":"https://image.tmdb.org/t/p/w342/g8TbOXrNMuqq7AaKqdvqS2oG4ob.jpg","year":"2024","result":"HD","language":["Hindi"],"country":["FR","DE","GB","US"],"original_language":"en","genres":["Action","Fantasy","Horror"],"imdb_id":"tt1340094"},{"id":"610219","type":"movie","title":"The Fire Inside","poster":"https://image.tmdb.org/t/p/w342/dMorkoCdZJ1xmKv0VAXcpUax6Ar.jpg","year":"2024","result":"HD","language":["Hindi"],"country":["US"],"original_language":"en","genres":["Drama","History"],"imdb_id":"tt6133444"},{"id":"1186532","type":"movie","title":"The Forge","poster":"https://image.tmdb.org/t/p/w342/oranxontIQRmhuyQlkoAwxpeBYz.jpg","year":"2024","result":"HD","language":["Hindi"],"country":["US"],"original_language":"en","genres":["Drama","Family"],"imdb_id":"tt26731216"},{"id":"1279596","type":"movie","title":"The Little Mermaid","poster":"https://image.tmdb.org/t/p/w342/thRKCI7ex7He9rflOcO6JZojxk1.jpg","year":"2024","result":"HD","language":["Hindi"],"country":["KN","US"],"original_language":"en","genres":["Horror","Fantasy"],"imdb_id":"tt27722894"},{"id":"1327530","type":"movie","title":"The Lockdown","poster":"https://image.tmdb.org/t/p/w342/78ZjjWtG2AxHMo9buTJbzXsbTJq.jpg","year":"2024","result":"HD","language":["Hindi"],"country":["US"],"original_language":"en","genres":["Action"],"imdb_id":"tt10080130"},{"id":"1372665","type":"movie","title":"The Lost Children","poster":"https://image.tmdb.org/t/p/w342/5Te2bKuSyVkqt0m2GdSueU4dfCZ.jpg","year":"2024","result":"HD","language":["Hindi"],"country":["CO","GB","US"],"original_language":"es","genres":["Documentary"],"imdb_id":"tt34058121"},{"id":"1082195","type":"movie","title":"The Order","poster":"https://image.tmdb.org/t/p/w342/r3BPhDb45sy87kNV41Q1TwCL6BS.jpg","year":"2024","result":"HD","language":["Hindi"],"country":["GB","US","CA"],"original_language":"en","genres":["Crime","Drama","Thriller"],"imdb_id":"tt26625693"},{"id":"1061699","type":"movie","title":"The Six Triple Eight","poster":"https://image.tmdb.org/t/p/w342/7tvAnzZj9e9AjdoHaN9jshm2Cjw.jpg","year":"2024","result":"HD","language":["Hindi"],"country":["US"],"original_language":"en","genres":["Drama","War","History"],"imdb_id":"tt24458622"},{"id":"1032472","type":"movie","title":"Touch","poster":"https://image.tmdb.org/t/p/w342/yNXfG1CBVzffksd2EkEpJ9NXFOT.jpg","year":"2024","result":"HD","language":["Hindi"],"country":["IS","GB"],"original_language":"is","genres":["Romance","Drama"],"imdb_id":"tt23468836"},{"id":"698687","type":"movie","title":"Transformers One","poster":"https://image.tmdb.org/t/p/w342/iRCgqpdVE4wyLQvGYU3ZP7pAtUc.jpg","year":"2024","result":"HD","language":["Hindi"],"country":["US"],"original_language":"en","genres":["Animation","Science Fiction","Adventure","Family"],"imdb_id":"tt8864596"},{"id":"912649","type":"movie","title":"Venom: The Last Dance","poster":"https://image.tmdb.org/t/p/w342/vGXptEdgZIhPg3cGlc7e8sNPC2e.jpg","year":"2024","result":"HD","language":["Hindi"],"country":["US"],"original_language":"en","genres":["Science Fiction","Action","Adventure"],"imdb_id":"tt16366836"},{"id":"1067341","type":"movie","title":"Warchief","poster":"https://image.tmdb.org/t/p/w342/zFGOcPh7qzkNhTVH2ER0rTz4mfi.jpg","year":"2024","result":"HD","language":["Hindi"],"country":["GB"],"original_language":"en","genres":["Fantasy","Adventure","Action"],"imdb_id":"tt21398192"},{"id":"1059073","type":"movie","title":"Winter Spring Summer or Fall","poster":"https://image.tmdb.org/t/p/w342/mEPi5ISa5RmzpzeDfwkhX0CcNsf.jpg","year":"2024","result":"HD","language":["Hindi"],"country":["US"],"original_language":"en","genres":["Romance","Drama"],"imdb_id":"tt24515124"},{"id":"246178","type":"tv","title":"The Indrani Mukerjea Story: Buried Truth","poster":"https://image.tmdb.org/t/p/w342/bnKsvPH5QnXofRHwO9AJiWhRDPO.jpg","year":"2024","result":"HD","language":["Hindi"],"country":["IN","US"],"original_language":"en","genres":["Documentary","Crime"],"imdb_id":"tt31069611","latest_uploaded_season":1,"total_uploaded_episodes":4},{"id":"987686","type":"movie","title":"A Family Affair","poster":"https://image.tmdb.org/t/p/w342/l0CaVyqnTsWwNd4hWsrLNEk1Wjd.jpg","year":"2024","result":"HD","language":["Hindi"],"country":["US"],"original_language":"en","genres":["Romance","Comedy"],"imdb_id":"tt21051906"},{"id":"1260916","type":"movie","title":"A Journey","poster":"https://image.tmdb.org/t/p/w342/8LbrDogBCM7BxUl5igUrY1CLUfO.jpg","year":"2024","result":"HD","language":["Hindi"],"country":["AU","PH"],"original_language":"tl","genres":["Drama"],"imdb_id":"tt31805808"},{"id":"225120","type":"tv","title":"A Man in Full","poster":"https://image.tmdb.org/t/p/w342/o6iM2JDs15CwEGEcNMUU8HtLivE.jpg","year":"2024","result":"HD","language":["Hindi"],"country":["US"],"original_language":"en","genres":["Drama"],"imdb_id":"tt15845610","latest_uploaded_season":1,"total_uploaded_episodes":6},{"id":"1051896","type":"movie","title":"Arcadian","poster":"https://image.tmdb.org/t/p/w342/h4T8Xeydkw53h9uIbulYsss25UF.jpg","year":"2024","result":"HD","language":["Hindi"],"country":["IE","US"],"original_language":"en","genres":["Action","Horror","Thriller","Science Fiction"],"imdb_id":"tt22939186"},{"id":"618588","type":"movie","title":"Arthur the King","poster":"https://image.tmdb.org/t/p/w342/zkKB3kOun5DKAkm61pHvLbrjxfa.jpg","year":"2024","result":"HD","language":["Hindi"],"country":["CA","US"],"original_language":"en","genres":["Adventure","Drama"],"imdb_id":"tt10720352"},{"id":"253249","type":"tv","title":"Ashley Madison: Sex, Lies & Scandal","poster":"https://image.tmdb.org/t/p/w342/f4MOko7qeZ9Qxa4tDz3zYPIklQY.jpg","year":"2024","result":"HD","language":["Hindi"],"country":["GB"],"original_language":"en","genres":["Crime","Documentary"],"imdb_id":"tt32307741","latest_uploaded_season":1,"total_uploaded_episodes":3},{"id":"241259","type":"tv","title":"Baby Reindeer","poster":"https://image.tmdb.org/t/p/w342/tN9OcbkAOPwHSr1sgMornZtQZBx.jpg","year":"2024","result":"HD","language":["Hindi"],"country":["GB"],"original_language":"en","genres":["Drama"],"imdb_id":"tt13649112","latest_uploaded_season":1,"total_uploaded_episodes":7},{"id":"573435","type":"movie","title":"Bad Boys: Ride or Die","poster":"https://image.tmdb.org/t/p/w342/oGythE98MYleE6mZlGs5oBGkux1.jpg","year":"2024","result":"HD","language":["Hindi"],"country":["US"],"original_language":"en","genres":["Action","Comedy","Crime"],"imdb_id":"tt4919268"},{"id":"1170657","type":"movie","title":"Barbie and Stacie to the Rescue","poster":"https://image.tmdb.org/t/p/w342/h6aSbt5z0Rzu6dIFpxy9Vt17vi8.jpg","year":"2024","result":"HD","language":["Hindi"],"country":["CA"],"original_language":"en","genres":["Animation","Family"],"imdb_id":"tt31181357"},{"id":"125909","type":"tv","title":"Batman: Caped Crusader","poster":"https://image.tmdb.org/t/p/w342/imuZQcnPNKNygPw28TESUq4tNsb.jpg","year":"2024","result":"HD","language":["Hindi"],"country":["US"],"original_language":"en","genres":["Animation","Crime","Action & Adventure","Mystery"],"imdb_id":"tt14681596","latest_uploaded_season":1,"total_uploaded_episodes":10},{"id":"1096342","type":"movie","title":"Beautiful Wedding","poster":"https://image.tmdb.org/t/p/w342/cmeYlRD628KrijyY7thzwlV2KPT.jpg","year":"2024","result":"HD","language":["Hindi"],"country":["US"],"original_language":"en","genres":["Romance","Comedy","Drama"],"imdb_id":"tt26546123"},{"id":"280180","type":"movie","title":"Beverly Hills Cop: Axel F","poster":"https://image.tmdb.org/t/p/w342/zszRKfzjM5jltiq8rk6rasKVpUv.jpg","year":"2024","result":"HD","language":["Hindi"],"country":["US"],"original_language":"en","genres":["Action","Comedy","Crime"],"imdb_id":"tt3083016"},{"id":"241257","type":"tv","title":"Bodkin","poster":"https://image.tmdb.org/t/p/w342/fvpYJkQaeon5kmxioIPHFmgA2v5.jpg","year":"2024","result":"HD","language":["Hindi"],"country":["US"],"original_language":"en","genres":["Drama","Mystery"],"imdb_id":"tt21072112","latest_uploaded_season":1,"total_uploaded_episodes":7},{"id":"209332","type":"tv","title":"Boy Swallows Universe","poster":"https://image.tmdb.org/t/p/w342/nb0ek7qonE0YkyaB4dsAw5J9NoH.jpg","year":"2024","result":"HD","language":["Hindi"],"country":["AU"],"original_language":"en","genres":["Drama","Crime","Mystery"],"imdb_id":"tt10399902","latest_uploaded_season":1,"total_uploaded_episodes":7},{"id":"249046","type":"tv","title":"Buying London","poster":"https://image.tmdb.org/t/p/w342/tNd9SCEWETYDUrs1hAtSwtVqeG2.jpg","year":"2024","result":"HD","language":["Hindi"],"country":["GB"],"original_language":"en","genres":["Reality"],"imdb_id":"tt31806036","latest_uploaded_season":1,"total_uploaded_episodes":1}]}