{"page":20,"total_pages":26,"total_items":1255,"items":[{"id":"543540","type":"movie","title":"The Perfect Date","poster":"https://image.tmdb.org/t/p/w342/rrAYdezO3h1mjdYTaQyTXoj8IZ4.jpg","year":"2019","result":"HD","language":["Hindi"],"country":["US"],"original_language":"en","genres":["Romance","Comedy"],"imdb_id":"tt8201170"},{"id":"1399","type":"tv","title":"Game of Thrones","poster":"https://image.tmdb.org/t/p/w342/1XS1oqL89opfnbLl8WnZY1O1uJx.jpg","year":"2019","result":"HD","language":["Hindi"],"country":["US"],"original_language":"en","genres":["Sci-Fi & Fantasy","Drama","Action & Adventure"],"imdb_id":"tt0944947","latest_uploaded_season":8,"total_uploaded_episodes":73},{"id":"38472","type":"tv","title":"Marvel's Jessica Jones","poster":"https://image.tmdb.org/t/p/w342/1ghmaDw650NuUpGI7mYq6xE2QE2.jpg","year":"2019","result":"HD","language":["Hindi"],"country":["US"],"original_language":"en","genres":["Sci-Fi & Fantasy","Drama"],"imdb_id":"tt2357547","latest_uploaded_season":3,"total_uploaded_episodes":39},{"id":"44217","type":"tv","title":"Vikings","poster":"https://image.tmdb.org/t/p/w342/bQLrHIRNEkE3PdIWQrZHynQZazu.jpg","year":"2019","result":"HD","language":["Hindi"],"country":["CA"],"original_language":"en","genres":["Action & Adventure","Drama","War & Politics"],"imdb_id":"tt2306299","latest_uploaded_season":6,"total_uploaded_episodes":89},{"id":"33217","type":"tv","title":"Young Justice","poster":"https://image.tmdb.org/t/p/w342/zMJw34G4OJhcd9NjKSRjJdDqjbR.jpg","year":"2019","result":"HD","language":["Hindi"],"country":["US"],"original_language":"en","genres":["Animation","Sci-Fi & Fantasy","Action & Adventure"],"imdb_id":"tt1641384","latest_uploaded_season":3,"total_uploaded_episodes":72},{"id":"537915","type":"movie","title":"After","poster":"https://image.tmdb.org/t/p/w342/u3B2YKUjWABcxXZ6Nm9h10hLUbh.jpg","year":"2019","result":"HD","language":["Hindi"],"country":["US"],"original_language":"en","genres":["Drama","Romance"],"imdb_id":"tt4126476"},{"id":"530385","type":"movie","title":"Midsommar","poster":"https://image.tmdb.org/t/p/w342/7LEI8ulZzO5gy9Ww2NVCrKmHeDZ.jpg","year":"2019","result":"HD","language":["Hindi"],"country":["SE","US"],"original_language":"en","genres":["Horror","Drama","Mystery"],"imdb_id":"tt8772262"},{"id":"95259","type":"tv","title":"Dare Me","poster":"https://image.tmdb.org/t/p/w342/eLmQL6gWgWnhgdv0CxHaVQcnYOX.jpg","year":"2019","result":"HD","language":["Hindi"],"country":["US"],"original_language":"en","genres":["Drama","Mystery","Crime"],"imdb_id":"tt2983222","latest_uploaded_season":1,"total_uploaded_episodes":10},{"id":"1424","type":"tv","title":"Orange Is the New Black","poster":"https://image.tmdb.org/t/p/w342/ekaa7YjGPTkFLcPhwWXTnARuCEU.jpg","year":"2019","result":"HD","language":["Hindi"],"country":["US"],"original_language":"en","genres":["Drama","Comedy","Crime"],"imdb_id":"tt2372162","latest_uploaded_season":7,"total_uploaded_episodes":91},{"id":"461130","type":"movie","title":"Code 8","poster":"https://image.tmdb.org/t/p/w342/izGX7npHEopDQvngYcxMJEfcFbj.jpg","year":"2019","result":"HD","language":["Hindi"],"country":["CA","GB","US"],"original_language":"en","genres":["Science Fiction","Action","Crime"],"imdb_id":"tt6259380"},{"id":"82747","type":"tv","title":"Kung Fu Panda: The Paws of Destiny","poster":"https://image.tmdb.org/t/p/w342/x4yvmIVuXxYKfTlgRtSJnGC1Izs.jpg","year":"2019","result":"HD","language":["Hindi"],"country":["US"],"original_language":"en","genres":["Animation","Kids","Family","Action & Adventure","Comedy"],"imdb_id":"tt8271176","latest_uploaded_season":2,"total_uploaded_episodes":26},{"id":"641213","type":"movie","title":"The Dunes","poster":"https://image.tmdb.org/t/p/w342/jRNt7YRAPtYrCnd8eqkIsB6Gppd.jpg","year":"2019","result":"HD","language":["Hindi"],"country":["US"],"original_language":"en","genres":["Thriller","Mystery","Drama"],"imdb_id":"tt4681432"},{"id":"682641","type":"movie","title":"Blood Hunters: Rise of the Hybrids","poster":"https://image.tmdb.org/t/p/w342/1wNYtbKO5lMYCZEncqI8fZMtvKp.jpg","year":"2019","result":"HD","language":["Hindi"],"country":["PH"],"original_language":"en","genres":["Action","Fantasy","Horror"],"imdb_id":"tt6754712"},{"id":"619278","type":"movie","title":"Inside Man: Most Wanted","poster":"https://image.tmdb.org/t/p/w342/zcDZisqVQK9akfKgyrB9HYzYuVh.jpg","year":"2019","result":"HD","language":["Hindi"],"country":["US"],"original_language":"en","genres":["Action","Crime","Thriller"],"imdb_id":"tt7832848"},{"id":"594314","type":"movie","title":"Blood Myth","poster":"https://image.tmdb.org/t/p/w342/9qxxgGeBIuiO9V2LE3x3gSwtjXZ.jpg","year":"2019","result":"HD","language":["Hindi"],"country":["GB"],"original_language":"en","genres":["Horror"],"imdb_id":"tt7158904"},{"id":"584044","type":"movie","title":"The Viking War","poster":"https://image.tmdb.org/t/p/w342/7BEY3dAb6ZVHzND1Ewmw2PTAl76.jpg","year":"2019","result":"HD","language":["Hindi"],"country":["GB"],"original_language":"en","genres":["History","Fantasy","Drama"],"imdb_id":"tt8707008"},{"id":"567609","type":"movie","title":"Ready or Not","poster":"https://image.tmdb.org/t/p/w342/oJD9KQFoObZmxAS1je56SIFVNJt.jpg","year":"2019","result":"HD","language":["Hindi"],"country":["US"],"original_language":"en","genres":["Horror","Comedy"],"imdb_id":"tt7798634"},{"id":"531309","type":"movie","title":"Brightburn","poster":"https://image.tmdb.org/t/p/w342/sJWwkYc9ajwnPRSkqj8Aue5JbKz.jpg","year":"2019","result":"HD","language":["Hindi"],"country":["US"],"original_language":"en","genres":["Horror","Science Fiction"],"imdb_id":"tt7752126"},{"id":"528888","type":"movie","title":"Dolemite Is My Name","poster":"https://image.tmdb.org/t/p/w342/uoAqJg7ZSmftnBGOkupU1ySZQU0.jpg","year":"2019","result":"HD","language":["Hindi"],"country":["US"],"original_language":"en","genres":["Drama","Comedy","History"],"imdb_id":"tt8526872"},{"id":"517909","type":"movie","title":"The Laundromat","poster":"https://image.tmdb.org/t/p/w342/hwNMJgbiUUvPCxsnADjbV9ysM5j.jpg","year":"2019","result":"HD","language":["Hindi"],"country":["US"],"original_language":"en","genres":["Crime","Drama","Comedy"],"imdb_id":"tt5865326"},{"id":"512196","type":"movie","title":"Happy Death Day 2U","poster":"https://image.tmdb.org/t/p/w342/4tdnePOkOOzwuGPEOAHp8UA4vqx.jpg","year":"2019","result":"HD","language":["Hindi"],"country":["US","JP"],"original_language":"en","genres":["Comedy","Horror","Science Fiction"],"imdb_id":"tt8155288"},{"id":"504949","type":"movie","title":"The King","poster":"https://image.tmdb.org/t/p/w342/8u0QBGUbZcBW59VEAdmeFl9g98N.jpg","year":"2019","result":"HD","language":["Hindi"],"country":["AU","US"],"original_language":"en","genres":["Drama","History","War"],"imdb_id":"tt7984766"},{"id":"502416","type":"movie","title":"Ma","poster":"https://image.tmdb.org/t/p/w342/6n7ASmQ1wY2cxTubFFGlcvPpyk7.jpg","year":"2019","result":"HD","language":["Hindi"],"country":["US"],"original_language":"en","genres":["Horror","Thriller"],"imdb_id":"tt7958736"},{"id":"474350","type":"movie","title":"It Chapter Two","poster":"https://image.tmdb.org/t/p/w342/zfE0R94v1E8cuKAerbskfD3VfUt.jpg","year":"2019","result":"HD","language":["Hindi"],"country":["US"],"original_language":"en","genres":["Horror","Thriller","Drama"],"imdb_id":"tt7349950"},{"id":"431580","type":"movie","title":"Abominable","poster":"https://image.tmdb.org/t/p/w342/20djTLqppfBx5WYA67Y300S6aPD.jpg","year":"2019","result":"HD","language":["Hindi"],"country":["CN","US"],"original_language":"en","genres":["Family","Animation","Adventure","Comedy","Fantasy"],"imdb_id":"tt6324278"},{"id":"420818","type":"movie","title":"The Lion King","poster":"https://image.tmdb.org/t/p/w342/dzBtMocZuJbjLOXvrl4zGYigDzh.jpg","year":"2019","result":"HD","language":["Hindi"],"country":["US"],"original_language":"en","genres":["Adventure","Drama","Family","Animation"],"imdb_id":"tt6105098"},{"id":"399579","type":"movie","title":"Alita: Battle Angel","poster":"https://image.tmdb.org/t/p/w342/xRWht48C2V8XNfzvPehyClOvDni.jpg","year":"2019","result":"HD","language":["Hindi"],"country":["US"],"original_language":"en","genres":["Action","Science Fiction","Adventure"],"imdb_id":"tt0437086"},{"id":"299537","type":"movie","title":"Captain Marvel","poster":"https://image.tmdb.org/t/p/w342/AtsgWhDnHTq68L0lLsUrCnM7TjG.jpg","year":"2019","result":"HD","language":["Hindi"],"country":["US"],"original_language":"en","genres":["Action","Adventure","Science Fiction"],"imdb_id":"tt4154664"},{"id":"87108","type":"tv","title":"Chernobyl","poster":"https://image.tmdb.org/t/p/w342/hlLXt2tOPT6RRnjiUmoxyG1LTFi.jpg","year":"2019","result":"HD","language":["Hindi"],"country":["US"],"original_language":"en","genres":["Drama"],"imdb_id":"tt7366338","latest_uploaded_season":1,"total_uploaded_episodes":5},{"id":"68267","type":"tv","title":"Trollhunters: Tales of Arcadia","poster":"https://image.tmdb.org/t/p/w342/gF03zm8x9B10QyPZyzc8Vgc8lqx.jpg","year":"2018","result":"HD","language":["Hindi"],"country":["US"],"original_language":"en","genres":["Family","Animation","Action & Adventure","Comedy","Sci-Fi & Fantasy"],"imdb_id":"tt1734135","latest_uploaded_season":3,"total_uploaded_episodes":52},{"id":"61889","type":"tv","title":"Marvel's Daredevil","poster":"https://image.tmdb.org/t/p/w342/QWbPaDxiB6LW2LjASknzYBvjMj.jpg","year":"2018","result":"HD","language":["Hindi"],"country":["US"],"original_language":"en","genres":["Crime","Drama","Action & Adventure"],"imdb_id":"tt3322312","latest_uploaded_season":3,"total_uploaded_episodes":17},{"id":"550776","type":"movie","title":"Believe Me: The Abduction of Lisa McVey","poster":"https://image.tmdb.org/t/p/w342/qbJEzCzEKDHPZDiRvSSBiYEKaAH.jpg","year":"2018","result":"HD","language":["Hindi"],"country":["CA"],"original_language":"en","genres":["Drama","TV Movie","Crime"],"imdb_id":"tt9072202"},{"id":"337167","type":"movie","title":"Fifty Shades Freed","poster":"https://image.tmdb.org/t/p/w342/jjPJ4s3DWZZvI4vw8Xfi4Vqa1Q8.jpg","year":"2018","result":"HD","language":["Hindi"],"country":["US"],"original_language":"en","genres":["Drama","Romance"],"imdb_id":"tt4477536"},{"id":"448358","type":"movie","title":"Darker Shades of Elise","poster":"https://image.tmdb.org/t/p/w342/d2FHfaJ2FM6IRnQbFS0O3hefeZV.jpg","year":"2018","result":"HD","language":["Hindi"],"country":["GB"],"original_language":"en","genres":["Thriller","Drama"],"imdb_id":"tt4208432"},{"id":"592041","type":"movie","title":"Dirty Work","poster":"https://image.tmdb.org/t/p/w342/pLkeHxzyTK5F2TGWruTkebtPKtd.jpg","year":"2018","result":"HD","language":["Hindi"],"country":["GB"],"original_language":"en","genres":["Romance","Drama"],"imdb_id":"tt7243754"},{"id":"795746","type":"movie","title":"LUCID","poster":"https://image.tmdb.org/t/p/w342/a8Zr3qJck0QQAKLPM8d6QpfMdtK.jpg","year":"2018","result":"HD","language":["Hindi"],"country":[],"original_language":"en","genres":["Science Fiction"],"imdb_id":"tt8721012"},{"id":"703297","type":"movie","title":"Baby Frankenstein","poster":"https://image.tmdb.org/t/p/w342/suUsjsbWKAOLGhBSJQxrkAYcH9O.jpg","year":"2018","result":"HD","language":["Hindi"],"country":["US"],"original_language":"en","genres":["Horror","Comedy"],"imdb_id":"tt4949388"},{"id":"636372","type":"movie","title":"Oxalis","poster":"https://image.tmdb.org/t/p/w342/xMWaMPYzNEnq2cRLrbos2HWsYVt.jpg","year":"2018","result":"HD","language":["Hindi"],"country":[],"original_language":"en","genres":["Science Fiction"],"imdb_id":"tt4941032"},{"id":"548928","type":"movie","title":"The Marine 6: Close Quarters","poster":"https://image.tmdb.org/t/p/w342/ApPQa5MVbHkVXNKrXHpHSXd1puu.jpg","year":"2018","result":"HD","language":["Hindi"],"country":["US","GB"],"original_language":"en","genres":["Action"],"imdb_id":"tt7668724"},{"id":"503346","type":"movie","title":"Occupation","poster":"https://image.tmdb.org/t/p/w342/hr7MFQAmP30IJZP2FXKhPKbe8IW.jpg","year":"2018","result":"HD","language":["Hindi"],"country":["AU"],"original_language":"en","genres":["Action","Science Fiction","Drama"],"imdb_id":"tt6774786"},{"id":"500664","type":"movie","title":"Upgrade","poster":"https://image.tmdb.org/t/p/w342/woLGROUdPWdBnLVFKYdGD3kFkPY.jpg","year":"2018","result":"HD","language":["Hindi"],"country":["AU","US"],"original_language":"en","genres":["Action","Thriller","Science Fiction"],"imdb_id":"tt6499752"},{"id":"487558","type":"movie","title":"BlacKkKlansman","poster":"https://image.tmdb.org/t/p/w342/8jxqAvSDoneSKRczaK8v9X5gqBp.jpg","year":"2018","result":"HD","language":["Hindi"],"country":["US"],"original_language":"en","genres":["Crime","Comedy","Drama","History"],"imdb_id":"tt7349662"},{"id":"437557","type":"movie","title":"Blockers","poster":"https://image.tmdb.org/t/p/w342/uvlUQXg0AlpGzKukO11K7QtW3Yu.jpg","year":"2018","result":"HD","language":["Hindi"],"country":["US"],"original_language":"en","genres":["Comedy"],"imdb_id":"tt2531344"},{"id":"425505","type":"movie","title":"Kin","poster":"https://image.tmdb.org/t/p/w342/oPE5GXHaTlu5eRcd4USuOX3A1mf.jpg","year":"2018","result":"HD","language":["Hindi"],"country":["US"],"original_language":"en","genres":["Science Fiction","Action","Adventure","Thriller"],"imdb_id":"tt6017942"},{"id":"385332","type":"movie","title":"Terminal","poster":"https://image.tmdb.org/t/p/w342/xi7pA3lL6Wb78p6Y6PgWoHDMjrM.jpg","year":"2018","result":"HD","language":["Hindi"],"country":["US","GB","HK","IE","HU"],"original_language":"en","genres":["Crime","Drama","Thriller","Action","Comedy","Mystery"],"imdb_id":"tt4463816"},{"id":"346910","type":"movie","title":"The Predator","poster":"https://image.tmdb.org/t/p/w342/a3eWGF6YPF7No5Rbtjc8QpDvz7l.jpg","year":"2018","result":"HD","language":["Hindi"],"country":["US"],"original_language":"en","genres":["Science Fiction","Action","Thriller"],"imdb_id":"tt3829266"},{"id":"340601","type":"movie","title":"Delirium","poster":"https://image.tmdb.org/t/p/w342/j2jIkjrASnjtwCmCNDwh9LDWvq9.jpg","year":"2018","result":"HD","language":["Hindi"],"country":["GB","US"],"original_language":"en","genres":["Horror","Thriller"],"imdb_id":"tt2069797"},{"id":"353616","type":"movie","title":"Pitch Perfect 3","poster":"https://image.tmdb.org/t/p/w342/v4tbRRX0OSOHcgz2869rEjcBwOJ.jpg","year":"2017","result":"HD","language":["Hindi"],"country":["US"],"original_language":"en","genres":["Music","Comedy"],"imdb_id":"tt4765284"},{"id":"2288","type":"tv","title":"Prison Break","poster":"https://image.tmdb.org/t/p/w342/wnmNPaLvhnMeOqnWlhNkYCZxtda.jpg","year":"2017","result":"HD","language":["Hindi"],"country":["US"],"original_language":"en","genres":["Action & Adventure","Crime","Drama"],"imdb_id":"tt0455275","latest_uploaded_season":5,"total_uploaded_episodes":88},{"id":"341174","type":"movie","title":"Fifty Shades Darker","poster":"https://image.tmdb.org/t/p/w342/w3qa274gvca9t8pkUoG8nfQgTU3.jpg","year":"2017","result":"HD","language":["Hindi"],"country":["US"],"original_language":"en","genres":["Drama","Romance"],"imdb_id":"tt4465564"}]}