{"page":16,"total_pages":26,"total_items":1255,"items":[{"id":"840705","type":"movie","title":"Blink Twice","poster":"https://image.tmdb.org/t/p/w342/lZGOK0I2DJSRlEPNOAFTSNxSjDD.jpg","year":"2024","result":"HD","language":["Hindi"],"country":["US"],"original_language":"en","genres":["Mystery","Thriller"],"imdb_id":"tt14858658"},{"id":"1025596","type":"movie","title":"Blood for Dust","poster":"https://image.tmdb.org/t/p/w342/nvaCnkl8RilLhVAQXPFei0tqkqW.jpg","year":"2024","result":"HD","language":["Hindi"],"country":["US"],"original_language":"en","genres":["Action","Crime","Thriller"],"imdb_id":"tt10669888"},{"id":"1280990","type":"movie","title":"Consumed","poster":"https://image.tmdb.org/t/p/w342/jMKc8AOyb7KWSzlKblstqjCXhvn.jpg","year":"2024","result":"HD","language":["Hindi"],"country":["US"],"original_language":"en","genres":["Horror"],"imdb_id":"tt13374480"},{"id":"957304","type":"movie","title":"Drive-Away Dolls","poster":"https://image.tmdb.org/t/p/w342/6QPKmqntFgLm6sB47AtSelEGGPM.jpg","year":"2024","result":"HD","language":["Hindi"],"country":["GB","US"],"original_language":"en","genres":["Comedy","Crime"],"imdb_id":"tt19356262"},{"id":"1014661","type":"movie","title":"House of Spoils","poster":"https://image.tmdb.org/t/p/w342/udfMAdiyKhgAS47dRXEnXo6tHt6.jpg","year":"2024","result":"HD","language":["Hindi"],"country":["US"],"original_language":"en","genres":["Horror","Mystery"],"imdb_id":"tt21830836"},{"id":"1041613","type":"movie","title":"Immaculate","poster":"https://image.tmdb.org/t/p/w342/zyopv7D5j7cfswG0NYiA14qAdPC.jpg","year":"2024","result":"HD","language":["Hindi"],"country":["US"],"original_language":"en","genres":["Horror","Mystery","Thriller"],"imdb_id":"tt23137390"},{"id":"1008953","type":"movie","title":"Incoming","poster":"https://image.tmdb.org/t/p/w342/k2ySukuAiAarLns0yttKS3jg85Y.jpg","year":"2024","result":"HD","language":["Hindi"],"country":["US"],"original_language":"en","genres":["Comedy"],"imdb_id":"tt21284218"},{"id":"1266321","type":"movie","title":"Inside the Mind of a Dog","poster":"https://image.tmdb.org/t/p/w342/rajrUCW4fkvdK4EDickfpK9wLbO.jpg","year":"2024","result":"HD","language":["Hindi"],"country":["US"],"original_language":"en","genres":["Documentary"],"imdb_id":"tt32907397"},{"id":"1052280","type":"movie","title":"It's What's Inside","poster":"https://image.tmdb.org/t/p/w342/6jzwaLoDurD6Jn2ILb42nFcn3xq.jpg","year":"2024","result":"HD","language":["Hindi"],"country":["US"],"original_language":"en","genres":["Comedy","Mystery","Science Fiction"],"imdb_id":"tt14577874"},{"id":"1094138","type":"movie","title":"Jackpot!","poster":"https://image.tmdb.org/t/p/w342/7vv0NTaQGOO7M5ZMerp1vMFJsby.jpg","year":"2024","result":"HD","language":["Hindi"],"country":["US"],"original_language":"en","genres":["Comedy","Action"],"imdb_id":"tt26940324"},{"id":"969492","type":"movie","title":"Land of Bad","poster":"https://image.tmdb.org/t/p/w342/h3jYanWMEJq6JJsCopy1h7cT2Hs.jpg","year":"2024","result":"HD","language":["Hindi"],"country":["US","AU","CZ"],"original_language":"en","genres":["Action","War","Thriller"],"imdb_id":"tt19864802"},{"id":"993784","type":"movie","title":"Lisa Frankenstein","poster":"https://image.tmdb.org/t/p/w342/jAW7ZdIm4HLKB3g15uMOWYNdU8r.jpg","year":"2024","result":"HD","language":["Hindi"],"country":["US"],"original_language":"en","genres":["Horror","Comedy","Romance"],"imdb_id":"tt21188080"},{"id":"959429","type":"movie","title":"Lonely Planet","poster":"https://image.tmdb.org/t/p/w342/sH7Orig1yqa6ojMLIzLDxA2GRkH.jpg","year":"2024","result":"HD","language":["Hindi"],"country":["US"],"original_language":"en","genres":["Romance","Drama"],"imdb_id":"tt20194882"},{"id":"1226578","type":"movie","title":"Longlegs","poster":"https://image.tmdb.org/t/p/w342/1EwNyiiNFd863H4e8nWEzutnZD7.jpg","year":"2024","result":"HD","language":["Hindi"],"country":["CA","US"],"original_language":"en","genres":["Crime","Horror","Mystery"],"imdb_id":"tt23468450"},{"id":"1026436","type":"movie","title":"Miller's Girl","poster":"https://image.tmdb.org/t/p/w342/ieU0zUj7WhE0GrgpgofRH0sNjbI.jpg","year":"2024","result":"HD","language":["Hindi"],"country":["US"],"original_language":"en","genres":["Thriller","Drama","Romance"],"imdb_id":"tt8310486"},{"id":"1281826","type":"movie","title":"One Fast Move","poster":"https://image.tmdb.org/t/p/w342/hdBUjfbdr1ymS0kycAT7qguOmWA.jpg","year":"2024","result":"HD","language":["Hindi"],"country":["US"],"original_language":"en","genres":["Action","Drama","Romance"],"imdb_id":"tt21096576"},{"id":"646097","type":"movie","title":"Rebel Ridge","poster":"https://image.tmdb.org/t/p/w342/xEt2GSz9z5rSVpIHMiGdtf0czyf.jpg","year":"2024","result":"HD","language":["Hindi"],"country":["US"],"original_language":"en","genres":["Crime","Action","Thriller","Drama"],"imdb_id":"tt11301886"},{"id":"1239121","type":"movie","title":"Secret Lives of Orangutans","poster":"https://image.tmdb.org/t/p/w342/eGgIaLPJZkLk7jKjONL2FQ11Tu.jpg","year":"2024","result":"HD","language":["Hindi"],"country":["GB"],"original_language":"en","genres":["Documentary"],"imdb_id":"tt33038092"},{"id":"1019411","type":"movie","title":"Space Cadet","poster":"https://image.tmdb.org/t/p/w342/7QUOIldN6ShKj1LdLhO26a8QXND.jpg","year":"2024","result":"HD","language":["Hindi"],"country":["US"],"original_language":"en","genres":["Comedy"],"imdb_id":"tt21469794"},{"id":"1114513","type":"movie","title":"Speak No Evil","poster":"https://image.tmdb.org/t/p/w342/dA4N6uWOnEMgbxXwFX7qX7adzs8.jpg","year":"2024","result":"HD","language":["Hindi"],"country":["US"],"original_language":"en","genres":["Horror","Thriller"],"imdb_id":"tt27534307"},{"id":"1039773","type":"movie","title":"The American Society of Magical Negroes","poster":"https://image.tmdb.org/t/p/w342/czV7JRPPPGk9bqUsnJuJUYn34mM.jpg","year":"2024","result":"HD","language":["Hindi"],"country":["US"],"original_language":"en","genres":["Fantasy","Comedy"],"imdb_id":"tt30007864"},{"id":"1329336","type":"movie","title":"The Bad Guys: Haunted Heist","poster":"https://image.tmdb.org/t/p/w342/oEJC05CqPugMxC4rFu9r6r6vg6m.jpg","year":"2024","result":"HD","language":["Hindi"],"country":["US"],"original_language":"en","genres":["Animation","Comedy"],"imdb_id":"tt33130902"},{"id":"1008409","type":"movie","title":"The Bikeriders","poster":"https://image.tmdb.org/t/p/w342/ApMuukdDAOR2rgaFDZIcjfigi64.jpg","year":"2024","result":"HD","language":["Hindi"],"country":["US"],"original_language":"en","genres":["Crime","Drama"],"imdb_id":"tt21454134"},{"id":"930600","type":"movie","title":"The Deliverance","poster":"https://image.tmdb.org/t/p/w342/og1FteMFRInoQnlZeWqEn8XpXHh.jpg","year":"2024","result":"HD","language":["Hindi"],"country":["US"],"original_language":"en","genres":["Horror","Thriller"],"imdb_id":"tt4196566"},{"id":"1359153","type":"movie","title":"The Diary","poster":"https://image.tmdb.org/t/p/w342/8yx3EK6omL8mD8mcmHR7nmiboex.jpg","year":"2024","result":"HD","language":["Hindi"],"country":["US","MX"],"original_language":"es","genres":["Thriller","Drama"],"imdb_id":"tt28576307"},{"id":"970347","type":"movie","title":"The Killer","poster":"https://image.tmdb.org/t/p/w342/6PCnxKZZIVRanWb710pNpYVkCSw.jpg","year":"2024","result":"HD","language":["Hindi"],"country":["CA","US"],"original_language":"en","genres":["Action","Thriller","Crime"],"imdb_id":"tt1121948"},{"id":"1360610","type":"movie","title":"The Menendez Brothers","poster":"https://image.tmdb.org/t/p/w342/zQ32RXVzrNq93TgfKMP4Q3rkzDe.jpg","year":"2024","result":"HD","language":["Hindi"],"country":["US"],"original_language":"en","genres":["Documentary"],"imdb_id":"tt33481094"},{"id":"1115009","type":"movie","title":"Unsung Hero","poster":"https://image.tmdb.org/t/p/w342/mtkAdP8l8Hx9bIF2JChLdpy3VQL.jpg","year":"2024","result":"HD","language":["Hindi"],"country":["US"],"original_language":"en","genres":["Drama","Music","Family"],"imdb_id":"tt23638614"},{"id":"835113","type":"movie","title":"Woman of the Hour","poster":"https://image.tmdb.org/t/p/w342/nc9ZqrJFbcUdlMg9lxXXtJb24jU.jpg","year":"2024","result":"HD","language":["Hindi"],"country":["US"],"original_language":"en","genres":["Crime","Drama","Thriller"],"imdb_id":"tt7737800"},{"id":"1059268","type":"movie","title":"Khwaabon Ka Jhamela","poster":"https://image.tmdb.org/t/p/w342/hbty5wMoyo90C3XZdmXi5lOlxpF.jpg","year":"2024","result":"HD","language":["Hindi"],"country":["IN","GB"],"original_language":"hi","genres":["Drama","Romance","Comedy"],"imdb_id":"tt21159080"},{"id":"1266678","type":"movie","title":"RAM: Rapid Action Mission","poster":"https://image.tmdb.org/t/p/w342/7DZ2rkrAq464Bvef2xw9FDu8UHW.jpg","year":"2024","result":"HD","language":["Hindi"],"country":["IN"],"original_language":"en","genres":["Drama"],"imdb_id":"tt30850798"},{"id":"1233208","type":"movie","title":"Santosh","poster":"https://image.tmdb.org/t/p/w342/fMx9y9DyjhDyKxjSiDvYKcpRnnk.jpg","year":"2024","result":"HD","language":["Hindi"],"country":["IN","GB","DE","FR"],"original_language":"fr","genres":["Thriller","Crime","Drama"],"imdb_id":"tt30444418"},{"id":"1053348","type":"movie","title":"The Buckingham Murders","poster":"https://image.tmdb.org/t/p/w342/opWu2Qf1g5OfAWP4HdmH4ildwuV.jpg","year":"2024","result":"HD","language":["Hindi"],"country":["IN","GB"],"original_language":"en","genres":["Crime","Mystery","Thriller"],"imdb_id":"tt15245240"},{"id":"1341476","type":"movie","title":"Binny and Family","poster":"https://image.tmdb.org/t/p/w342/lXmsRFM9Ih6yLu0jsxarTyAfWH3.jpg","year":"2024","result":"HD","language":["Hindi"],"country":["IN","GB"],"original_language":"hi","genres":["Comedy","Drama","Family"],"imdb_id":"tt20452454"},{"id":"831244","type":"movie","title":"Paani","poster":"https://image.tmdb.org/t/p/w342/qR2FY0KoNVktSl3ztawQfkLxKxj.jpg","year":"2024","result":"HD","language":["Hindi"],"country":["IN","US"],"original_language":"mr","genres":["Drama"],"imdb_id":"tt8484582"},{"id":"1313130","type":"movie","title":"Modern Masters: SS Rajamouli","poster":"https://image.tmdb.org/t/p/w342/dwZn04UO8VFC3wINew34OqAi2kH.jpg","year":"2024","result":"HD","language":["Hindi"],"country":["IN"],"original_language":"en","genres":["Documentary"],"imdb_id":"tt26259966"},{"id":"1304043","type":"movie","title":"Phooli","poster":"https://image.tmdb.org/t/p/w342/weORyNuE4fFLK2bfPa1EHfKMsxD.jpg","year":"2024","result":"HD","language":["CAM RESULT"],"country":[],"original_language":"en","genres":[],"imdb_id":"tt32383877"},{"id":"1659972","type":"movie","title":"Tabaahi Reloaded","poster":"https://image.tmdb.org/t/p/w342/8SqEaNhcPs5EGl02SSSNXFIg3NY.jpg","year":"2024","result":"HD","language":["PUNJABI"],"country":[],"original_language":"en","genres":[],"imdb_id":"tt22208774"},{"id":"753522","type":"movie","title":"Tera Kya Hoga Lovely","poster":"https://image.tmdb.org/t/p/w342/6YyXQWbKqGjp8M4gQ8tUApPoCys.jpg","year":"2024","result":"HD","language":["Hindi"],"country":["IN","US"],"original_language":"hi","genres":["Family","Comedy","Romance"],"imdb_id":"tt13288022"},{"id":"682856","type":"movie","title":"Teriya Meriya Hera Pheriyan","poster":"https://image.tmdb.org/t/p/w342/oZBIvd8aBFV8CnSQGwEIL3QDTIu.jpg","year":"2024","result":"HD","language":["Hindi"],"country":["IN","GB"],"original_language":"pa","genres":["Drama","Comedy"],"imdb_id":"tt9219648"},{"id":"1340168","type":"movie","title":"Blink","poster":"https://image.tmdb.org/t/p/w342/w8w7QbN4gyX4tL2nvenS7Xh44su.jpg","year":"2024","result":"HD","language":["Hindi"],"country":["CA","US"],"original_language":"en","genres":["Documentary"],"imdb_id":"tt29259074"},{"id":"1351667","type":"movie","title":"Daddy Samjheya Karo","poster":"https://image.tmdb.org/t/p/w342/rQnxGGUmUA3yZ1wtFgaO2F5OjsH.jpg","year":"2024","result":"HD","language":["Hindi"],"country":["IN"],"original_language":"en","genres":["Drama","Comedy"],"imdb_id":""},{"id":"1336930","type":"movie","title":"Haye Bibiye Kithe Fas Gaye","poster":"https://image.tmdb.org/t/p/w342/uSdc9BTbVPtT7fpCpC5VwN9nC5x.jpg","year":"2024","result":"HD","language":["Hindi"],"country":["IN","GB"],"original_language":"pa","genres":["Comedy","Horror"],"imdb_id":"tt32868274"},{"id":"1241592","type":"movie","title":"Khel Khel Mein","poster":"https://image.tmdb.org/t/p/w342/32P0oQf41HXbENRGtu2h0rqBF2k.jpg","year":"2024","result":"HD","language":["Hindi"],"country":["IN","GB"],"original_language":"hi","genres":["Comedy","Drama"],"imdb_id":"tt27056012"},{"id":"1130276","type":"movie","title":"Succubus","poster":"https://image.tmdb.org/t/p/w342/7AfBMebJS8mEtSV5ymdxEPpgvXb.jpg","year":"2024","result":"HD","language":["Hindi"],"country":["US"],"original_language":"en","genres":["Horror","Thriller"],"imdb_id":"tt13778486"},{"id":"243963","type":"tv","title":"The Pradeeps of Pittsburgh","poster":"https://image.tmdb.org/t/p/w342/ckqyjYZim2TEC7q46ieB3WoiYl6.jpg","year":"2024","result":"HD","language":["Hindi"],"country":["US"],"original_language":"en","genres":["Comedy","Drama"],"imdb_id":"tt14584532","latest_uploaded_season":1,"total_uploaded_episodes":1},{"id":"1094274","type":"movie","title":"Y2K","poster":"https://image.tmdb.org/t/p/w342/qndubIQalyxBJI5EBNZKGXEX74q.jpg","year":"2024","result":"HD","language":["Hindi"],"country":["US"],"original_language":"en","genres":["Science Fiction","Horror","Comedy"],"imdb_id":"tt27218960"},{"id":"1551387","type":"movie","title":"Shagun","poster":"https://image.tmdb.org/t/p/w342/npa5kWvVwYpbX1oj6YVtu5kfCoF.jpg","year":"2024","result":"HD","language":["Hindi"],"country":[],"original_language":"en","genres":["Mystery","Thriller"],"imdb_id":""},{"id":"1392159","type":"movie","title":"Hey Siri Ve Siri","poster":"https://image.tmdb.org/t/p/w342/zrT1foMWh5Ax0GNWQXX8NZpAOoh.jpg","year":"2024","result":"HD","language":["Hindi"],"country":[],"original_language":"en","genres":["Comedy"],"imdb_id":"tt25810932"},{"id":"1382238","type":"movie","title":"Darling","poster":"https://image.tmdb.org/t/p/w342/fnLaCR9gKG6r9HYcC6DpEjGoDZ4.jpg","year":"2024","result":"HD","language":["Hindi"],"country":[],"original_language":"en","genres":["Drama"],"imdb_id":"tt27490088"}]}