{"page":11,"total_pages":26,"total_items":1255,"items":[{"id":"1319968","type":"movie","title":"Millers in Marriage","poster":"https://image.tmdb.org/t/p/w342/z7UvGuQ8pSs0JJP3QYCAIsNzYXI.jpg","year":"2024","result":"HD","language":["Hindi"],"country":["US"],"original_language":"en","genres":["Drama"],"imdb_id":"tt32499895"},{"id":"1159799","type":"movie","title":"My Penguin Friend","poster":"https://image.tmdb.org/t/p/w342/65ll0fwaCMDHuD5XMJk4f4Olc5b.jpg","year":"2024","result":"HD","language":["Hindi"],"country":["BR","US"],"original_language":"en","genres":["Family","Adventure","Drama"],"imdb_id":"tt8609660"},{"id":"1216103","type":"movie","title":"Out Come the Wolves","poster":"https://image.tmdb.org/t/p/w342/kDijoX2DQlymtUL44lCxJ1JLsGL.jpg","year":"2024","result":"HD","language":["Hindi"],"country":["CA"],"original_language":"en","genres":["Thriller","Action","Horror"],"imdb_id":"tt4853290"},{"id":"845781","type":"movie","title":"Red One","poster":"https://image.tmdb.org/t/p/w342/cdqLnri3NEGcmfnqwk2TSIYtddg.jpg","year":"2024","result":"HD","language":["Hindi"],"country":["US"],"original_language":"en","genres":["Action","Comedy","Fantasy"],"imdb_id":"tt14948432"},{"id":"229926","type":"tv","title":"Suicide Squad Isekai","poster":"https://image.tmdb.org/t/p/w342/AbVwsBJnLoqJzPJn8dlGFSGfygy.jpg","year":"2024","result":"HD","language":["Hindi"],"country":["US"],"original_language":"en","genres":["Animation","Action & Adventure","Sci-Fi & Fantasy"],"imdb_id":"tt28279848","latest_uploaded_season":1,"total_uploaded_episodes":10},{"id":"158141","type":"tv","title":"Supacell","poster":"https://image.tmdb.org/t/p/w342/vHtNgRLWdMk7wIV2WbqkOzU7HHI.jpg","year":"2024","result":"HD","language":["Hindi"],"country":["GB"],"original_language":"en","genres":["Action & Adventure","Sci-Fi & Fantasy","Drama"],"imdb_id":"tt16283758","latest_uploaded_season":2,"total_uploaded_episodes":7},{"id":"1383321","type":"movie","title":"Swap","poster":"https://image.tmdb.org/t/p/w342/bVr21IBRc8HW1zRcKKGensPldFz.jpg","year":"2024","result":"HD","language":["Hindi"],"country":["US"],"original_language":"en","genres":["Horror","Romance","Thriller"],"imdb_id":"tt13358302"},{"id":"1365401","type":"movie","title":"The Adventures of Jurassic Pet: Return to the Wild","poster":"https://image.tmdb.org/t/p/w342/c8uz2Mn44ha8tkso9uCc12poYmr.jpg","year":"2024","result":"HD","language":["Hindi"],"country":["US"],"original_language":"en","genres":["Adventure","Family","Science Fiction","Comedy"],"imdb_id":"tt27562836"},{"id":"1277172","type":"movie","title":"The Magician's Raincoat","poster":"https://image.tmdb.org/t/p/w342/2sepxjUsrL265MGxu43CPbMZgxe.jpg","year":"2024","result":"HD","language":["Hindi"],"country":["US"],"original_language":"en","genres":["Family","Fantasy","Adventure","Comedy"],"imdb_id":"tt26445481"},{"id":"1047373","type":"movie","title":"The Silent Hour","poster":"https://image.tmdb.org/t/p/w342/j736cRzBtEPCm0nHnpRN1prqiqj.jpg","year":"2024","result":"HD","language":["Hindi"],"country":["US","MT"],"original_language":"en","genres":["Crime","Thriller","Action"],"imdb_id":"tt22874848"},{"id":"46648","type":"tv","title":"True Detective","poster":"https://image.tmdb.org/t/p/w342/zYqVTiHK5ZajYcNzAW7qWte5NWS.jpg","year":"2024","result":"HD","language":["Hindi"],"country":["US"],"original_language":"en","genres":["Drama","Mystery"],"imdb_id":"tt2356777","latest_uploaded_season":4,"total_uploaded_episodes":30},{"id":"718821","type":"movie","title":"Twisters","poster":"https://image.tmdb.org/t/p/w342/pjnD08FlMAIXsfOLKQbvmO0f0MD.jpg","year":"2024","result":"HD","language":["Hindi"],"country":["US"],"original_language":"en","genres":["Action","Thriller"],"imdb_id":"tt12584954"},{"id":"1155058","type":"movie","title":"Watchmen: Chapter I","poster":"https://image.tmdb.org/t/p/w342/tE2vZ6HdlmKaBh0wpsvHCf7HJKo.jpg","year":"2024","result":"HD","language":["Hindi"],"country":["US"],"original_language":"en","genres":["Animation","Drama","Science Fiction"],"imdb_id":"tt32627540"},{"id":"1299652","type":"movie","title":"Watchmen: Chapter II","poster":"https://image.tmdb.org/t/p/w342/apzbE0pcmKz4RTWFVP7XXdg3VCZ.jpg","year":"2024","result":"HD","language":["Hindi"],"country":["US"],"original_language":"en","genres":["Animation","Mystery","Science Fiction","Drama"],"imdb_id":"tt32627545"},{"id":"154084","type":"tv","title":"Citadel Honey Bunny","poster":"https://image.tmdb.org/t/p/w342/lzZ9J2FOsaq1DCuD7k2f4ogbXdD.jpg","year":"2024","result":"HD","language":["Hindi"],"country":["US"],"original_language":"en","genres":["Action & Adventure","Drama","Sci-Fi & Fantasy"],"imdb_id":"tt27111295","latest_uploaded_season":1,"total_uploaded_episodes":6},{"id":"71790","type":"tv","title":"S.W.A.T.","poster":"https://image.tmdb.org/t/p/w342/ttzrYMdsKWR8PTRLw7uo4noqaOJ.jpg","year":"2024","result":"HD","language":["Hindi"],"country":["US"],"original_language":"en","genres":["Crime","Action & Adventure","Drama"],"imdb_id":"tt6111130","latest_uploaded_season":8,"total_uploaded_episodes":163},{"id":"1173894","type":"movie","title":"A Bestselling Kind of Love","poster":"https://image.tmdb.org/t/p/w342/At4KSxIl6s4GSlrMAtVHDmTWJCJ.jpg","year":"2024","result":"HD","language":["Hindi"],"country":["CA"],"original_language":"en","genres":["Romance","Comedy","TV Movie"],"imdb_id":"tt28795995"},{"id":"1200894","type":"movie","title":"A Conflict of Love Interest","poster":"https://image.tmdb.org/t/p/w342/qoMabYjnDcukmGmWBxnAbbGbEmg.jpg","year":"2024","result":"HD","language":["Hindi"],"country":["US"],"original_language":"en","genres":["TV Movie","Comedy","Romance"],"imdb_id":"tt29602974"},{"id":"138501","type":"tv","title":"Agatha All Along","poster":"https://image.tmdb.org/t/p/w342/mGsxKwXUjojitRv2E9qMTbxbBRd.jpg","year":"2024","result":"HD","language":["Hindi"],"country":["US"],"original_language":"en","genres":["Sci-Fi & Fantasy","Mystery"],"imdb_id":"tt15571732","latest_uploaded_season":1,"total_uploaded_episodes":9},{"id":"945961","type":"movie","title":"Alien: Romulus","poster":"https://image.tmdb.org/t/p/w342/2uSWRTtCG336nuBiG8jOTEUKSy8.jpg","year":"2024","result":"HD","language":["Hindi"],"country":["US"],"original_language":"en","genres":["Horror","Science Fiction"],"imdb_id":"tt18412256"},{"id":"1248753","type":"movie","title":"Amber Alert","poster":"https://image.tmdb.org/t/p/w342/sI0WxsgVFE5RkPA7G6PznWRxBEW.jpg","year":"2024","result":"HD","language":["Hindi"],"country":["US"],"original_language":"en","genres":["Thriller","Drama"],"imdb_id":"tt31450182"},{"id":"978796","type":"movie","title":"Bagman","poster":"https://image.tmdb.org/t/p/w342/53IK9rlZJbwFYbNnJZiLq7UWxkT.jpg","year":"2024","result":"HD","language":["Hindi"],"country":["US"],"original_language":"en","genres":["Horror","Thriller"],"imdb_id":"tt21201300"},{"id":"1391409","type":"movie","title":"Biggest Heist Ever","poster":"https://image.tmdb.org/t/p/w342/wIS7g0i09afNbHQ9VHRnP8PErTs.jpg","year":"2024","result":"HD","language":["Hindi"],"country":["US"],"original_language":"en","genres":["Documentary","Crime"],"imdb_id":"tt18224682"},{"id":"225385","type":"tv","title":"Black Doves","poster":"https://image.tmdb.org/t/p/w342/uoXtkm2P4HPPL8T3IBJ02G3hCC4.jpg","year":"2024","result":"HD","language":["Hindi"],"country":["GB"],"original_language":"en","genres":["Action & Adventure","Mystery","Crime"],"imdb_id":"tt27995113","latest_uploaded_season":1,"total_uploaded_episodes":6},{"id":"1114738","type":"movie","title":"Boneyard","poster":"https://image.tmdb.org/t/p/w342/At4aWmOnKwH9k1ciB5ZNe0dP1jH.jpg","year":"2024","result":"HD","language":["Hindi"],"country":["US"],"original_language":"en","genres":["Thriller"],"imdb_id":"tt10993078"},{"id":"365177","type":"movie","title":"Borderlands","poster":"https://image.tmdb.org/t/p/w342/4JGoZu1ZKFpMJTWAP35PCfkMgu8.jpg","year":"2024","result":"HD","language":["Hindi"],"country":["US","LU"],"original_language":"en","genres":["Action","Science Fiction","Comedy"],"imdb_id":"tt4978420"},{"id":"616446","type":"movie","title":"Brothers","poster":"https://image.tmdb.org/t/p/w342/Akweo95FGyDpucYVT81h0SbX8Ky.jpg","year":"2024","result":"HD","language":["Hindi"],"country":["US"],"original_language":"en","genres":["Action","Comedy","Crime"],"imdb_id":"tt9860566"},{"id":"1116490","type":"movie","title":"Cash Out","poster":"https://image.tmdb.org/t/p/w342/v3youHDLigrtIis1NqTjlY8Sk38.jpg","year":"2024","result":"HD","language":["Hindi"],"country":["US"],"original_language":"en","genres":["Action","Thriller"],"imdb_id":"tt24131288"},{"id":"1361292","type":"movie","title":"Cellar Door","poster":"https://image.tmdb.org/t/p/w342/9vasnPh69RoUg9oUpzXoErMVDB7.jpg","year":"2024","result":"HD","language":["Hindi"],"country":["US"],"original_language":"en","genres":["Horror","Thriller"],"imdb_id":"tt11950888"},{"id":"275571","type":"tv","title":"Churchill at War","poster":"https://image.tmdb.org/t/p/w342/tsgqBgTYMqTlpJZWlJK3mdZMu7I.jpg","year":"2024","result":"HD","language":["Hindi"],"country":["US"],"original_language":"en","genres":["Documentary","War & Politics"],"imdb_id":"tt34379135","latest_uploaded_season":1,"total_uploaded_episodes":4},{"id":"932420","type":"movie","title":"Code 8 Part II","poster":"https://image.tmdb.org/t/p/w342/h89INyaoH16CdlT7q7BtKikIFRy.jpg","year":"2024","result":"HD","language":["Hindi"],"country":["CA","US"],"original_language":"en","genres":["Science Fiction","Action","Crime"],"imdb_id":"tt14764464"},{"id":"228528","type":"tv","title":"Cruel Intentions","poster":"https://image.tmdb.org/t/p/w342/tWtcyehBCO9fksIj30pdtVldntw.jpg","year":"2024","result":"HD","language":["Hindi"],"country":["US"],"original_language":"en","genres":["Drama"],"imdb_id":"tt15532306","latest_uploaded_season":1,"total_uploaded_episodes":8},{"id":"1063877","type":"movie","title":"Don't Move","poster":"https://image.tmdb.org/t/p/w342/cRDJxdnRb7ikKd6fVJTrGeaL34v.jpg","year":"2024","result":"HD","language":["Hindi"],"country":["US"],"original_language":"en","genres":["Horror","Thriller"],"imdb_id":"tt24807110"},{"id":"90228","type":"tv","title":"Dune: Prophecy","poster":"https://image.tmdb.org/t/p/w342/oWVohNsxkxA3u92EzRo8fTuXIS0.jpg","year":"2024","result":"HD","language":["Hindi"],"country":["US"],"original_language":"en","genres":["Sci-Fi & Fantasy","Drama","Action & Adventure"],"imdb_id":"tt10466872","latest_uploaded_season":2,"total_uploaded_episodes":14},{"id":"1142518","type":"movie","title":"Freedom","poster":"https://image.tmdb.org/t/p/w342/b2YL2kncIqlcDcqly78AsOPJi6r.jpg","year":"2024","result":"HD","language":["Hindi"],"country":["FR","BE","US"],"original_language":"fr","genres":["Action","Romance","Drama"],"imdb_id":"tt31917705"},{"id":"826510","type":"movie","title":"Harold and the Purple Crayon","poster":"https://image.tmdb.org/t/p/w342/qtW6bWUEqfPLaD6KnetIlSG4adf.jpg","year":"2024","result":"HD","language":["Hindi"],"country":["US"],"original_language":"en","genres":["Family","Comedy","Adventure","Fantasy"],"imdb_id":"tt1609486"},{"id":"1125311","type":"movie","title":"Imaginary","poster":"https://image.tmdb.org/t/p/w342/bPCxkrCEGJmaYfvdXj0x3mCLbGr.jpg","year":"2024","result":"HD","language":["Hindi"],"country":["US"],"original_language":"en","genres":["Horror","Mystery"],"imdb_id":"tt26658104"},{"id":"1022789","type":"movie","title":"Inside Out 2","poster":"https://image.tmdb.org/t/p/w342/vpnVM9B6NMmQpWeZvzLvDESb2QY.jpg","year":"2024","result":"HD","language":["Hindi"],"country":["US"],"original_language":"en","genres":["Animation","Adventure","Comedy","Family"],"imdb_id":"tt22022452"},{"id":"274023","type":"tv","title":"Investigation Alien","poster":"https://image.tmdb.org/t/p/w342/t2dShYTM1heqVXv4Pjk3mbBqFy2.jpg","year":"2024","result":"HD","language":["Hindi"],"country":["US"],"original_language":"en","genres":["Documentary"],"imdb_id":"tt33840297","latest_uploaded_season":1,"total_uploaded_episodes":6},{"id":"223447","type":"tv","title":"Jentry Chau vs the Underworld","poster":"https://image.tmdb.org/t/p/w342/gCVwVPOajqfILlAUwKGmNwVZofb.jpg","year":"2024","result":"HD","language":["Hindi"],"country":["US"],"original_language":"en","genres":["Animation","Action & Adventure","Sci-Fi & Fantasy","Comedy"],"imdb_id":"tt27368999","latest_uploaded_season":1,"total_uploaded_episodes":13},{"id":"128839","type":"tv","title":"La Brea","poster":"https://image.tmdb.org/t/p/w342/wEo5pzSZ3MF4EzNvY2R1OZNX266.jpg","year":"2024","result":"HD","language":["Hindi"],"country":["US"],"original_language":"en","genres":["Sci-Fi & Fantasy","Drama","Action & Adventure"],"imdb_id":"tt11640018","latest_uploaded_season":3,"total_uploaded_episodes":30},{"id":"256116","type":"tv","title":"Like a Dragon: Yakuza","poster":"https://image.tmdb.org/t/p/w342/4uFt0lyo2UrMkTKCXH2VgxWz2jE.jpg","year":"2024","result":"HD","language":["Hindi"],"country":["US"],"original_language":"en","genres":["Action & Adventure","Crime","Drama"],"imdb_id":"tt32536952","latest_uploaded_season":1,"total_uploaded_episodes":6},{"id":"1181847","type":"movie","title":"Love at the Bootcamp","poster":"https://image.tmdb.org/t/p/w342/pQCG0RDeU7bmp7ruxbeQaVMM6FK.jpg","year":"2024","result":"HD","language":["Hindi"],"country":["CA"],"original_language":"en","genres":["TV Movie","Comedy","Romance"],"imdb_id":"tt29258958"},{"id":"1330409","type":"movie","title":"Martha","poster":"https://image.tmdb.org/t/p/w342/4WN19oCTXlK8jXC0QZgNkBpcJcw.jpg","year":"2024","result":"HD","language":["Hindi"],"country":["US"],"original_language":"en","genres":["Documentary"],"imdb_id":"tt16227044"},{"id":"1243381","type":"movie","title":"Mary","poster":"https://image.tmdb.org/t/p/w342/wpApuf1xky92ug8n5mP5aP7DiDy.jpg","year":"2024","result":"HD","language":["Hindi"],"country":["US","GB"],"original_language":"en","genres":["Drama","History","Action"],"imdb_id":"tt32084246"},{"id":"814889","type":"movie","title":"Never Let Go","poster":"https://image.tmdb.org/t/p/w342/iwUoM3y77fov7bKyFMwpGMzRHyn.jpg","year":"2024","result":"HD","language":["Hindi"],"country":["US"],"original_language":"en","genres":["Horror"],"imdb_id":"tt14415204"},{"id":"241112","type":"tv","title":"No Good Deed","poster":"https://image.tmdb.org/t/p/w342/4DHRgkvn8nY5yWBcFIu0urJr6bU.jpg","year":"2024","result":"HD","language":["Hindi"],"country":["US"],"original_language":"en","genres":["Drama","Comedy"],"imdb_id":"tt19891306","latest_uploaded_season":1,"total_uploaded_episodes":8},{"id":"213611","type":"tv","title":"Our Oceans","poster":"https://image.tmdb.org/t/p/w342/5S1xVcfCXPzBeAluiTWKGqwMmRz.jpg","year":"2024","result":"HD","language":["Hindi"],"country":["GB"],"original_language":"en","genres":["Documentary"],"imdb_id":"tt23181400","latest_uploaded_season":1,"total_uploaded_episodes":5},{"id":"1064375","type":"movie","title":"Paradox Effect","poster":"https://image.tmdb.org/t/p/w342/koJFEW997sLjpu4e7wmFioA2mhL.jpg","year":"2024","result":"HD","language":["Hindi"],"country":["IT","US"],"original_language":"en","genres":["Action","Thriller"],"imdb_id":"tt14416430"},{"id":"934632","type":"movie","title":"Rebel Moon - Part Two: The Scargiver","poster":"https://image.tmdb.org/t/p/w342/95gnJZIk2rEkMO0Ch46x5CVjnms.jpg","year":"2024","result":"HD","language":["Hindi"],"country":["US"],"original_language":"en","genres":["Science Fiction","Action","Adventure"],"imdb_id":"tt23137904"}]}