{"page":1,"total_pages":26,"total_items":1255,"items":[{"id":"1318447","type":"movie","title":"Apex","poster":"https://image.tmdb.org/t/p/w342/5TGSFX6dxYfM2balJrFoSVB42Nv.jpg","year":"2026","result":"HD","language":["Hindi"],"country":["US","IS"],"original_language":"en","genres":["Action","Thriller"],"imdb_id":"tt16431404"},{"id":"318880","type":"tv","title":"Hulk Hogan: Real American","poster":"https://image.tmdb.org/t/p/w342/pdEEOQystKjHtC71RV6yRobY8bk.jpg","year":"2026","result":"HD","language":["Hindi"],"country":["US"],"original_language":"en","genres":["Documentary"],"imdb_id":"tt41508977","latest_uploaded_season":1,"total_uploaded_episodes":4},{"id":"244623","type":"tv","title":"Running Point","poster":"https://image.tmdb.org/t/p/w342/q8KnHFt3igvQXKYDLtfERSYAY7F.jpg","year":"2026","result":"HD","language":["Hindi"],"country":["US"],"original_language":"en","genres":["Comedy"],"imdb_id":"tt14879018","latest_uploaded_season":2,"total_uploaded_episodes":20},{"id":"154385","type":"tv","title":"BEEF","poster":"https://image.tmdb.org/t/p/w342/25ih0Xq2zWbxhhKxwhvswKYQyEr.jpg","year":"2026","result":"HD","language":["Hindi"],"country":["US"],"original_language":"en","genres":["Comedy","Drama"],"imdb_id":"tt14403178","latest_uploaded_season":2,"total_uploaded_episodes":18},{"id":"224263","type":"tv","title":"Stranger Things: Tales from '85","poster":"https://image.tmdb.org/t/p/w342/2orq3F4a1prP3RnJjYSWzSjHYZQ.jpg","year":"2026","result":"HD","language":["Hindi"],"country":["US"],"original_language":"en","genres":["Animation","Sci-Fi & Fantasy","Mystery","Action & Adventure"],"imdb_id":"tt27486290","latest_uploaded_season":1,"total_uploaded_episodes":10},{"id":"249522","type":"tv","title":"Beast Games","poster":"https://image.tmdb.org/t/p/w342/6Zww0KyC518xni9m12dA3qB392D.jpg","year":"2026","result":"HD","language":["Hindi"],"country":["US"],"original_language":"en","genres":["Reality"],"imdb_id":"tt31812476","latest_uploaded_season":2,"total_uploaded_episodes":20},{"id":"91239","type":"tv","title":"Bridgerton","poster":"https://image.tmdb.org/t/p/w342/uXTg565ahu9RwonCX1V2Hex1NU6.jpg","year":"2026","result":"HD","language":["Hindi"],"country":["US"],"original_language":"en","genres":["Drama"],"imdb_id":"tt8740790","latest_uploaded_season":4,"total_uploaded_episodes":32},{"id":"293703","type":"tv","title":"Dr. Seuss's Red Fish, Blue Fish","poster":"https://image.tmdb.org/t/p/w342/fhtkX44A4cTYMNKNcosEFYX7zfq.jpg","year":"2026","result":"HD","language":["Hindi"],"country":["US"],"original_language":"en","genres":["Animation","Kids"],"imdb_id":"tt18940264","latest_uploaded_season":2,"total_uploaded_episodes":11},{"id":"158154","type":"tv","title":"Heartbreak High","poster":"https://image.tmdb.org/t/p/w342/1KTYMK7N2vRe8PowCyb799DbDRR.jpg","year":"2026","result":"HD","language":["Hindi"],"country":["AU"],"original_language":"en","genres":["Drama"],"imdb_id":"tt15054962","latest_uploaded_season":3,"total_uploaded_episodes":24},{"id":"129552","type":"tv","title":"The Night Agent","poster":"https://image.tmdb.org/t/p/w342/4c5yUNcaff4W4aPrkXE6zr7papX.jpg","year":"2026","result":"HD","language":["Hindi"],"country":["US"],"original_language":"en","genres":["Action & Adventure","Drama","Mystery"],"imdb_id":"tt13918776","latest_uploaded_season":3,"total_uploaded_episodes":30},{"id":"61859","type":"tv","title":"The Night Manager","poster":"https://image.tmdb.org/t/p/w342/1MccRnw41qQjREuZkovqP2UX1i3.jpg","year":"2026","result":"HD","language":["Hindi"],"country":["GB"],"original_language":"en","genres":["Drama","Mystery","Crime"],"imdb_id":"tt1399664","latest_uploaded_season":2,"total_uploaded_episodes":12},{"id":"250307","type":"tv","title":"The Pitt","poster":"https://image.tmdb.org/t/p/w342/kvFSpESyBZMjaeOJDx7RS3P1jey.jpg","year":"2026","result":"HD","language":["Hindi"],"country":["US"],"original_language":"en","genres":["Drama"],"imdb_id":"tt31938062","latest_uploaded_season":2,"total_uploaded_episodes":30},{"id":"88324","type":"tv","title":"Virgin River","poster":"https://image.tmdb.org/t/p/w342/oHEqfmSWR4Ex4V4AJyUn8HGHHnt.jpg","year":"2026","result":"HD","language":["Hindi"],"country":["US"],"original_language":"en","genres":["Drama"],"imdb_id":"tt9077530","latest_uploaded_season":7,"total_uploaded_episodes":74},{"id":"289485","type":"tv","title":"WWE: Unreal","poster":"https://image.tmdb.org/t/p/w342/4wfySL6AUTwXRCiL6tumMq9oFam.jpg","year":"2026","result":"HD","language":["Hindi"],"country":["US"],"original_language":"en","genres":["Documentary"],"imdb_id":"tt36614693","latest_uploaded_season":2,"total_uploaded_episodes":10},{"id":"195670","type":"tv","title":"XO, Kitty","poster":"https://image.tmdb.org/t/p/w342/hxvTdKAwv27PUfpXOQp6AwWr6V.jpg","year":"2026","result":"HD","language":["Hindi"],"country":["US"],"original_language":"en","genres":["Comedy","Drama"],"imdb_id":"tt14490706","latest_uploaded_season":3,"total_uploaded_episodes":26},{"id":"1613798","type":"movie","title":"Vengeance","poster":"https://image.tmdb.org/t/p/w342/ygWXPL0RS91JyJPNOfK34eV3bRE.jpg","year":"2026","result":"HD","language":["Hindi"],"country":["MX","US"],"original_language":"es","genres":["Action","Thriller"],"imdb_id":"tt37989803"},{"id":"1304313","type":"movie","title":"Lee Cronin's The Mummy","poster":"https://image.tmdb.org/t/p/w342/lTQoEczVEnkuxHFEGgWYfJB98tL.jpg","year":"2026","result":"HD","language":["Hindi"],"country":["US","IE"],"original_language":"en","genres":["Horror","Mystery"],"imdb_id":"tt32612507"},{"id":"223386","type":"tv","title":"Man on Fire","poster":"https://image.tmdb.org/t/p/w342/9cZzmT8rhBXbZ1QFBPs3ggABYB3.jpg","year":"2026","result":"HD","language":["Hindi"],"country":["US"],"original_language":"en","genres":["Action & Adventure","Crime"],"imdb_id":"tt27331527","latest_uploaded_season":1,"total_uploaded_episodes":7},{"id":"1327688","type":"movie","title":"One Mile: Chapter One","poster":"https://image.tmdb.org/t/p/w342/1GZaoYe0mQy211DgDSAxAXr30ul.jpg","year":"2026","result":"HD","language":["ENGLISH"],"country":["US","CA"],"original_language":"en","genres":["Action","Crime"],"imdb_id":"tt24326458"},{"id":"1007757","type":"movie","title":"Swapped","poster":"https://image.tmdb.org/t/p/w342/tHhxWxge06goXU6ZQH1hj7vK8Hd.jpg","year":"2026","result":"HD","language":["Hindi"],"country":["US","ES"],"original_language":"en","genres":["Adventure","Animation","Drama","Family","Fantasy"],"imdb_id":"tt29552248"},{"id":"114922","type":"tv","title":"Citadel","poster":"https://image.tmdb.org/t/p/w342/5MHtxPEfmN4b0rHzfEZRcm6v9WI.jpg","year":"2026","result":"HD","language":["Hindi"],"country":["US"],"original_language":"en","genres":["Drama","Crime","Action & Adventure"],"imdb_id":"tt9794044","latest_uploaded_season":2,"total_uploaded_episodes":13},{"id":"235930","type":"tv","title":"Devil May Cry","poster":"https://image.tmdb.org/t/p/w342/mX9tqfpjqwreONJHhap7SnSSowe.jpg","year":"2026","result":"HD","language":["Hindi"],"country":["US"],"original_language":"en","genres":["Animation","Action & Adventure","Sci-Fi & Fantasy"],"imdb_id":"tt15716776","latest_uploaded_season":2,"total_uploaded_episodes":16},{"id":"262280","type":"tv","title":"Legends","poster":"https://image.tmdb.org/t/p/w342/dGienbU1xNZJcbY8i8ubJusjDwD.jpg","year":"2026","result":"HD","language":["Hindi"],"country":["GB"],"original_language":"en","genres":["Action & Adventure","Crime","Drama"],"imdb_id":"tt33265765","latest_uploaded_season":1,"total_uploaded_episodes":6},{"id":"1421977","type":"movie","title":"Fantasy Life","poster":"https://image.tmdb.org/t/p/w342/e0qtdCm7TJGRfMv0tmdP8DsOy3U.jpg","year":"2026","result":"HD","language":["Hindi"],"country":["US"],"original_language":"en","genres":["Comedy","Romance","Drama"],"imdb_id":"tt35519497"},{"id":"1368166","type":"movie","title":"The Housemaid","poster":"https://image.tmdb.org/t/p/w342/cWsBscZzwu5brg9YjNkGewRUvJX.jpg","year":"2026","result":"HD","language":["Hindi"],"country":["US"],"original_language":"en","genres":["Mystery","Thriller"],"imdb_id":"tt27543632"},{"id":"259702","type":"tv","title":"The House of the Spirits","poster":"https://image.tmdb.org/t/p/w342/yb682O0KCZlS5qRydxOytO5A6co.jpg","year":"2026","result":"HD","language":["Hindi"],"country":["US"],"original_language":"en","genres":["Drama"],"imdb_id":"tt33022938","latest_uploaded_season":1,"total_uploaded_episodes":8},{"id":"71915","type":"tv","title":"Good Omens","poster":"https://image.tmdb.org/t/p/w342/nO68XVx5of8hlBwEOGOkPC8Mveu.jpg","year":"2026","result":"HD","language":["Hindi"],"country":["GB"],"original_language":"en","genres":["Comedy","Drama","Sci-Fi & Fantasy"],"imdb_id":"tt1869454","latest_uploaded_season":3,"total_uploaded_episodes":13},{"id":"1620034","type":"movie","title":"Marty, Life Is Short","poster":"https://image.tmdb.org/t/p/w342/z4QdUukg4FnbcwM6qeP6ZCoQZhf.jpg","year":"2026","result":"HD","language":["Hindi"],"country":["US","CA"],"original_language":"en","genres":["Documentary"],"imdb_id":"tt39382052"},{"id":"931285","type":"movie","title":"Mortal Kombat II","poster":"https://image.tmdb.org/t/p/w342/lIsMeDbwntNXSUVHmWMMRXEZOVc.jpg","year":"2026","result":"HD","language":["Hindi"],"country":["US"],"original_language":"en","genres":["Action","Fantasy","Adventure"],"imdb_id":"tt17490712"},{"id":"285807","type":"tv","title":"Nemesis","poster":"https://image.tmdb.org/t/p/w342/NY7ZwSMw5PjoJdK2CObqiTj7Bm.jpg","year":"2026","result":"HD","language":["Hindi"],"country":["US"],"original_language":"en","genres":["Drama","Crime"],"imdb_id":"tt36022742","latest_uploaded_season":1,"total_uploaded_episodes":8},{"id":"273240","type":"tv","title":"Off Campus","poster":"https://image.tmdb.org/t/p/w342/tcPc5ZMBO4y2BtCJMe3o2nwZb2B.jpg","year":"2026","result":"HD","language":["Hindi"],"country":["US"],"original_language":"en","genres":["Drama"],"imdb_id":"tt33546863","latest_uploaded_season":1,"total_uploaded_episodes":8},{"id":"1678844","type":"movie","title":"The Bus: A French Football Mutiny","poster":"https://image.tmdb.org/t/p/w342/vLYxo8SDMLfroqT3fMVnbvddXRF.jpg","year":"2026","result":"HD","language":["Hindi"],"country":["FR"],"original_language":"en","genres":["Documentary"],"imdb_id":"tt37024319"},{"id":"1684240","type":"movie","title":"Untold UK: Jamie Vardy","poster":"https://image.tmdb.org/t/p/w342/d0pODTh6FOwn87iOeXGb7nKOdNT.jpg","year":"2026","result":"HD","language":["Hindi"],"country":["US","GB"],"original_language":"en","genres":["Documentary"],"imdb_id":"tt41777258"},{"id":"111110","type":"tv","title":"ONE PIECE","poster":"https://image.tmdb.org/t/p/w342/blWCPEqDGLBuLB9u89CxP9ORQP4.jpg","year":"2026","result":"HD","language":["Hindi"],"country":["US"],"original_language":"en","genres":["Action & Adventure","Sci-Fi & Fantasy"],"imdb_id":"tt11737520","latest_uploaded_season":2,"total_uploaded_episodes":16},{"id":"1439930","type":"movie","title":"The Punisher: One Last Kill","poster":"https://image.tmdb.org/t/p/w342/gOggsBCSypNXq0yApYeXe7nnopT.jpg","year":"2026","result":"HD","language":["ENGLISH"],"country":["US"],"original_language":"en","genres":["Action","Drama","Crime"],"imdb_id":"tt36042156"},{"id":"202555","type":"tv","title":"Daredevil: Born Again","poster":"https://image.tmdb.org/t/p/w342/xDUoAsU8lQHOOoRkFiBuarmACDN.jpg","year":"2026","result":"HD","language":["Hindi"],"country":["US"],"original_language":"en","genres":["Drama","Action & Adventure","Crime"],"imdb_id":"tt18923754","latest_uploaded_season":2,"total_uploaded_episodes":17},{"id":"259259","type":"tv","title":"Worst Ex Ever","poster":"https://image.tmdb.org/t/p/w342/s7D1qWOGSFyicpToIfXL0HRMCT7.jpg","year":"2026","result":"HD","language":["Hindi"],"country":["US"],"original_language":"en","genres":["Crime","Documentary"],"imdb_id":"tt32932523","latest_uploaded_season":2,"total_uploaded_episodes":8},{"id":"1450257","type":"movie","title":"Clika","poster":"https://image.tmdb.org/t/p/w342/82Vh8PSzWtBi0CLWrnJdRhGYxEr.jpg","year":"2026","result":"HD","language":["Hindi"],"country":["US"],"original_language":"en","genres":["Music","Drama"],"imdb_id":"tt28334938"},{"id":"124364","type":"tv","title":"FROM","poster":"https://image.tmdb.org/t/p/w342/pRtJagIxpfODzzb0T0NAvZSzErC.jpg","year":"2026","result":"HD","language":["Hindi"],"country":["US"],"original_language":"en","genres":["Mystery","Drama","Sci-Fi & Fantasy"],"imdb_id":"tt9813792","latest_uploaded_season":4,"total_uploaded_episodes":40},{"id":"1405769","type":"movie","title":"I Can Only Imagine 2","poster":"https://image.tmdb.org/t/p/w342/qYBCs9nBmdNCLduw5BTlendq89z.jpg","year":"2026","result":"HD","language":["Hindi"],"country":["US"],"original_language":"en","genres":["Music","Drama"],"imdb_id":"tt34888646"},{"id":"1330021","type":"movie","title":"Remarkably Bright Creatures","poster":"https://image.tmdb.org/t/p/w342/9HcEqn3D4J6b2Z0jK54id9nA0fr.jpg","year":"2026","result":"HD","language":["Hindi"],"country":["US"],"original_language":"en","genres":["Drama","Mystery"],"imdb_id":"tt33100314"},{"id":"318262","type":"tv","title":"Should I Marry A Murderer?","poster":"https://image.tmdb.org/t/p/w342/wu8iopmnuCDZ45FMD3Gh7IgQaCI.jpg","year":"2026","result":"HD","language":["Hindi"],"country":["GB"],"original_language":"en","genres":["Documentary","Crime"],"imdb_id":"tt41082351","latest_uploaded_season":1,"total_uploaded_episodes":3},{"id":"76479","type":"tv","title":"The Boys","poster":"https://image.tmdb.org/t/p/w342/in1R2dDc421JxsoRWaIIAqVI2KE.jpg","year":"2026","result":"HD","language":["Hindi"],"country":["US"],"original_language":"en","genres":["Sci-Fi & Fantasy","Action & Adventure"],"imdb_id":"tt1190634","latest_uploaded_season":5,"total_uploaded_episodes":40},{"id":"1662317","type":"movie","title":"The Crash","poster":"https://image.tmdb.org/t/p/w342/veskdPx4YUTmkrFrTs6zRJ8VV4E.jpg","year":"2026","result":"HD","language":["Hindi"],"country":["GB"],"original_language":"en","genres":["Documentary","Crime"],"imdb_id":"tt40792117"},{"id":"247723","type":"tv","title":"The Hunting Party","poster":"https://image.tmdb.org/t/p/w342/mjJMOLr966Q78YUPu0pVA0ydBIP.jpg","year":"2026","result":"HD","language":["Hindi"],"country":["US"],"original_language":"en","genres":["Drama","Crime"],"imdb_id":"tt21906554","latest_uploaded_season":2,"total_uploaded_episodes":23},{"id":"213306","type":"tv","title":"Cross","poster":"https://image.tmdb.org/t/p/w342/6hhKdavCEZi8d584ZtIrQIrBvZI.jpg","year":"2026","result":"HD","language":["Hindi"],"country":["US"],"original_language":"en","genres":["Crime","Drama","Mystery"],"imdb_id":"tt11794812","latest_uploaded_season":2,"total_uploaded_episodes":16},{"id":"85552","type":"tv","title":"Euphoria","poster":"https://image.tmdb.org/t/p/w342/aJrG7OkoTMPWG5c8opz8a93AZPY.jpg","year":"2026","result":"HD","language":["Hindi"],"country":["US"],"original_language":"en","genres":["Drama"],"imdb_id":"tt8772296","latest_uploaded_season":3,"total_uploaded_episodes":24},{"id":"116799","type":"tv","title":"The Lincoln Lawyer","poster":"https://image.tmdb.org/t/p/w342/4jSaIqEU8CPBBNn4iVCK6wzPjSx.jpg","year":"2026","result":"HD","language":["Hindi"],"country":["US"],"original_language":"en","genres":["Drama","Crime"],"imdb_id":"tt13833978","latest_uploaded_season":4,"total_uploaded_episodes":40},{"id":"1368881","type":"movie","title":"Ladies First","poster":"https://image.tmdb.org/t/p/w342/kjR56Yv17pbjTVBTMjqepvcus4f.jpg","year":"2026","result":"HD","language":["Hindi"],"country":["US"],"original_language":"en","genres":["Comedy"],"imdb_id":"tt34611082"},{"id":"224941","type":"tv","title":"The Boroughs","poster":"https://image.tmdb.org/t/p/w342/oKxBWbXmnWFO2Wh1QRTtshdfIRa.jpg","year":"2026","result":"HD","language":["Hindi"],"country":["US"],"original_language":"en","genres":["Sci-Fi & Fantasy","Mystery"],"imdb_id":"tt27557289","latest_uploaded_season":1,"total_uploaded_episodes":8}]}