{"page":26,"total_pages":26,"total_items":1255,"items":[{"id":"238","type":"movie","title":"The Godfather","poster":"https://image.tmdb.org/t/p/w342/3bhkrj58Vtu7enYsRolD1fZdja1.jpg","year":"1972","result":"HD","language":["Hindi"],"country":["US"],"original_language":"en","genres":["Drama","Crime"],"imdb_id":"tt0068646"},{"id":"805","type":"movie","title":"Rosemary's Baby","poster":"https://image.tmdb.org/t/p/w342/uYgvlHceRFjAFbsNeMInYcLZLUb.jpg","year":"1968","result":"HD","language":["Hindi"],"country":["US"],"original_language":"en","genres":["Drama","Horror","Thriller"],"imdb_id":"tt0063522"},{"id":"33743","type":"movie","title":"The 5,000 Fingers of Dr. T.","poster":"https://image.tmdb.org/t/p/w342/5sAxThhLhsQSf4mjrIGHqfKlaAy.jpg","year":"1953","result":"HD","language":["Hindi"],"country":["US"],"original_language":"en","genres":["Family","Fantasy","Music"],"imdb_id":"tt0045464"},{"id":"534442","type":"movie","title":"Senorita","poster":"https://image.tmdb.org/t/p/w342/2POdrruLBuUKaYLixD9eurpuYfy.jpg","year":"1927","result":"HD","language":["English"],"country":[],"original_language":"en","genres":["Action","Comedy"],"imdb_id":"tt0018381"},{"id":"999136","type":"movie","title":"Do Not Enter","poster":"https://image.tmdb.org/t/p/w342/jb9e1Up9W9DQ3n8bwBJACOLHrHY.jpg","year":"","result":"HD","language":["Hindi"],"country":["US"],"original_language":"en","genres":["Horror"],"imdb_id":"tt3515878"}]}