{"page":4,"total_pages":26,"total_items":1255,"items":[{"id":"1522923","type":"movie","title":"Safe House","poster":"https://image.tmdb.org/t/p/w342/jlQW7qPp9j6yGqiIEcB3uNYbjys.jpg","year":"2025","result":"HD","language":["Hindi"],"country":["US"],"original_language":"en","genres":["Action","Thriller"],"imdb_id":"tt30954952"},{"id":"1406657","type":"movie","title":"Scarlet","poster":"https://image.tmdb.org/t/p/w342/2O2tOyS4kvO9GtFPHpWmbXvfRQv.jpg","year":"2025","result":"HD","language":["Hindi"],"country":["JP","US"],"original_language":"ja","genres":["Animation","Action","Drama","Science Fiction"],"imdb_id":"tt35114460"},{"id":"801937","type":"movie","title":"Silent Night, Deadly Night","poster":"https://image.tmdb.org/t/p/w342/xCdSd7NnRdnL8DGLVhI95WhUNoi.jpg","year":"2025","result":"HD","language":["Hindi"],"country":["US","CA","FR"],"original_language":"en","genres":["Horror","Thriller"],"imdb_id":"tt34508974"},{"id":"1325958","type":"movie","title":"The Travellers","poster":"https://image.tmdb.org/t/p/w342/4MFC7rOo9iBfLjjhDN6atNvorKm.jpg","year":"2025","result":"HD","language":["Hindi"],"country":["AU"],"original_language":"en","genres":["Drama"],"imdb_id":"tt33068674"},{"id":"245312","type":"tv","title":"A Man on the Inside","poster":"https://image.tmdb.org/t/p/w342/c09XdTLpLku2tqHt158NZBgC4hi.jpg","year":"2025","result":"HD","language":["Hindi"],"country":["US"],"original_language":"en","genres":["Comedy","Crime"],"imdb_id":"tt26670955","latest_uploaded_season":2,"total_uploaded_episodes":16},{"id":"246246","type":"tv","title":"Beauty in Black","poster":"https://image.tmdb.org/t/p/w342/i98Jl46WBpK7ymttNOakowtNuFF.jpg","year":"2025","result":"HD","language":["Hindi"],"country":["US"],"original_language":"en","genres":["Drama"],"imdb_id":"tt31260386","latest_uploaded_season":2,"total_uploaded_episodes":24},{"id":"42009","type":"tv","title":"Black Mirror","poster":"https://image.tmdb.org/t/p/w342/seN6rRfN0I6n8iDXjlSMk1QjNcq.jpg","year":"2025","result":"HD","language":["Hindi"],"country":["GB"],"original_language":"en","genres":["Sci-Fi & Fantasy","Drama","Mystery"],"imdb_id":"tt2085059","latest_uploaded_season":7,"total_uploaded_episodes":29},{"id":"106379","type":"tv","title":"Fallout","poster":"https://image.tmdb.org/t/p/w342/c15BtJxCXMrISLVmysdsnZUPQft.jpg","year":"2025","result":"HD","language":["Hindi"],"country":["US"],"original_language":"en","genres":["Action & Adventure","Sci-Fi & Fantasy"],"imdb_id":"tt12637874","latest_uploaded_season":2,"total_uploaded_episodes":16},{"id":"205715","type":"tv","title":"Gen V","poster":"https://image.tmdb.org/t/p/w342/tEv842Nd5uMSavURG4aQO1pNtst.jpg","year":"2025","result":"HD","language":["Hindi"],"country":["US"],"original_language":"en","genres":["Action & Adventure","Drama","Sci-Fi & Fantasy"],"imdb_id":"tt13159924","latest_uploaded_season":2,"total_uploaded_episodes":16},{"id":"94954","type":"tv","title":"Hazbin Hotel","poster":"https://image.tmdb.org/t/p/w342/aVYHMW8pdzJ9qG1OGRMKyGy9xor.jpg","year":"2025","result":"HD","language":["Hindi"],"country":["US"],"original_language":"en","genres":["Animation","Comedy","Drama","Sci-Fi & Fantasy"],"imdb_id":"tt7216636","latest_uploaded_season":2,"total_uploaded_episodes":16},{"id":"157741","type":"tv","title":"Landman","poster":"https://image.tmdb.org/t/p/w342/hYthRgS1nvQkGILn9YmqsF8kSk6.jpg","year":"2025","result":"HD","language":["Hindi"],"country":["US"],"original_language":"en","genres":["Drama"],"imdb_id":"tt14186672","latest_uploaded_season":2,"total_uploaded_episodes":20},{"id":"97951","type":"tv","title":"Mayor of Kingstown","poster":"https://image.tmdb.org/t/p/w342/6rWIip9MZELAA0SKii5WqsBDCYW.jpg","year":"2025","result":"HD","language":["Hindi"],"country":["US"],"original_language":"en","genres":["Drama","Crime"],"imdb_id":"tt11712058","latest_uploaded_season":4,"total_uploaded_episodes":40},{"id":"199001","type":"tv","title":"My Life with the Walter Boys","poster":"https://image.tmdb.org/t/p/w342/jg3YdxDNlxay0NWTxgAPif647Hj.jpg","year":"2025","result":"HD","language":["Hindi"],"country":["US"],"original_language":"en","genres":["Drama"],"imdb_id":"tt8323628","latest_uploaded_season":2,"total_uploaded_episodes":20},{"id":"250923","type":"tv","title":"Nobody Wants This","poster":"https://image.tmdb.org/t/p/w342/cUpIceeJJoRqUHSCzh6jRSmlpkA.jpg","year":"2025","result":"HD","language":["Hindi"],"country":["US"],"original_language":"en","genres":["Comedy","Drama"],"imdb_id":"tt26933824","latest_uploaded_season":2,"total_uploaded_episodes":20},{"id":"110492","type":"tv","title":"Peacemaker","poster":"https://image.tmdb.org/t/p/w342/eYzbGcYnOUlvj2fa76pTgIXogd7.jpg","year":"2025","result":"HD","language":["Hindi"],"country":["US"],"original_language":"en","genres":["Action & Adventure","Sci-Fi & Fantasy","Drama"],"imdb_id":"tt13146488","latest_uploaded_season":2,"total_uploaded_episodes":16},{"id":"120998","type":"tv","title":"Poker Face","poster":"https://image.tmdb.org/t/p/w342/8Xm5dyMQC9whMJKnGdFugUAW73C.jpg","year":"2025","result":"HD","language":["Hindi"],"country":["US"],"original_language":"en","genres":["Crime","Mystery"],"imdb_id":"tt14269590","latest_uploaded_season":2,"total_uploaded_episodes":22},{"id":"108978","type":"tv","title":"Reacher","poster":"https://image.tmdb.org/t/p/w342/31GlRQMiDunO8cl3NxTz34U64rf.jpg","year":"2025","result":"HD","language":["Hindi"],"country":["US"],"original_language":"en","genres":["Action & Adventure","Drama","Crime"],"imdb_id":"tt9288030","latest_uploaded_season":3,"total_uploaded_episodes":24},{"id":"213249","type":"tv","title":"Sausage Party: Foodtopia","poster":"https://image.tmdb.org/t/p/w342/cPLk5uvh0Am0UQlxRP4xqNcVQD3.jpg","year":"2025","result":"HD","language":["Hindi"],"country":["US"],"original_language":"en","genres":["Animation","Comedy","Action & Adventure","Sci-Fi & Fantasy"],"imdb_id":"tt23036426","latest_uploaded_season":2,"total_uploaded_episodes":16},{"id":"502","type":"tv","title":"Sesame Street","poster":"https://image.tmdb.org/t/p/w342/14k9BfZ2p4rQBMeJ5crKTfUZVwD.jpg","year":"2025","result":"HD","language":["Hindi"],"country":["US"],"original_language":"en","genres":["Kids","Comedy"],"imdb_id":"tt0063951","latest_uploaded_season":55,"total_uploaded_episodes":4},{"id":"103516","type":"tv","title":"Star Trek: Strange New Worlds","poster":"https://image.tmdb.org/t/p/w342/w6KapI2JvrCkOPmQhkwYPJNjqeo.jpg","year":"2025","result":"HD","language":["Hindi"],"country":["US"],"original_language":"en","genres":["Sci-Fi & Fantasy","Drama"],"imdb_id":"tt12327578","latest_uploaded_season":3,"total_uploaded_episodes":30},{"id":"262955","type":"tv","title":"Starting 5","poster":"https://image.tmdb.org/t/p/w342/i6SYNxGbyo9nIg4MugPMnaUHKYR.jpg","year":"2025","result":"HD","language":["Hindi"],"country":["US"],"original_language":"en","genres":["Documentary","Reality"],"imdb_id":"tt33294894","latest_uploaded_season":2,"total_uploaded_episodes":18},{"id":"66732","type":"tv","title":"Stranger Things","poster":"https://image.tmdb.org/t/p/w342/uOOtwVbSr4QDjAGIifLDwpb2Pdl.jpg","year":"2025","result":"HD","language":["Hindi"],"country":["US"],"original_language":"en","genres":["Sci-Fi & Fantasy","Mystery","Action & Adventure"],"imdb_id":"tt4574334","latest_uploaded_season":5,"total_uploaded_episodes":42},{"id":"85077","type":"tv","title":"The Chosen","poster":"https://image.tmdb.org/t/p/w342/dqVUFuNrMFWt7uGNWlpo91VKYOI.jpg","year":"2025","result":"HD","language":["Hindi"],"country":["US"],"original_language":"en","genres":["Action & Adventure","Family","Drama"],"imdb_id":"tt5622316","latest_uploaded_season":5,"total_uploaded_episodes":40},{"id":"203857","type":"tv","title":"The Diplomat","poster":"https://image.tmdb.org/t/p/w342/cOKXV0FalCYixNmZYCfHXgyQ0VX.jpg","year":"2025","result":"HD","language":["Hindi"],"country":["US"],"original_language":"en","genres":["Drama","War & Politics"],"imdb_id":"tt17491088","latest_uploaded_season":3,"total_uploaded_episodes":22},{"id":"212196","type":"tv","title":"The Ex-Wife","poster":"https://image.tmdb.org/t/p/w342/vp5Vs17MUizJ7bQNMRsUcvDVquC.jpg","year":"2025","result":"HD","language":["Hindi"],"country":["GB"],"original_language":"en","genres":["Drama","Mystery"],"imdb_id":"tt13069604","latest_uploaded_season":2,"total_uploaded_episodes":8},{"id":"100088","type":"tv","title":"The Last of Us","poster":"https://image.tmdb.org/t/p/w342/dmo6TYuuJgaYinXBPjrgG9mB5od.jpg","year":"2025","result":"HD","language":["Hindi"],"country":["US"],"original_language":"en","genres":["Drama"],"imdb_id":"tt3581920","latest_uploaded_season":2,"total_uploaded_episodes":16},{"id":"194766","type":"tv","title":"The Summer I Turned Pretty","poster":"https://image.tmdb.org/t/p/w342/xBIz53wYWsKfFpN0TaizVAjKJ0z.jpg","year":"2025","result":"HD","language":["Hindi"],"country":["US"],"original_language":"en","genres":["Drama"],"imdb_id":"tt14016500","latest_uploaded_season":3,"total_uploaded_episodes":26},{"id":"243861","type":"tv","title":"The Vince Staples Show","poster":"https://image.tmdb.org/t/p/w342/gyUKo6ILKVwuiVq4EWv1avEXpBp.jpg","year":"2025","result":"HD","language":["Hindi"],"country":["US"],"original_language":"en","genres":["Drama","Comedy"],"imdb_id":"tt21993130","latest_uploaded_season":2,"total_uploaded_episodes":11},{"id":"71912","type":"tv","title":"The Witcher","poster":"https://image.tmdb.org/t/p/w342/AoGsDM02UVt0npBA8OvpDcZbaMi.jpg","year":"2025","result":"HD","language":["Hindi"],"country":["US"],"original_language":"en","genres":["Drama","Action & Adventure"],"imdb_id":"tt5180504","latest_uploaded_season":4,"total_uploaded_episodes":32},{"id":"119051","type":"tv","title":"Wednesday","poster":"https://image.tmdb.org/t/p/w342/36xXlhEpQqVVPuiZhfoQuaY4OlA.jpg","year":"2025","result":"HD","language":["Hindi"],"country":["US"],"original_language":"en","genres":["Sci-Fi & Fantasy","Mystery","Comedy"],"imdb_id":"tt13443470","latest_uploaded_season":2,"total_uploaded_episodes":16},{"id":"78191","type":"tv","title":"You","poster":"https://image.tmdb.org/t/p/w342/oANi0vEE92nuijiZQgPZ88FSxqQ.jpg","year":"2025","result":"HD","language":["Hindi"],"country":["US"],"original_language":"en","genres":["Mystery","Crime","Drama"],"imdb_id":"tt7335184","latest_uploaded_season":5,"total_uploaded_episodes":50},{"id":"133748","type":"tv","title":"Twisted Metal","poster":"https://image.tmdb.org/t/p/w342/zMwMClR9y7RBeVWMEmNn8LwUJHz.jpg","year":"2025","result":"HD","language":["English"],"country":["US"],"original_language":"en","genres":["Action & Adventure","Comedy"],"imdb_id":"tt14261112","latest_uploaded_season":2,"total_uploaded_episodes":22},{"id":"1199869","type":"movie","title":"Eye for an Eye","poster":"https://image.tmdb.org/t/p/w342/lpepbfVziHJLhVoxTEKs8ok00iu.jpg","year":"2025","result":"HD","language":["Hindi"],"country":["US","GB"],"original_language":"en","genres":["Horror"],"imdb_id":"tt28088571"},{"id":"1325678","type":"movie","title":"Sarah's Oil","poster":"https://image.tmdb.org/t/p/w342/Av1CK61z33v2OBFLD1yF5rdRxQ1.jpg","year":"2025","result":"HD","language":["Hindi"],"country":["US"],"original_language":"en","genres":["Drama"],"imdb_id":"tt31727267"},{"id":"157744","type":"tv","title":"1923","poster":"https://image.tmdb.org/t/p/w342/zgZRJZvZn5cpsWAB0zMUdad3iZd.jpg","year":"2025","result":"HD","language":["Hindi"],"country":["US"],"original_language":"en","genres":["Drama","Western"],"imdb_id":"tt18335752","latest_uploaded_season":2,"total_uploaded_episodes":15},{"id":"301507","type":"tv","title":"Heated Rivalry","poster":"https://image.tmdb.org/t/p/w342/3YCKbtAkYWCMDLHvkUjGhG7eWoS.jpg","year":"2025","result":"HD","language":["Hindi"],"country":["CA"],"original_language":"en","genres":["Drama"],"imdb_id":"tt35495073","latest_uploaded_season":1,"total_uploaded_episodes":6},{"id":"1126336","type":"movie","title":"Anniversary","poster":"https://image.tmdb.org/t/p/w342/sSdpXGBNt3mQzjZZVK6eV5NcPdc.jpg","year":"2025","result":"HD","language":["Hindi"],"country":["US","IE"],"original_language":"en","genres":["Thriller","Drama"],"imdb_id":"tt12583926"},{"id":"1386827","type":"movie","title":"Coyotes","poster":"https://image.tmdb.org/t/p/w342/fSzs9ZXYcrln0FRrjGIPCjuB6En.jpg","year":"2025","result":"HD","language":["Hindi"],"country":["US","GB","CO"],"original_language":"en","genres":["Horror","Comedy"],"imdb_id":"tt34581826"},{"id":"1165096","type":"movie","title":"F+","poster":"https://image.tmdb.org/t/p/w342/f0qeTgIcGZ6s3jz5xg8PQ7K0MZO.jpg","year":"2025","result":"HD","language":["Hindi"],"country":["US"],"original_language":"en","genres":["Comedy","Family"],"imdb_id":"tt28322249"},{"id":"1439112","type":"movie","title":"Muzzle: City of Wolves","poster":"https://image.tmdb.org/t/p/w342/8qTMRmC07XCGidnKQFLbRM3FoDU.jpg","year":"2025","result":"HD","language":["Hindi"],"country":["US"],"original_language":"en","genres":["Action","Thriller","Mystery"],"imdb_id":"tt32395062"},{"id":"1081208","type":"movie","title":"The Dogs","poster":"https://image.tmdb.org/t/p/w342/kz6oqKyKCjmR8V1JdnF9brp9DSn.jpg","year":"2025","result":"HD","language":["Hindi"],"country":["CA"],"original_language":"en","genres":["Horror","Thriller","Mystery"],"imdb_id":"tt7873304"},{"id":"891584","type":"movie","title":"The History of Sound","poster":"https://image.tmdb.org/t/p/w342/5tNr1CySiYQICRsQbWWSSsDiKjn.jpg","year":"2025","result":"HD","language":["Hindi"],"country":["GB","US","SE"],"original_language":"en","genres":["Drama","Romance","Music"],"imdb_id":"tt15799524"},{"id":"604079","type":"movie","title":"The Long Walk","poster":"https://image.tmdb.org/t/p/w342/wobVTa99eW0ht6c1rNNzLkazPtR.jpg","year":"2025","result":"HD","language":["Hindi"],"country":["US"],"original_language":"en","genres":["Science Fiction","Thriller","Horror"],"imdb_id":"tt10374610"},{"id":"1119377","type":"movie","title":"Xeno","poster":"https://image.tmdb.org/t/p/w342/bXJD04oDre4ZiW6CapzBuJyyp4w.jpg","year":"2025","result":"HD","language":["Hindi"],"country":["US"],"original_language":"en","genres":["Adventure","Drama","Mystery","Science Fiction"],"imdb_id":"tt27629220"},{"id":"1317288","type":"movie","title":"Marty Supreme","poster":"https://image.tmdb.org/t/p/w342/lYWEXbQgRTR4ZQleSXAgRbxAjvq.jpg","year":"2025","result":"HD","language":["Hindi"],"country":["US"],"original_language":"en","genres":["Drama","Thriller"],"imdb_id":"tt32916440"},{"id":"234586","type":"tv","title":"Barbie Mysteries","poster":"https://image.tmdb.org/t/p/w342/zKfE4AevCL8RjfcrhfJZat5vWTb.jpg","year":"2025","result":"HD","language":["Hindi"],"country":["US"],"original_language":"en","genres":["Animation","Kids"],"imdb_id":"tt33130884","latest_uploaded_season":2,"total_uploaded_episodes":16},{"id":"1330421","type":"movie","title":"Bone Lake","poster":"https://image.tmdb.org/t/p/w342/sGo5ti82LlydAZrvcsaj31iPuEI.jpg","year":"2025","result":"HD","language":["Hindi"],"country":["US"],"original_language":"en","genres":["Horror","Mystery","Thriller"],"imdb_id":"tt26783625"},{"id":"82596","type":"tv","title":"Emily in Paris","poster":"https://image.tmdb.org/t/p/w342/c0bkO416OU7YGdOFktk45H8REgL.jpg","year":"2025","result":"HD","language":["Hindi"],"country":["US"],"original_language":"en","genres":["Drama","Comedy"],"imdb_id":"tt8962124","latest_uploaded_season":5,"total_uploaded_episodes":41},{"id":"237512","type":"tv","title":"Jurassic World: Chaos Theory","poster":"https://image.tmdb.org/t/p/w342/c2Od0cY2IeayDj5osUxZSAD1QK.jpg","year":"2025","result":"HD","language":["Hindi"],"country":["US"],"original_language":"en","genres":["Animation","Action & Adventure","Sci-Fi & Fantasy","Kids","Family"],"imdb_id":"tt29899148","latest_uploaded_season":4,"total_uploaded_episodes":12},{"id":"1046758","type":"movie","title":"Sew Torn","poster":"https://image.tmdb.org/t/p/w342/6N3bJq0VInPhifYml7cZ0TjRrXb.jpg","year":"2025","result":"HD","language":["Hindi"],"country":["CH","US"],"original_language":"en","genres":["Thriller","Comedy","Crime"],"imdb_id":"tt23157384"}]}