{"page":22,"total_pages":26,"total_items":1255,"items":[{"id":"284293","type":"movie","title":"Still Alice","poster":"https://image.tmdb.org/t/p/w342/jJiGGbuLW8IkEnh5073maEmIr7V.jpg","year":"2014","result":"HD","language":["Hindi"],"country":["FR","GB","US"],"original_language":"en","genres":["Drama"],"imdb_id":"tt3316960"},{"id":"284536","type":"movie","title":"The Gambler","poster":"https://image.tmdb.org/t/p/w342/hIgU3cxn7Y87joQGM3srofnXOm5.jpg","year":"2014","result":"HD","language":["Hindi"],"country":["US"],"original_language":"en","genres":["Thriller","Crime","Drama"],"imdb_id":"tt2039393"},{"id":"277685","type":"movie","title":"Unfriended","poster":"https://image.tmdb.org/t/p/w342/8byPxREr3BqBNyyij5WHVSOVtYk.jpg","year":"2014","result":"HD","language":["Hindi"],"country":["US"],"original_language":"en","genres":["Horror","Mystery"],"imdb_id":"tt3713166"},{"id":"196867","type":"movie","title":"Annie","poster":"https://image.tmdb.org/t/p/w342/aKAM9V0izx4VhsdyAdBvAB26UCZ.jpg","year":"2014","result":"HD","language":["Hindi"],"country":["US"],"original_language":"en","genres":["Comedy","Drama","Family"],"imdb_id":"tt1823664"},{"id":"157336","type":"movie","title":"Interstellar","poster":"https://image.tmdb.org/t/p/w342/gEU2QniE6E77NI6lCU6MxlNBvIx.jpg","year":"2014","result":"HD","language":["Hindi"],"country":["GB","US"],"original_language":"en","genres":["Adventure","Drama","Science Fiction"],"imdb_id":"tt0816692"},{"id":"144336","type":"movie","title":"Sabotage","poster":"https://image.tmdb.org/t/p/w342/ygG17WukZCidKm7wGM3Zzrr5WRi.jpg","year":"2014","result":"HD","language":["Hindi"],"country":["US"],"original_language":"en","genres":["Action","Drama","Thriller","Crime"],"imdb_id":"tt1742334"},{"id":"122917","type":"movie","title":"The Hobbit: The Battle of the Five Armies","poster":"https://image.tmdb.org/t/p/w342/xT98tLqatZPQApyRmlPL12LtiWp.jpg","year":"2014","result":"HD","language":["Hindi"],"country":["NZ","US"],"original_language":"en","genres":["Action","Adventure","Fantasy"],"imdb_id":"tt2310332"},{"id":"100402","type":"movie","title":"Captain America: The Winter Soldier","poster":"https://image.tmdb.org/t/p/w342/tVFRpFw3xTedgPGqxW0AOI8Qhh0.jpg","year":"2014","result":"HD","language":["Hindi"],"country":["US"],"original_language":"en","genres":["Action","Adventure","Science Fiction"],"imdb_id":"tt1843866"},{"id":"138832","type":"movie","title":"We're the Millers","poster":"https://image.tmdb.org/t/p/w342/qF2LJ0jwWrtXSuT4AFD5OS2IqaT.jpg","year":"2013","result":"HD","language":["Hindi"],"country":["GB","US"],"original_language":"en","genres":["Comedy","Crime"],"imdb_id":"tt1723121"},{"id":"209247","type":"movie","title":"The Art of the Steal","poster":"https://image.tmdb.org/t/p/w342/4R6ojBfyO8fj3WszLE9rog5qR4W.jpg","year":"2013","result":"HD","language":["Hindi"],"country":["CA","US"],"original_language":"en","genres":["Comedy","Crime"],"imdb_id":"tt2172985"},{"id":"109443","type":"movie","title":"Anchorman 2: The Legend Continues","poster":"https://image.tmdb.org/t/p/w342/BAdmxMdCqzjs6hx3KuEtnoWP8d.jpg","year":"2013","result":"HD","language":["Hindi"],"country":["US"],"original_language":"en","genres":["Comedy"],"imdb_id":"tt1229340"},{"id":"207768","type":"movie","title":"I Spit on Your Grave 2","poster":"https://image.tmdb.org/t/p/w342/wit1VRI9sAbCstuwm3KPgxfYYqo.jpg","year":"2013","result":"HD","language":["Hindi"],"country":["US"],"original_language":"en","genres":["Thriller","Horror","Crime"],"imdb_id":"tt2537176"},{"id":"77805","type":"movie","title":"Lovelace","poster":"https://image.tmdb.org/t/p/w342/ibt7chnBsaDbE6ZVwyneuZwYfsC.jpg","year":"2013","result":"HD","language":["Hindi"],"country":["US"],"original_language":"en","genres":["Drama"],"imdb_id":"tt1426329"},{"id":"251783","type":"movie","title":"Pleasure or Pain","poster":"https://image.tmdb.org/t/p/w342/hPsB2NZozctyxl9juWPZzdIpHxa.jpg","year":"2013","result":"HD","language":["Hindi"],"country":["US"],"original_language":"en","genres":["Drama","Thriller"],"imdb_id":"tt2091327"},{"id":"106646","type":"movie","title":"The Wolf of Wall Street","poster":"https://image.tmdb.org/t/p/w342/kW9LmvYHAaS9iA0tHmZVq8hQYoq.jpg","year":"2013","result":"HD","language":["Hindi"],"country":["US"],"original_language":"en","genres":["Crime","Drama","Comedy"],"imdb_id":"tt0993846"},{"id":"138697","type":"movie","title":"Don Jon","poster":"https://image.tmdb.org/t/p/w342/uh8bwvgGXeUKzdL4oSul9zxyTcd.jpg","year":"2013","result":"HD","language":["Hindi"],"country":["US"],"original_language":"en","genres":["Romance","Comedy","Drama"],"imdb_id":"tt2229499"},{"id":"93456","type":"movie","title":"Despicable Me 2","poster":"https://image.tmdb.org/t/p/w342/5Fh4NdoEnCjCK9wLjdJ9DJNFl2b.jpg","year":"2013","result":"HD","language":["Hindi"],"country":["US"],"original_language":"en","genres":["Animation","Comedy","Family"],"imdb_id":"tt1690953"},{"id":"174645","type":"movie","title":"Java Heat","poster":"https://image.tmdb.org/t/p/w342/3jQZRqGnqTlwomPZyGziTSSIy6H.jpg","year":"2013","result":"HD","language":["Hindi"],"country":["US"],"original_language":"en","genres":["Action","Crime","Drama","Thriller"],"imdb_id":"tt2083231"},{"id":"289214","type":"movie","title":"Disaster Wars: Earthquake vs. Tsunami","poster":"https://image.tmdb.org/t/p/w342/aCtAi8znKbrTm2vTePXi76zYyDc.jpg","year":"2013","result":"HD","language":["Hindi"],"country":["US"],"original_language":"en","genres":["Thriller","Action","Drama","Science Fiction"],"imdb_id":"tt2571362"},{"id":"218381","type":"movie","title":"Extraction","poster":"https://image.tmdb.org/t/p/w342/aAU27tuWBrIcOhxLyxd1QgFgXSi.jpg","year":"2013","result":"HD","language":["Hindi"],"country":["US"],"original_language":"en","genres":["Action"],"imdb_id":"tt2823574"},{"id":"129139","type":"movie","title":"The To Do List","poster":"https://image.tmdb.org/t/p/w342/vSVYCcvDJljrESZo1jJyXPVvwfk.jpg","year":"2013","result":"HD","language":["Hindi"],"country":["US"],"original_language":"en","genres":["Comedy","Romance"],"imdb_id":"tt1758795"},{"id":"100542","type":"movie","title":"Vikingdom","poster":"https://image.tmdb.org/t/p/w342/mllJZUdy0LVD7MabX1bHlDDIqI6.jpg","year":"2013","result":"HD","language":["Hindi"],"country":["MY"],"original_language":"en","genres":["Adventure"],"imdb_id":"tt1785669"},{"id":"57158","type":"movie","title":"The Hobbit: The Desolation of Smaug","poster":"https://image.tmdb.org/t/p/w342/xQYiXsheRCDBA39DOrmaw1aSpbk.jpg","year":"2013","result":"HD","language":["Hindi"],"country":["NZ","US"],"original_language":"en","genres":["Fantasy","Adventure","Action"],"imdb_id":"tt1170358"},{"id":"114150","type":"movie","title":"Pitch Perfect","poster":"https://image.tmdb.org/t/p/w342/gsFoJk9g8W3zgaipRrrURk7LbiF.jpg","year":"2012","result":"HD","language":["Hindi"],"country":["US"],"original_language":"en","genres":["Comedy","Music","Romance"],"imdb_id":"tt1981677"},{"id":"134597","type":"movie","title":"The Collection","poster":"https://image.tmdb.org/t/p/w342/qbhJiXi48fRQevHf56i2JmYqyJ7.jpg","year":"2012","result":"HD","language":["Hindi"],"country":["US"],"original_language":"en","genres":["Horror","Thriller"],"imdb_id":"tt1748227"},{"id":"57165","type":"movie","title":"Wrath of the Titans","poster":"https://image.tmdb.org/t/p/w342/b9n2R3xZWQ8MVZgndQoV34stS0h.jpg","year":"2012","result":"HD","language":["Hindi"],"country":["ES","US"],"original_language":"en","genres":["Fantasy","Adventure","Action"],"imdb_id":"tt1646987"},{"id":"1396","type":"tv","title":"Breaking Bad","poster":"https://image.tmdb.org/t/p/w342/ztkUQFLlC19CCMYHW9o1zWhJRNq.jpg","year":"2012","result":"HD","language":["Hindi"],"country":["US"],"original_language":"en","genres":["Drama","Crime"],"imdb_id":"tt0903747","latest_uploaded_season":5,"total_uploaded_episodes":62},{"id":"75780","type":"movie","title":"Jack Reacher","poster":"https://image.tmdb.org/t/p/w342/uQBbjrLVsUibWxNDGA4Czzo8lwz.jpg","year":"2012","result":"HD","language":["Hindi"],"country":["US"],"original_language":"en","genres":["Crime","Drama","Thriller","Action"],"imdb_id":"tt0790724"},{"id":"84194","type":"movie","title":"Excision","poster":"https://image.tmdb.org/t/p/w342/3aLgB6FTQlNanER0RpckbKdwyh9.jpg","year":"2012","result":"HD","language":["Hindi"],"country":["US"],"original_language":"en","genres":["Drama","Horror","Comedy"],"imdb_id":"tt1984153"},{"id":"117942","type":"movie","title":"Girls Gone Dead","poster":"https://image.tmdb.org/t/p/w342/h4fkp6KuY55vocpkInbFeXOSrgT.jpg","year":"2012","result":"HD","language":["Hindi"],"country":["US"],"original_language":"en","genres":["Horror","Comedy"],"imdb_id":"tt1884318"},{"id":"73567","type":"movie","title":"Killer Joe","poster":"https://image.tmdb.org/t/p/w342/6Tt1TQeOI4TpXu1cBUgNGNGeznW.jpg","year":"2012","result":"HD","language":["Hindi"],"country":["US"],"original_language":"en","genres":["Crime","Thriller","Drama"],"imdb_id":"tt1726669"},{"id":"84305","type":"movie","title":"Lay the Favorite","poster":"https://image.tmdb.org/t/p/w342/n57AyhFm5Jhe2qu0yuShYlokPmQ.jpg","year":"2012","result":"HD","language":["Hindi"],"country":["FR","GB","US"],"original_language":"en","genres":["Drama","Comedy"],"imdb_id":"tt1132449"},{"id":"94603","type":"movie","title":"Strippers vs. Werewolves","poster":"https://image.tmdb.org/t/p/w342/OscWRpUcnqhgqxMJQCxVCwa5ss.jpg","year":"2012","result":"HD","language":["Hindi"],"country":["GB"],"original_language":"en","genres":["Comedy","Horror","Action","Crime","Fantasy"],"imdb_id":"tt1702009"},{"id":"89492","type":"movie","title":"This Is 40","poster":"https://image.tmdb.org/t/p/w342/mzUuOIFoVkRTHACRb58vm6mkbBN.jpg","year":"2012","result":"HD","language":["Hindi"],"country":["US"],"original_language":"en","genres":["Comedy"],"imdb_id":"tt1758830"},{"id":"122857","type":"movie","title":"Universal Soldier: Day of Reckoning","poster":"https://image.tmdb.org/t/p/w342/4pefZa0U5h0avmdvRwWB4xjMFl6.jpg","year":"2012","result":"HD","language":["Hindi"],"country":["US"],"original_language":"en","genres":["Action","Science Fiction","Thriller"],"imdb_id":"tt1659343"},{"id":"76493","type":"movie","title":"The Dictator","poster":"https://image.tmdb.org/t/p/w342/n0W7kajF4GFMRk2c0wWwMQqTaDM.jpg","year":"2012","result":"HD","language":["Hindi"],"country":["US","ES","MA"],"original_language":"en","genres":["Comedy"],"imdb_id":"tt1645170"},{"id":"150584","type":"movie","title":"Clash of the Empires","poster":"https://image.tmdb.org/t/p/w342/wMovcNZDHV5KtEXni3pMWkxG0w9.jpg","year":"2012","result":"HD","language":["Hindi"],"country":["US"],"original_language":"en","genres":["Fantasy","Adventure","Action"],"imdb_id":"tt2456594"},{"id":"68721","type":"tv","title":"Wives with Knives","poster":"https://image.tmdb.org/t/p/w342/65Tl0yhwZrOUf55kRdLLdsg0aKC.jpg","year":"2012","result":"HD","language":["Hindi"],"country":[],"original_language":"en","genres":["Documentary","Crime"],"imdb_id":"tt2537956","latest_uploaded_season":1,"total_uploaded_episodes":1},{"id":"49051","type":"movie","title":"The Hobbit: An Unexpected Journey","poster":"https://image.tmdb.org/t/p/w342/yHA9Fc37VmpUA5UncTxxo3rTGVA.jpg","year":"2012","result":"HD","language":["Hindi"],"country":["NZ","US"],"original_language":"en","genres":["Adventure","Fantasy","Action"],"imdb_id":"tt0903624"},{"id":"51540","type":"movie","title":"Horrible Bosses","poster":"https://image.tmdb.org/t/p/w342/uQkUwgyFHAm0jGQERPG6Z9o9Zbj.jpg","year":"2011","result":"HD","language":["Hindi"],"country":["US"],"original_language":"en","genres":["Comedy","Crime"],"imdb_id":"tt1499658"},{"id":"52449","type":"movie","title":"Bad Teacher","poster":"https://image.tmdb.org/t/p/w342/zpIY4qUSX91J9XpPgr0hFrk1eKr.jpg","year":"2011","result":"HD","language":["Hindi"],"country":["US"],"original_language":"en","genres":["Comedy"],"imdb_id":"tt1284575"},{"id":"65347","type":"movie","title":"Cold Fusion","poster":"https://image.tmdb.org/t/p/w342/j7KilE5raWHR58udQnCacFfr1t7.jpg","year":"2011","result":"HD","language":["Hindi"],"country":["US","BG"],"original_language":"en","genres":["Science Fiction","Action","TV Movie"],"imdb_id":"tt1678042"},{"id":"47327","type":"movie","title":"Drive Angry","poster":"https://image.tmdb.org/t/p/w342/nx2pChi41Xv4dsXsfSG3gnKcWaY.jpg","year":"2011","result":"HD","language":["Hindi"],"country":["US"],"original_language":"en","genres":["Fantasy","Thriller","Action","Crime"],"imdb_id":"tt1502404"},{"id":"50544","type":"movie","title":"Friends with Benefits","poster":"https://image.tmdb.org/t/p/w342/nKhhDFCdzxeJ3GUunQ570LDpUkz.jpg","year":"2011","result":"HD","language":["Hindi"],"country":["US"],"original_language":"en","genres":["Romance","Comedy"],"imdb_id":"tt1632708"},{"id":"37958","type":"movie","title":"Immortals","poster":"https://image.tmdb.org/t/p/w342/4SPPX5KIyaQ9O8n5rLvvUIiIhpF.jpg","year":"2011","result":"HD","language":["Hindi"],"country":["US"],"original_language":"en","genres":["Fantasy","Action","Drama"],"imdb_id":"tt1253864"},{"id":"71880","type":"movie","title":"Jack and Jill","poster":"https://image.tmdb.org/t/p/w342/kFeAxmZvu0TE4iuLRHQD6Cej8Wf.jpg","year":"2011","result":"HD","language":["Hindi"],"country":["US"],"original_language":"en","genres":["Comedy","Family"],"imdb_id":"tt0810913"},{"id":"535285","type":"movie","title":"Naked Run","poster":"https://image.tmdb.org/t/p/w342/axPZFjm4R5xiUd9riKMr8afmrcA.jpg","year":"2011","result":"HD","language":["Hindi"],"country":[],"original_language":"en","genres":["Comedy"],"imdb_id":"tt0852986"},{"id":"41630","type":"movie","title":"No Strings Attached","poster":"https://image.tmdb.org/t/p/w342/9C09L1U9S13J4Ut029Qhu0oLcTQ.jpg","year":"2011","result":"HD","language":["Hindi"],"country":["US"],"original_language":"en","genres":["Comedy","Romance"],"imdb_id":"tt1411238"},{"id":"49444","type":"movie","title":"Kung Fu Panda 2","poster":"https://image.tmdb.org/t/p/w342/mtqqD00vB4PGRt20gWtGqFhrkd0.jpg","year":"2011","result":"HD","language":["Hindi"],"country":["US"],"original_language":"en","genres":["Animation","Family","Comedy","Action"],"imdb_id":"tt1302011"},{"id":"70006","type":"movie","title":"Never Back Down 2: The Beatdown","poster":"https://image.tmdb.org/t/p/w342/7VjtTMQpfy9GxMyjUfuYTfyatZz.jpg","year":"2011","result":"HD","language":["Hindi"],"country":["US"],"original_language":"en","genres":["Drama","Action"],"imdb_id":"tt1754264"}]}