{"page":1,"total_pages":5,"total_items":201,"items":[{"id":"1621496","type":"movie","title":"Anecdotes of Ape Mountain","poster":"https://image.tmdb.org/t/p/w342/dhk4xNejRdGKr9b7XXAOX77MLkq.jpg","year":"2026","result":"HD","language":["Hindi"],"country":["CN"],"original_language":"zh","genres":["Action","Adventure","Fantasy"],"imdb_id":"tt40249388"},{"id":"1421552","type":"movie","title":"Panda Plan 2: The Magical Tribe","poster":"https://image.tmdb.org/t/p/w342/asrLPsZMg75SxN1BooggGmpBwRO.jpg","year":"2026","result":"HD","language":["Hindi"],"country":["CN"],"original_language":"zh","genres":["Action","Comedy","Family","Fantasy"],"imdb_id":"tt35514520"},{"id":"1268919","type":"movie","title":"The Botanist","poster":"https://image.tmdb.org/t/p/w342/6lBR3uDf0uOHrBmNf4NSaxtkhlX.jpg","year":"2026","result":"HD","language":["Hindi"],"country":["CN"],"original_language":"zh","genres":["Drama","Fantasy"],"imdb_id":"tt28549378"},{"id":"213703","type":"tv","title":"Agent from Above","poster":"https://image.tmdb.org/t/p/w342/ShizRVGvyFCmGqv7tFA0hxzQ8E.jpg","year":"2026","result":"HD","language":["Hindi"],"country":["TW"],"original_language":"zh","genres":["Drama","Action & Adventure","Sci-Fi & Fantasy"],"imdb_id":"tt23220752","latest_uploaded_season":1,"total_uploaded_episodes":8},{"id":"1185528","type":"movie","title":"Legends of the Condor Heroes: The Gallants","poster":"https://image.tmdb.org/t/p/w342/fUCFEGFlMIFet9ja72JDAeG1he8.jpg","year":"2025","result":"HD","language":["Hindi"],"country":["CN"],"original_language":"zh","genres":["Action","Drama","History"],"imdb_id":"tt28131433"},{"id":"1673401","type":"movie","title":"Sorcerer Heavenly Master · Dark Hades","poster":"https://image.tmdb.org/t/p/w342/m8qxW6QOOxV1teMzsHGIQwAcNgM.jpg","year":"2025","result":"HD","language":["Hindi"],"country":[],"original_language":"zh","genres":["Action","Adventure","Drama","Fantasy"],"imdb_id":"tt35786199"},{"id":"256128","type":"tv","title":"The Best Thing","poster":"https://image.tmdb.org/t/p/w342/okQHEWYmmVDLfxAsT8UBJeTMPIi.jpg","year":"2025","result":"HD","language":["Hindi"],"country":["CN"],"original_language":"zh","genres":["Drama"],"imdb_id":"tt31840873","latest_uploaded_season":1,"total_uploaded_episodes":28},{"id":"252774","type":"tv","title":"The White Olive Tree","poster":"https://image.tmdb.org/t/p/w342/sLJ7z9IT0nLXJbuszYbZ4uy8AOO.jpg","year":"2025","result":"HD","language":["Hindi"],"country":["CN"],"original_language":"zh","genres":["Drama","Action & Adventure"],"imdb_id":"tt31450820","latest_uploaded_season":1,"total_uploaded_episodes":38},{"id":"235351","type":"tv","title":"The Legend of Heroes","poster":"https://image.tmdb.org/t/p/w342/fVOEMyOJx6pQ3ngacvkxiMZbnMD.jpg","year":"2025","result":"HD","language":["Hindi"],"country":["CN"],"original_language":"zh","genres":["Action & Adventure","Drama"],"imdb_id":"tt28116044","latest_uploaded_season":2,"total_uploaded_episodes":60},{"id":"1462471","type":"movie","title":"Wanted","poster":"https://image.tmdb.org/t/p/w342/s8fTavgqVsjXQNP048NaL7Q0EuP.jpg","year":"2025","result":"HD","language":["Hindi"],"country":["CN"],"original_language":"zh","genres":["Action","Drama"],"imdb_id":"tt36617682"},{"id":"1552819","type":"movie","title":"Assassin","poster":"https://image.tmdb.org/t/p/w342/fLRCNUz3MsnC0MdhaWpw3hp4Eye.jpg","year":"2025","result":"HD","language":["Hindi"],"country":[],"original_language":"zh","genres":["Action"],"imdb_id":"tt36350780"},{"id":"1508485","type":"movie","title":"No Escape","poster":"https://image.tmdb.org/t/p/w342/eddv1XJWyN5trgetdOFplbRYx0C.jpg","year":"2025","result":"HD","language":["Hindi"],"country":["CN"],"original_language":"zh","genres":["Action","Crime"],"imdb_id":""},{"id":"1465277","type":"movie","title":"The Demon Hunter","poster":"https://image.tmdb.org/t/p/w342/lLOmriVwsfJRA1gQhA7g9na5mdO.jpg","year":"2025","result":"HD","language":["Hindi"],"country":["CN"],"original_language":"zh","genres":["Action","Adventure","Fantasy"],"imdb_id":"tt36617638"},{"id":"1411393","type":"movie","title":"Evil of the Rat","poster":"https://image.tmdb.org/t/p/w342/mt6ymKwwMbSxcpDFnkgzPpqDXzn.jpg","year":"2025","result":"HD","language":["Hindi"],"country":["CN"],"original_language":"zh","genres":["Action","Thriller","Fantasy","Horror"],"imdb_id":"tt9561744"},{"id":"294454","type":"tv","title":"Her Feast","poster":"https://image.tmdb.org/t/p/w342/o9NMTYfdb3iMYpVNlVsS3deNj3d.jpg","year":"2025","result":"HD","language":["Hindi"],"country":["CN"],"original_language":"zh","genres":["Drama"],"imdb_id":"","latest_uploaded_season":1,"total_uploaded_episodes":28},{"id":"278398","type":"tv","title":"Wanna Be","poster":"https://image.tmdb.org/t/p/w342/3o8KkHBRAItMBjtdG35GImmsttp.jpg","year":"2025","result":"HD","language":["Hindi"],"country":["CN"],"original_language":"zh","genres":["Drama","Comedy"],"imdb_id":"tt36277152","latest_uploaded_season":1,"total_uploaded_episodes":28},{"id":"274048","type":"tv","title":"Grab Your Love","poster":"https://image.tmdb.org/t/p/w342/Aqv4DjCJ6pCxtX6k735Weh30tTp.jpg","year":"2025","result":"HD","language":["Hindi"],"country":["CN"],"original_language":"zh","genres":["Drama"],"imdb_id":"tt36866367","latest_uploaded_season":1,"total_uploaded_episodes":24},{"id":"272059","type":"tv","title":"TO BE HERO X","poster":"https://image.tmdb.org/t/p/w342/7ynNG9lYS9HIR8cYMgawO19VPkg.jpg","year":"2025","result":"HD","language":["Hindi"],"country":["CN"],"original_language":"zh","genres":["Animation","Action & Adventure","Sci-Fi & Fantasy"],"imdb_id":"tt23139038","latest_uploaded_season":2,"total_uploaded_episodes":24},{"id":"232230","type":"tv","title":"Lord of Mysteries","poster":"https://image.tmdb.org/t/p/w342/c8fHePq3yTn3WvZd4hupkHwsjm5.jpg","year":"2025","result":"HD","language":["Hindi"],"country":["CN"],"original_language":"zh","genres":["Animation","Mystery","Sci-Fi & Fantasy","Action & Adventure"],"imdb_id":"tt28618556","latest_uploaded_season":2,"total_uploaded_episodes":43},{"id":"123542","type":"tv","title":"LINK CLICK","poster":"https://image.tmdb.org/t/p/w342/hCt2bLRGTCjHGqtV5FP3Img6w1h.jpg","year":"2024","result":"HD","language":["English"],"country":["CN"],"original_language":"zh","genres":["Animation","Sci-Fi & Fantasy","Mystery","Drama"],"imdb_id":"tt14976292","latest_uploaded_season":3,"total_uploaded_episodes":29},{"id":"256649","type":"tv","title":"Double Love","poster":"https://image.tmdb.org/t/p/w342/rFyPhcKTP5D78hHActbP0OMZZll.jpg","year":"2024","result":"HD","language":["Hindi"],"country":["CN"],"original_language":"zh","genres":["Comedy","Drama"],"imdb_id":"","latest_uploaded_season":1,"total_uploaded_episodes":24},{"id":"247845","type":"tv","title":"Embracing the Stars Together","poster":"https://image.tmdb.org/t/p/w342/lWeuvLwyH6hGzKXFxwRf66bQMeO.jpg","year":"2024","result":"HD","language":["Hindi"],"country":["CN"],"original_language":"zh","genres":["Drama"],"imdb_id":"tt33067214","latest_uploaded_season":1,"total_uploaded_episodes":24},{"id":"260423","type":"tv","title":"I Can See You Shine","poster":"https://image.tmdb.org/t/p/w342/gSXvk4u7l60lgRVlbqf9Xir1G6b.jpg","year":"2024","result":"HD","language":["Hindi"],"country":["TW"],"original_language":"zh","genres":[],"imdb_id":"tt28277048","latest_uploaded_season":1,"total_uploaded_episodes":8},{"id":"240439","type":"tv","title":"Our Interpreter","poster":"https://image.tmdb.org/t/p/w342/jwimKU3lj8cyMcGWLMVCrStRkxy.jpg","year":"2024","result":"HD","language":["Hindi"],"country":["CN"],"original_language":"zh","genres":["Drama"],"imdb_id":"tt29367046","latest_uploaded_season":1,"total_uploaded_episodes":36},{"id":"213086","type":"tv","title":"Snow Fall","poster":"https://image.tmdb.org/t/p/w342/oqr5gP5CQUPpXk7bPAHXLmfDMJ3.jpg","year":"2024","result":"HD","language":["Hindi"],"country":["CN"],"original_language":"zh","genres":["Drama","Mystery","Sci-Fi & Fantasy"],"imdb_id":"tt33044481","latest_uploaded_season":1,"total_uploaded_episodes":24},{"id":"225930","type":"tv","title":"Love Endures","poster":"https://image.tmdb.org/t/p/w342/q1ryxOH0JsPG0rYFdOiAg47m4NM.jpg","year":"2024","result":"HD","language":["Hindi"],"country":["CN"],"original_language":"zh","genres":["Drama"],"imdb_id":"tt28151897","latest_uploaded_season":1,"total_uploaded_episodes":32},{"id":"207668","type":"tv","title":"The Legend of ShenLi","poster":"https://image.tmdb.org/t/p/w342/cVlSN6xr9IsTwRSNvZqkLg8ZLnl.jpg","year":"2024","result":"HD","language":["Hindi"],"country":["CN"],"original_language":"zh","genres":["Drama","Sci-Fi & Fantasy"],"imdb_id":"tt27531070","latest_uploaded_season":2,"total_uploaded_episodes":80},{"id":"221112","type":"tv","title":"Amidst a Snowstorm of Love","poster":"https://image.tmdb.org/t/p/w342/1v5ABzgSMlVJG2acb6S6JAkEM2S.jpg","year":"2024","result":"HD","language":["Hindi"],"country":["CN"],"original_language":"zh","genres":["Drama"],"imdb_id":"tt28183145","latest_uploaded_season":1,"total_uploaded_episodes":30},{"id":"1252428","type":"movie","title":"Anaconda","poster":"https://image.tmdb.org/t/p/w342/pPfsEXzfk2URkQ1OxhUShAXdxMr.jpg","year":"2024","result":"HD","language":["Hindi"],"country":["CN"],"original_language":"zh","genres":["Adventure","Horror"],"imdb_id":"tt11668530"},{"id":"1360838","type":"movie","title":"Blade of Fury","poster":"https://image.tmdb.org/t/p/w342/utyfULeHcVAwyc3uAYMDpxeTLdN.jpg","year":"2024","result":"HD","language":["Hindi"],"country":["CN"],"original_language":"zh","genres":["Action"],"imdb_id":"tt33318665"},{"id":"1324947","type":"movie","title":"King Kong is Coming Back","poster":"https://image.tmdb.org/t/p/w342/ypnufXKWHwDEU6wTpl6oE8mqJ0F.jpg","year":"2024","result":"HD","language":["Hindi"],"country":["CN"],"original_language":"zh","genres":["Science Fiction","Action"],"imdb_id":""},{"id":"991197","type":"movie","title":"Rob N Roll","poster":"https://image.tmdb.org/t/p/w342/3yZx8wV4YtrgJI6O0vPtDKIDXWh.jpg","year":"2024","result":"HD","language":["Hindi"],"country":["HK"],"original_language":"cn","genres":["Action","Comedy","Crime"],"imdb_id":"tt30958950"},{"id":"1327843","type":"movie","title":"The Death Game","poster":"https://image.tmdb.org/t/p/w342/7Fsu6TmpagdSOXVsIFONLpY5sBQ.jpg","year":"2024","result":"HD","language":["Hindi"],"country":["CN"],"original_language":"zh","genres":["Adventure","Action","History"],"imdb_id":"tt33143839"},{"id":"233953","type":"tv","title":"My Special Girl","poster":"https://image.tmdb.org/t/p/w342/rQ82k06SNo2XcJujqCWkDOXnk4t.jpg","year":"2024","result":"HD","language":["Hindi"],"country":["CN"],"original_language":"zh","genres":["Drama","Comedy"],"imdb_id":"tt31108369","latest_uploaded_season":1,"total_uploaded_episodes":24},{"id":"1442776","type":"movie","title":"Crazy Lizard","poster":"https://image.tmdb.org/t/p/w342/9TFaFsSXedaALXTzba349euDeoY.jpg","year":"2024","result":"HD","language":["Hindi"],"country":[],"original_language":"zh","genres":["Action","Thriller","Horror"],"imdb_id":"tt32169142"},{"id":"1255020","type":"movie","title":"Cruel War","poster":"https://image.tmdb.org/t/p/w342/AiB6C4ykGUKGFYZqceQo3fK9tHt.jpg","year":"2024","result":"HD","language":["Hindi"],"country":["CN"],"original_language":"zh","genres":["Action","Crime"],"imdb_id":"tt32323733"},{"id":"949709","type":"movie","title":"High Forces","poster":"https://image.tmdb.org/t/p/w342/b8xNJ39aOtEk3I7MFt8XJuN2bGS.jpg","year":"2024","result":"HD","language":["Hindi"],"country":["CN"],"original_language":"zh","genres":["Action","Crime"],"imdb_id":"tt17501870"},{"id":"1269192","type":"movie","title":"Snake Skin Beauty","poster":"https://image.tmdb.org/t/p/w342/lXgLM1XtAkCx5SLClGJTP3sAJ2n.jpg","year":"2024","result":"HD","language":["Hindi"],"country":["CN"],"original_language":"zh","genres":["Horror","Action","Fantasy"],"imdb_id":"tt32014347"},{"id":"1128650","type":"movie","title":"The Prosecutor","poster":"https://image.tmdb.org/t/p/w342/n3ZnFqp988MWfIkT8OHofEJfjlt.jpg","year":"2024","result":"HD","language":["Hindi"],"country":["CN","HK"],"original_language":"cn","genres":["Action","Drama","Crime","Thriller"],"imdb_id":"tt30024043"},{"id":"923667","type":"movie","title":"Twilight of the Warriors: Walled In","poster":"https://image.tmdb.org/t/p/w342/h0tunBO4tMjvKVVG7fXqHgwOr5C.jpg","year":"2024","result":"HD","language":["Hindi"],"country":["CN","HK"],"original_language":"cn","genres":["Action","Crime","Thriller"],"imdb_id":"tt20316748"},{"id":"748783","type":"movie","title":"The Garfield Movie","poster":"https://image.tmdb.org/t/p/w342/xYduFGuch9OwbCOEUiamml18ZoB.jpg","year":"2024","result":"HD","language":["Hindi"],"country":["HK","GB","US"],"original_language":"en","genres":["Family","Comedy","Adventure","Animation"],"imdb_id":"tt5779228"},{"id":"1295415","type":"movie","title":"Mutant","poster":"https://image.tmdb.org/t/p/w342/dil7ytWMsH5P1KZqYlXq3FN6Qur.jpg","year":"2024","result":"HD","language":["Hindi"],"country":["CN"],"original_language":"zh","genres":["Science Fiction","Romance","War"],"imdb_id":"tt32386443"},{"id":"1382406","type":"movie","title":"Striking Rescue","poster":"https://image.tmdb.org/t/p/w342/nML8rOI4GOiiEsXgknuhZeUF8M7.jpg","year":"2024","result":"HD","language":["Hindi"],"country":["CN"],"original_language":"zh","genres":["Action","Crime","Thriller"],"imdb_id":"tt34466483"},{"id":"1322813","type":"movie","title":"To Live Through Death","poster":"https://image.tmdb.org/t/p/w342/uXw9aAAlMdAIwJKZsxFeFTPJUQq.jpg","year":"2024","result":"HD","language":["Hindi"],"country":[],"original_language":"zh","genres":["Action","Crime"],"imdb_id":"tt33089386"},{"id":"1240592","type":"movie","title":"The Wild Blade of Strangers","poster":"https://image.tmdb.org/t/p/w342/9DZOU5qibB8WeXtzQ00Nl6tiqfw.jpg","year":"2024","result":"HD","language":["Hindi"],"country":["CN"],"original_language":"zh","genres":["Action","Drama"],"imdb_id":"tt31494700"},{"id":"1235623","type":"movie","title":"Eye for an Eye 2","poster":"https://image.tmdb.org/t/p/w342/mkfznkTshGBp88SFQQAGsr3R62z.jpg","year":"2024","result":"HD","language":["Hindi"],"country":["CN"],"original_language":"zh","genres":["Action","Drama"],"imdb_id":"tt30972810"},{"id":"1160956","type":"movie","title":"Panda Plan","poster":"https://image.tmdb.org/t/p/w342/8iMPQl13q89jQhaA5nXb6UiT0t0.jpg","year":"2024","result":"HD","language":["Hindi"],"country":["CN"],"original_language":"zh","genres":["Action","Comedy"],"imdb_id":"tt28630624"},{"id":"278446","type":"tv","title":"Hello Old Friend","poster":"https://image.tmdb.org/t/p/w342/fkKX90TYtlmkMvjYeB90bkYJOS.jpg","year":"2024","result":"HD","language":["Hindi"],"country":["CN"],"original_language":"zh","genres":["Drama"],"imdb_id":"","latest_uploaded_season":1,"total_uploaded_episodes":24},{"id":"255008","type":"tv","title":"Present, is Present","poster":"https://image.tmdb.org/t/p/w342/srX5hpFsMhyVMw7zpEXwwg6fwah.jpg","year":"2024","result":"HD","language":["Hindi"],"country":["CN"],"original_language":"zh","genres":["Drama","Mystery"],"imdb_id":"tt32525811","latest_uploaded_season":1,"total_uploaded_episodes":16},{"id":"253767","type":"tv","title":"Smile Code","poster":"https://image.tmdb.org/t/p/w342/bkBU6bt0kYlzEhyPlyXjIsg15zF.jpg","year":"2024","result":"HD","language":["Hindi"],"country":["CN"],"original_language":"zh","genres":["Drama"],"imdb_id":"tt31173610","latest_uploaded_season":1,"total_uploaded_episodes":34}]}