{"page":4,"total_pages":5,"total_items":201,"items":[{"id":"127493","type":"tv","title":"You Are My Glory","poster":"https://image.tmdb.org/t/p/w342/n2j4J1OwOjAsjxSzavRf5AP76kR.jpg","year":"2021","result":"HD","language":["Hindi"],"country":["CN"],"original_language":"zh","genres":["Comedy","Drama"],"imdb_id":"tt14872986","latest_uploaded_season":1,"total_uploaded_episodes":32},{"id":"125984","type":"tv","title":"Moonlight","poster":"https://image.tmdb.org/t/p/w342/6ViVwJz1DsgH3XRJPOUxVivRdO0.jpg","year":"2021","result":"HD","language":["Hindi"],"country":["CN"],"original_language":"zh","genres":["Drama","Comedy"],"imdb_id":"tt14818618","latest_uploaded_season":1,"total_uploaded_episodes":36},{"id":"122182","type":"tv","title":"The Long Ballad","poster":"https://image.tmdb.org/t/p/w342/okG1wxwkfQjZ3txuTnLvNts28m.jpg","year":"2021","result":"HD","language":["Hindi"],"country":["CN"],"original_language":"zh","genres":["Action & Adventure","War & Politics"],"imdb_id":"tt14390970","latest_uploaded_season":1,"total_uploaded_episodes":49},{"id":"117987","type":"tv","title":"You Are My Hero","poster":"https://image.tmdb.org/t/p/w342/2PD3rQ218D4C0cgCNoQvJLAYDRf.jpg","year":"2021","result":"HD","language":["Hindi"],"country":["CN"],"original_language":"zh","genres":["Drama"],"imdb_id":"tt14196410","latest_uploaded_season":1,"total_uploaded_episodes":40},{"id":"100962","type":"tv","title":"Love Scenery","poster":"https://image.tmdb.org/t/p/w342/9MQkYTrF5mWm1oxUzUNXFxJjziq.jpg","year":"2021","result":"HD","language":["Hindi"],"country":["CN"],"original_language":"zh","genres":["Comedy","Drama"],"imdb_id":"tt12026524","latest_uploaded_season":1,"total_uploaded_episodes":31},{"id":"91643","type":"tv","title":"Girls' Frontline","poster":"https://image.tmdb.org/t/p/w342/hG7qq8ed3c3CdbybiFRU97O6l5u.jpg","year":"2020","result":"HD","language":["Hindi"],"country":["CN"],"original_language":"zh","genres":["Animation","Comedy","Action & Adventure","Sci-Fi & Fantasy"],"imdb_id":"","latest_uploaded_season":3,"total_uploaded_episodes":36},{"id":"100875","type":"tv","title":"Forget You Remember Love","poster":"https://image.tmdb.org/t/p/w342/xyGCFmaJhaZ0ZTGHqmXtihSSRsQ.jpg","year":"2020","result":"HD","language":["Hindi"],"country":["CN"],"original_language":"zh","genres":["Drama"],"imdb_id":"tt5678346","latest_uploaded_season":1,"total_uploaded_episodes":38},{"id":"110573","type":"tv","title":"Love in Time","poster":"https://image.tmdb.org/t/p/w342/76zeQjYfAVXJyEcburN9H4xK0aM.jpg","year":"2020","result":"HD","language":["Hindi"],"country":["CN"],"original_language":"zh","genres":["Comedy","Drama"],"imdb_id":"tt13105700","latest_uploaded_season":1,"total_uploaded_episodes":24},{"id":"103809","type":"tv","title":"My Dear Lady","poster":"https://image.tmdb.org/t/p/w342/fupcFl4ElSFwwFBTf5CqNOn7EVy.jpg","year":"2020","result":"HD","language":["Hindi"],"country":["CN"],"original_language":"zh","genres":["Drama"],"imdb_id":"tt12357102","latest_uploaded_season":1,"total_uploaded_episodes":16},{"id":"109866","type":"tv","title":"Dating in the Kitchen","poster":"https://image.tmdb.org/t/p/w342/8hBqMTAAFkOjg2UJEWce70fKKj.jpg","year":"2020","result":"HD","language":["Hindi"],"country":["CN"],"original_language":"zh","genres":["Drama"],"imdb_id":"tt13085996","latest_uploaded_season":1,"total_uploaded_episodes":24},{"id":"104798","type":"tv","title":"Lost Romance","poster":"https://image.tmdb.org/t/p/w342/oQSJy0R2qwMuQqX2MK1Uwoy3P0p.jpg","year":"2020","result":"HD","language":["Hindi"],"country":["TW"],"original_language":"zh","genres":["Drama","Comedy","Sci-Fi & Fantasy"],"imdb_id":"tt12495978","latest_uploaded_season":1,"total_uploaded_episodes":31},{"id":"118132","type":"tv","title":"Mister Flower","poster":"https://image.tmdb.org/t/p/w342/pe0pebP9dNmIawHAubhl0uNvEM0.jpg","year":"2020","result":"HD","language":["Hindi"],"country":["SG"],"original_language":"zh","genres":[],"imdb_id":"","latest_uploaded_season":1,"total_uploaded_episodes":20},{"id":"104431","type":"tv","title":"You Are My Destiny","poster":"https://image.tmdb.org/t/p/w342/a6wdKoGISGiTLkvaCXr2ujGkFJ3.jpg","year":"2020","result":"HD","language":["Hindi"],"country":["CN"],"original_language":"zh","genres":["Drama","Comedy"],"imdb_id":"tt12357958","latest_uploaded_season":1,"total_uploaded_episodes":36},{"id":"101472","type":"tv","title":"Girlfriend","poster":"https://image.tmdb.org/t/p/w342/9WmZtqgS2uhTbD3HvgkA8Xetl7V.jpg","year":"2020","result":"HD","language":["Hindi"],"country":["CN"],"original_language":"zh","genres":["Drama","Family","Comedy"],"imdb_id":"tt12193174","latest_uploaded_season":1,"total_uploaded_episodes":36},{"id":"103596","type":"tv","title":"Leap Day","poster":"https://image.tmdb.org/t/p/w342/cLSLAtcFMLceRG7VkueNic6Csrn.jpg","year":"2020","result":"HD","language":["Hindi"],"country":["HK"],"original_language":"cn","genres":["Drama","Comedy","Sci-Fi & Fantasy"],"imdb_id":"tt15964514","latest_uploaded_season":1,"total_uploaded_episodes":10},{"id":"110839","type":"tv","title":"Sweet First Love","poster":"https://image.tmdb.org/t/p/w342/g5DcbMk9Tdcqb4XMB5HZdd0kINo.jpg","year":"2020","result":"HD","language":["Hindi"],"country":["CN"],"original_language":"zh","genres":["Drama","Comedy"],"imdb_id":"tt13181770","latest_uploaded_season":1,"total_uploaded_episodes":24},{"id":"103635","type":"tv","title":"The Romance of Tiger and Rose","poster":"https://image.tmdb.org/t/p/w342/mCsidkxf6ji8e71T07dYff3FjCF.jpg","year":"2020","result":"HD","language":["Hindi"],"country":["CN"],"original_language":"zh","genres":["Comedy","Drama"],"imdb_id":"tt12299432","latest_uploaded_season":1,"total_uploaded_episodes":24},{"id":"73031","type":"tv","title":"Tientsin Mystic","poster":"https://image.tmdb.org/t/p/w342/vsJVbT7uc08lGJ5iA7nJpH0H3kE.jpg","year":"2020","result":"HD","language":["Hindi"],"country":["CN"],"original_language":"zh","genres":["Drama","Action & Adventure","Mystery","Sci-Fi & Fantasy"],"imdb_id":"tt7431768","latest_uploaded_season":2,"total_uploaded_episodes":48},{"id":"114029","type":"tv","title":"Eternal Love Rain","poster":"https://image.tmdb.org/t/p/w342/dQWyDNlkLM8jMyDc4GJYl4mDBMY.jpg","year":"2020","result":"HD","language":["Hindi"],"country":["CN"],"original_language":"zh","genres":["Drama"],"imdb_id":"tt13298236","latest_uploaded_season":1,"total_uploaded_episodes":10},{"id":"112280","type":"tv","title":"Begin Again","poster":"https://image.tmdb.org/t/p/w342/jKI1eCz4rTcN9wI1HRhXVRwhHiY.jpg","year":"2020","result":"HD","language":["Hindi"],"country":["CN"],"original_language":"zh","genres":["Drama","Comedy"],"imdb_id":"tt12256822","latest_uploaded_season":1,"total_uploaded_episodes":35},{"id":"110966","type":"tv","title":"Perfect and Casual","poster":"https://image.tmdb.org/t/p/w342/hcuxSkKXkBgHlSJWPTDy9m9vDzI.jpg","year":"2020","result":"HD","language":["Hindi"],"country":["CN"],"original_language":"zh","genres":["Comedy","Drama"],"imdb_id":"tt13161710","latest_uploaded_season":1,"total_uploaded_episodes":24},{"id":"104083","type":"tv","title":"I Don't Want to Be Friends with You","poster":"https://image.tmdb.org/t/p/w342/f9CzGlSYTIgYQEdeI2pBSH4O1ok.jpg","year":"2020","result":"HD","language":["Hindi"],"country":["CN"],"original_language":"zh","genres":["Comedy","Drama"],"imdb_id":"tt12357086","latest_uploaded_season":1,"total_uploaded_episodes":24},{"id":"103469","type":"tv","title":"My Love, Enlighten Me","poster":"https://image.tmdb.org/t/p/w342/o2ov4gmKnYJ9GIopeDbwGwzwwo0.jpg","year":"2020","result":"HD","language":["Hindi"],"country":["CN"],"original_language":"zh","genres":["Comedy","Drama"],"imdb_id":"tt12274642","latest_uploaded_season":1,"total_uploaded_episodes":24},{"id":"87299","type":"tv","title":"I Hear You","poster":"https://image.tmdb.org/t/p/w342/2wVMh3vqvt1IgAhextxwUKxaOAH.jpg","year":"2019","result":"HD","language":["Hindi"],"country":["CN"],"original_language":"zh","genres":["Drama"],"imdb_id":"tt10327440","latest_uploaded_season":1,"total_uploaded_episodes":24},{"id":"94838","type":"tv","title":"My Neighbour Can't Sleep","poster":"https://image.tmdb.org/t/p/w342/oYERaVqgXZkYs7BEPduNQDlHogM.jpg","year":"2019","result":"HD","language":["Hindi"],"country":["CN"],"original_language":"zh","genres":["Comedy","Drama"],"imdb_id":"","latest_uploaded_season":1,"total_uploaded_episodes":24},{"id":"87398","type":"tv","title":"Hello Again!","poster":"https://image.tmdb.org/t/p/w342/u6whLrXrDrYU8SquPWEBC1DAQI6.jpg","year":"2019","result":"HD","language":["Hindi"],"country":["TW"],"original_language":"zh","genres":["Comedy","Drama"],"imdb_id":"tt11323558","latest_uploaded_season":1,"total_uploaded_episodes":26},{"id":"89334","type":"tv","title":"Princess Silver","poster":"https://image.tmdb.org/t/p/w342/nGHIcpN52RhRaW4UAb3jU46JSh3.jpg","year":"2019","result":"HD","language":["Hindi"],"country":["CN"],"original_language":"zh","genres":["Drama","Sci-Fi & Fantasy"],"imdb_id":"tt9537300","latest_uploaded_season":1,"total_uploaded_episodes":58},{"id":"431580","type":"movie","title":"Abominable","poster":"https://image.tmdb.org/t/p/w342/20djTLqppfBx5WYA67Y300S6aPD.jpg","year":"2019","result":"HD","language":["Hindi"],"country":["CN","US"],"original_language":"en","genres":["Family","Animation","Adventure","Comedy","Fantasy"],"imdb_id":"tt6324278"},{"id":"95842","type":"tv","title":"Joy of Life","poster":"https://image.tmdb.org/t/p/w342/7NXlOAFSUPBujmWbnUmqnwNZQhO.jpg","year":"2019","result":"HD","language":["Hindi"],"country":["CN"],"original_language":"zh","genres":["Drama","Comedy"],"imdb_id":"tt11273352","latest_uploaded_season":3,"total_uploaded_episodes":83},{"id":"95686","type":"tv","title":"Love is Fate","poster":"https://image.tmdb.org/t/p/w342/lgNnSY78qkwdsNDuXUJWoiHlDte.jpg","year":"2019","result":"HD","language":["Hindi"],"country":["CN"],"original_language":"zh","genres":["Drama"],"imdb_id":"","latest_uploaded_season":1,"total_uploaded_episodes":48},{"id":"90245","type":"tv","title":"The Lost Tomb 2: Explore with the Note","poster":"https://image.tmdb.org/t/p/w342/m8O09RiqIrIbKwzj4cbmXyASPBb.jpg","year":"2019","result":"HD","language":["Hindi"],"country":["CN"],"original_language":"zh","genres":["Drama","Action & Adventure"],"imdb_id":"tt10433136","latest_uploaded_season":1,"total_uploaded_episodes":24},{"id":"82817","type":"tv","title":"Go Go Squid!","poster":"https://image.tmdb.org/t/p/w342/xWnuIoWFejrYJXeEyJYUH4ILlVo.jpg","year":"2019","result":"HD","language":["Hindi"],"country":["CN"],"original_language":"zh","genres":["Drama"],"imdb_id":"tt10369876","latest_uploaded_season":1,"total_uploaded_episodes":41},{"id":"555020","type":"movie","title":"Legend of the Ancient Sword","poster":"https://image.tmdb.org/t/p/w342/1QHwlirJb7MJJcvTICMJvfG3oyh.jpg","year":"2018","result":"HD","language":["Hindi"],"country":["CN"],"original_language":"zh","genres":["Action","Fantasy","Adventure"],"imdb_id":"tt5806792"},{"id":"530254","type":"movie","title":"The Witch: Part 1. The Subversion","poster":"https://image.tmdb.org/t/p/w342/4i2wo2ja5g2PmUxWa1a2eYIboZf.jpg","year":"2018","result":"HD","language":["Hindi"],"country":["HK","KR"],"original_language":"ko","genres":["Action","Mystery","Science Fiction"],"imdb_id":"tt8574252"},{"id":"504056","type":"movie","title":"Big Brother","poster":"https://image.tmdb.org/t/p/w342/z6Y6uQn2fORr7o43EggQrTsp08o.jpg","year":"2018","result":"HD","language":["Hindi"],"country":["CN","HK"],"original_language":"zh","genres":["Action","Drama","Comedy"],"imdb_id":"tt7336572"},{"id":"385332","type":"movie","title":"Terminal","poster":"https://image.tmdb.org/t/p/w342/xi7pA3lL6Wb78p6Y6PgWoHDMjrM.jpg","year":"2018","result":"HD","language":["Hindi"],"country":["US","GB","HK","IE","HU"],"original_language":"en","genres":["Crime","Drama","Thriller","Action","Comedy","Mystery"],"imdb_id":"tt4463816"},{"id":"75387","type":"tv","title":"A Love So Beautiful","poster":"https://image.tmdb.org/t/p/w342/8bDIVyoxqOkYbBhzhrjY2F9Wep2.jpg","year":"2017","result":"HD","language":["Hindi"],"country":["CN"],"original_language":"zh","genres":["Comedy","Drama"],"imdb_id":"tt8434720","latest_uploaded_season":1,"total_uploaded_episodes":24},{"id":"72487","type":"tv","title":"The King's Woman","poster":"https://image.tmdb.org/t/p/w342/2w4iIlTZWKz10giIjMtgaGIQiZ8.jpg","year":"2017","result":"HD","language":["Hindi"],"country":["CN"],"original_language":"zh","genres":["Drama"],"imdb_id":"tt7516210","latest_uploaded_season":1,"total_uploaded_episodes":48},{"id":"70045","type":"tv","title":"The Starry Night, The Starry Sea","poster":"https://image.tmdb.org/t/p/w342/wOCgmU9mW7cfI6fJFgqh4DbhZ2B.jpg","year":"2017","result":"HD","language":["Hindi"],"country":["CN"],"original_language":"zh","genres":["Sci-Fi & Fantasy","Drama"],"imdb_id":"tt5594768","latest_uploaded_season":1,"total_uploaded_episodes":29},{"id":"452551","type":"movie","title":"The Adventurers","poster":"https://image.tmdb.org/t/p/w342/iVKVucELauvZGsNUd37LgSusQWb.jpg","year":"2017","result":"HD","language":["Hindi"],"country":["CN","CZ","HK","US"],"original_language":"cn","genres":["Action","Crime","Adventure"],"imdb_id":"tt5866930"},{"id":"457837","type":"movie","title":"Brotherhood of Blades II: The Infernal Battlefield","poster":"https://image.tmdb.org/t/p/w342/ooC6al3vhhECG998ZivkAZUdgst.jpg","year":"2017","result":"HD","language":["Hindi"],"country":["CN"],"original_language":"zh","genres":["Romance","Action","Drama","History"],"imdb_id":"tt7055592"},{"id":"69051","type":"tv","title":"Best Lover","poster":"https://image.tmdb.org/t/p/w342/yn0MIfncUAtJoOOFpgmLKTJxNWC.jpg","year":"2016","result":"HD","language":["Hindi"],"country":["CN"],"original_language":"zh","genres":["Drama"],"imdb_id":"tt9874364","latest_uploaded_season":1,"total_uploaded_episodes":12},{"id":"66349","type":"tv","title":"My Amazing Boyfriend","poster":"https://image.tmdb.org/t/p/w342/wt4Ly5TYLpdwWshE5UJabfMSEhm.jpg","year":"2016","result":"HD","language":["Hindi"],"country":["CN"],"original_language":"zh","genres":["Sci-Fi & Fantasy","Comedy"],"imdb_id":"tt6227258","latest_uploaded_season":1,"total_uploaded_episodes":28},{"id":"343611","type":"movie","title":"Jack Reacher: Never Go Back","poster":"https://image.tmdb.org/t/p/w342/cOg3UT2NYWHZxp41vpxAnVCOC4M.jpg","year":"2016","result":"HD","language":["Hindi"],"country":["CN","US"],"original_language":"en","genres":["Action","Thriller","Drama","Crime"],"imdb_id":"tt3393786"},{"id":"411442","type":"movie","title":"Time Raiders","poster":"https://image.tmdb.org/t/p/w342/qtbJL3pWPJIO8KGqZpRLEn4jmQp.jpg","year":"2016","result":"HD","language":["Hindi"],"country":["CN","HK"],"original_language":"zh","genres":["Action","Adventure","Fantasy"],"imdb_id":"tt5354664"},{"id":"351694","type":"movie","title":"Monkey King: Hero Is Back","poster":"https://image.tmdb.org/t/p/w342/xHme10Y5jVdH8KeSGgStndjatF5.jpg","year":"2015","result":"HD","language":["Hindi"],"country":["CN"],"original_language":"zh","genres":["Fantasy","Animation","Comedy"],"imdb_id":"tt4644382"},{"id":"64592","type":"tv","title":"The Lost Tomb","poster":"https://image.tmdb.org/t/p/w342/uqOqVGdNheWAXUhZcybOGA7aPuT.jpg","year":"2015","result":"HD","language":["Hindi"],"country":["CN"],"original_language":"zh","genres":["Action & Adventure","Mystery"],"imdb_id":"tt4219438","latest_uploaded_season":1,"total_uploaded_episodes":12},{"id":"4588","type":"movie","title":"Lust, Caution","poster":"https://image.tmdb.org/t/p/w342/6c1tqfJEBuIyhQC19SLlLQAUAvJ.jpg","year":"2007","result":"HD","language":["Hindi"],"country":["CN","HK","TW","US"],"original_language":"zh","genres":["Action","Drama","Romance","Thriller"],"imdb_id":"tt0808357"},{"id":"191561","type":"movie","title":"Yu Pui Tsuen III","poster":"https://image.tmdb.org/t/p/w342/5QpANxhTL0xpQ7JAIttQasZdF9u.jpg","year":"1996","result":"HD","language":["Hindi"],"country":["HK"],"original_language":"zh","genres":["Drama"],"imdb_id":"tt0118208"},{"id":"64348","type":"movie","title":"Robotrix","poster":"https://image.tmdb.org/t/p/w342/3ikwwNbk7GVorndt8lUyzaqIWpu.jpg","year":"1991","result":"HD","language":["Hindi"],"country":["HK"],"original_language":"cn","genres":["Action","Comedy","Crime","Romance","Science Fiction","Thriller"],"imdb_id":"tt0102562"}]}