{"page":2,"total_pages":5,"total_items":201,"items":[{"id":"252064","type":"tv","title":"Peacock in Wonderland","poster":"https://image.tmdb.org/t/p/w342/iPkB3ZVgWq8VMpj66LChO4ahiQ0.jpg","year":"2024","result":"HD","language":["Hindi"],"country":["CN"],"original_language":"zh","genres":["Sci-Fi & Fantasy"],"imdb_id":"","latest_uploaded_season":1,"total_uploaded_episodes":42},{"id":"249972","type":"tv","title":"Blossom","poster":"https://image.tmdb.org/t/p/w342/38WomXthArq5cKRfkHkxYRo6DLe.jpg","year":"2024","result":"HD","language":["Hindi"],"country":["CN"],"original_language":"zh","genres":["Drama"],"imdb_id":"tt31938763","latest_uploaded_season":1,"total_uploaded_episodes":34},{"id":"247453","type":"tv","title":"Everyone Loves Me","poster":"https://image.tmdb.org/t/p/w342/sgWR52ebu4rRCgJjYxCliCITh7H.jpg","year":"2024","result":"HD","language":["Hindi"],"country":["CN"],"original_language":"zh","genres":["Comedy","Drama"],"imdb_id":"tt28131856","latest_uploaded_season":1,"total_uploaded_episodes":24},{"id":"240437","type":"tv","title":"My Boss","poster":"https://image.tmdb.org/t/p/w342/27mXtbvk9lNpq5zC3dRzOX9Zb0c.jpg","year":"2024","result":"HD","language":["Hindi"],"country":["CN"],"original_language":"zh","genres":["Comedy","Drama"],"imdb_id":"tt29363736","latest_uploaded_season":1,"total_uploaded_episodes":36},{"id":"229202","type":"tv","title":"The Tale of Rose","poster":"https://image.tmdb.org/t/p/w342/d9M2l1fSFaze3PaHwz19hVrsU1g.jpg","year":"2024","result":"HD","language":["Hindi"],"country":["CN"],"original_language":"zh","genres":["Drama"],"imdb_id":"tt29930328","latest_uploaded_season":1,"total_uploaded_episodes":38},{"id":"214826","type":"tv","title":"Not A Murder Story","poster":"https://image.tmdb.org/t/p/w342/aWgKbHI8GfW63CfLa5BHgDbnMl.jpg","year":"2024","result":"HD","language":["Hindi"],"country":["TW"],"original_language":"zh","genres":["Mystery","Crime"],"imdb_id":"tt23472304","latest_uploaded_season":1,"total_uploaded_episodes":8},{"id":"81500","type":"tv","title":"Fights Break Sphere","poster":"https://image.tmdb.org/t/p/w342/quF64x6cR0dk38v2Y2kTJKJWU1H.jpg","year":"2023","result":"HD","language":["Hindi"],"country":["CN"],"original_language":"zh","genres":["Sci-Fi & Fantasy","Action & Adventure"],"imdb_id":"tt9248626","latest_uploaded_season":2,"total_uploaded_episodes":79},{"id":"231364","type":"tv","title":"My Lovely Wife","poster":"https://image.tmdb.org/t/p/w342/zPcThOYLsXUZUHY4VhRNCLQuhT0.jpg","year":"2023","result":"HD","language":["Hindi"],"country":["CN"],"original_language":"zh","genres":["Drama","Mystery"],"imdb_id":"","latest_uploaded_season":1,"total_uploaded_episodes":11},{"id":"152551","type":"tv","title":"Rising with the Wind","poster":"https://image.tmdb.org/t/p/w342/cZSb43j1O1pRZIwwn0fgCx5XJIP.jpg","year":"2023","result":"HD","language":["Hindi"],"country":["CN"],"original_language":"zh","genres":["Drama"],"imdb_id":"tt17069404","latest_uploaded_season":1,"total_uploaded_episodes":40},{"id":"228547","type":"tv","title":"When I Fly Towards You","poster":"https://image.tmdb.org/t/p/w342/mjCChwZcEZ9902tUAG1hWZlfOHm.jpg","year":"2023","result":"HD","language":["Hindi"],"country":["CN"],"original_language":"zh","genres":["Drama","Comedy"],"imdb_id":"tt28036189","latest_uploaded_season":1,"total_uploaded_episodes":24},{"id":"231955","type":"tv","title":"You From The Future","poster":"https://image.tmdb.org/t/p/w342/edkdnOZhp0dzG0ltaxmNupVmdbZ.jpg","year":"2023","result":"HD","language":["Hindi"],"country":["CN"],"original_language":"zh","genres":["Drama","Sci-Fi & Fantasy"],"imdb_id":"tt30138533","latest_uploaded_season":1,"total_uploaded_episodes":24},{"id":"229217","type":"tv","title":"Exploration Method of Love","poster":"https://image.tmdb.org/t/p/w342/2DFMf3k5MCs4LTsmLHRzFBybBSq.jpg","year":"2023","result":"HD","language":["Hindi"],"country":["CN"],"original_language":"zh","genres":["Drama","Comedy"],"imdb_id":"tt28131611","latest_uploaded_season":1,"total_uploaded_episodes":22},{"id":"232828","type":"tv","title":"Fake It Till You Make It","poster":"https://image.tmdb.org/t/p/w342/zwypLF3ipPCoow735l3GjM9wkJa.jpg","year":"2023","result":"HD","language":["Hindi"],"country":["CN"],"original_language":"zh","genres":["Drama"],"imdb_id":"tt28667730","latest_uploaded_season":1,"total_uploaded_episodes":20},{"id":"228819","type":"tv","title":"Fish Show You","poster":"https://image.tmdb.org/t/p/w342/oYDUtBGgUnfd3njqR4gxH8wRY2K.jpg","year":"2023","result":"HD","language":["Hindi"],"country":["CN"],"original_language":"zh","genres":["Drama","Sci-Fi & Fantasy"],"imdb_id":"","latest_uploaded_season":1,"total_uploaded_episodes":18},{"id":"220068","type":"tv","title":"Have a Crush On You","poster":"https://image.tmdb.org/t/p/w342/isXUBTFNXyeo1XojeBLZMN4cpnT.jpg","year":"2023","result":"HD","language":["Hindi"],"country":["CN"],"original_language":"zh","genres":["Drama"],"imdb_id":"tt26732402","latest_uploaded_season":1,"total_uploaded_episodes":36},{"id":"227634","type":"tv","title":"Mr. Insomnia Waiting for Love","poster":"https://image.tmdb.org/t/p/w342/wHm0jvUoO6Eg80bqg1ALHlV1NfT.jpg","year":"2023","result":"HD","language":["Hindi"],"country":["CN"],"original_language":"zh","genres":["Drama","Comedy","Sci-Fi & Fantasy"],"imdb_id":"tt28036984","latest_uploaded_season":1,"total_uploaded_episodes":24},{"id":"234243","type":"tv","title":"My Annoying Roommate","poster":"https://image.tmdb.org/t/p/w342/zVv7M140Na7Ttj88GVvIKs7TFhp.jpg","year":"2023","result":"HD","language":["Hindi"],"country":["CN"],"original_language":"zh","genres":["Drama","Family"],"imdb_id":"","latest_uploaded_season":1,"total_uploaded_episodes":12},{"id":"235730","type":"tv","title":"My Precious","poster":"https://image.tmdb.org/t/p/w342/9PEdT20OsmAhKD6i5lzarofd4aX.jpg","year":"2023","result":"HD","language":["Hindi"],"country":["CN"],"original_language":"zh","genres":["Drama","Comedy"],"imdb_id":"tt29363110","latest_uploaded_season":1,"total_uploaded_episodes":40},{"id":"228344","type":"tv","title":"Skip a Beat","poster":"https://image.tmdb.org/t/p/w342/oBjQQ8YWouhZ03iAr0s7kFm5OQO.jpg","year":"2023","result":"HD","language":["Hindi"],"country":["CN"],"original_language":"zh","genres":["Drama"],"imdb_id":"tt28227698","latest_uploaded_season":1,"total_uploaded_episodes":20},{"id":"220344","type":"tv","title":"Wenderella's Diary","poster":"https://image.tmdb.org/t/p/w342/zxHS5ZrwXcPfHWJ9tXd80kV0ej4.jpg","year":"2023","result":"HD","language":["Hindi"],"country":["CN"],"original_language":"zh","genres":["Drama","Comedy"],"imdb_id":"tt26733040","latest_uploaded_season":1,"total_uploaded_episodes":24},{"id":"243322","type":"tv","title":"Castle in the Time","poster":"https://image.tmdb.org/t/p/w342/pQcVWrNn19cNV226j2tLjBQgpih.jpg","year":"2023","result":"HD","language":["Hindi"],"country":["CN"],"original_language":"zh","genres":["Drama"],"imdb_id":"tt29723136","latest_uploaded_season":1,"total_uploaded_episodes":38},{"id":"225741","type":"tv","title":"Oppa, Saranghae","poster":"https://i.ibb.co/zWDCJB3p/Gemini-Generated-Image-59bnfp59bnfp59bn-1.png","year":"2023","result":"HD","language":["Hindi"],"country":["SG"],"original_language":"zh","genres":[],"imdb_id":"","latest_uploaded_season":1,"total_uploaded_episodes":13},{"id":"226002","type":"tv","title":"Gen Z","poster":"https://image.tmdb.org/t/p/w342/2C8LwBBCnU3uyKppMxIruEr7Zjp.jpg","year":"2023","result":"HD","language":["Hindi"],"country":["CN"],"original_language":"zh","genres":["Drama"],"imdb_id":"tt27687545","latest_uploaded_season":1,"total_uploaded_episodes":40},{"id":"225178","type":"tv","title":"The Love You Give Me","poster":"https://image.tmdb.org/t/p/w342/qL282eKyVyYanby06A4dzNNWsxK.jpg","year":"2023","result":"HD","language":["Hindi"],"country":["CN"],"original_language":"zh","genres":["Drama"],"imdb_id":"tt27618756","latest_uploaded_season":1,"total_uploaded_episodes":28},{"id":"221923","type":"tv","title":"The Way You Shine","poster":"https://image.tmdb.org/t/p/w342/cuOWj3LT2pBmkg3zzY9rfSRF5SR.jpg","year":"2023","result":"HD","language":["Hindi"],"country":["TW"],"original_language":"zh","genres":["Drama"],"imdb_id":"tt27705687","latest_uploaded_season":1,"total_uploaded_episodes":24},{"id":"234859","type":"tv","title":"Hello, I'm At Your Service","poster":"https://image.tmdb.org/t/p/w342/vNPq4Ks7PPpTk4DyMG8lMEN3Qk.jpg","year":"2023","result":"HD","language":["Hindi"],"country":["CN"],"original_language":"zh","genres":["Drama"],"imdb_id":"tt29142245","latest_uploaded_season":1,"total_uploaded_episodes":24},{"id":"221993","type":"tv","title":"I Belonged to Your World","poster":"https://image.tmdb.org/t/p/w342/AlFUXp1jorpHacbyIWnhIM3qQ6I.jpg","year":"2023","result":"HD","language":["Hindi"],"country":["CN"],"original_language":"zh","genres":["Drama","Sci-Fi & Fantasy"],"imdb_id":"","latest_uploaded_season":1,"total_uploaded_episodes":20},{"id":"1152306","type":"movie","title":"The Comeback","poster":"https://image.tmdb.org/t/p/w342/hNnrtEEcDE0kHnUzzUmEGzY2eny.jpg","year":"2023","result":"HD","language":["Hindi"],"country":["CN"],"original_language":"zh","genres":["Action","Thriller","Crime"],"imdb_id":"tt28482763"},{"id":"1078012","type":"movie","title":"Boonie Bears: Guardian Code","poster":"https://image.tmdb.org/t/p/w342/lIR8h3Os8peWOave8CGE7xsTFoi.jpg","year":"2023","result":"HD","language":["Hindi"],"country":["CN"],"original_language":"zh","genres":["Animation","Comedy","Science Fiction","Family","Adventure"],"imdb_id":"tt25981462"},{"id":"240947","type":"tv","title":"I Love You","poster":"https://image.tmdb.org/t/p/w342/mDapdMm0EJtk8Y9fhESyd6KcTu9.jpg","year":"2023","result":"HD","language":["Hindi"],"country":["CN"],"original_language":"zh","genres":["Drama"],"imdb_id":"tt30577526","latest_uploaded_season":1,"total_uploaded_episodes":24},{"id":"227213","type":"tv","title":"Wanru's Journey","poster":"https://image.tmdb.org/t/p/w342/ltmGBH6lypg2cJzaaj7TUbNv2ND.jpg","year":"2023","result":"HD","language":["Hindi"],"country":["CN"],"original_language":"zh","genres":["Drama","Comedy","Action & Adventure"],"imdb_id":"tt27851635","latest_uploaded_season":1,"total_uploaded_episodes":24},{"id":"1173900","type":"movie","title":"I Am Nezha 2","poster":"https://image.tmdb.org/t/p/w342/vHf7HD3DU7Zz5ZiW5NfxagFHmfg.jpg","year":"2023","result":"HD","language":["Hindi"],"country":["CN"],"original_language":"zh","genres":["Animation","Fantasy","Drama"],"imdb_id":""},{"id":"1172012","type":"movie","title":"Death Stranding","poster":"https://image.tmdb.org/t/p/w342/fH8RLXpAT1V32DebOdPCv45rbuZ.jpg","year":"2023","result":"HD","language":["Hindi"],"country":["CN","HK"],"original_language":"zh","genres":["Drama","Action","Thriller"],"imdb_id":"tt29571399"},{"id":"1112175","type":"movie","title":"Never Say Never","poster":"https://image.tmdb.org/t/p/w342/xj8JmcJhqShEm5pdBCpOevAjFzE.jpg","year":"2023","result":"HD","language":["Hindi"],"country":["CN"],"original_language":"zh","genres":["Drama","Action"],"imdb_id":"tt20865116"},{"id":"1093485","type":"movie","title":"The White Storm 3: Heaven or Hell","poster":"https://image.tmdb.org/t/p/w342/xtsEksiUjysMYv4gxdRQcbu2v6V.jpg","year":"2023","result":"HD","language":["Hindi"],"country":["CN","HK"],"original_language":"cn","genres":["Action","Crime","Thriller"],"imdb_id":"tt26929966"},{"id":"999056","type":"movie","title":"I Did It My Way","poster":"https://image.tmdb.org/t/p/w342/tisEbLoPUUFbhiVY4yFaEDnYfW0.jpg","year":"2023","result":"HD","language":["Hindi"],"country":["CN","HK"],"original_language":"cn","genres":["Action","Crime","Drama"],"imdb_id":"tt21330770"},{"id":"241065","type":"tv","title":"Got a Crush on You","poster":"https://image.tmdb.org/t/p/w342/s53AleCEotfCfAR36MXDLmtQ9pt.jpg","year":"2023","result":"HD","language":["Hindi"],"country":["CN"],"original_language":"zh","genres":["Drama"],"imdb_id":"tt30333827","latest_uploaded_season":1,"total_uploaded_episodes":26},{"id":"240231","type":"tv","title":"I May Love You","poster":"https://image.tmdb.org/t/p/w342/rJeDxVpQFXc88MC8U4nucSSbNsb.jpg","year":"2023","result":"HD","language":["Hindi"],"country":["CN"],"original_language":"zh","genres":["Drama"],"imdb_id":"","latest_uploaded_season":1,"total_uploaded_episodes":24},{"id":"237918","type":"tv","title":"Derailment","poster":"https://image.tmdb.org/t/p/w342/eVnw1ATwtaTjcbZjUe61JK6OuzH.jpg","year":"2023","result":"HD","language":["Hindi"],"country":["CN"],"original_language":"zh","genres":["Drama","Sci-Fi & Fantasy"],"imdb_id":"tt29367004","latest_uploaded_season":1,"total_uploaded_episodes":30},{"id":"233571","type":"tv","title":"Sunshine by My Side","poster":"https://image.tmdb.org/t/p/w342/bDcGmCuqliWyRYFMeAbq7m1B3HO.jpg","year":"2023","result":"HD","language":["Hindi"],"country":["CN"],"original_language":"zh","genres":["Drama","Comedy"],"imdb_id":"tt28115920","latest_uploaded_season":1,"total_uploaded_episodes":36},{"id":"233194","type":"tv","title":"Only for Love","poster":"https://image.tmdb.org/t/p/w342/aSDZcX0FIJJRMNiL7n9J39LyK46.jpg","year":"2023","result":"HD","language":["Hindi"],"country":["CN"],"original_language":"zh","genres":["Drama","Comedy"],"imdb_id":"tt29366100","latest_uploaded_season":1,"total_uploaded_episodes":36},{"id":"232441","type":"tv","title":"You Are Desire","poster":"https://image.tmdb.org/t/p/w342/93J5YpXVuu67zMbBBWJl7hUtuSp.jpg","year":"2023","result":"HD","language":["Hindi"],"country":["CN"],"original_language":"zh","genres":["Drama"],"imdb_id":"tt28639316","latest_uploaded_season":1,"total_uploaded_episodes":30},{"id":"228520","type":"tv","title":"My Marvellous Fable","poster":"https://image.tmdb.org/t/p/w342/4KfIWmhkrhpomhbEFDpbDFEtDhj.jpg","year":"2023","result":"HD","language":["Hindi"],"country":["CN"],"original_language":"zh","genres":["Drama","Sci-Fi & Fantasy"],"imdb_id":"tt18263306","latest_uploaded_season":1,"total_uploaded_episodes":24},{"id":"226066","type":"tv","title":"Sweet and Cold","poster":"https://image.tmdb.org/t/p/w342/45YZhsTJp99hY7lR7jlzSxiGG7Y.jpg","year":"2023","result":"HD","language":["Hindi"],"country":["CN"],"original_language":"zh","genres":["Drama"],"imdb_id":"tt27678448","latest_uploaded_season":1,"total_uploaded_episodes":31},{"id":"224552","type":"tv","title":"Love of Replica","poster":"https://image.tmdb.org/t/p/w342/9B9Ap6NbGlikEA8B01WfilAsXT9.jpg","year":"2023","result":"HD","language":["Hindi"],"country":["CN"],"original_language":"zh","genres":["Drama","Mystery","Sci-Fi & Fantasy"],"imdb_id":"tt28543811","latest_uploaded_season":1,"total_uploaded_episodes":16},{"id":"219713","type":"tv","title":"Love Me Like I Do","poster":"https://image.tmdb.org/t/p/w342/n59SWxZeFrPwcYjK3krMHuEfFjh.jpg","year":"2023","result":"HD","language":["Hindi"],"country":["CN"],"original_language":"zh","genres":["Drama","Comedy"],"imdb_id":"tt26747306","latest_uploaded_season":1,"total_uploaded_episodes":18},{"id":"218238","type":"tv","title":"My Lethal Man","poster":"https://image.tmdb.org/t/p/w342/ykKbuBoY3pf1lvjpfhWfrS1NTxY.jpg","year":"2023","result":"HD","language":["Hindi"],"country":["CN"],"original_language":"zh","genres":["Drama","Mystery"],"imdb_id":"tt26287941","latest_uploaded_season":1,"total_uploaded_episodes":24},{"id":"216445","type":"tv","title":"Fireworks of My Heart","poster":"https://image.tmdb.org/t/p/w342/ecF1kGP2tlCpoWXVsaeYP3W6dZb.jpg","year":"2023","result":"HD","language":["Hindi"],"country":["CN"],"original_language":"zh","genres":["Action & Adventure","Drama"],"imdb_id":"tt24532414","latest_uploaded_season":1,"total_uploaded_episodes":40},{"id":"214478","type":"tv","title":"Road Home","poster":"https://image.tmdb.org/t/p/w342/5NmLByu3hHyV5xQIxr4ARxBMkVI.jpg","year":"2023","result":"HD","language":["Hindi"],"country":["CN"],"original_language":"zh","genres":["Drama"],"imdb_id":"tt27137489","latest_uploaded_season":1,"total_uploaded_episodes":30},{"id":"210580","type":"tv","title":"Nothing But You","poster":"https://image.tmdb.org/t/p/w342/qdT8Pn6e4IogDI6LK1ymjVoeJ0c.jpg","year":"2023","result":"HD","language":["Hindi"],"country":["CN"],"original_language":"zh","genres":["Drama"],"imdb_id":"tt27206885","latest_uploaded_season":1,"total_uploaded_episodes":38}]}