{"page":5,"total_pages":5,"total_items":201,"items":[{"id":"60898","type":"movie","title":"Erotic Ghost Story","poster":"https://image.tmdb.org/t/p/w342/fTUCwsxVoLFuodAtlL6aITP1B45.jpg","year":"1990","result":"HD","language":["Hindi"],"country":["HK"],"original_language":"cn","genres":["Fantasy","Drama","Horror"],"imdb_id":"tt0100014"}]}