{"page":3,"total_pages":5,"total_items":201,"items":[{"id":"204254","type":"tv","title":"Love The Way You Are","poster":"https://image.tmdb.org/t/p/w342/1WWAvAHc0ZS0XyHQ7vIoowi3TnG.jpg","year":"2022","result":"HD","language":["Hindi"],"country":["CN"],"original_language":"zh","genres":["Drama"],"imdb_id":"","latest_uploaded_season":1,"total_uploaded_episodes":30},{"id":"214697","type":"tv","title":"Summer Wind","poster":"https://image.tmdb.org/t/p/w342/f8So8pffkCLBRQOdWnvtdK047lg.jpg","year":"2022","result":"HD","language":["Hindi"],"country":["CN"],"original_language":"zh","genres":["Drama"],"imdb_id":"","latest_uploaded_season":1,"total_uploaded_episodes":24},{"id":"136973","type":"tv","title":"The Blue Whisper","poster":"https://image.tmdb.org/t/p/w342/4i3wHI8Gk0Pvvg7UHYPlNS4CSk8.jpg","year":"2022","result":"HD","language":["Hindi"],"country":["CN"],"original_language":"zh","genres":["Drama"],"imdb_id":"tt20602820","latest_uploaded_season":2,"total_uploaded_episodes":42},{"id":"196193","type":"tv","title":"A Robot in the Orange Orchard","poster":"https://image.tmdb.org/t/p/w342/xYezzlasiiwnXR5fgYvDiEgt0b1.jpg","year":"2022","result":"HD","language":["Hindi"],"country":["CN"],"original_language":"zh","genres":["Drama","Comedy","Sci-Fi & Fantasy"],"imdb_id":"tt20204508","latest_uploaded_season":1,"total_uploaded_episodes":30},{"id":"135185","type":"tv","title":"A Romance of the Little Forest","poster":"https://image.tmdb.org/t/p/w342/hXvHtFUV8Nk21RtBQKyi9yk3Qe1.jpg","year":"2022","result":"HD","language":["Hindi"],"country":["CN"],"original_language":"zh","genres":["Comedy","Drama"],"imdb_id":"tt22096832","latest_uploaded_season":1,"total_uploaded_episodes":35},{"id":"214605","type":"tv","title":"Fairy From the Painting","poster":"https://image.tmdb.org/t/p/w342/7N4kRCwfcbjExPKaSW2uhEFWcPi.jpg","year":"2022","result":"HD","language":["Hindi"],"country":["CN"],"original_language":"zh","genres":["Drama","Comedy"],"imdb_id":"","latest_uploaded_season":1,"total_uploaded_episodes":24},{"id":"155300","type":"tv","title":"My Eyes Are Full of You","poster":"https://image.tmdb.org/t/p/w342/1MJZApJJSxoAMNDVzqhErZsKRww.jpg","year":"2022","result":"HD","language":["Hindi"],"country":["CN"],"original_language":"zh","genres":["Comedy","Drama"],"imdb_id":"tt18306798","latest_uploaded_season":1,"total_uploaded_episodes":24},{"id":"206416","type":"tv","title":"Out with a Bang","poster":"https://image.tmdb.org/t/p/w342/vg6pzk1rMeIOJ0lMtHKASEuhxRt.jpg","year":"2022","result":"HD","language":["Hindi"],"country":["CN"],"original_language":"zh","genres":["Drama"],"imdb_id":"tt21617090","latest_uploaded_season":1,"total_uploaded_episodes":24},{"id":"213351","type":"tv","title":"Since I Met U","poster":"https://image.tmdb.org/t/p/w342/j4NLsR6tVCnDyuzKdW91PnfcvQc.jpg","year":"2022","result":"HD","language":["Hindi"],"country":["CN"],"original_language":"zh","genres":["Comedy","Family","Drama"],"imdb_id":"","latest_uploaded_season":1,"total_uploaded_episodes":16},{"id":"211332","type":"tv","title":"Smile to Life","poster":"https://image.tmdb.org/t/p/w342/v068TuyCFAcX6ogN7OGSvba36eb.jpg","year":"2022","result":"HD","language":["Hindi"],"country":["CN"],"original_language":"zh","genres":["Drama"],"imdb_id":"","latest_uploaded_season":1,"total_uploaded_episodes":24},{"id":"95721","type":"tv","title":"Thank You Doctor","poster":"https://image.tmdb.org/t/p/w342/bdjWCS0G08A8jznrv2I8GHz42iQ.jpg","year":"2022","result":"HD","language":["Hindi"],"country":["CN"],"original_language":"zh","genres":["Drama"],"imdb_id":"tt11298622","latest_uploaded_season":1,"total_uploaded_episodes":40},{"id":"205827","type":"tv","title":"I SWIM","poster":"https://image.tmdb.org/t/p/w342/20RGE22EOD6IGhBRwWqqQ2ANJby.jpg","year":"2022","result":"HD","language":["Hindi"],"country":["HK"],"original_language":"cn","genres":["Drama","Comedy"],"imdb_id":"tt16243234","latest_uploaded_season":1,"total_uploaded_episodes":10},{"id":"92779","type":"tv","title":"My Girlfriend is an Alien","poster":"https://image.tmdb.org/t/p/w342/sOtUZ34xeQiEZh6n0tC8vkaTNQF.jpg","year":"2022","result":"HD","language":["Hindi"],"country":["CN"],"original_language":"zh","genres":["Comedy","Sci-Fi & Fantasy","Drama"],"imdb_id":"tt10874298","latest_uploaded_season":2,"total_uploaded_episodes":58},{"id":"214656","type":"tv","title":"Rope a Dope","poster":"https://image.tmdb.org/t/p/w342/48yZCDVUb6zgNADYCbxY0tZDmm5.jpg","year":"2022","result":"HD","language":["Hindi"],"country":["HK"],"original_language":"cn","genres":["Drama"],"imdb_id":"tt29082077","latest_uploaded_season":1,"total_uploaded_episodes":15},{"id":"213213","type":"tv","title":"We Got Game","poster":"https://image.tmdb.org/t/p/w342/vfTUUZjQxxhAUGIJW5i5zEP3KmZ.jpg","year":"2022","result":"HD","language":["Hindi"],"country":["HK"],"original_language":"cn","genres":["Drama"],"imdb_id":"tt29387995","latest_uploaded_season":1,"total_uploaded_episodes":15},{"id":"216266","type":"tv","title":"Love At First Bite","poster":"https://image.tmdb.org/t/p/w342/A8S4Btglmw1eJvcNwYoo7VqzLgD.jpg","year":"2022","result":"HD","language":["Hindi"],"country":["SG"],"original_language":"zh","genres":[],"imdb_id":"","latest_uploaded_season":1,"total_uploaded_episodes":20},{"id":"204761","type":"tv","title":"Almost Famous","poster":"https://image.tmdb.org/t/p/w342/eWdHuZZ5OxOlfET3diadgf2Sx1u.jpg","year":"2022","result":"HD","language":["Hindi"],"country":["CN"],"original_language":"zh","genres":["Drama"],"imdb_id":"","latest_uploaded_season":1,"total_uploaded_episodes":24},{"id":"210732","type":"tv","title":"Mr. Bad","poster":"https://image.tmdb.org/t/p/w342/yyIzL3aZ8SqGIrzAeySYqyxIMSq.jpg","year":"2022","result":"HD","language":["Hindi"],"country":["CN"],"original_language":"zh","genres":["Drama","Comedy"],"imdb_id":"","latest_uploaded_season":1,"total_uploaded_episodes":24},{"id":"199908","type":"tv","title":"Simmer Down","poster":"https://image.tmdb.org/t/p/w342/n1wjHiqx2rgkNaPRJyOmazBIFyf.jpg","year":"2022","result":"HD","language":["Hindi"],"country":["CN"],"original_language":"zh","genres":["Drama","Family"],"imdb_id":"","latest_uploaded_season":1,"total_uploaded_episodes":40},{"id":"157673","type":"tv","title":"Dine with Love","poster":"https://image.tmdb.org/t/p/w342/wRDGV68FgwH5LxOlKUSyqWKUMOg.jpg","year":"2022","result":"HD","language":["Hindi"],"country":["CN"],"original_language":"zh","genres":["Drama"],"imdb_id":"","latest_uploaded_season":1,"total_uploaded_episodes":16},{"id":"213663","type":"tv","title":"Healing Food, Healing Love","poster":"https://image.tmdb.org/t/p/w342/8APWRcWHVYsDtCdiT74OJ8mgDzo.jpg","year":"2022","result":"HD","language":["Hindi"],"country":["CN"],"original_language":"zh","genres":["Drama"],"imdb_id":"","latest_uploaded_season":1,"total_uploaded_episodes":23},{"id":"216405","type":"tv","title":"Hi Venus","poster":"https://image.tmdb.org/t/p/w342/kU3HwhFCKgCDOD505R9zNvU4vc8.jpg","year":"2022","result":"HD","language":["Hindi"],"country":["CN"],"original_language":"zh","genres":["Drama","Comedy"],"imdb_id":"tt25404536","latest_uploaded_season":1,"total_uploaded_episodes":24},{"id":"1028725","type":"movie","title":"Mutant: Ghost War Girl","poster":"https://image.tmdb.org/t/p/w342/cz5xctdv2a1lfZOTpBs3aLb4q23.jpg","year":"2022","result":"HD","language":["Hindi"],"country":["CN"],"original_language":"zh","genres":["Science Fiction","Action"],"imdb_id":"tt18413900"},{"id":"207586","type":"tv","title":"When We Meet","poster":"https://image.tmdb.org/t/p/w342/niNTNJvZggruRQYStGpMnO4AWj9.jpg","year":"2022","result":"HD","language":["Hindi"],"country":["CN"],"original_language":"zh","genres":["Comedy","Drama","Sci-Fi & Fantasy"],"imdb_id":"","latest_uploaded_season":1,"total_uploaded_episodes":24},{"id":"214734","type":"tv","title":"Warm Meet You","poster":"https://image.tmdb.org/t/p/w342/uIYyr11DtSiliQqCkwURk3x4Qyq.jpg","year":"2022","result":"HD","language":["Hindi"],"country":["CN"],"original_language":"zh","genres":["Comedy","Drama"],"imdb_id":"tt32035225","latest_uploaded_season":1,"total_uploaded_episodes":24},{"id":"134331","type":"tv","title":"Lighter and Princess","poster":"https://image.tmdb.org/t/p/w342/oFFlFjiMQrOns39k9VbWcrfvbLX.jpg","year":"2022","result":"HD","language":["Hindi"],"country":["CN"],"original_language":"zh","genres":["Drama"],"imdb_id":"tt22460828","latest_uploaded_season":1,"total_uploaded_episodes":36},{"id":"844075","type":"movie","title":"New Gods: Yang Jian","poster":"https://image.tmdb.org/t/p/w342/tW5dFOemV4d7hxTcVI2bu4u0C9z.jpg","year":"2022","result":"HD","language":["Hindi"],"country":["CN","US"],"original_language":"zh","genres":["Animation","Adventure","Fantasy","Comedy"],"imdb_id":"tt19757204"},{"id":"216003","type":"tv","title":"First Love","poster":"https://image.tmdb.org/t/p/w342/lYj5Y2kz34Qn0VfXB2F1m57C3Ng.jpg","year":"2022","result":"HD","language":["Hindi"],"country":["CN"],"original_language":"zh","genres":["Drama","Comedy"],"imdb_id":"tt24133542","latest_uploaded_season":1,"total_uploaded_episodes":24},{"id":"198194","type":"tv","title":"Love in a Loop","poster":"https://image.tmdb.org/t/p/w342/l88ZG1hftMlb6DEn2OgfytcMrs8.jpg","year":"2022","result":"HD","language":["Hindi"],"country":["CN"],"original_language":"zh","genres":["Drama","Sci-Fi & Fantasy","Comedy"],"imdb_id":"","latest_uploaded_season":1,"total_uploaded_episodes":24},{"id":"198009","type":"tv","title":"Don't Be Shy","poster":"https://image.tmdb.org/t/p/w342/qqwkes8GEno52oewIF1rTE0jSA4.jpg","year":"2022","result":"HD","language":["Hindi"],"country":["CN"],"original_language":"zh","genres":["Comedy","Sci-Fi & Fantasy","Drama"],"imdb_id":"","latest_uploaded_season":1,"total_uploaded_episodes":12},{"id":"196539","type":"tv","title":"Brilliant Class 8","poster":"https://image.tmdb.org/t/p/w342/jzSrugWVQIZ2rDvdRtfX1m00Cf7.jpg","year":"2022","result":"HD","language":["Hindi"],"country":["CN"],"original_language":"zh","genres":["Drama"],"imdb_id":"","latest_uploaded_season":1,"total_uploaded_episodes":40},{"id":"156103","type":"tv","title":"Shining For One Thing","poster":"https://image.tmdb.org/t/p/w342/1J4cANgkYDHsC6etlwMLatUDUWN.jpg","year":"2022","result":"HD","language":["Hindi"],"country":["CN"],"original_language":"zh","genres":["Mystery","Drama"],"imdb_id":"tt17506818","latest_uploaded_season":1,"total_uploaded_episodes":24},{"id":"133953","type":"tv","title":"Be My Princess","poster":"https://image.tmdb.org/t/p/w342/kTrjTRp9kZgkiri64ccibBic6bK.jpg","year":"2022","result":"HD","language":["Hindi"],"country":["CN"],"original_language":"zh","genres":["Drama","Sci-Fi & Fantasy"],"imdb_id":"","latest_uploaded_season":1,"total_uploaded_episodes":30},{"id":"131009","type":"tv","title":"Demi-Gods and Semi-Devils","poster":"https://image.tmdb.org/t/p/w342/A0gvywTPbbHLcJDedoLdciaiB2t.jpg","year":"2021","result":"HD","language":["Hindi"],"country":["CN"],"original_language":"zh","genres":["Sci-Fi & Fantasy","Drama"],"imdb_id":"tt22646564","latest_uploaded_season":1,"total_uploaded_episodes":50},{"id":"125255","type":"tv","title":"Use for My Talent","poster":"https://image.tmdb.org/t/p/w342/3cPaJnIwdMWDDLpKHfNkJGxhYMX.jpg","year":"2021","result":"HD","language":["Hindi"],"country":["CN"],"original_language":"zh","genres":["Drama","Comedy"],"imdb_id":"tt14747972","latest_uploaded_season":1,"total_uploaded_episodes":24},{"id":"136063","type":"tv","title":"Fall In Love With Him","poster":"https://image.tmdb.org/t/p/w342/xKDIdhG9YFWEovF3dn3By4z1DMa.jpg","year":"2021","result":"HD","language":["Hindi"],"country":["CN"],"original_language":"zh","genres":["Sci-Fi & Fantasy","Comedy"],"imdb_id":"tt16310988","latest_uploaded_season":1,"total_uploaded_episodes":24},{"id":"123358","type":"tv","title":"Mysterious Love","poster":"https://image.tmdb.org/t/p/w342/iBA0uOwNrIeAbovPLYVcXBLiIGH.jpg","year":"2021","result":"HD","language":["Hindi"],"country":["CN"],"original_language":"zh","genres":["Drama","Action & Adventure"],"imdb_id":"","latest_uploaded_season":1,"total_uploaded_episodes":16},{"id":"132198","type":"tv","title":"Meet You","poster":"https://image.tmdb.org/t/p/w342/fE0qiisuxlVSJU7ytAozXx667dP.jpg","year":"2021","result":"HD","language":["Hindi"],"country":["CN"],"original_language":"zh","genres":["Drama","Action & Adventure"],"imdb_id":"","latest_uploaded_season":1,"total_uploaded_episodes":12},{"id":"118105","type":"tv","title":"My Star Bride","poster":"https://image.tmdb.org/t/p/w342/8XkztQWLQIKhbK6PwzUdLbqZBjF.jpg","year":"2021","result":"HD","language":["Hindi"],"country":["SG"],"original_language":"zh","genres":["Drama"],"imdb_id":"tt14084266","latest_uploaded_season":1,"total_uploaded_episodes":20},{"id":"116218","type":"tv","title":"The Most Beautiful You in the World","poster":"https://image.tmdb.org/t/p/w342/j9NM3gUqlF9kDWKmWQwq2uFqM0p.jpg","year":"2021","result":"HD","language":["Hindi"],"country":["CN"],"original_language":"zh","genres":["Comedy","Drama"],"imdb_id":"","latest_uploaded_season":1,"total_uploaded_episodes":24},{"id":"119369","type":"tv","title":"Remember My Boy","poster":"https://image.tmdb.org/t/p/w342/n56ykPIQwj4mbRkvs5hB0Guu29O.jpg","year":"2021","result":"HD","language":["Hindi"],"country":["CN"],"original_language":"zh","genres":["Drama","Comedy"],"imdb_id":"tt14018558","latest_uploaded_season":1,"total_uploaded_episodes":24},{"id":"122111","type":"tv","title":"Hello Mr. Gu","poster":"https://image.tmdb.org/t/p/w342/Mq7H1cnZctl52lX5mMeG2VfM7U.jpg","year":"2021","result":"HD","language":["Hindi"],"country":["CN"],"original_language":"zh","genres":["Drama","Comedy"],"imdb_id":"tt14407908","latest_uploaded_season":1,"total_uploaded_episodes":30},{"id":"135286","type":"tv","title":"Live Your Life","poster":"https://image.tmdb.org/t/p/w342/n8iDqnNuUVSc4FUZsNDqyt2gsiJ.jpg","year":"2021","result":"HD","language":["Hindi"],"country":["CN"],"original_language":"zh","genres":["Drama","Comedy"],"imdb_id":"tt15738790","latest_uploaded_season":1,"total_uploaded_episodes":40},{"id":"129244","type":"tv","title":"My Deskmate","poster":"https://image.tmdb.org/t/p/w342/4WCDG51r94hFjj6tfwfazV9Suz5.jpg","year":"2021","result":"HD","language":["Hindi"],"country":["CN"],"original_language":"zh","genres":["Comedy"],"imdb_id":"","latest_uploaded_season":1,"total_uploaded_episodes":30},{"id":"132317","type":"tv","title":"Lie to Love","poster":"https://image.tmdb.org/t/p/w342/sogyrB1s0xQVs9GDkIe8xa1MITK.jpg","year":"2021","result":"HD","language":["Hindi"],"country":["CN"],"original_language":"zh","genres":["Drama","Comedy","Mystery"],"imdb_id":"tt16299346","latest_uploaded_season":1,"total_uploaded_episodes":32},{"id":"797271","type":"movie","title":"Counterattack","poster":"https://image.tmdb.org/t/p/w342/ayoqy3twWdKvUvbolbfoJToxUfl.jpg","year":"2021","result":"HD","language":["Hindi"],"country":["CN"],"original_language":"zh","genres":["Action","Mystery","Thriller"],"imdb_id":"tt13784650"},{"id":"911972","type":"movie","title":"Devil In Dune","poster":"https://image.tmdb.org/t/p/w342/nQLdzYYB71sUugtSR7e7YdjF6Vx.jpg","year":"2021","result":"HD","language":["Hindi"],"country":["CN"],"original_language":"zh","genres":["Science Fiction","Action","Horror"],"imdb_id":"tt23780438"},{"id":"152674","type":"tv","title":"Dream Garden","poster":"https://image.tmdb.org/t/p/w342/aC0HSAfB9IKN62kIPzi6Sq8J2O9.jpg","year":"2021","result":"HD","language":["Hindi"],"country":["CN"],"original_language":"zh","genres":["Drama","Mystery"],"imdb_id":"tt14496552","latest_uploaded_season":1,"total_uploaded_episodes":16},{"id":"130107","type":"tv","title":"Forever and Ever","poster":"https://image.tmdb.org/t/p/w342/6csX8pU1p3Hj8DWknw1IJm0c18i.jpg","year":"2021","result":"HD","language":["Hindi"],"country":["CN"],"original_language":"zh","genres":["Drama"],"imdb_id":"tt16283458","latest_uploaded_season":1,"total_uploaded_episodes":30},{"id":"128926","type":"tv","title":"Unforgettable Love","poster":"https://image.tmdb.org/t/p/w342/dPDndH5bkpHZyQcmNZpoAQIugpi.jpg","year":"2021","result":"HD","language":["Hindi"],"country":["CN"],"original_language":"zh","genres":["Drama","Comedy","Family"],"imdb_id":"tt15037012","latest_uploaded_season":1,"total_uploaded_episodes":24}]}