{"page":65,"total_pages":65,"total_items":3243,"items":[{"id":"9355","type":"movie","title":"Mad Max Beyond Thunderdome","poster":"https://image.tmdb.org/t/p/w342/jJlxcEVVUHnrUeEkQ0077VeHQpb.jpg","backdrop":"https://image.tmdb.org/t/p/original/br1zDvgmBPa1EbBrUmEDaXXgykq.jpg","year":"1985","result":"HD","language":["Hindi"],"watch":"<iframe src=\"https://bysebuho.com/e/ln2t54kl5dik/mad-max-3-beyond-thunderdome-1985-720p-dual-audio-hin-eng-daniewatch-to\" frameborder=\"0\" marginwidth=\"0\" marginheight=\"0\" scrolling=\"no\" width=\"640\" height=\"360\" allowfullscreen></iframe>","release_date":"1985-06-29"},{"id":"38173","type":"movie","title":"Up Your Anchor","poster":"https://image.tmdb.org/t/p/w342/eWjtuV9FQ3UBDjOtTgxZbrFUnW2.jpg","backdrop":"https://image.tmdb.org/t/p/original/a2EcYjwpIVs3Rf3LWwlkcMLTbVB.jpg","year":"1985","result":"HD","language":["Hindi"],"watch":"<iframe src=\"https://bysebuho.com/e/vcotrihyme4g/up-your-anchor-1985-720p-webrip-hin-eng\" frameborder=\"0\" marginwidth=\"0\" marginheight=\"0\" scrolling=\"no\" width=\"640\" height=\"360\" allowfullscreen></iframe>","release_date":"1985-05-10"},{"id":"9626","type":"movie","title":"Red Sonja","poster":"https://image.tmdb.org/t/p/w342/83v0W5cCSFsWpI0cAj8DRlihySN.jpg","backdrop":"https://image.tmdb.org/t/p/original/iWFnany1vDQ4EoBgvm7E3Pb0RyS.jpg","year":"1985","result":"HD","language":["Hindi"],"watch":"<iframe src=\"https://bysebuho.com/e/cvtt71p893hz/red-sonja-1985-720p-bluray-hindi-english\" frameborder=\"0\" marginwidth=\"0\" marginheight=\"0\" scrolling=\"no\" width=\"640\" height=\"360\" allowfullscreen></iframe>","release_date":"1985-04-09"},{"id":"841","type":"movie","title":"Dune","poster":"https://image.tmdb.org/t/p/w342/4kJmUCE7mkVJjXa7A0g2rY4IGTm.jpg","backdrop":"https://image.tmdb.org/t/p/original/5wJ2tckpvwcxGCAgZiccodwEJpf.jpg","year":"1984","result":"HD","language":["Hindi"],"watch":"<iframe src=\"https://bysebuho.com/e/hqrrx3mkjl4e/dune-1984-720p-brrip-hindi-dual-audio\" frameborder=\"0\" marginwidth=\"0\" marginheight=\"0\" scrolling=\"no\" width=\"640\" height=\"360\" allowfullscreen></iframe>","release_date":"1984-12-14"},{"id":"10179","type":"movie","title":"The Ice Pirates","poster":"https://image.tmdb.org/t/p/w342/tv2iZbQYWwKcWOUWVFxOhcchKZT.jpg","backdrop":"https://image.tmdb.org/t/p/original/cOSXpy1zfwmvO7ONEM37gDiNe9t.jpg","year":"1984","result":"HD","language":["Hindi"],"watch":"<iframe src=\"https://bysebuho.com/e/baf3q1f1bmr8/the-ice-pirates-1984-720p-blu-ray-hindi-english\" frameborder=\"0\" marginwidth=\"0\" marginheight=\"0\" scrolling=\"no\" width=\"640\" height=\"360\" allowfullscreen></iframe>","release_date":"1984-03-16"},{"id":"147576","type":"movie","title":"Doraemon: Nobita and the Castle of the Undersea Devil","poster":"https://image.tmdb.org/t/p/w342/ioI9ftVCfdhgwM0jAjfSG2pNN4S.jpg","backdrop":"https://image.tmdb.org/t/p/original/a9exkrhcmpuRKVYW88f7cJxsosD.jpg","year":"1983","result":"HD","language":["Hindi"],"watch":"<iframe src=\"https://bysebuho.com/e/v3r2gqpcskiv/doraemon-the-movie-underwater-adventure-1983-720p\" frameborder=\"0\" marginwidth=\"0\" marginheight=\"0\" scrolling=\"no\" width=\"640\" height=\"360\" allowfullscreen></iframe>","release_date":"1983-03-12"},{"id":"2193","type":"movie","title":"My Tutor","poster":"https://image.tmdb.org/t/p/w342/gMIEasZXQImHpRHos5XsVg80ERV.jpg","backdrop":"https://image.tmdb.org/t/p/original/j5MchqvLcavTkzgQYLFnipyY7pa.jpg","year":"1983","result":"HD","language":["Hindi"],"watch":"<iframe src=\"https://bysebuho.com/e/emnzjmwl1vgg/my-tutor-1983-hindi-dual-audio\" frameborder=\"0\" marginwidth=\"0\" marginheight=\"0\" scrolling=\"no\" width=\"640\" height=\"360\" allowfullscreen></iframe>","release_date":"1983-03-04"},{"id":"31646","type":"movie","title":"Piranha II: The Spawning","poster":"https://image.tmdb.org/t/p/w342/rbcbLYbhc8ZmQmNHAt8E8knij88.jpg","backdrop":"https://image.tmdb.org/t/p/original/27IZSY74Wmr4JrrhG8oDzO23mRE.jpg","year":"1982","result":"HD","language":["Hindi"],"watch":"<iframe src=\"https://bysebuho.com/e/r7o62dlew80x/piranha-ii-the-spawning-1981-hindi-dual-audio\" frameborder=\"0\" marginwidth=\"0\" marginheight=\"0\" scrolling=\"no\" width=\"640\" height=\"360\" allowfullscreen></iframe>","release_date":"1982-07-13"},{"id":"37795","type":"movie","title":"Taboo II","poster":"https://image.tmdb.org/t/p/w342/cxu0vWX5rXLA9oZXSfl8sgpctkg.jpg","backdrop":"https://image.tmdb.org/t/p/original/5CI3ShBoBkpvmS5zF6EtQtXk5QA.jpg","year":"1982","result":"HD","language":["Hindi"],"watch":"<iframe src=\"https://bysebuho.com/e/6zabt4tkj1qc/taboo-ii-1982-xrated-720p-bluray-hindi-english\" frameborder=\"0\" marginwidth=\"0\" marginheight=\"0\" scrolling=\"no\" width=\"640\" height=\"360\" allowfullscreen></iframe>","release_date":"1982-05-03"},{"id":"8810","type":"movie","title":"Mad Max 2","poster":"https://image.tmdb.org/t/p/w342/l1KVEhkGDpWRzQ0VqIhZqDDuOim.jpg","backdrop":"https://image.tmdb.org/t/p/original/MMSI9WzRmOdqXarevQ3Kqnytrx.jpg","year":"1981","result":"HD","language":["Hindi"],"watch":"<iframe src=\"https://bysebuho.com/e/gz0swqdjstjq/mad-max-2-the-road-warrior-1981-720p-dual-audio-hin-eng-daniewatch-nl\" frameborder=\"0\" marginwidth=\"0\" marginheight=\"0\" scrolling=\"no\" width=\"640\" height=\"360\" allowfullscreen></iframe>","release_date":"1981-12-24"},{"id":"6399","type":"movie","title":"Who Finds a Friend Finds a Treasure","poster":"https://image.tmdb.org/t/p/w342/8fl6sXVv5fWMpDxFDab54qc71tv.jpg","backdrop":"https://image.tmdb.org/t/p/original/2bCcm0ENZYvInREBoEYGFxg96Kb.jpg","year":"1981","result":"HD","language":["Hindi"],"watch":"<iframe src=\"https://bysebuho.com/e/o8kj90mf65og/who-finds-a-friend-finds-a-treasure-1981-720p-bluray-hindi-english-esub-vegamovies-is\" frameborder=\"0\" marginwidth=\"0\" marginheight=\"0\" scrolling=\"no\" width=\"640\" height=\"360\" allowfullscreen></iframe>","release_date":"1981-12-09"},{"id":"8690","type":"movie","title":"Eaten Alive!","poster":"https://image.tmdb.org/t/p/w342/7h5LH5UNjYO4Hvv2myKqGeoaSo7.jpg","backdrop":"https://image.tmdb.org/t/p/original/rgk8qRr3Xdl700x5NTJ39rtccuj.jpg","year":"1980","result":"HD","language":["Hindi"],"watch":"<iframe src=\"https://bysebuho.com/e/xm9f41ig4j1e/eaten-alive-1980-720p-brrip-hindi-dual-audio\" frameborder=\"0\" marginwidth=\"0\" marginheight=\"0\" scrolling=\"no\" width=\"640\" height=\"360\" allowfullscreen></iframe>","release_date":"1980-03-19"},{"id":"64789","type":"movie","title":"Doraemon: Nobita's Dinosaur","poster":"https://image.tmdb.org/t/p/w342/oBWtnb9kmROgziBXOh4P3IMXHKz.jpg","backdrop":"https://image.tmdb.org/t/p/original/fLsag4bC5DuHX2mdM38Ik63aWsV.jpg","year":"1980","result":"HD","language":["Hindi"],"watch":"<iframe src=\"https://bysebuho.com/e/r6lfl5ainng0/doraemon-nobitas-dinosaur-1980-remastered-720p-hd-web-dl-hindi\" frameborder=\"0\" marginwidth=\"0\" marginheight=\"0\" scrolling=\"no\" width=\"640\" height=\"360\" allowfullscreen></iframe>","release_date":"1980-03-15"},{"id":"42019","type":"movie","title":"Taboo","poster":"https://image.tmdb.org/t/p/w342/fLh69JdW4chwaIOIMX9zLCmfJUy.jpg","backdrop":"https://image.tmdb.org/t/p/original/hUzWAgAVGJ8NviaoGHOVxxyHlEo.jpg","year":"1980","result":"HD","language":["Hindi"],"watch":"<iframe src=\"https://bysebuho.com/e/tzda0rlp9594/taboo-1980-720p-brrip-hindi-dualaudio\" frameborder=\"0\" marginwidth=\"0\" marginheight=\"0\" scrolling=\"no\" width=\"640\" height=\"360\" allowfullscreen></iframe>","release_date":"1980-03-07"},{"id":"9659","type":"movie","title":"Mad Max","poster":"https://image.tmdb.org/t/p/w342/5LrI4GiCSrChgkdskVZiwv643Kg.jpg","backdrop":"https://image.tmdb.org/t/p/original/8CcjyTF3hXIe2wRdFkv52zkOmO1.jpg","year":"1979","result":"HD","language":["Hindi"],"watch":"<iframe src=\"https://bysebuho.com/e/o3kll3qpxufq/mad-max-1979-bluray-720p-hindi-2-0-english-5-1-aac-esub-daniewatch-nl\" frameborder=\"0\" marginwidth=\"0\" marginheight=\"0\" scrolling=\"no\" width=\"640\" height=\"360\" allowfullscreen></iframe>","release_date":"1979-04-12"},{"id":"25239","type":"movie","title":"Day of the Woman","poster":"https://image.tmdb.org/t/p/w342/nMCkOo26GtISoxJmpkTAJyMqBO8.jpg","backdrop":"https://image.tmdb.org/t/p/original/2W8iYJBSA25ENrM25GbVO4EiWAO.jpg","year":"1978","result":"HD","language":["Hindi"],"watch":"<iframe src=\"https://bysebuho.com/e/j9fcq9ll9w1n/i-spit-on-your-grave-1978-720p\" frameborder=\"0\" marginwidth=\"0\" marginheight=\"0\" scrolling=\"no\" width=\"640\" height=\"360\" allowfullscreen></iframe>","release_date":"1978-11-02"},{"id":"215746","type":"movie","title":"Dracula Sucks","poster":"https://image.tmdb.org/t/p/w342/3add7Z5fN6sC4r9LkgXin1UDU2Q.jpg","backdrop":"https://image.tmdb.org/t/p/original/kDFzAojyC8numttjyTLAaVXpS5E.jpg","year":"1978","result":"HD","language":["Hindi"],"watch":"<iframe src=\"https://bysebuho.com/e/hlfdxn18uiep/dracula-sucks-1978-720p-bluray-dual-esub\" frameborder=\"0\" marginwidth=\"0\" marginheight=\"0\" scrolling=\"no\" width=\"640\" height=\"360\" allowfullscreen></iframe>","release_date":"1978-10-13"},{"id":"10138","type":"tv","title":"James at 16","poster":"https://image.tmdb.org/t/p/w342/w58QId6WdywHpZLdTyIV48Qmkaz.jpg","backdrop":"https://image.tmdb.org/t/p/original/7TMH5YjfX5hvNaHD6vXrOcgoi70.jpg","year":"1977","result":"HD","language":["Hindi"],"seasons":[{"season_number":1,"episodes":[{"episode_number":1,"name":"Episode 1","overview":"","still_path":"","air_date":"","runtime":null,"vote_average":null,"watch":"<iframe src=\"https://bysebuho.com/e/qnsrhyajleg8/iron-man-2-2010-720p-hindi-english-daniewatch-nl\" frameborder=\"0\" marginwidth=\"0\" marginheight=\"0\" scrolling=\"no\" width=\"640\" height=\"360\" allowfullscreen></iframe>"}]}],"release_date":"1978-06-29"},{"id":"10580","type":"movie","title":"Lemon Popsicle","poster":"https://image.tmdb.org/t/p/w342/14tlbgXfd3Q3bGIdAPdBfSAyTM0.jpg","backdrop":"https://image.tmdb.org/t/p/original/A7lbu014Gfr5dhohXP79fg72VkO.jpg","year":"1978","result":"HD","language":["Hindi"],"watch":"<iframe src=\"https://bysebuho.com/e/4j43drr0po62/lemon-popsicle-1978-720p-dvdrip-hindi-english\" frameborder=\"0\" marginwidth=\"0\" marginheight=\"0\" scrolling=\"no\" width=\"640\" height=\"360\" allowfullscreen></iframe>","release_date":"1978-04-21"},{"id":"26686","type":"movie","title":"California Suite","poster":"https://image.tmdb.org/t/p/w342/2IlgL7m1ByY3RIghbXNGGNvYfEE.jpg","backdrop":"https://image.tmdb.org/t/p/original/blEloSAWpCRamzP0ezJaeSYCc2m.jpg","year":"1978","result":"HD","language":["Hindi"],"watch":"<iframe src=\"https://bysebuho.com/e/7828vrgk9uro/california-suite-1978-720p-amzn-web-dl-hindi-opus-2-0-english\" frameborder=\"0\" marginwidth=\"0\" marginheight=\"0\" scrolling=\"no\" width=\"640\" height=\"360\" allowfullscreen></iframe>","release_date":"1978-03-19"},{"id":"33301","type":"movie","title":"Confessions of a Driving Instructor","poster":"https://image.tmdb.org/t/p/w342/vMTf2j4cvAOMZU9rgpipqnGoe9O.jpg","backdrop":"","year":"1976","result":"HD","language":["Hindi"],"watch":"<iframe src=\"https://bysebuho.com/e/llsqvi053ean/confessions-of-a-driving-instructor-1976-720p-web-dl-hin-eng\" frameborder=\"0\" marginwidth=\"0\" marginheight=\"0\" scrolling=\"no\" width=\"640\" height=\"360\" allowfullscreen></iframe>","release_date":"1976-09-01"},{"id":"29955","type":"movie","title":"Black Cobra","poster":"https://image.tmdb.org/t/p/w342/wZ2QgscQS7DbrcgRcroryCUskuG.jpg","backdrop":"https://image.tmdb.org/t/p/original/tDNPH9McwA094qQazSzTROQjuCB.jpg","year":"1976","result":"HD","language":["Hindi"],"watch":"<iframe src=\"https://bysebuho.com/e/0htwxc19hzqx/black-cobra-woman-1976-bluray-850mb-720p\" frameborder=\"0\" marginwidth=\"0\" marginheight=\"0\" scrolling=\"no\" width=\"640\" height=\"360\" allowfullscreen></iframe>","release_date":"1976-08-04"},{"id":"4705","type":"movie","title":"The Sensuous Nurse","poster":"https://image.tmdb.org/t/p/w342/2mfEFL6mTV2ETonE6k8cKFMNQKC.jpg","backdrop":"https://image.tmdb.org/t/p/original/lNyrVx924NPpVRfZUOXWaiYrjBs.jpg","year":"1975","result":"HD","language":["Hindi"],"watch":"<iframe src=\"https://bysebuho.com/e/moff8qxd1rnl/the-sensuous-nurse-1975-720p-webrip-dual-audio-hindi-eng\" frameborder=\"0\" marginwidth=\"0\" marginheight=\"0\" scrolling=\"no\" width=\"640\" height=\"360\" allowfullscreen></iframe>","release_date":"1975-12-19"},{"id":"13282","type":"movie","title":"Death Race 2000","poster":"https://image.tmdb.org/t/p/w342/kwM8kkNGtv62gfPWVhD6qFxjDzg.jpg","backdrop":"https://image.tmdb.org/t/p/original/1WgFbHfTPSXKoqYdB9SbcAWpqrO.jpg","year":"1975","result":"HD","language":["Hindi"],"watch":"<iframe src=\"https://bysebuho.com/e/va1rzjis2k2w/death-race-2000-1975-dual-audio-hindi-720p\" frameborder=\"0\" marginwidth=\"0\" marginheight=\"0\" scrolling=\"no\" width=\"640\" height=\"360\" allowfullscreen></iframe>","release_date":"1975-04-30"},{"id":"240","type":"movie","title":"The Godfather Part II","poster":"https://image.tmdb.org/t/p/w342/hek3koDUyRQk7FIhPXsa6mT2Zc3.jpg","backdrop":"https://image.tmdb.org/t/p/original/kGzFbGhp99zva6oZODW5atUtnqi.jpg","year":"1974","result":"HD","language":["Hindi"],"watch":"<iframe src=\"https://bysebuho.com/e/350jvznuozlx/the-godfather-part-ii-1974-bluray-720p-hindi-english-aac-5-1-esub-daniewatch-to\" frameborder=\"0\" marginwidth=\"0\" marginheight=\"0\" scrolling=\"no\" width=\"640\" height=\"360\" allowfullscreen></iframe>","release_date":"1974-12-20"},{"id":"238","type":"movie","title":"The Godfather","poster":"https://image.tmdb.org/t/p/w342/3bhkrj58Vtu7enYsRolD1fZdja1.jpg","backdrop":"https://image.tmdb.org/t/p/original/tSPT36ZKlP2WVHJLM4cQPLSzv3b.jpg","year":"1972","result":"HD","language":["Hindi"],"watch":"<iframe src=\"https://bysebuho.com/e/qsa5qaoaft53/the-godfather-1972-bluray-720p-hindi-2-0-english-5-1-aac-esub-daniewatch-to\" frameborder=\"0\" marginwidth=\"0\" marginheight=\"0\" scrolling=\"no\" width=\"640\" height=\"360\" allowfullscreen></iframe>","release_date":"1972-03-14"},{"id":"502","type":"tv","title":"Sesame Street","poster":"https://image.tmdb.org/t/p/w342/14k9BfZ2p4rQBMeJ5crKTfUZVwD.jpg","backdrop":"https://image.tmdb.org/t/p/original/tNi2aJPdCKfielGYzIi3IKxStz9.jpg","year":"1969","result":"HD","language":["Hindi"],"seasons":[{"season_number":55,"episodes":[{"episode_number":1,"name":"Episode 1","overview":"","still_path":"","air_date":"","runtime":null,"vote_average":null,"watch":"<iframe src=\"https://bysebuho.com/e/szbnovzglpzb/sesame-street-s01e01-720p-nf-web-dl-hin-eng-daniewatch\" frameborder=\"0\" marginwidth=\"0\" marginheight=\"0\" scrolling=\"no\" width=\"640\" height=\"360\" allowfullscreen></iframe>"},{"episode_number":2,"name":"Episode 2","overview":"","still_path":"","air_date":"","runtime":null,"vote_average":null,"watch":"<iframe src=\"https://bysebuho.com/e/qztba5dtglhl/sesame-street-s01e02-720p-nf-web-dl-hin-eng-daniewatch\" frameborder=\"0\" marginwidth=\"0\" marginheight=\"0\" scrolling=\"no\" width=\"640\" height=\"360\" allowfullscreen></iframe>"},{"episode_number":3,"name":"Episode 3","overview":"","still_path":"","air_date":"","runtime":null,"vote_average":null,"watch":"<iframe src=\"https://bysebuho.com/e/0qdfsoer7oyo/sesame-street-s01e03-720p-nf-web-dl-hin-eng-daniewatch\" frameborder=\"0\" marginwidth=\"0\" marginheight=\"0\" scrolling=\"no\" width=\"640\" height=\"360\" allowfullscreen></iframe>"},{"episode_number":4,"name":"Episode 4","overview":"","still_path":"","air_date":"","runtime":null,"vote_average":null,"watch":"<iframe src=\"https://bysebuho.com/e/a8jxwwlpi6zm/sesame-street-s01e04-720p-nf-web-dl-hin-eng-daniewatch\" frameborder=\"0\" marginwidth=\"0\" marginheight=\"0\" scrolling=\"no\" width=\"640\" height=\"360\" allowfullscreen></iframe>"}]}],"release_date":"1970-05-08"},{"id":"805","type":"movie","title":"Rosemary's Baby","poster":"https://image.tmdb.org/t/p/w342/uYgvlHceRFjAFbsNeMInYcLZLUb.jpg","backdrop":"https://image.tmdb.org/t/p/original/qszuXKhzYR24oRpsmh7eZaPbvL8.jpg","year":"1968","result":"HD","language":["Hindi"],"watch":"<iframe src=\"https://bysebuho.com/e/mn13i34xk4rb/rosemary-s-baby-1968\" frameborder=\"0\" marginwidth=\"0\" marginheight=\"0\" scrolling=\"no\" width=\"640\" height=\"360\" allowfullscreen></iframe>","release_date":"1968-06-12"},{"id":"33743","type":"movie","title":"The 5,000 Fingers of Dr. T.","poster":"https://image.tmdb.org/t/p/w342/5sAxThhLhsQSf4mjrIGHqfKlaAy.jpg","backdrop":"https://image.tmdb.org/t/p/original/8bIrOuqJeOmrz1bZosYkqMp0itA.jpg","year":"1953","result":"HD","language":["Hindi"],"watch":"<iframe src=\"https://bysebuho.com/e/uil0fbl2h8wx/the-5000-fingers-of-dr-t-1953-720p-bluray-hindi-english\" frameborder=\"0\" marginwidth=\"0\" marginheight=\"0\" scrolling=\"no\" width=\"640\" height=\"360\" allowfullscreen></iframe>","release_date":"1953-06-19"},{"id":"1573913","type":"movie","title":"Hejjaru","poster":"https://i.ibb.co/Y7rPxK4x/Gemini-Generated-Image-57k7di57k7di57k7-1.png","backdrop":"","year":"2026","result":"HD","language":["Hindi"],"watch":"<iframe src=\"https://bysebuho.com/e/dt7ykxsferit/Hejjaru_2024_720p_WEB-HDRip_Hindi_AAC2_0_x264_DANIEWATCH.mkv\" width=\"640\" height=\"360\" frameborder=\"0\" allowfullscreen></iframe>"},{"id":"1569202","type":"movie","title":"Dirty Entertainers: The Business of Indian Erotica","poster":"https://i.ibb.co/67XS8GKv/Screenshot-2026-02-03-125234.png","backdrop":"","year":"2026","result":"HD","language":["Hindi"],"watch":"<iframe src=\"https://bysebuho.com/e/43x4qme6s3ze/dirty-entertainers-the-business-of-indian-erotica-2025-webrip-720p-hin-eng-daniewatch-is\" frameborder=\"0\" marginwidth=\"0\" marginheight=\"0\" scrolling=\"no\" width=\"640\" height=\"360\" allowfullscreen></iframe>"},{"id":"1539798","type":"movie","title":"Yeh Hai Mera Watan","poster":"https://i.ibb.co/4wsHh1Tb/Gemini-Generated-Image-qwq79dqwq79dqwq7-2.png","backdrop":"","year":"2026","result":"HD","language":["Hindi"],"watch":"<iframe src=\"https://bysebuho.com/e/ebf9jh0chf6m/yeh-hai-mera-watan-2025-hindi-hdtc-720p-avc-daniewatch-is\" frameborder=\"0\" marginwidth=\"0\" marginheight=\"0\" scrolling=\"no\" width=\"640\" height=\"360\" allowfullscreen></iframe>"},{"id":"1527981","type":"movie","title":"Dr. Hedgewar","poster":"https://i.ibb.co/DfLjndT9/Gemini-Generated-Image-uwkl63uwkl63uwkl-1.png","backdrop":"","year":"2026","result":"HD","language":["Hindi"],"watch":"<iframe src=\"https://bysebuho.com/e/08e9tju5xn5d/dr-hedgewar-2025-hindi-hdtc-720p-x264-daniewatch-is\" frameborder=\"0\" marginwidth=\"0\" marginheight=\"0\" scrolling=\"no\" width=\"640\" height=\"360\" allowfullscreen></iframe>"},{"id":"1235877","type":"movie","title":"Jana Nayagan","poster":"https://image.tmdb.org/t/p/w342/jt8pfSIdi47YpFMMWVRr8w5u2S0.jpg","backdrop":"https://image.tmdb.org/t/p/original/v3lNH2gCojWYXVuXcT9FZLBxcSq.jpg","year":"2026","result":"HD","language":["Hindi"],"watch":"<iframe src=\"https://bysebuho.com/e/5yzjz2zxaopm/jana-nayagan-2026-720p-10bit-web-leak-hindi-hq-studio-dub-x265\" frameborder=\"0\" marginwidth=\"0\" marginheight=\"0\" scrolling=\"no\" width=\"640\" height=\"360\" allowfullscreen></iframe>"},{"id":"1676328","type":"movie","title":"Ve Koi Lai Chaleya Muklave","poster":"https://m.media-amazon.com/images/S/pv-target-images/810e1a555e786a39e0f4d65d7860ea977dc2684cf51e8098b37fb9c2410461a0.jpg","backdrop":"https://m.media-amazon.com/images/S/pv-target-images/8af068c331c6179dea809de36c4493d4a16e1be26dc70d21352814f8e871cb4a.jpg","year":"2025","result":"HD","language":["PUNJABI"],"watch":"<iframe src=\"https://bysebuho.com/e/yjlh907h7hy7/ve-koi-le-chaleya-muklawe-2025-720p-web-dl-punjabi\" frameborder=\"0\" marginwidth=\"0\" marginheight=\"0\" scrolling=\"no\" width=\"640\" height=\"360\" allowfullscreen></iframe>"},{"id":"1603224","type":"movie","title":"Real Kashmir Football Club","poster":"https://image.tmdb.org/t/p/w342/mR1ccqIWs7cC5KvYY4XmIOZXHrO.jpg","backdrop":"","year":"2025","result":"HD","language":["Hindi"],"watch":"<iframe src=\"https://bysebuho.com/e/ovnxfsd6y87r/Real_Kashmir_Football_Club__2025__S01_Dual_Audio__Bengali_ORG-Hindi__SonyLiv_720p-DANIEWATCH.mkv\" frameborder=\"0\" marginwidth=\"0\" marginheight=\"0\" scrolling=\"no\" width=\"640\" height=\"360\" allowfullscreen></iframe>"},{"id":"1552819","type":"movie","title":"Assassin","poster":"https://image.tmdb.org/t/p/w342/fLRCNUz3MsnC0MdhaWpw3hp4Eye.jpg","backdrop":"https://image.tmdb.org/t/p/original/gZF6fDtE71Fi3AGcF0PSQAxCgE3.jpg","year":"2025","result":"HD","language":["Hindi"],"watch":"<iframe src=\"https://bysebuho.com/e/yq48q83m5yvp/Assassin__2025__Hindi_Dubbed_ORG_JHS_720p_-_DANIEWATCH\" frameborder=\"0\" marginwidth=\"0\" marginheight=\"0\" scrolling=\"no\" width=\"640\" height=\"360\" allowfullscreen></iframe>"},{"id":"1291198","type":"movie","title":"55","poster":"https://image.tmdb.org/t/p/w342/8Zig074jWJXLxAjgmNcKpgoPOJ7.jpg","backdrop":"https://image.tmdb.org/t/p/original/s70NCRKc9sdneCskBDNdZJopwIW.jpg","year":"2025","result":"HD","language":["Hindi"],"watch":"<iframe src=\"https://bysebuho.com/e/ysgh1igsfwy5/55-2025-720p-web-dl-hindi-dd5-1-x264-daniewatch-is\" frameborder=\"0\" marginwidth=\"0\" marginheight=\"0\" scrolling=\"no\" width=\"640\" height=\"360\" allowfullscreen></iframe>"},{"id":"297678","type":"tv","title":"Raakh","poster":"https://image.tmdb.org/t/p/w342/f24jO3ihgKEOUbeuX6qjXaKnVdD.jpg","backdrop":"","year":"2025","result":"HD","language":["Hindi"],"seasons":[{"season_number":1,"episodes":[{"episode_number":1,"watch":"<iframe src=\"https://bysebuho.com/e/yzj01e70vo4y/raakh-2025-s01-hindi-uplay-720p-daniewatch-is\" frameborder=\"0\" marginwidth=\"0\" marginheight=\"0\" scrolling=\"no\" width=\"640\" height=\"360\" allowfullscreen></iframe>"}]}]},{"id":"1659972","type":"movie","title":"Tabaahi Reloaded","poster":"https://image.tmdb.org/t/p/w342/8SqEaNhcPs5EGl02SSSNXFIg3NY.jpg","backdrop":"","year":"2024","result":"HD","language":["PUNJABI"],"watch":"<iframe src=\"https://bysebuho.com/e/yieo9br5gjfe/tabaahi-reloaded-2024-720p-hevc-web-dl-panjabi-x265-esub-vegamovies-to-mkv\" frameborder=\"0\" marginwidth=\"0\" marginheight=\"0\" scrolling=\"no\" width=\"640\" height=\"360\" allowfullscreen></iframe>"},{"id":"1375538","type":"movie","title":"Evil Dead is Back","poster":"https://m.media-amazon.com/images/M/MV5BZDExMDMwNWUtOTY3NS00NWI1LWJlY2YtODE4MGMzNGQ0MDJiXkEyXkFqcGc@._V1_.jpg","backdrop":"https://m.media-amazon.com/images/M/MV5BOGY0N2Q2OTMtMTQyMC00MDIwLTk2OGUtYTFlOGI5MmM1YzA5XkEyXkFqcGc@._V1_.jpg","year":"2021","result":"HD","language":["Hindi"],"watch":"<iframe src=\"https://bysebuho.com/e/f40vrpnlze9u/evil-dead-is-back-2021-720p-hindi-english\" frameborder=\"0\" marginwidth=\"0\" marginheight=\"0\" scrolling=\"no\" width=\"640\" height=\"360\" allowfullscreen></iframe>"},{"id":"1584340","type":"movie","title":"Ekam Singh: A Warrior","poster":"https://image.tmdb.org/t/p/w342/gUS0ejNw8wbUlWSgmCAtqbNp7D2.jpg","backdrop":"https://image.tmdb.org/t/p/original/tUqqEOJCe3XcQX17Yj4tTizLfO6.jpg","year":"","result":"HD","language":["Hindi"],"watch":"<iframe src=\"https://bysebuho.com/e/f1e1isvsr9js/Ekam_Singh-A_Warrior_2025_720p_Punjabi_WEB-DL_AAC5_1_x264_ESub-DANIEWATCH.mkv\" frameborder=\"0\" marginwidth=\"0\" marginheight=\"0\" scrolling=\"no\" width=\"640\" height=\"360\" allowfullscreen></iframe>"},{"id":"784978","type":"movie","title":"Srimati Bhayankari","poster":"https://image.tmdb.org/t/p/w342/dB17LG1LC2CewLR1zzongZdJt3n.jpg","backdrop":"https://image.tmdb.org/t/p/original/vdNfAVpblSNs3T0BFNxcBafC7b6.jpg","year":"","result":"HD","language":["Hindi"],"watch":"<iframe src=\"https://bysebuho.com/e/9e4ftoya20ab/shrimati-bhayankari-s01-720p-hevc-web-dl-aac2-0-x265-daniewatch-is\" frameborder=\"0\" marginwidth=\"0\" marginheight=\"0\" scrolling=\"no\" width=\"640\" height=\"360\" allowfullscreen></iframe>"}]}