{"page":64,"total_pages":65,"total_items":3243,"items":[{"id":"80847","type":"movie","title":"Women of the Night","poster":"https://image.tmdb.org/t/p/w342/2NpJtHSK5EOhS9L8Bu0xGJXbPc7.jpg","backdrop":"https://image.tmdb.org/t/p/original/vxLQv4XsEBB5CxzRT38lfBuck3s.jpg","year":"2001","result":"HD","language":["Hindi"],"watch":"<iframe src=\"https://bysebuho.com/e/ehqryar312tm/women-of-the-night-2001-unrated-720p-web-dl-dual-audio-hindi-italian\" frameborder=\"0\" marginwidth=\"0\" marginheight=\"0\" scrolling=\"no\" width=\"640\" height=\"360\" allowfullscreen></iframe>","release_date":"2001-01-01"},{"id":"5458","type":"movie","title":"Cruel Intentions 2","poster":"https://image.tmdb.org/t/p/w342/soO0nrnh9lEdTgGFBT0IIvejwcK.jpg","backdrop":"https://image.tmdb.org/t/p/original/rhj7SiBtWzP2ZkVuJvpcKDr5Byn.jpg","year":"2000","result":"HD","language":["Hindi"],"watch":"<iframe src=\"https://bysebuho.com/e/vu2iat6wij0g/cruel-intentions-2-2000-720p-web-dl-hindi-english-x264\" frameborder=\"0\" marginwidth=\"0\" marginheight=\"0\" scrolling=\"no\" width=\"640\" height=\"360\" allowfullscreen></iframe>","release_date":"2000-11-09"},{"id":"64883","type":"movie","title":"Faust: Love of the Damned","poster":"https://image.tmdb.org/t/p/w342/qewddAmFcD2XoGc4w1YwNdw8YXy.jpg","backdrop":"https://image.tmdb.org/t/p/original/plp70Zqq1HQMJiN743F8IKmFdXU.jpg","year":"2000","result":"HD","language":["Hindi"],"watch":"<iframe src=\"https://bysebuho.com/e/9qai360e4yc7/faust-love-of-the-damned-2000-720p-bluray-hin-eng\" frameborder=\"0\" marginwidth=\"0\" marginheight=\"0\" scrolling=\"no\" width=\"640\" height=\"360\" allowfullscreen></iframe>","release_date":"2000-11-01"},{"id":"10867","type":"movie","title":"Malena","poster":"https://image.tmdb.org/t/p/w342/3OyQTl0IGkbnjDxd3MhztfPE34g.jpg","backdrop":"https://image.tmdb.org/t/p/original/vadUKKQixxOKWkcuZ1SUEoBQeVG.jpg","year":"2000","result":"HD","language":["Hindi"],"watch":"<iframe src=\"https://bysebuho.com/e/5jgzg9ostgx6/malena-2000-720p-webrip-hindi-dub-dual-audio\" frameborder=\"0\" marginwidth=\"0\" marginheight=\"0\" scrolling=\"no\" width=\"640\" height=\"360\" allowfullscreen></iframe>","release_date":"2000-10-27"},{"id":"11398","type":"movie","title":"The Art of War","poster":"https://image.tmdb.org/t/p/w342/9fbStI2ht3gMgsVRusqoBDWeK9c.jpg","backdrop":"https://image.tmdb.org/t/p/original/dE6xTBdthy3d9GYIIbbndFr4AOD.jpg","year":"2000","result":"HD","language":["Hindi"],"watch":"<iframe src=\"https://bysebuho.com/e/c0xhoiqr9uvz/the-art-of-war-2000-720p-bluray-hindi-english-esubs-vegamovies-to\" frameborder=\"0\" marginwidth=\"0\" marginheight=\"0\" scrolling=\"no\" width=\"640\" height=\"360\" allowfullscreen></iframe>","release_date":"2000-08-25"},{"id":"6282","type":"movie","title":"Coyote Ugly","poster":"https://image.tmdb.org/t/p/w342/xYM0laKrEqjiRSQNvqRrXPXN3iL.jpg","backdrop":"https://image.tmdb.org/t/p/original/f2MzXz3vjuNtSPn17ugFa6oTUmc.jpg","year":"2000","result":"HD","language":["Hindi"],"watch":"<iframe src=\"https://bysebuho.com/e/fefr54daz43r/coyote-ugly-2000-720p-brrip-hindi-dual-audio\" frameborder=\"0\" marginwidth=\"0\" marginheight=\"0\" scrolling=\"no\" width=\"640\" height=\"360\" allowfullscreen></iframe>","release_date":"2000-07-30"},{"id":"31352","type":"movie","title":"Doraemon: Nobita and the Legend of the Sun King","poster":"https://image.tmdb.org/t/p/w342/aBPaU4bnqrnKrKe0gi6nC9qvlLj.jpg","backdrop":"https://image.tmdb.org/t/p/original/1zzzuJF7jYhFPsMJ9Nm7ciUNtcy.jpg","year":"2000","result":"HD","language":["Hindi"],"watch":"<iframe src=\"https://bysebuho.com/e/5h9l99ycjt93/doraemon-nobita-and-the-legend-of-the-sun-king-2000-remastered-720p-hd-web-dl-hindi\" frameborder=\"0\" marginwidth=\"0\" marginheight=\"0\" scrolling=\"no\" width=\"640\" height=\"360\" allowfullscreen></iframe>","release_date":"2000-03-04"},{"id":"19576","type":"movie","title":"One Piece: The Movie","poster":"https://image.tmdb.org/t/p/w342/6QOrTYafoqzXPWLnR2K8129jTHH.jpg","backdrop":"https://image.tmdb.org/t/p/original/6OnJoCqeRzoOdzXogm64OD3QGzn.jpg","year":"2000","result":"HD","language":["Hindi"],"watch":"<iframe src=\"https://bysebuho.com/e/vuvcsa950j5j/one-piece-the-movie-2000-720p-bluray-dual-audio-hindi\" frameborder=\"0\" marginwidth=\"0\" marginheight=\"0\" scrolling=\"no\" width=\"640\" height=\"360\" allowfullscreen></iframe>","release_date":"2000-03-04"},{"id":"497","type":"movie","title":"The Green Mile","poster":"https://image.tmdb.org/t/p/w342/8VG8fDNiy50H4FedGwdSVUPoaJe.jpg","backdrop":"https://image.tmdb.org/t/p/original/b6HWTOxn1xevvyHU2K9ICvaRU6g.jpg","year":"1999","result":"HD","language":["Hindi"],"watch":"<iframe src=\"https://bysebuho.com/e/7nnrhn1i43la/the-green-mile-1999-bluray-720p-hindi-english-aac-5-1-esub-daniewatch-nl\" frameborder=\"0\" marginwidth=\"0\" marginheight=\"0\" scrolling=\"no\" width=\"640\" height=\"360\" allowfullscreen></iframe>","release_date":"1999-12-10"},{"id":"796","type":"movie","title":"Cruel Intentions","poster":"https://image.tmdb.org/t/p/w342/76cCsRtQ5MJBAqoigojXsLXLJwh.jpg","backdrop":"https://image.tmdb.org/t/p/original/m2QvGozzKz5ux74gKocn4kFTGz1.jpg","year":"1999","result":"HD","language":["Hindi"],"watch":"<iframe src=\"https://bysebuho.com/e/ajzp9dmw70vo/cruel-intentions-1999-720p-bluray-hin-eng\" frameborder=\"0\" marginwidth=\"0\" marginheight=\"0\" scrolling=\"no\" width=\"640\" height=\"360\" allowfullscreen></iframe>","release_date":"1999-03-05"},{"id":"105444","type":"movie","title":"Doraemon: Nobita's Great Adventure in the South Seas","poster":"https://image.tmdb.org/t/p/w342/4gGIYi40x3G6UPm1IMGqdseK0Ro.jpg","backdrop":"https://image.tmdb.org/t/p/original/jrxJ3RB4DQcHphoTmWbVa9WHTMd.jpg","year":"1998","result":"HD","language":["Hindi"],"watch":"<iframe src=\"https://bysebuho.com/e/574s7iuk44e3/doraemon-nobitas-great-adventure-in-the-south-seas-1998-720p-hd-hindi\" frameborder=\"0\" marginwidth=\"0\" marginheight=\"0\" scrolling=\"no\" width=\"640\" height=\"360\" allowfullscreen></iframe>","release_date":"1998-03-07"},{"id":"67395","type":"movie","title":"L.E.T.H.A.L. Ladies: Return to Savage Beach","poster":"https://image.tmdb.org/t/p/w342/9z3hdYnDdfWGKD55kdDmshDojeP.jpg","backdrop":"https://image.tmdb.org/t/p/original/cQpSKsSjoQYnDmqTlYl0gV3qnif.jpg","year":"1998","result":"HD","language":["Hindi"],"watch":"<iframe src=\"https://bysebuho.com/e/8dt6jsmrs8p3/return-to-savage-beach-1998-720p-unrated-bluray-dual\" frameborder=\"0\" marginwidth=\"0\" marginheight=\"0\" scrolling=\"no\" width=\"640\" height=\"360\" allowfullscreen></iframe>","release_date":"1998-01-27"},{"id":"637","type":"movie","title":"Life Is Beautiful","poster":"https://image.tmdb.org/t/p/w342/mfnkSeeVOBVheuyn2lo4tfmOPQb.jpg","backdrop":"https://image.tmdb.org/t/p/original/6aNKD81RHR1DqUUa8kOZ1TBY1Lp.jpg","year":"1997","result":"HD","language":["Hindi"],"watch":"<iframe src=\"https://bysebuho.com/e/0q37klb2swhl/life-is-beautiful-1997-720p-bluray-org-dual-audio-x265-esub-daniewatch-nl\" frameborder=\"0\" marginwidth=\"0\" marginheight=\"0\" scrolling=\"no\" width=\"640\" height=\"360\" allowfullscreen></iframe>","release_date":"1997-12-20"},{"id":"327358","type":"movie","title":"Kiss of Death","poster":"https://image.tmdb.org/t/p/w342/35Y9TVqqYkB4hHzZw00Okp7fF9S.jpg","backdrop":"","year":"1997","result":"HD","language":["Hindi"],"watch":"<iframe src=\"https://bysebuho.com/e/mmt0ltwhgbcc/kiss-of-death-1997-dual-audio-hindi\" frameborder=\"0\" marginwidth=\"0\" marginheight=\"0\" scrolling=\"no\" width=\"640\" height=\"360\" allowfullscreen></iframe>","release_date":"1997-07-25"},{"id":"18167","type":"movie","title":"Another 9 1/2 Weeks","poster":"https://image.tmdb.org/t/p/w342/lbQjiB1KTCX1Tmrby7CV7tP5Yq5.jpg","backdrop":"https://image.tmdb.org/t/p/original/t9HN9ScASWf9RSLEoAukRbeDMKq.jpg","year":"1997","result":"HD","language":["Hindi"],"watch":"<iframe src=\"https://bysebuho.com/e/3w1dm7qis2e4/anothernine-and-a-half-weeks-1997-720p-webrip-hindi-english\" frameborder=\"0\" marginwidth=\"0\" marginheight=\"0\" scrolling=\"no\" width=\"640\" height=\"360\" allowfullscreen></iframe>","release_date":"1997-06-12"},{"id":"21915","type":"movie","title":"Booty Call","poster":"https://image.tmdb.org/t/p/w342/1pQpHVm3AXIwbBUnwGEQ0q95E0L.jpg","backdrop":"https://image.tmdb.org/t/p/original/yDN1cTJk0JVMlbJ0dwOntEdOpvM.jpg","year":"1997","result":"HD","language":["Hindi"],"watch":"<iframe src=\"https://bysebuho.com/e/q8be35d3d0ex/booty-call-1997-720p-web-dl-hindi-english\" frameborder=\"0\" marginwidth=\"0\" marginheight=\"0\" scrolling=\"no\" width=\"640\" height=\"360\" allowfullscreen></iframe>","release_date":"1997-02-26"},{"id":"191561","type":"movie","title":"Yu Pui Tsuen III","poster":"https://image.tmdb.org/t/p/w342/5QpANxhTL0xpQ7JAIttQasZdF9u.jpg","backdrop":"https://image.tmdb.org/t/p/original/n2b9fTgkRosM0UrAdD7UkkHz5Ky.jpg","year":"1996","result":"HD","language":["Hindi"],"watch":"<iframe src=\"https://bysebuho.com/e/c9uzxyyrlvlo/yu-pui-tsuen-iii-1996-unrated-720p-bluray-hindi-dd2-0-chinese\" frameborder=\"0\" marginwidth=\"0\" marginheight=\"0\" scrolling=\"no\" width=\"640\" height=\"360\" allowfullscreen></iframe>","release_date":"1996-08-10"},{"id":"279576","type":"movie","title":"Body of Influence 2","poster":"https://image.tmdb.org/t/p/w342/wiWaTOWmVrr9XmK0uNAvnKtmXQu.jpg","backdrop":"https://image.tmdb.org/t/p/original/68TgAV1vhQ1nUjvFPflAwQILdry.jpg","year":"1996","result":"HD","language":["Hindi"],"watch":"<iframe src=\"https://bysebuho.com/e/jrw3952zlcz7/body-of-influence-2-1996-unrated-720p-web-dl-hin-eng\" frameborder=\"0\" marginwidth=\"0\" marginheight=\"0\" scrolling=\"no\" width=\"640\" height=\"360\" allowfullscreen></iframe>","release_date":"1996-08-06"},{"id":"106164","type":"movie","title":"Doraemon: Nobita and the Galaxy Super-express","poster":"https://image.tmdb.org/t/p/w342/moqO24uCB0k6q4qPyAwb7O0xeWM.jpg","backdrop":"https://image.tmdb.org/t/p/original/qblWrkMEUKhMpfry51Hs3rJCj7n.jpg","year":"1996","result":"HD","language":["Hindi"],"watch":"<iframe src=\"https://bysebuho.com/e/rby14bqwlr7s/doraemon-nobita-and-the-galaxy-super-express-1996-remastered-720p-hd-web-dl-hindi\" frameborder=\"0\" marginwidth=\"0\" marginheight=\"0\" scrolling=\"no\" width=\"640\" height=\"360\" allowfullscreen></iframe>","release_date":"1996-03-02"},{"id":"58965","type":"movie","title":"Huntress: Spirit of the Night","poster":"https://image.tmdb.org/t/p/w342/hZgz3Pu3rrcFUTqFuF0dB4b60aL.jpg","backdrop":"https://image.tmdb.org/t/p/original/dgXyVZedbCB89mVyECzufrqVJAl.jpg","year":"1995","result":"HD","language":["Hindi"],"watch":"<iframe src=\"https://bysebuho.com/e/2vjwt0ie4xcj/huntress-spirit-of-the-night-1996-hindi\" frameborder=\"0\" marginwidth=\"0\" marginheight=\"0\" scrolling=\"no\" width=\"640\" height=\"360\" allowfullscreen></iframe>","release_date":"1995-12-10"},{"id":"19404","type":"movie","title":"Dilwale Dulhania Le Jayenge","poster":"https://image.tmdb.org/t/p/w342/2CAL2433ZeIihfX1Hb2139CX0pW.jpg","backdrop":"https://image.tmdb.org/t/p/original/zQDFHYNVVVp9OAYSixYAG1SyX1l.jpg","year":"1995","result":"HD","language":["Hindi"],"watch":"<iframe src=\"https://bysebuho.com/e/9162chdxepca/dilwale-dulhania-le-jayenge-1995-bluray-hindi-720p-aac-5-1-esub-daniewatch-nl\" frameborder=\"0\" marginwidth=\"0\" marginheight=\"0\" scrolling=\"no\" width=\"640\" height=\"360\" allowfullscreen></iframe>","release_date":"1995-10-20"},{"id":"10802","type":"movie","title":"Showgirls","poster":"https://image.tmdb.org/t/p/w342/o4HT3Ap5c99W4FYpdXUtTvxGgPc.jpg","backdrop":"https://image.tmdb.org/t/p/original/jL3G2f8uNCFejJRlIqCzRp8Y7eV.jpg","year":"1995","result":"HD","language":["Hindi"],"watch":"<iframe src=\"https://bysebuho.com/e/dsnyzmso6ny7/showgirls-1995-720p-bluray-dual-audio\" frameborder=\"0\" marginwidth=\"0\" marginheight=\"0\" scrolling=\"no\" width=\"640\" height=\"360\" allowfullscreen></iframe>","release_date":"1995-09-22"},{"id":"37333","type":"movie","title":"Lake Consequence","poster":"https://image.tmdb.org/t/p/w342/mU6CwKO7QwxRlutmUSIS4hjJJUa.jpg","backdrop":"https://image.tmdb.org/t/p/original/gZAoacoaVfUFK2FU6EEQkzNDdlr.jpg","year":"1995","result":"HD","language":["Hindi"],"watch":"<iframe src=\"https://bysebuho.com/e/qcln32hpmqt5/lake-consequence-1993-720p-web-dl-hin-eng\" frameborder=\"0\" marginwidth=\"0\" marginheight=\"0\" scrolling=\"no\" width=\"640\" height=\"360\" allowfullscreen></iframe>","release_date":"1995-06-02"},{"id":"18392","type":"movie","title":"Embrace of the Vampire","poster":"https://image.tmdb.org/t/p/w342/3amk8h3a4xVdt3f5LG8Mo7TrAn0.jpg","backdrop":"https://image.tmdb.org/t/p/original/gMztD9hnKvgMzTT9EmOiWqRSBr6.jpg","year":"1995","result":"HD","language":["Hindi"],"watch":"<iframe src=\"https://bysebuho.com/e/ykda0m51ijs1/embrace-of-the-vampire-1995-unrated-720p-bluray-dual-audio-hindi-english\" frameborder=\"0\" marginwidth=\"0\" marginheight=\"0\" scrolling=\"no\" width=\"640\" height=\"360\" allowfullscreen></iframe>","release_date":"1995-05-30"},{"id":"162069","type":"movie","title":"Doraemon: Nobita's Diary on the Creation of the World","poster":"https://image.tmdb.org/t/p/w342/qemtaCXwo9sP6bYO8Hqc0o96JIy.jpg","backdrop":"https://image.tmdb.org/t/p/original/cpBarSyvJSf8xeZbfeL0w4CUcKg.jpg","year":"1995","result":"HD","language":["Hindi"],"watch":"<iframe src=\"https://bysebuho.com/e/vpgi0z17ysks/doraemon-nobitas-diary-on-the-creation-of-the-world-1995-720p\" frameborder=\"0\" marginwidth=\"0\" marginheight=\"0\" scrolling=\"no\" width=\"640\" height=\"360\" allowfullscreen></iframe>","release_date":"1995-03-04"},{"id":"28529","type":"movie","title":"Sorceress","poster":"https://image.tmdb.org/t/p/w342/4yTPpffXf0WA33rgweZ1Y7PUe0L.jpg","backdrop":"https://image.tmdb.org/t/p/original/e3IPovVj7wiLoBVftaHz4oafWxQ.jpg","year":"1995","result":"HD","language":["Hindi"],"watch":"<iframe src=\"https://bysebuho.com/e/v7awan3t5bmr/sorceress-1995-720p-brrip-hindi-dual-audio\" frameborder=\"0\" marginwidth=\"0\" marginheight=\"0\" scrolling=\"no\" width=\"640\" height=\"360\" allowfullscreen></iframe>","release_date":"1995-01-04"},{"id":"216358","type":"movie","title":"Secret Games 3","poster":"https://image.tmdb.org/t/p/w342/8GGyyLkp7Z0c5CWlDfwdQZWE2h6.jpg","backdrop":"https://image.tmdb.org/t/p/original/reItnK4DLWWiTPySFiuoULXJPe9.jpg","year":"1994","result":"HD","language":["Hindi"],"watch":"<iframe src=\"https://bysebuho.com/e/3i1udq5v7nku/secret-games-3-1995-720p-web-dl-hindi-english\" frameborder=\"0\" marginwidth=\"0\" marginheight=\"0\" scrolling=\"no\" width=\"640\" height=\"360\" allowfullscreen></iframe>","release_date":"1994-10-24"},{"id":"67398","type":"movie","title":"The Dallas Connection","poster":"https://image.tmdb.org/t/p/w342/yHrd3gMBi5VgZZEpxixtQpbNZEh.jpg","backdrop":"https://image.tmdb.org/t/p/original/wDNZ8RGzIu10uf3gPQh9WSZcHlz.jpg","year":"1994","result":"HD","language":["Hindi"],"watch":"<iframe src=\"https://bysebuho.com/e/lfbuvcltkn9c/the-dallas-connection-1904-720p\" frameborder=\"0\" marginwidth=\"0\" marginheight=\"0\" scrolling=\"no\" width=\"640\" height=\"360\" allowfullscreen></iframe>","release_date":"1994-10-02"},{"id":"278","type":"movie","title":"The Shawshank Redemption","poster":"https://image.tmdb.org/t/p/w342/9cqNxx0GxF0bflZmeSMuL5tnGzr.jpg","backdrop":"https://image.tmdb.org/t/p/original/zfbjgQE1uSd9wiPTX4VzsLi0rGG.jpg","year":"1994","result":"HD","language":["Hindi"],"watch":"<iframe src=\"https://bysebuho.com/e/kwrhrvu4gy7w/the-shawshank-redemption-1994-720p-hevc-bluray-org-dual-x265-esubs-daniewatch-nl\" frameborder=\"0\" marginwidth=\"0\" marginheight=\"0\" scrolling=\"no\" width=\"640\" height=\"360\" allowfullscreen></iframe>","release_date":"1994-09-23"},{"id":"13","type":"movie","title":"Forrest Gump","poster":"https://image.tmdb.org/t/p/w342/saHP97rTPS5eLmrLQEcANmKrsFl.jpg","backdrop":"https://image.tmdb.org/t/p/original/67HggiWaP9ZLv5sPYmyRV37yAJM.jpg","year":"1994","result":"HD","language":["Hindi"],"watch":"<iframe src=\"https://bysebuho.com/e/u9pegt6adc13/forrest-gump-1994-720p-hindi-english-daniewatch-nl\" frameborder=\"0\" marginwidth=\"0\" marginheight=\"0\" scrolling=\"no\" width=\"640\" height=\"360\" allowfullscreen></iframe>","release_date":"1994-06-23"},{"id":"49983","type":"movie","title":"Enemy Gold","poster":"https://image.tmdb.org/t/p/w342/bW3wf5KncLoMolW55k1Uvrrrs9d.jpg","backdrop":"https://image.tmdb.org/t/p/original/71s3mHz1rGGyzLWeTDUubafXFRC.jpg","year":"1994","result":"HD","language":["Hindi"],"watch":"<iframe src=\"https://bysebuho.com/e/rg8k45jzhpzn/enemy-gold-1993-720p\" frameborder=\"0\" marginwidth=\"0\" marginheight=\"0\" scrolling=\"no\" width=\"640\" height=\"360\" allowfullscreen></iframe>","release_date":"1994-06-03"},{"id":"95084","type":"movie","title":"Body of Influence","poster":"https://image.tmdb.org/t/p/w342/b6rMLugMP6WAHNqdTNBcLoxyNhp.jpg","backdrop":"https://image.tmdb.org/t/p/original/kmIPkOzc4h3IOxqWKTzZ2HzXoqV.jpg","year":"1994","result":"HD","language":["Hindi"],"watch":"<iframe src=\"https://bysebuho.com/e/5djg35lx2v2u/body-of-influence-1993-720p-web-dl-hin-eng\" frameborder=\"0\" marginwidth=\"0\" marginheight=\"0\" scrolling=\"no\" width=\"640\" height=\"360\" allowfullscreen></iframe>","release_date":"1994-05-14"},{"id":"161715","type":"movie","title":"Doraemon: Nobita's Three Visionary Swordsmen","poster":"https://image.tmdb.org/t/p/w342/oCQtdezF7Ap5wm8ICiB3Pzx6wM4.jpg","backdrop":"https://image.tmdb.org/t/p/original/fgxH8zchlbP3pzN4CyXPFTXM72B.jpg","year":"1994","result":"HD","language":["Hindi"],"watch":"<iframe src=\"https://bysebuho.com/e/s8un8fo7o3gx/doraemon-nobitas-three-visionary-swordsmen-1994-hindi-dubbed\" frameborder=\"0\" marginwidth=\"0\" marginheight=\"0\" scrolling=\"no\" width=\"640\" height=\"360\" allowfullscreen></iframe>","release_date":"1994-03-12"},{"id":"252264","type":"movie","title":"Eyes of the Serpent","poster":"https://image.tmdb.org/t/p/w342/cihCl224y7dqlZ5dl1IUVVkUYaX.jpg","backdrop":"https://image.tmdb.org/t/p/original/12x5YuRTMCcM3Um4LIO77V5R2c4.jpg","year":"1994","result":"HD","language":["Hindi"],"watch":"<iframe src=\"https://bysebuho.com/e/dr7zlbtit477/eyes-of-the-serpent-1994-720p-brrip-hindi-dual-audio\" frameborder=\"0\" marginwidth=\"0\" marginheight=\"0\" scrolling=\"no\" width=\"640\" height=\"360\" allowfullscreen></iframe>","release_date":"1994-01-03"},{"id":"29795","type":"movie","title":"Beach Babes from Beyond","poster":"https://image.tmdb.org/t/p/w342/v5TXbzoPvjsU1JAM8mS7E0gMJro.jpg","backdrop":"https://image.tmdb.org/t/p/original/dMvUK3bfcOxdekknbYszEWYE6uY.jpg","year":"1993","result":"HD","language":["Hindi"],"watch":"<iframe src=\"https://bysebuho.com/e/3qvcixd4oy87/beach-babes-from-beyond-1993-720p-hindi\" frameborder=\"0\" marginwidth=\"0\" marginheight=\"0\" scrolling=\"no\" width=\"640\" height=\"360\" allowfullscreen></iframe>","release_date":"1993-12-16"},{"id":"424","type":"movie","title":"Schindler's List","poster":"https://image.tmdb.org/t/p/w342/sF1U4EUQS8YHUYjNl3pMGNIQyr0.jpg","backdrop":"https://image.tmdb.org/t/p/original/zb6fM1CX41D9rF9hdgclu0peUmy.jpg","year":"1993","result":"HD","language":["Hindi"],"watch":"<iframe src=\"https://bysebuho.com/e/h1cksep19aqw/schindlers-list-1993-720p-brrip-hindi-eng-daniewatch-to\" frameborder=\"0\" marginwidth=\"0\" marginheight=\"0\" scrolling=\"no\" width=\"640\" height=\"360\" allowfullscreen></iframe>","release_date":"1993-12-15"},{"id":"45029","type":"movie","title":"Fit to Kill","poster":"https://image.tmdb.org/t/p/w342/tdaqSdk4FCrRAuslGjCDhwWPhik.jpg","backdrop":"https://image.tmdb.org/t/p/original/5mZlUM2VMIDn2bV6NiLNsziGQGD.jpg","year":"1993","result":"HD","language":["Hindi"],"watch":"<iframe src=\"https://bysebuho.com/e/79pfykuorc0r/fit-to-kill-1993-unrated-dual-audio-hindi-english\" frameborder=\"0\" marginwidth=\"0\" marginheight=\"0\" scrolling=\"no\" width=\"640\" height=\"360\" allowfullscreen></iframe>","release_date":"1993-10-27"},{"id":"27224","type":"movie","title":"Lost in Yonkers","poster":"https://image.tmdb.org/t/p/w342/9COy4RAhPzOw1ICecKMYQCexTgm.jpg","backdrop":"https://image.tmdb.org/t/p/original/6GKi4QB60Vw9pDxoOKUosXh2LYk.jpg","year":"1993","result":"HD","language":["Hindi"],"watch":"<iframe src=\"https://bysebuho.com/e/qcqqubkwwto9/lost-in-yonkers-1993-720p-web-dl-hindi-english\" frameborder=\"0\" marginwidth=\"0\" marginheight=\"0\" scrolling=\"no\" width=\"640\" height=\"360\" allowfullscreen></iframe>","release_date":"1993-05-14"},{"id":"4478","type":"movie","title":"Indecent Proposal","poster":"https://image.tmdb.org/t/p/w342/a39WoiTJEG5kNLIrr3kOMwg3LFg.jpg","backdrop":"https://image.tmdb.org/t/p/original/8g8WtAAEGRramjw9G4ivYQV8OaR.jpg","year":"1993","result":"HD","language":["Hindi"],"watch":"<iframe src=\"https://bysebuho.com/e/xfaasdm7p9p2/indecent-proposal-1993-bluray-720p-hindi-english\" frameborder=\"0\" marginwidth=\"0\" marginheight=\"0\" scrolling=\"no\" width=\"640\" height=\"360\" allowfullscreen></iframe>","release_date":"1993-04-07"},{"id":"45030","type":"movie","title":"Hard Hunted","poster":"https://image.tmdb.org/t/p/w342/esVXyG6o2tD42XmPKgAhPCfdEUY.jpg","backdrop":"https://image.tmdb.org/t/p/original/mmIg2bXQDsUTl0T9chDybq51mx2.jpg","year":"1992","result":"HD","language":["Hindi"],"watch":"<iframe src=\"https://bysebuho.com/e/41ry60kmv58d/hard-hunted-1993-d1-ad-hnd-org-720p\" frameborder=\"0\" marginwidth=\"0\" marginheight=\"0\" scrolling=\"no\" width=\"640\" height=\"360\" allowfullscreen></iframe>","release_date":"1992-09-11"},{"id":"10497","type":"movie","title":"Bitter Moon","poster":"https://image.tmdb.org/t/p/w342/bW7E4cLWh0elRRbp2VCrtXrY1if.jpg","backdrop":"https://image.tmdb.org/t/p/original/9NwkPVcLBKMrPKU79XinX73HZNa.jpg","year":"1992","result":"HD","language":["Hindi"],"watch":"<iframe src=\"https://bysebuho.com/e/2zut00gipsgn/bitter-moon-1992-720p-bluray-dual\" frameborder=\"0\" marginwidth=\"0\" marginheight=\"0\" scrolling=\"no\" width=\"640\" height=\"360\" allowfullscreen></iframe>","release_date":"1992-09-02"},{"id":"164660","type":"movie","title":"Secret Games","poster":"https://image.tmdb.org/t/p/w342/rAQpCP8YllNLslICW56F1ufzuJZ.jpg","backdrop":"https://image.tmdb.org/t/p/original/pAaZkbW4e63H1phO0oAhesWx47x.jpg","year":"1992","result":"HD","language":["Hindi"],"watch":"<iframe src=\"https://bysebuho.com/e/tx98lyjpv4m4/secret-games-1992-unrated-720p-web-dl-hin-eng\" frameborder=\"0\" marginwidth=\"0\" marginheight=\"0\" scrolling=\"no\" width=\"640\" height=\"360\" allowfullscreen></iframe>","release_date":"1992-05-11"},{"id":"402","type":"movie","title":"Basic Instinct","poster":"https://image.tmdb.org/t/p/w342/76Ts0yoHk8kVQj9MMnoMixhRWoh.jpg","backdrop":"https://image.tmdb.org/t/p/original/7FRraud59N3s10bbf9bfYjvwx3v.jpg","year":"1992","result":"HD","language":["Hindi"],"watch":"<iframe src=\"https://bysebuho.com/e/c8wmi0knjf41/basic-instinct-1992-rm-720p-bluray-hin-eng\" frameborder=\"0\" marginwidth=\"0\" marginheight=\"0\" scrolling=\"no\" width=\"640\" height=\"360\" allowfullscreen></iframe>","release_date":"1992-03-20"},{"id":"39479","type":"movie","title":"Love Crimes","poster":"https://image.tmdb.org/t/p/w342/l2zE5VYf3SlC66GTpR80bwcWDn4.jpg","backdrop":"https://image.tmdb.org/t/p/original/fDu9wWlsTi5LZznuf5OglAI4FCn.jpg","year":"1992","result":"HD","language":["Hindi"],"watch":"<iframe src=\"https://bysebuho.com/e/yhkhv4wotu5t/love-crimes-1992-720p-web-dl-hin-eng\" frameborder=\"0\" marginwidth=\"0\" marginheight=\"0\" scrolling=\"no\" width=\"640\" height=\"360\" allowfullscreen></iframe>","release_date":"1992-01-24"},{"id":"64348","type":"movie","title":"Robotrix","poster":"https://image.tmdb.org/t/p/w342/3ikwwNbk7GVorndt8lUyzaqIWpu.jpg","backdrop":"https://image.tmdb.org/t/p/original/yyueBGT0qGX69JAm7UbvWbLnuEb.jpg","year":"1991","result":"HD","language":["Hindi"],"watch":"<iframe src=\"https://bysebuho.com/e/uuxd398tca2h/robotrix-1991-unrated-720p-bluray-hindi-dual-audio\" frameborder=\"0\" marginwidth=\"0\" marginheight=\"0\" scrolling=\"no\" width=\"640\" height=\"360\" allowfullscreen></iframe>","release_date":"1991-05-31"},{"id":"188403","type":"movie","title":"Doraemon: Nobita's Dorabian Nights","poster":"https://image.tmdb.org/t/p/w342/yMrO4LcdoSI1PLd9oKLuY5W8cDG.jpg","backdrop":"https://image.tmdb.org/t/p/original/zPeMn87CADz6hWLUGrkp1NFephH.jpg","year":"1991","result":"HD","language":["Hindi"],"watch":"<iframe src=\"https://bysebuho.com/e/4c3iu9ywbr8o/doraemon-nobitas-dorabian-nights-1991-remastered-720p-hd-web-dl-hindi\" frameborder=\"0\" marginwidth=\"0\" marginheight=\"0\" scrolling=\"no\" width=\"640\" height=\"360\" allowfullscreen></iframe>","release_date":"1991-03-09"},{"id":"242","type":"movie","title":"The Godfather Part III","poster":"https://image.tmdb.org/t/p/w342/lm3pQ2QoQ16pextRsmnUbG2onES.jpg","backdrop":"https://image.tmdb.org/t/p/original/8zhviPFJx25k8PbUOUL5sLOy9XE.jpg","year":"1990","result":"HD","language":["Hindi"],"watch":"<iframe src=\"https://bysebuho.com/e/soy3tnoni2ie/the-godfather-part-iii-1990-bluray-720p-hindi-2-0-english-5-1-aac-esub-daniewatch-to\" frameborder=\"0\" marginwidth=\"0\" marginheight=\"0\" scrolling=\"no\" width=\"640\" height=\"360\" allowfullscreen></iframe>","release_date":"1990-12-25"},{"id":"28340","type":"movie","title":"The Invisible Maniac","poster":"https://image.tmdb.org/t/p/w342/t04IPymimKl1uK5dblZzuQIJIjL.jpg","backdrop":"https://image.tmdb.org/t/p/original/8XgAmw31UtUIDa0ec33Sj9yaSxi.jpg","year":"1990","result":"HD","language":["Hindi"],"watch":"<iframe src=\"https://bysebuho.com/e/p6jbwxvnipr1/the-invisible-maniac-1990-720p-bluray-dual-audio\" frameborder=\"0\" marginwidth=\"0\" marginheight=\"0\" scrolling=\"no\" width=\"640\" height=\"360\" allowfullscreen></iframe>","release_date":"1990-07-13"},{"id":"60898","type":"movie","title":"Erotic Ghost Story","poster":"https://image.tmdb.org/t/p/w342/fTUCwsxVoLFuodAtlL6aITP1B45.jpg","backdrop":"https://image.tmdb.org/t/p/original/bZsATFS6wg6L45ele7Ve4ogGkUT.jpg","year":"1990","result":"HD","language":["Hindi"],"watch":"<iframe src=\"https://bysebuho.com/e/b4ivbyhi2lzc/erotic-ghost-story-1990-720p-bluray-hindi-dual-audio\" frameborder=\"0\" marginwidth=\"0\" marginheight=\"0\" scrolling=\"no\" width=\"640\" height=\"360\" allowfullscreen></iframe>","release_date":"1990-05-19"},{"id":"71853","type":"movie","title":"Def by Temptation","poster":"https://image.tmdb.org/t/p/w342/cC96OjOeYXmBF6RuePlxA709tkz.jpg","backdrop":"https://image.tmdb.org/t/p/original/fTPi0tXFf4BSDDdf7J9pq5V9XyG.jpg","year":"1990","result":"HD","language":["Hindi"],"watch":"<iframe src=\"https://bysebuho.com/e/bkd70bplujl2/def-by-temptation-1990-720p\" frameborder=\"0\" marginwidth=\"0\" marginheight=\"0\" scrolling=\"no\" width=\"640\" height=\"360\" allowfullscreen></iframe>","release_date":"1990-03-23"}]}