{"page":1,"total_pages":3,"total_items":147,"items":[{"id":"1650939","type":"movie","title":"Pitt Siyapa","poster":"https://image.tmdb.org/t/p/w342/pee6fD1cudLr0Fbj4F37S49XjUH.jpg","year":"2026","result":"HD","language":["CAM RESULT"],"country":["IN"],"original_language":"pa","genres":["Comedy","Drama"],"imdb_id":"tt39387317"},{"id":"1694620","type":"movie","title":"Haye Ni Bebe Meriye","poster":"https://image.tmdb.org/t/p/w342/ymnx4qjPgi7pSpFaUou7ENRLqte.jpg","year":"2026","result":"HD","language":["Hindi"],"country":[],"original_language":"pa","genres":["Family","Comedy"],"imdb_id":""},{"id":"1704309","type":"movie","title":"Top Cop","poster":"https://image.tmdb.org/t/p/w342/iG8ngSJgIki4bvlEi5XeBRiXBfW.jpg","year":"2026","result":"HD","language":["PUNJABI"],"country":[],"original_language":"pa","genres":["Thriller","Mystery","Crime"],"imdb_id":"tt39781126"},{"id":"1659052","type":"movie","title":"Budh Singh","poster":"https://image.tmdb.org/t/p/w342/3pV9tWocNZXtwMUdC2eaNoX1IKi.jpg","year":"2026","result":"HD","language":["Hindi"],"country":[],"original_language":"pa","genres":["Action","Drama"],"imdb_id":"tt27190700"},{"id":"1658635","type":"movie","title":"Panchhi 2","poster":"https://image.tmdb.org/t/p/w342/SGyMdOlJqhaHjcHnQRlO6Sx45G.jpg","year":"2026","result":"HD","language":["Hindi"],"country":[],"original_language":"pa","genres":["Thriller"],"imdb_id":""},{"id":"1646589","type":"movie","title":"13 Teen","poster":"https://image.tmdb.org/t/p/w342/rpaYcOV8oYOAVQmHyALZNAn3zka.jpg","year":"2026","result":"HD","language":["Hindi"],"country":[],"original_language":"pa","genres":["Drama","Thriller"],"imdb_id":"tt39958734"},{"id":"1643729","type":"movie","title":"Ishqa'n De Lekhe","poster":"https://image.tmdb.org/t/p/w342/eky8n1Xu5oMDe4iu4pKFCdStHkt.jpg","year":"2026","result":"HD","language":["Hindi"],"country":[],"original_language":"pa","genres":["Drama","Romance","Music"],"imdb_id":"tt39385906"},{"id":"1640340","type":"movie","title":"Bhootan Wala Khooh","poster":"https://image.tmdb.org/t/p/w342/2QSBXVrduSGCHDdH04mwKZkoFh.jpg","year":"2026","result":"HD","language":["Hindi"],"country":[],"original_language":"pa","genres":["Drama","Mystery","Thriller"],"imdb_id":""},{"id":"1639763","type":"movie","title":"Viyaah Kartaare Da","poster":"https://image.tmdb.org/t/p/w342/oypl2SgvWqPhPGERB4n7Dhml3og.jpg","year":"2026","result":"HD","language":["Hindi"],"country":[],"original_language":"pa","genres":["Comedy","Romance"],"imdb_id":"tt39875252"},{"id":"1637367","type":"movie","title":"Udd Da Teer","poster":"https://image.tmdb.org/t/p/w342/nJEheWpcezgfIbFRrKD6Odv1zrR.jpg","year":"2026","result":"HD","language":["Hindi"],"country":["IN"],"original_language":"pa","genres":["Drama","Thriller"],"imdb_id":"tt39958737"},{"id":"1635529","type":"movie","title":"Bambukat 2","poster":"https://image.tmdb.org/t/p/w342/yZToIdLzKfaG0sv2JKuJQMMD8Qd.jpg","year":"2026","result":"HD","language":["Hindi"],"country":["IN"],"original_language":"pa","genres":["Comedy","Drama"],"imdb_id":"tt11173332"},{"id":"1627976","type":"movie","title":"Hashtag Star","poster":"https://image.tmdb.org/t/p/w342/qta6Zgj4J1SY2GwyhGDNrIac1Kr.jpg","year":"2026","result":"HD","language":["Hindi"],"country":[],"original_language":"pa","genres":["Drama"],"imdb_id":""},{"id":"1621842","type":"movie","title":"Bebe Main Badmash Banuga","poster":"https://image.tmdb.org/t/p/w342/xs1UbPD98BKoKrlhw4BhrGHjg4S.jpg","year":"2026","result":"HD","language":["Hindi"],"country":["IN"],"original_language":"pa","genres":["Drama"],"imdb_id":"tt39319045"},{"id":"1621160","type":"movie","title":"Mcoca","poster":"https://image.tmdb.org/t/p/w342/9T4j2xFJHUComly4vP9CgytuS6t.jpg","year":"2026","result":"HD","language":["Hindi"],"country":[],"original_language":"pa","genres":["Thriller"],"imdb_id":"tt23866180"},{"id":"1620943","type":"movie","title":"Welcome Jija Ji","poster":"https://image.tmdb.org/t/p/w342/zpNA8T0INCCTvRLyovGuAMFPiNC.jpg","year":"2026","result":"HD","language":["Hindi"],"country":[],"original_language":"pa","genres":["Comedy","Family"],"imdb_id":"tt39373668"},{"id":"1614475","type":"movie","title":"Seeds","poster":"https://image.tmdb.org/t/p/w342/enm6mkdU7aGqR62lYKQ7d2yChd9.jpg","year":"2026","result":"HD","language":["Hindi"],"country":[],"original_language":"pa","genres":[],"imdb_id":"tt39387371"},{"id":"1239433","type":"movie","title":"Poorna","poster":"https://image.tmdb.org/t/p/w342/bLLTy9l1BL8VvuGpXBlkZjFmw5J.jpg","year":"2026","result":"HD","language":["Hindi"],"country":["IN"],"original_language":"pa","genres":["Drama"],"imdb_id":""},{"id":"298387","type":"tv","title":"84 Toh Baad","poster":"https://image.tmdb.org/t/p/w342/kTtoAez98Nt6zveNDcEsPCyJNb4.jpg","year":"2025","result":"HD","language":["PUNJABI"],"country":["IN"],"original_language":"pa","genres":["Drama"],"imdb_id":"","latest_uploaded_season":1,"total_uploaded_episodes":1},{"id":"1419903","type":"movie","title":"Akkad Bakkad Bambbe Bo Assi Nabbe Poore So","poster":"https://image.tmdb.org/t/p/w342/nv0TEuZ0SR7Pzg1RlOBJw00qc7F.jpg","year":"2025","result":"HD","language":["PUNJABI"],"country":["IN"],"original_language":"pa","genres":["Comedy","Horror"],"imdb_id":"tt28820711"},{"id":"1439583","type":"movie","title":"Badnaam","poster":"https://image.tmdb.org/t/p/w342/qgEf4jlTkyhcj8cK44gnr36EKeS.jpg","year":"2025","result":"HD","language":["Punjabi"],"country":["IN"],"original_language":"pa","genres":["Drama","Action","Crime"],"imdb_id":"tt34927582"},{"id":"1451523","type":"movie","title":"Challe Yaar Coachella","poster":"https://image.tmdb.org/t/p/w342/wo5Gq7yczRkk5fntrwvXrXFFdSm.jpg","year":"2025","result":"HD","language":["PUNJABI"],"country":[],"original_language":"pa","genres":[],"imdb_id":""},{"id":"1469422","type":"movie","title":"Gangland: The City of Crime","poster":"https://image.tmdb.org/t/p/w342/ebCmlVJXXwTgedVhS647S11Mz7U.jpg","year":"2025","result":"HD","language":["PUNJABI"],"country":["IN"],"original_language":"pa","genres":["Action","Drama"],"imdb_id":"tt36591053"},{"id":"1425640","type":"movie","title":"Illti","poster":"https://image.tmdb.org/t/p/w342/xTg0VOxAiiFUMDchQ0u4YiNnbNn.jpg","year":"2025","result":"HD","language":["PUNJABI"],"country":["IN"],"original_language":"pa","genres":["Comedy","Drama"],"imdb_id":"tt33044997"},{"id":"1438871","type":"movie","title":"Khilre Hoye Warke Kudrat","poster":"https://image.tmdb.org/t/p/w342/4RcHprTptkXOI2fJUPLwAR82LLn.jpg","year":"2025","result":"HD","language":["PUNJABI"],"country":[],"original_language":"pa","genres":["Drama"],"imdb_id":"tt35977316"},{"id":"1568195","type":"movie","title":"Madhaniyan","poster":"https://image.tmdb.org/t/p/w342/oRAnP7qxYjpzOpUbTi081KCsgkR.jpg","year":"2025","result":"HD","language":["PUNJABI"],"country":["IN"],"original_language":"pa","genres":["Romance","Drama"],"imdb_id":"tt34052201"},{"id":"1526240","type":"movie","title":"Main Tenu Phir Milangi","poster":"https://image.tmdb.org/t/p/w342/ssBLKsEpUwh6CNF8mOt4D6GtOTE.jpg","year":"2025","result":"HD","language":["PUNJABI"],"country":[],"original_language":"pa","genres":[],"imdb_id":"tt16733792"},{"id":"1420505","type":"movie","title":"Majhail","poster":"https://image.tmdb.org/t/p/w342/b7OSIqomkkxwnCEVsMSD5M4HT4e.jpg","year":"2025","result":"HD","language":["PUNJABI"],"country":[],"original_language":"pa","genres":["Action","Crime","Drama"],"imdb_id":"tt34615536"},{"id":"1500627","type":"movie","title":"Master Scheme Singh","poster":"https://image.tmdb.org/t/p/w342/heYRiNZxbg3pEmDugALDKchjeBf.jpg","year":"2025","result":"HD","language":["Punjabi"],"country":[],"original_language":"pa","genres":["Comedy","Drama"],"imdb_id":""},{"id":"1488859","type":"movie","title":"Mr & Mrs 420 Again","poster":"https://image.tmdb.org/t/p/w342/aLz55lqo3geX4GP8lmroyYV7ecq.jpg","year":"2025","result":"HD","language":["PUNJABI"],"country":["IN"],"original_language":"pa","genres":["Comedy"],"imdb_id":"tt36109502"},{"id":"1499835","type":"movie","title":"Pinjra","poster":"https://image.tmdb.org/t/p/w342/9yhXyD2MuqXeDrNYLXb8p5vjjRS.jpg","year":"2025","result":"HD","language":["PUNJABI"],"country":[],"original_language":"pa","genres":["Thriller","Crime"],"imdb_id":""},{"id":"1533188","type":"movie","title":"Policy","poster":"https://image.tmdb.org/t/p/w342/dvcUrYTpCMnG9iapggE6rIHZJ4g.jpg","year":"2025","result":"HD","language":["Hindi"],"country":[],"original_language":"pa","genres":["Drama"],"imdb_id":""},{"id":"1405301","type":"movie","title":"Pyaar Taan Hai Na","poster":"https://image.tmdb.org/t/p/w342/fUsspabzgR8qaQlACg9Okgk5DcO.jpg","year":"2025","result":"HD","language":["Punjabi"],"country":["AU"],"original_language":"pa","genres":[],"imdb_id":"tt35077028"},{"id":"308057","type":"tv","title":"Rajdhani - The Capital of Crime","poster":"https://image.tmdb.org/t/p/w342/gGurfNZ5EhGU03G6ELe6yOJc4Ah.jpg","year":"2025","result":"HD","language":["PUNJABI"],"country":["IN"],"original_language":"pa","genres":[],"imdb_id":"tt39140364","latest_uploaded_season":1,"total_uploaded_episodes":1},{"id":"1458487","type":"movie","title":"Rishte Naate","poster":"https://image.tmdb.org/t/p/w342/8DbwaakFMceJqkhtxXr3xDaGe3D.jpg","year":"2025","result":"HD","language":["PUNJABI"],"country":[],"original_language":"pa","genres":["Romance","Comedy"],"imdb_id":"tt35126350"},{"id":"1499848","type":"movie","title":"Road Of Life","poster":"https://image.tmdb.org/t/p/w342/eRlSiv94Jjn9CyQzfvPTsKWkETo.jpg","year":"2025","result":"HD","language":["PUNJABI"],"country":["IN"],"original_language":"pa","genres":["Drama"],"imdb_id":""},{"id":"1487113","type":"movie","title":"Sardaarji 3","poster":"https://image.tmdb.org/t/p/w342/ncLqJpmFlTxHbgeVRrdKZrHGfUl.jpg","year":"2025","result":"HD","language":["CAM RESULT"],"country":["IN"],"original_language":"pa","genres":["Adventure","Comedy","Horror"],"imdb_id":"tt33022037"},{"id":"1457306","type":"movie","title":"Saunkan Saunkanay 2","poster":"https://image.tmdb.org/t/p/w342/fGQBK3RjN1jmZKOhkyaOppcDpxk.jpg","year":"2025","result":"HD","language":["PUNJABI"],"country":["IN"],"original_language":"pa","genres":["Comedy","Romance"],"imdb_id":"tt34037996"},{"id":"1487110","type":"movie","title":"Sayonee","poster":"https://image.tmdb.org/t/p/w342/nslJFuiD4JgV9gwJV03tts3ejiL.jpg","year":"2025","result":"HD","language":["Punjabi"],"country":["IN"],"original_language":"pa","genres":["Romance","Drama"],"imdb_id":"tt12055210"},{"id":"1527769","type":"movie","title":"Teda Meda Chal Canada","poster":"https://image.tmdb.org/t/p/w342/9PPXSzmCxNV1LMwEFmTSEpwC2mA.jpg","year":"2025","result":"HD","language":["PUNJABI"],"country":[],"original_language":"en","genres":["Drama"],"imdb_id":""},{"id":"1487767","type":"movie","title":"Tenu Ghodi Kinney Chadaya","poster":"https://image.tmdb.org/t/p/w342/aVBlGrl4I4fJ7hmv6uB15qoFA9D.jpg","year":"2025","result":"HD","language":["PUNJABI"],"country":["IN"],"original_language":"pa","genres":["Comedy"],"imdb_id":"tt36041937"},{"id":"1602459","type":"movie","title":"Tera Bhanna Mitha Laage","poster":"https://image.tmdb.org/t/p/w342/hd61wAwJtQ96L5rqhJO2XPWpe9H.jpg","year":"2025","result":"HD","language":["PUNJABI"],"country":[],"original_language":"en","genres":["Drama"],"imdb_id":""},{"id":"1454352","type":"movie","title":"The Toys","poster":"https://image.tmdb.org/t/p/w342/5EQVOJdd881K1qSGPJBgUKe5ih8.jpg","year":"2025","result":"HD","language":["PUNJABI"],"country":[],"original_language":"pa","genres":["Comedy","Romance","Drama"],"imdb_id":"tt29417889"},{"id":"1472956","type":"movie","title":"Vair","poster":"https://image.tmdb.org/t/p/w342/zJ4pkkOLUuWga6W49Tc0JOJuJm2.jpg","year":"2025","result":"HD","language":["PUNJABI"],"country":["IN"],"original_language":"pa","genres":["Crime","Thriller"],"imdb_id":""},{"id":"1676328","type":"movie","title":"Ve Koi Lai Chaleya Muklave","poster":"https://m.media-amazon.com/images/S/pv-target-images/810e1a555e786a39e0f4d65d7860ea977dc2684cf51e8098b37fb9c2410461a0.jpg","year":"2025","result":"HD","language":["PUNJABI"],"country":[],"original_language":"pa","genres":[],"imdb_id":"tt37790370"},{"id":"1523505","type":"movie","title":"Wife peke Husband Theke","poster":"https://image.tmdb.org/t/p/w342/y6SiKXjQ4w8EIrUlLKAHe6l12m3.jpg","year":"2025","result":"HD","language":["PUNJABI"],"country":[],"original_language":"pa","genres":[],"imdb_id":"tt37517552"},{"id":"1446585","type":"movie","title":"Fikar Karo-Na","poster":"https://image.tmdb.org/t/p/w342/tGNZhc67OzMNVrsbyJAqwmYD4aq.jpg","year":"2025","result":"HD","language":["PUNJABI"],"country":[],"original_language":"pa","genres":["Drama","Romance","Comedy"],"imdb_id":"tt18286468"},{"id":"1422575","type":"movie","title":"Gurmukh","poster":"https://image.tmdb.org/t/p/w342/jLaycshCtw5RSRGErVHfpi3a7rp.jpg","year":"2025","result":"HD","language":["PUNJABI"],"country":["IN"],"original_language":"pa","genres":["Drama"],"imdb_id":"tt11493600"},{"id":"1427943","type":"movie","title":"Hasrat (An Uncommon Love Story)","poster":"https://image.tmdb.org/t/p/w342/saPuClJqmOvzDcDJrCuVHMUiqhn.jpg","year":"2025","result":"HD","language":["PUNJABI"],"country":[],"original_language":"pa","genres":[],"imdb_id":"tt35335552"},{"id":"1457238","type":"movie","title":"Taron Paar","poster":"https://image.tmdb.org/t/p/w342/6wdHCzUgUD9X0znUyyrCAVicmy9.jpg","year":"2025","result":"HD","language":["PUNJABI"],"country":[],"original_language":"pa","genres":["Drama","Romance"],"imdb_id":"tt36257781"},{"id":"1533182","type":"movie","title":"Hanji Kaun","poster":"https://image.tmdb.org/t/p/w342/dWEYAaH7n1CxcjkjzZT2fQCTvRl.jpg","year":"2025","result":"HD","language":["PUNJABI"],"country":[],"original_language":"pa","genres":["Drama","Comedy"],"imdb_id":""}]}