{"page":2,"total_pages":3,"total_items":147,"items":[{"id":"1599346","type":"movie","title":"Tenu Suit Suit Karda","poster":"https://image.tmdb.org/t/p/w342/e4mayAjt1IhJDzNDb4VkIIgvfid.jpg","year":"2025","result":"HD","language":["Hindi"],"country":[],"original_language":"pa","genres":[],"imdb_id":"tt39150156"},{"id":"1595286","type":"movie","title":"Yamla","poster":"https://image.tmdb.org/t/p/w342/8R7tsptUZQtpx1Km7s56mESM5JQ.jpg","year":"2025","result":"HD","language":["Hindi"],"country":["IN"],"original_language":"pa","genres":["Drama","Romance"],"imdb_id":"tt39066215"},{"id":"1584542","type":"movie","title":"Main Tere Qurbaan","poster":"https://image.tmdb.org/t/p/w342/dYiByJNOXVE8Im2EmS5eXuIq87i.jpg","year":"2025","result":"HD","language":["Hindi"],"country":[],"original_language":"pa","genres":[],"imdb_id":"tt35769322"},{"id":"1575785","type":"movie","title":"Badaa Karara Pudna","poster":"https://image.tmdb.org/t/p/w342/qJ4WBgDJNXXARfHi0as7Od2hn0R.jpg","year":"2025","result":"HD","language":["Hindi"],"country":["IN"],"original_language":"pa","genres":["Drama"],"imdb_id":"tt38598593"},{"id":"1570904","type":"movie","title":"Happy Khush Ho Gaya","poster":"https://image.tmdb.org/t/p/w342/ewm3xpq1jf9Yy3dV9FAHcaHInpj.jpg","year":"2025","result":"HD","language":["Hindi"],"country":["IN"],"original_language":"pa","genres":["Comedy"],"imdb_id":"tt37896655"},{"id":"1569849","type":"movie","title":"The Error","poster":"https://image.tmdb.org/t/p/w342/kgXYHZP7VPsoAw6GxjxX5ANyH3V.jpg","year":"2025","result":"HD","language":["Hindi"],"country":[],"original_language":"pa","genres":["Crime","Drama"],"imdb_id":"tt38689817"},{"id":"1569820","type":"movie","title":"Ik Chithi Dard Bhari","poster":"https://image.tmdb.org/t/p/w342/a5KjjKMNY9TmDDXwS1Jmv7xL5HU.jpg","year":"2025","result":"HD","language":["Hindi"],"country":[],"original_language":"pa","genres":["Drama","Family"],"imdb_id":""},{"id":"1563575","type":"movie","title":"Rajdhani Punjab","poster":"https://image.tmdb.org/t/p/w342/g0Srs4aCYeoCawDokvuyuDV1gXE.jpg","year":"2025","result":"HD","language":["Hindi"],"country":[],"original_language":"pa","genres":[],"imdb_id":"tt38691549"},{"id":"1560100","type":"movie","title":"Farmhouse","poster":"https://image.tmdb.org/t/p/w342/3UsMp8ZCAIRT7l2BVECSYgFOdvS.jpg","year":"2025","result":"HD","language":["Hindi"],"country":["IN"],"original_language":"pa","genres":["Thriller"],"imdb_id":"tt38608144"},{"id":"1560093","type":"movie","title":"Soch Toh Parey","poster":"https://image.tmdb.org/t/p/w342/eTRNXLeLFBcLAB8ZB3STlrNz7Nm.jpg","year":"2025","result":"HD","language":["Hindi"],"country":[],"original_language":"pa","genres":["Drama"],"imdb_id":""},{"id":"1557889","type":"movie","title":"Soohe Ve Cheere Waleya","poster":"https://image.tmdb.org/t/p/w342/xs574v4F6OPysyfzmwBh6AbPdN.jpg","year":"2025","result":"HD","language":["Hindi"],"country":["IN"],"original_language":"pa","genres":["Romance","Drama"],"imdb_id":"tt38582643"},{"id":"1557855","type":"movie","title":"Raavi de Kande","poster":"https://image.tmdb.org/t/p/w342/xs9qan2fvt1TgJr6PcL3CYVPZ57.jpg","year":"2025","result":"HD","language":["Hindi"],"country":[],"original_language":"pa","genres":["Drama"],"imdb_id":"tt37701965"},{"id":"1554048","type":"movie","title":"Godday Godday Chaa 2","poster":"https://image.tmdb.org/t/p/w342/ixaCAzYYO8NzYwJUg6v7Dy7qfxx.jpg","year":"2025","result":"HD","language":["Hindi"],"country":["IN"],"original_language":"pa","genres":["Comedy","Drama"],"imdb_id":"tt38504130"},{"id":"1552117","type":"movie","title":"Chalo Bulaava Aaya Hai","poster":"https://image.tmdb.org/t/p/w342/469JpVpXBucgfGVS7J2OMqinTAf.jpg","year":"2025","result":"HD","language":["Hindi"],"country":["IN","GB"],"original_language":"pa","genres":["Drama","Family"],"imdb_id":"tt38043583"},{"id":"1543574","type":"movie","title":"Punjabi Aa Gaye Oye","poster":"https://image.tmdb.org/t/p/w342/pfS0P0E2vg0pi7qHFwfykzztm3.jpg","year":"2025","result":"HD","language":["Hindi"],"country":["IN"],"original_language":"pa","genres":["Drama","Comedy"],"imdb_id":"tt37563418"},{"id":"1541550","type":"movie","title":"Mehar","poster":"https://image.tmdb.org/t/p/w342/f6ygZaUcXcRJVgFVc7oIxR8uR5Y.jpg","year":"2025","result":"HD","language":["Hindi"],"country":["IN"],"original_language":"pa","genres":["Drama"],"imdb_id":"tt36328115"},{"id":"1537411","type":"movie","title":"jaggo aayi aa","poster":"https://image.tmdb.org/t/p/w342/b58niEUpSPpxnvfn2NXqphM1H0k.jpg","year":"2025","result":"HD","language":["Hindi"],"country":[],"original_language":"pa","genres":["Drama"],"imdb_id":"tt36277724"},{"id":"1536607","type":"movie","title":"Della Bella Badlegi Kahaani","poster":"https://image.tmdb.org/t/p/w342/l6uJfwpE4kstuEI52Nn6VmqA8NM.jpg","year":"2025","result":"HD","language":["Hindi"],"country":["IN"],"original_language":"pa","genres":["Drama"],"imdb_id":"tt37537270"},{"id":"1532315","type":"movie","title":"Mukk Gyi Feem Dabbi Cho Yaaro","poster":"https://image.tmdb.org/t/p/w342/sGIUTJ6lMkPdkTZjOBo9bUjoGoI.jpg","year":"2025","result":"HD","language":["Hindi"],"country":["IN"],"original_language":"pa","genres":["Comedy","Drama"],"imdb_id":"tt36812916"},{"id":"1526946","type":"movie","title":"Phaphey Kuttniyan","poster":"https://image.tmdb.org/t/p/w342/kjwkWmr7HrybmEqPkmrkxe5fJcR.jpg","year":"2025","result":"HD","language":["Hindi"],"country":["IN"],"original_language":"pa","genres":["Comedy","Drama"],"imdb_id":"tt34930715"},{"id":"1523579","type":"movie","title":"Enna Nu Rehna Sehna Ni Aaunda","poster":"https://image.tmdb.org/t/p/w342/gm0BcnnxiHVGgnO5xczlyp5mXCw.jpg","year":"2025","result":"HD","language":["Hindi"],"country":["CA","PK"],"original_language":"pa","genres":["Comedy"],"imdb_id":"tt33044546"},{"id":"1522790","type":"movie","title":"Kuriyan Jawan Baapu Preshaan 2","poster":"https://image.tmdb.org/t/p/w342/k6PlfMehsn7mODyqtzMQpOkJqfT.jpg","year":"2025","result":"HD","language":["Hindi"],"country":["IN"],"original_language":"pa","genres":["Comedy","Drama"],"imdb_id":"tt37563463"},{"id":"1504369","type":"movie","title":"Maa Jaye","poster":"https://image.tmdb.org/t/p/w342/zw2snDOakQLbvEg0sVlDs3sdJij.jpg","year":"2025","result":"HD","language":["Hindi"],"country":["IN"],"original_language":"pa","genres":["Drama"],"imdb_id":"tt33056940"},{"id":"1499099","type":"movie","title":"Karamsutra","poster":"https://image.tmdb.org/t/p/w342/akxdNCJQ3wh0bRLRl2p7VaICRXe.jpg","year":"2025","result":"HD","language":["Hindi"],"country":[],"original_language":"pa","genres":["Thriller"],"imdb_id":"tt37285355"},{"id":"1488449","type":"movie","title":"Ikk Kudi","poster":"https://image.tmdb.org/t/p/w342/sHuAznqwfhqxbk0SYb4ISPMdzFH.jpg","year":"2025","result":"HD","language":["Hindi"],"country":["IN"],"original_language":"pa","genres":["Comedy","Drama"],"imdb_id":"tt35063604"},{"id":"1488441","type":"movie","title":"Haan Main Pagal Haan","poster":"https://image.tmdb.org/t/p/w342/jBqVrgglVVheW5eAffKBdQd19f6.jpg","year":"2025","result":"HD","language":["Hindi"],"country":["IN"],"original_language":"pa","genres":["Mystery","Drama"],"imdb_id":"tt36415633"},{"id":"1487289","type":"movie","title":"Jombieland","poster":"https://image.tmdb.org/t/p/w342/h78roUiZylCIzTrmeBN6Pnhv8cI.jpg","year":"2025","result":"HD","language":["Hindi"],"country":["IN"],"original_language":"pa","genres":["Action","Comedy","Horror"],"imdb_id":"tt36375452"},{"id":"1487106","type":"movie","title":"Raunak","poster":"https://image.tmdb.org/t/p/w342/xupYWGFIZ4NM4LVWxYyT9yr8J6V.jpg","year":"2025","result":"HD","language":["Hindi"],"country":["IN"],"original_language":"pa","genres":["Drama","Family","Romance"],"imdb_id":"tt36412691"},{"id":"1486799","type":"movie","title":"Sarbala Ji","poster":"https://image.tmdb.org/t/p/w342/eCERukldal4nrbupGdOzviAv5cQ.jpg","year":"2025","result":"HD","language":["Hindi"],"country":["IN"],"original_language":"pa","genres":["Action","Drama"],"imdb_id":"tt32872825"},{"id":"1481965","type":"movie","title":"Dakuaan Da Munda 3","poster":"https://image.tmdb.org/t/p/w342/xhuzfeyG4qml1c2KDKeaZhbxO1u.jpg","year":"2025","result":"HD","language":["Hindi"],"country":["IN"],"original_language":"pa","genres":["Action"],"imdb_id":"tt36389438"},{"id":"1478644","type":"movie","title":"Shaunki Sardar","poster":"https://image.tmdb.org/t/p/w342/Bx2FNrdYMRSgzihsC0VcG4omqw.jpg","year":"2025","result":"HD","language":["Hindi"],"country":[],"original_language":"pa","genres":["Action","Crime","Drama"],"imdb_id":"tt32965688"},{"id":"1469409","type":"movie","title":"Guru Nanak Jahaz","poster":"https://image.tmdb.org/t/p/w342/aB3Rvx7S25HBog1TZuuGoqBYXoJ.jpg","year":"2025","result":"HD","language":["Hindi"],"country":["IN"],"original_language":"pa","genres":["Drama"],"imdb_id":"tt36722524"},{"id":"1454405","type":"movie","title":"Akaal: The Unconquered","poster":"https://image.tmdb.org/t/p/w342/pzf5rPLoE5DdYkcZlvYbrH554rE.jpg","year":"2025","result":"HD","language":["Hindi"],"country":["IN"],"original_language":"pa","genres":["Action","History","Drama"],"imdb_id":"tt35402446"},{"id":"1447652","type":"movie","title":"Mithde","poster":"https://image.tmdb.org/t/p/w342/aNSeCYQi1ufDueaLcclab51xnfr.jpg","year":"2025","result":"HD","language":["Hindi"],"country":["IN"],"original_language":"pa","genres":["Romance","Drama"],"imdb_id":"tt34930723"},{"id":"1444425","type":"movie","title":"Six Each","poster":"https://image.tmdb.org/t/p/w342/mSUD3y15nNurCWZv2DyJwalWo2Z.jpg","year":"2025","result":"HD","language":["Hindi"],"country":["IN"],"original_language":"pa","genres":["Crime","Drama"],"imdb_id":"tt35684679"},{"id":"1442778","type":"movie","title":"Nikka Zaildar 4","poster":"https://image.tmdb.org/t/p/w342/dPbyKQaYwEIE6qzuM2snwOlZbGj.jpg","year":"2025","result":"HD","language":["Hindi"],"country":["IN"],"original_language":"pa","genres":["Comedy","Drama","Romance"],"imdb_id":"tt31307640"},{"id":"1421550","type":"movie","title":"Chal Mera Putt 4","poster":"https://image.tmdb.org/t/p/w342/e9iBBjh3DvOZB91aNU8l8Gf1zfx.jpg","year":"2025","result":"HD","language":["Hindi"],"country":[],"original_language":"pa","genres":["Comedy","Drama"],"imdb_id":""},{"id":"1419480","type":"movie","title":"Choran Nal Yarian","poster":"https://image.tmdb.org/t/p/w342/AuXuGn62ND4A2cx2t7iOw3jzzXa.jpg","year":"2025","result":"HD","language":["Hindi"],"country":["IN"],"original_language":"pa","genres":["Comedy"],"imdb_id":"tt35165229"},{"id":"1412865","type":"movie","title":"Furlow","poster":"https://image.tmdb.org/t/p/w342/sWFqyadJnAUkm0c9it86Kzh4WQN.jpg","year":"2025","result":"HD","language":["Hindi"],"country":["IN"],"original_language":"pa","genres":["Comedy","Drama"],"imdb_id":"tt35058048"},{"id":"307609","type":"tv","title":"Rasmalai","poster":"https://image.tmdb.org/t/p/w342/tK65NmtV9Yhe4A5AN3PgZ31s280.jpg","year":"2025","result":"HD","language":["Hindi"],"country":["IN"],"original_language":"pa","genres":["Drama"],"imdb_id":"","latest_uploaded_season":1,"total_uploaded_episodes":5},{"id":"306886","type":"tv","title":"Firottiye","poster":"https://image.tmdb.org/t/p/w342/mbgkVypbw7RaOWdYA8TSTjycpHB.jpg","year":"2025","result":"HD","language":["Hindi"],"country":["IN"],"original_language":"pa","genres":["Action & Adventure"],"imdb_id":"tt38454779","latest_uploaded_season":1,"total_uploaded_episodes":5},{"id":"303851","type":"tv","title":"Lakadbaggey","poster":"https://image.tmdb.org/t/p/w342/vb3DHIO9RIw47cX9p3BJc8xZ600.jpg","year":"2025","result":"HD","language":["Hindi"],"country":["IN"],"original_language":"pa","genres":["Drama"],"imdb_id":"tt35678103","latest_uploaded_season":1,"total_uploaded_episodes":6},{"id":"1243093","type":"movie","title":"Ni Main Sass Kuttni 2","poster":"https://image.tmdb.org/t/p/w342/nkInS6oDku7r7UzTSWjVoVcYboN.jpg","year":"2024","result":"HD","language":["Hindi"],"country":["IN"],"original_language":"pa","genres":["Comedy","Drama"],"imdb_id":"tt29456689"},{"id":"1285827","type":"movie","title":"Shinda Shinda No Papa","poster":"https://image.tmdb.org/t/p/w342/ouYSseDo6JPIXQnjdVFSnQ1l3E6.jpg","year":"2024","result":"HD","language":["Hindi"],"country":["IN"],"original_language":"pa","genres":["Drama"],"imdb_id":"tt30777542"},{"id":"1338721","type":"movie","title":"Ardaas Sarbat De Bhale Di","poster":"https://image.tmdb.org/t/p/w342/ns9fR4y3mY9kHPyWyJmxlboq3Bi.jpg","year":"2024","result":"HD","language":["Hindi"],"country":["IN"],"original_language":"pa","genres":["Drama","Family"],"imdb_id":"tt16867396"},{"id":"1395930","type":"movie","title":"Bapu Ni Manda Mera","poster":"https://image.tmdb.org/t/p/w342/3OkzguYJxCaDmLkONJZWS3GQFq8.jpg","year":"2024","result":"HD","language":["Hindi"],"country":[],"original_language":"pa","genres":[],"imdb_id":"tt34139284"},{"id":"1339975","type":"movie","title":"Gandhi 3","poster":"https://image.tmdb.org/t/p/w342/bDKqB6eR1WHXHMWvgSufJ9BCQNU.jpg","year":"2024","result":"HD","language":["PUNJABI"],"country":["IN"],"original_language":"pa","genres":["Action","Crime"],"imdb_id":"tt32868294"},{"id":"1369080","type":"movie","title":"Mittran Da Challeya Truck Ni","poster":"https://image.tmdb.org/t/p/w342/atc9JqQkvDn2GFqmOtIMeUD2NIU.jpg","year":"2024","result":"HD","language":["Hindi"],"country":["IN"],"original_language":"pa","genres":["Comedy"],"imdb_id":"tt33395924"},{"id":"1399754","type":"movie","title":"Panjab Files","poster":"https://image.tmdb.org/t/p/w342/28bCMDJP1ZaEFHVIupy6JLcbX1I.jpg","year":"2024","result":"HD","language":["PUNJABI"],"country":["IN"],"original_language":"pa","genres":["Action","Adventure","Drama","History"],"imdb_id":"tt32308591"},{"id":"1390957","type":"movie","title":"Raduaa Returns","poster":"https://image.tmdb.org/t/p/w342/8ecsv0KyTBKr3mCrEokqJJMM469.jpg","year":"2024","result":"HD","language":["Hindi"],"country":[],"original_language":"pa","genres":["Science Fiction"],"imdb_id":"tt22330520"}]}