{"page":3,"total_pages":3,"total_items":144,"items":[{"id":"1338721","type":"movie","title":"Ardaas Sarbat De Bhale Di","poster":"https://image.tmdb.org/t/p/w342/ns9fR4y3mY9kHPyWyJmxlboq3Bi.jpg","year":"2024","result":"HD","language":["Hindi"],"country":["IN"],"original_language":"pa","genres":["Drama","Family"],"imdb_id":"tt16867396","backdrop":"https://image.tmdb.org/t/p/original/bc0nlU9U6q1H67MopwVw5vsPkTc.jpg","watch":"<iframe src=\"https://bysebuho.com/e/c9m4nafye06z/ardaas-sarbat-de-bhale-di-2024-720p-web-dl-punjabi\" frameborder=\"0\" marginwidth=\"0\" marginheight=\"0\" scrolling=\"no\" width=\"640\" height=\"360\" allowfullscreen></iframe>","release_date":"2024-09-13"},{"id":"1339975","type":"movie","title":"Gandhi 3","poster":"https://image.tmdb.org/t/p/w342/bDKqB6eR1WHXHMWvgSufJ9BCQNU.jpg","year":"2024","result":"HD","language":["PUNJABI"],"country":["IN"],"original_language":"pa","genres":["Action","Crime"],"imdb_id":"tt32868294","backdrop":"https://image.tmdb.org/t/p/original/oUJ5XrskAqkPANAKmCpvOSevs8c.jpg","watch":"<iframe src=\"https://bysebuho.com/e/tqtzp2evnqzv/gandhi-3-2024-720p-web-dl-punjabi\" frameborder=\"0\" marginwidth=\"0\" marginheight=\"0\" scrolling=\"no\" width=\"640\" height=\"360\" allowfullscreen></iframe>","release_date":"2024-08-30"},{"id":"1336930","type":"movie","title":"Haye Bibiye Kithe Fas Gaye","poster":"https://image.tmdb.org/t/p/w342/uSdc9BTbVPtT7fpCpC5VwN9nC5x.jpg","year":"2024","result":"HD","language":["Hindi"],"country":["IN","GB"],"original_language":"pa","genres":["Comedy","Horror"],"imdb_id":"tt32868274","backdrop":"https://image.tmdb.org/t/p/original/9yh8rsmcaOBYFQ0ANguJjJ8v1W3.jpg","watch":"<iframe src=\"https://bysebuho.com/e/38059shov26x/haye-bibiye-kithe-fas-gaye-2024-720p-web-dl-panjabi-aac5-1-esub-vegamovies-is-mkv\" frameborder=\"0\" marginwidth=\"0\" marginheight=\"0\" scrolling=\"no\" width=\"640\" height=\"360\" allowfullscreen></iframe>","release_date":"2024-08-23"},{"id":"1337708","type":"movie","title":"Alzheimer","poster":"https://image.tmdb.org/t/p/w342/95Wf3Zuj1NbAEm7jUnH8JyX8PM7.jpg","year":"2024","result":"HD","language":["Hindi"],"country":["IN"],"original_language":"pa","genres":["Drama","Crime"],"imdb_id":"","backdrop":"","watch":"<iframe src=\"https://bysebuho.com/e/nwffmiwvvxao/alzheimer-2024-720p-hevc-web-dl-panjabi-x265-esubs-vegamovies-to-mkv\" frameborder=\"0\" marginwidth=\"0\" marginheight=\"0\" scrolling=\"no\" width=\"640\" height=\"360\" allowfullscreen></iframe>","release_date":"2024-08-22"},{"id":"1336910","type":"movie","title":"Lag Gaye","poster":"https://image.tmdb.org/t/p/w342/2rBUm6kiWkTWJeK2R6CHAcrLNRg.jpg","year":"2024","result":"HD","language":["PUNJABI"],"country":[],"original_language":"pa","genres":["Comedy","Drama"],"imdb_id":"","backdrop":"https://image.tmdb.org/t/p/original/g6KqjLm1fNi30Ea7NYLtsNYYo7L.jpg","watch":"<iframe src=\"https://bysebuho.com/e/yqcjphzxczjm/lag-gaye-2024-720p-hevc-web-dl-panjabi-x265-esubs-vegamovies-to-mkv\" frameborder=\"0\" marginwidth=\"0\" marginheight=\"0\" scrolling=\"no\" width=\"640\" height=\"360\" allowfullscreen></iframe>","release_date":"2024-08-20"},{"id":"261679","type":"tv","title":"Sarpanchi","poster":"https://image.tmdb.org/t/p/w342/t6IpIgNO3FxOPPXsZNGiDz5DDbR.jpg","year":"2024","result":"HD","language":["Hindi"],"country":["IN"],"original_language":"pa","genres":["Drama"],"imdb_id":"tt33062819","latest_uploaded_season":1,"total_uploaded_episodes":1,"backdrop":"https://image.tmdb.org/t/p/original/ahdjBugls7vXTJEHRliODT9547j.jpg","seasons":[{"season_number":1,"episodes":[{"episode_number":1,"name":"All Episode","overview":"","still_path":"","air_date":"2024-08-15","runtime":203,"vote_average":0,"watch":"<iframe src=\"https://bysebuho.com/e/kzjarqsjhyij/sarpanchi-s01-720p-hevc-web-dl-panjabi\" frameborder=\"0\" marginwidth=\"0\" marginheight=\"0\" scrolling=\"no\" width=\"640\" height=\"360\" allowfullscreen></iframe>"}]}],"release_date":"2024-08-15"},{"id":"1321700","type":"movie","title":"Daaru Na Peenda Hove","poster":"https://image.tmdb.org/t/p/w342/jGzjAvwUkvTMEN8Yn0E1opHd4vM.jpg","year":"2024","result":"HD","language":["Hindi"],"country":["CA","IN"],"original_language":"pa","genres":["Comedy","Drama","Family"],"imdb_id":"tt27736430","backdrop":"https://image.tmdb.org/t/p/original/2Zqt6cYxkgRoNGOP0IefoWh9WU5.jpg","watch":"<iframe src=\"https://bysebuho.com/e/b71w1tdgvnrf/Daaru.Na.Peenda.Hove.2024.720p.WEB-DL.Punjabi.x264.AAC.5.1.ESub-DANIEWATCH.is.mkv\" width=\"640\" height=\"360\" frameborder=\"0\" allowfullscreen></iframe>","release_date":"2024-08-02"},{"id":"1315918","type":"movie","title":"Ucha Dar Babe Nanak Da","poster":"https://image.tmdb.org/t/p/w342/dKg9ae1AbXxC57KF4zy9V3DtLLe.jpg","year":"2024","result":"HD","language":["PUNJABI"],"country":["IN"],"original_language":"pa","genres":["Drama"],"imdb_id":"tt27263294","backdrop":"https://image.tmdb.org/t/p/original/uWYfD6mtRUtHmbxmase0bUIsboE.jpg","watch":"<iframe src=\"https://bysebuho.com/e/riuo4odysnee/ucha-dar-babe-nanak-da-2024-720p-web-dl-punjabi-aac-5-1-esubs-vegamovies-is-mkv\" frameborder=\"0\" marginwidth=\"0\" marginheight=\"0\" scrolling=\"no\" width=\"640\" height=\"360\" allowfullscreen></iframe>","release_date":"2024-07-12"},{"id":"1184243","type":"movie","title":"Jatt & Juliet 3","poster":"https://image.tmdb.org/t/p/w342/sZl16hpuT09oVWPhL3JeRRUfTOf.jpg","year":"2024","result":"HD","language":["Hindi"],"country":["IN"],"original_language":"pa","genres":["Comedy","Romance"],"imdb_id":"tt29063558","backdrop":"https://image.tmdb.org/t/p/original/yBNrCX1CjxapHwmBdzf5HL9KRrZ.jpg","watch":"<iframe src=\"https://bysebuho.com/e/rxp76av7dbpe/jatt-and-juliet-3-2024-panjabi-movie-hd-720p-esub-vegamovies-is-mkv\" frameborder=\"0\" marginwidth=\"0\" marginheight=\"0\" scrolling=\"no\" width=\"640\" height=\"360\" allowfullscreen></iframe>","release_date":"2024-06-27"},{"id":"682856","type":"movie","title":"Teriya Meriya Hera Pheriyan","poster":"https://image.tmdb.org/t/p/w342/oZBIvd8aBFV8CnSQGwEIL3QDTIu.jpg","year":"2024","result":"HD","language":["Hindi"],"country":["IN","GB"],"original_language":"pa","genres":["Drama","Comedy"],"imdb_id":"tt9219648","backdrop":"https://image.tmdb.org/t/p/original/thcoTAEBIk9EiDscqAOV8uZCHVl.jpg","watch":"<iframe src=\"https://bysebuho.com/e/lzz0r84lw2rr/teriya-meriya-hera-pheriyan-2024-720p-hevc-web-dl-punjabi-x265-esubs-vegamovies-to-mkv\" frameborder=\"0\" marginwidth=\"0\" marginheight=\"0\" scrolling=\"no\" width=\"640\" height=\"360\" allowfullscreen></iframe>","release_date":"2024-06-21"},{"id":"1306486","type":"movie","title":"Mr Shudai","poster":"https://image.tmdb.org/t/p/w342/4sfkXIyIgdDbCDJb1eYadfMEJFp.jpg","year":"2024","result":"HD","language":["Hindi"],"country":["IN"],"original_language":"pa","genres":["Comedy","Drama","Fantasy"],"imdb_id":"tt32415485","backdrop":"https://image.tmdb.org/t/p/original/kAojEgon0aiOJLArhngx4cGKWiv.jpg","watch":"<iframe src=\"https://bysebuho.com/e/h4x0j07zq5ud/Mr_Shudai_2024_720p_WEB-DL_Punjabi_x264-DANIEWATCH\" frameborder=\"0\" marginwidth=\"0\" marginheight=\"0\" scrolling=\"no\" width=\"640\" height=\"360\" allowfullscreen></iframe>","release_date":"2024-06-21"},{"id":"1184245","type":"movie","title":"Kudi Haryane Val Di","poster":"https://image.tmdb.org/t/p/w342/sBgdOpVo7U2RZEDJ6t8oGfhAt3K.jpg","year":"2024","result":"HD","language":["Hindi"],"country":["IN"],"original_language":"pa","genres":["Drama"],"imdb_id":"tt29309965","backdrop":"https://image.tmdb.org/t/p/original/nFTIx6EaXjRkFuSf7uuOkus7eEu.jpg","watch":"<iframe src=\"https://bysebuho.com/e/6s2ontujn78m/kudi-haryane-val-di-2024-720p-hevc-web-dl-panjabi-aac2-0-esub-vegamovies-to-mkv\" frameborder=\"0\" marginwidth=\"0\" marginheight=\"0\" scrolling=\"no\" width=\"640\" height=\"360\" allowfullscreen></iframe>","release_date":"2024-06-14"},{"id":"1243093","type":"movie","title":"Ni Main Sass Kuttni 2","poster":"https://image.tmdb.org/t/p/w342/nkInS6oDku7r7UzTSWjVoVcYboN.jpg","year":"2024","result":"HD","language":["Hindi"],"country":["IN"],"original_language":"pa","genres":["Comedy","Drama"],"imdb_id":"tt29456689","backdrop":"https://image.tmdb.org/t/p/original/tSDkwJLx6Qv7X90fJYbueFNWWoA.jpg","watch":"<iframe src=\"https://bysebuho.com/e/yqrejq3lt7td/ni-main-sass-kuttni-2-2024-720p-web-dl-panjabi\" frameborder=\"0\" marginwidth=\"0\" marginheight=\"0\" scrolling=\"no\" width=\"640\" height=\"360\" allowfullscreen></iframe>","release_date":"2024-06-07"},{"id":"1208831","type":"movie","title":"Rode College","poster":"https://image.tmdb.org/t/p/w342/aQ1VjUhn0wXpdS0mjqSTvgMvCKC.jpg","year":"2024","result":"HD","language":["Hindi"],"country":["IN"],"original_language":"pa","genres":["Drama","Comedy"],"imdb_id":"tt28350704","backdrop":"https://image.tmdb.org/t/p/original/4bdXNZkNgMD8LzXvVLYqQsmSl8y.jpg","watch":"<iframe src=\"https://bysebuho.com/e/x8sg0vnqb45h/Rode_College_2024_720p_HEVC_WeB-DL_Panjabi_x265_ESub_DanieWatch_to.mkv\" width=\"640\" height=\"360\" frameborder=\"0\" allowfullscreen></iframe>","release_date":"2024-06-07"},{"id":"1297058","type":"movie","title":"Allahr Vres","poster":"https://image.tmdb.org/t/p/w342/71m3Odffnn6tmsRNP0TgnRH0BLH.jpg","year":"2024","result":"HD","language":["PUNJABI"],"country":["IN"],"original_language":"pa","genres":["Romance"],"imdb_id":"tt23979244","backdrop":"https://image.tmdb.org/t/p/original/gDv7gXpKwETLtKwMXnDd0YmXw3Q.jpg","watch":"<iframe src=\"https://bysebuho.com/e/r4k92fxurhey/allahr-vres-2024-720p-hevc-web-dl-punjabi-aac-x265-esubs-vegamovies-to-mkv\" frameborder=\"0\" marginwidth=\"0\" marginheight=\"0\" scrolling=\"no\" width=\"640\" height=\"360\" allowfullscreen></iframe>","release_date":"2024-05-31"},{"id":"1293863","type":"movie","title":"Rose Rosy Te Gulab","poster":"https://image.tmdb.org/t/p/w342/aLvgqL7ivOMvtyQmJ0EJ4LgTvVI.jpg","year":"2024","result":"HD","language":["PUNJABI"],"country":["IN"],"original_language":"pa","genres":["Romance","Drama"],"imdb_id":"tt31473803","backdrop":"https://image.tmdb.org/t/p/original/67cVI8e52aBJk1ICy8MsD243A98.jpg","watch":"<iframe src=\"https://bysebuho.com/e/9r15czpn9cre/rose-rosy-te-gulab-2024-720p-hevc-web-dl-panjabi-aac2-0-x265-esub-vegamovies-is-mkv\" frameborder=\"0\" marginwidth=\"0\" marginheight=\"0\" scrolling=\"no\" width=\"640\" height=\"360\" allowfullscreen></iframe>","release_date":"2024-05-24"},{"id":"1279657","type":"movie","title":"Je Jatt Vigarh Gya","poster":"https://image.tmdb.org/t/p/w342/diezoZdgczC0N2PcVVdyqouGd6l.jpg","year":"2024","result":"HD","language":["PUNJABI"],"country":["IN"],"original_language":"pa","genres":["Drama"],"imdb_id":"tt31616101","backdrop":"https://image.tmdb.org/t/p/original/kVAfNc74r8tigtTn3zRGpgM1waB.jpg","watch":"<iframe src=\"https://bysebuho.com/e/3dvlj3hrf6zb/je-jatt-vigarh-gya-2024-720p-web-dl-panjabi-aac5-1-esub-vegamovies-is-mkv\" frameborder=\"0\" marginwidth=\"0\" marginheight=\"0\" scrolling=\"no\" width=\"640\" height=\"360\" allowfullscreen></iframe>","release_date":"2024-05-17"},{"id":"1285827","type":"movie","title":"Shinda Shinda No Papa","poster":"https://image.tmdb.org/t/p/w342/ouYSseDo6JPIXQnjdVFSnQ1l3E6.jpg","year":"2024","result":"HD","language":["Hindi"],"country":["IN"],"original_language":"pa","genres":["Drama"],"imdb_id":"tt30777542","backdrop":"https://image.tmdb.org/t/p/original/3QtVzt6zjkciBaqeXFmzpnD8SH3.jpg","watch":"<iframe src=\"https://bysebuho.com/e/bmn4rgtgf7ah/shinda-shinda-no-papa-2024-720p-web-dl-punjabi-aac-5-1-esubs-vegamovies-is-mkv\" frameborder=\"0\" marginwidth=\"0\" marginheight=\"0\" scrolling=\"no\" width=\"640\" height=\"360\" allowfullscreen></iframe>","release_date":"2024-05-10"},{"id":"1312563","type":"movie","title":"Pind Aala School","poster":"https://image.tmdb.org/t/p/w342/lj9e9EDk7PC15LzFs1gIgiTtfUq.jpg","year":"2024","result":"HD","language":["PUNJABI"],"country":[],"original_language":"pa","genres":["Drama"],"imdb_id":"tt30476264","backdrop":"https://image.tmdb.org/t/p/original/ktCCRwifr4XHpfKvnphCe1F4hUd.jpg","watch":"<iframe src=\"https://bysebuho.com/e/cehiysglue4b/pind-aala-school-2024-720p-hevc-web-dl-panjabi-aac2-0-x265-esub-vegamovies-to-mkv\" frameborder=\"0\" marginwidth=\"0\" marginheight=\"0\" scrolling=\"no\" width=\"640\" height=\"360\" allowfullscreen></iframe>","release_date":"2024-05-03"},{"id":"1262988","type":"movie","title":"Shayar","poster":"https://image.tmdb.org/t/p/w342/o7HqylCy4h8fY0LwgzC2MeYVqET.jpg","year":"2024","result":"HD","language":["PUNJABI"],"country":["IN"],"original_language":"pa","genres":["Romance","Drama"],"imdb_id":"tt31228642","backdrop":"https://image.tmdb.org/t/p/original/tuBTPS3IyFEWTqij9BNfzoTsgWn.jpg","watch":"<iframe src=\"https://bysebuho.com/e/nrz29ro2ttgd/shayar-2024-720p-hevc-web-dl-panjabi-aac2-0-x265-esub-vegamovies-to-mkv\" frameborder=\"0\" marginwidth=\"0\" marginheight=\"0\" scrolling=\"no\" width=\"640\" height=\"360\" allowfullscreen></iframe>","release_date":"2024-04-19"},{"id":"1273005","type":"movie","title":"Jeonde Raho Bhoot Ji","poster":"https://image.tmdb.org/t/p/w342/xdsuMdkYk7HS1IUYXou2iy0RZEl.jpg","year":"2024","result":"HD","language":["PUNJABI"],"country":[],"original_language":"pa","genres":["Horror","Comedy"],"imdb_id":"tt31613325","backdrop":"https://image.tmdb.org/t/p/original/8UGx8MbPEnz9SvYiNNGi0Ab8DsN.jpg","watch":"<iframe src=\"https://bysebuho.com/e/2040gt2ow9v5/jonde-raho-bhoot-ji-2024-720p-hevc-web-dl-panjabi-x265-esub-vegamovies-to-mkv\" frameborder=\"0\" marginwidth=\"0\" marginheight=\"0\" scrolling=\"no\" width=\"640\" height=\"360\" allowfullscreen></iframe>","release_date":"2024-04-12"},{"id":"1288554","type":"movie","title":"Fer Mamlaa Gadbad Hai","poster":"https://image.tmdb.org/t/p/w342/eWAwoM8JfClEHg10xw4UsN5HHs4.jpg","year":"2024","result":"HD","language":["Hindi"],"country":[],"original_language":"pa","genres":["Comedy"],"imdb_id":"tt15522318","backdrop":"https://image.tmdb.org/t/p/original/hqrcgNDRD3Wbkirj7WVQcE9H8hr.jpg","watch":"<iframe src=\"https://bysebuho.com/e/twhz8z4y6pm3/fer-mamlaa-gadbad-hai-2024-720p-hevc-web-dl-panjabi-aac2-0-esub-vegamovies-to-mkv\" frameborder=\"0\" marginwidth=\"0\" marginheight=\"0\" scrolling=\"no\" width=\"640\" height=\"360\" allowfullscreen></iframe>","release_date":"2024-04-08"},{"id":"1199958","type":"movie","title":"Chal Bhajj Chaliye","poster":"https://image.tmdb.org/t/p/w342/h24ikmVQekY003vbztWIvOxYMC6.jpg","year":"2024","result":"HD","language":["PUNJABI"],"country":["IN"],"original_language":"pa","genres":["Comedy","Drama","Romance"],"imdb_id":"tt28744229","backdrop":"","watch":"<iframe src=\"https://bysebuho.com/e/bmne6cep78lv/chal-bhajj-chaliye-2024-720p-hd-rip-hevc-punjabi-x265-aac-esub-vegamovies-to-mkv\" frameborder=\"0\" marginwidth=\"0\" marginheight=\"0\" scrolling=\"no\" width=\"640\" height=\"360\" allowfullscreen></iframe>","release_date":"2024-04-05"},{"id":"1266706","type":"movie","title":"Parahuna 2","poster":"https://image.tmdb.org/t/p/w342/pgFPzLPsLddasXGbTy102NbfWnd.jpg","year":"2024","result":"HD","language":["PUNJABI"],"country":[],"original_language":"pa","genres":["Comedy","Drama"],"imdb_id":"tt19799528","backdrop":"https://image.tmdb.org/t/p/original/7OVEYlULQI3XDY2XQwFtsqGL6Sa.jpg","watch":"<iframe src=\"https://bysebuho.com/e/4cigc2pq61oq/parahuna-2-2024-720p-hevc-web-dl-panjabi-aac2-0-x265-esub-vegamovies-to-mkv\" frameborder=\"0\" marginwidth=\"0\" marginheight=\"0\" scrolling=\"no\" width=\"640\" height=\"360\" allowfullscreen></iframe>","release_date":"2024-03-29"},{"id":"1211242","type":"movie","title":"Vadda Ghar","poster":"https://image.tmdb.org/t/p/w342/f1mYUS35jHgWOtFPxG5PoI8UKX3.jpg","year":"2024","result":"HD","language":["Hindi"],"country":["IN"],"original_language":"pa","genres":["Comedy","Drama"],"imdb_id":"tt26249690","backdrop":"","watch":"<iframe src=\"https://bysebuho.com/e/79ydhaknnrvx/Vadda.Ghar.2024.720p.WEB-DL.Punjabi.x264-DANIEWATCH.mkv\" width=\"640\" height=\"360\" frameborder=\"0\" allowfullscreen></iframe>","release_date":"2024-03-22"},{"id":"1184246","type":"movie","title":"Jatt Nuu Chudail Takri","poster":"https://image.tmdb.org/t/p/w342/3LC5hxRbscA5Yi5E6eNJLKrFW84.jpg","year":"2024","result":"HD","language":["PUNJABI"],"country":["IN"],"original_language":"pa","genres":["Drama","Comedy","Fantasy"],"imdb_id":"tt30769141","backdrop":"https://image.tmdb.org/t/p/original/fewzhxSnXiHYfqx6HmVEK6bMs0b.jpg","watch":"<iframe src=\"https://bysebuho.com/e/stf1dw8hr7tu/jatt-nuu-chudail-takri-2024-720p-hevc-web-dl-panjabi-aac2-0-esub-vegamovies-to-mkv\" frameborder=\"0\" marginwidth=\"0\" marginheight=\"0\" scrolling=\"no\" width=\"640\" height=\"360\" allowfullscreen></iframe>","release_date":"2024-03-15"},{"id":"1253059","type":"movie","title":"Blackia 2","poster":"https://image.tmdb.org/t/p/w342/eA9dnAXj9NETERswgEiZlNTcE7Q.jpg","year":"2024","result":"HD","language":["Hindi"],"country":["IN"],"original_language":"pa","genres":["Crime","Drama"],"imdb_id":"tt28282203","backdrop":"https://image.tmdb.org/t/p/original/4xSwUdwDw43YV8eVXFF7FquN2vH.jpg","watch":"<iframe src=\"https://bysebuho.com/e/5ah1v3g9x18z/blackia-2-2024-720p-hd-rip-hevc-punjabi-x265-aac-esub-vegamovies-to-mkv\" frameborder=\"0\" marginwidth=\"0\" marginheight=\"0\" scrolling=\"no\" width=\"640\" height=\"360\" allowfullscreen></iframe>","release_date":"2024-03-08"},{"id":"1221072","type":"movie","title":"Vekhi Ja Chhedi Na","poster":"https://image.tmdb.org/t/p/w342/oXzQNIQbUo3u5QpFPAO6DZVQinA.jpg","year":"2024","result":"HD","language":["PUNJABI"],"country":["IN"],"original_language":"pa","genres":["Comedy"],"imdb_id":"tt30027921","backdrop":"","watch":"<iframe src=\"https://bysebuho.com/e/r6s0s64lmwgz/vekhi-ja-chhaedi-na-2024-720p-hd-rip-hevc-punjabi-x265-aac-esub-vegamovies-to-mkv\" frameborder=\"0\" marginwidth=\"0\" marginheight=\"0\" scrolling=\"no\" width=\"640\" height=\"360\" allowfullscreen></iframe>","release_date":"2024-02-23"},{"id":"1181534","type":"movie","title":"Parinda Paar Geyaa","poster":"https://image.tmdb.org/t/p/w342/6TS2drW57IlA5eIRtd1MXkgyAhK.jpg","year":"2023","result":"HD","language":["Hindi"],"country":["IN"],"original_language":"pa","genres":["Drama","Music"],"imdb_id":"tt29932702","backdrop":"https://image.tmdb.org/t/p/original/uQz4zWvBRRZvWO5oi1OcdP3SC7Z.jpg","watch":"<iframe src=\"https://bysebuho.com/e/56muu31ra07h/parinda-paar-geyaa-2023-720p-hevc-web-dl-panjabi\" frameborder=\"0\" marginwidth=\"0\" marginheight=\"0\" scrolling=\"no\" width=\"640\" height=\"360\" allowfullscreen></iframe>","release_date":"2023-11-03"},{"id":"1186347","type":"movie","title":"Chidiyan Da Chamba","poster":"https://image.tmdb.org/t/p/w342/rj7VoJbfIy42Wtfhz9SmaAm5l7.jpg","year":"2023","result":"HD","language":["Hindi"],"country":["IN"],"original_language":"pa","genres":["Drama"],"imdb_id":"tt28378248","backdrop":"https://image.tmdb.org/t/p/original/zbwOcgdi2djyM4NouR1wFnvZYkE.jpg","watch":"<iframe src=\"https://bysebuho.com/e/cq1zfmdwrtvb/chidiyan-da-chamba-2023-720p-web-dl-punjabi\" frameborder=\"0\" marginwidth=\"0\" marginheight=\"0\" scrolling=\"no\" width=\"640\" height=\"360\" allowfullscreen></iframe>","release_date":"2023-10-13"},{"id":"1164874","type":"movie","title":"Cheta Singh","poster":"https://image.tmdb.org/t/p/w342/enMws0lz7SMg1HzMY4EAtmiXHjE.jpg","year":"2023","result":"HD","language":["Hindi"],"country":["IN"],"original_language":"pa","genres":["Action","Crime","Drama","Thriller"],"imdb_id":"tt21264776","backdrop":"https://image.tmdb.org/t/p/original/2aSO3gZiZMjzCzujKloZwBx81JM.jpg","watch":"<iframe src=\"https://bysebuho.com/e/6r0e7pjcuizk/cheta-singh-2023-720p-hevc-web-dl-punjabi\" frameborder=\"0\" marginwidth=\"0\" marginheight=\"0\" scrolling=\"no\" width=\"640\" height=\"360\" allowfullscreen></iframe>","release_date":"2023-09-01"},{"id":"1161550","type":"movie","title":"Paune 9","poster":"https://image.tmdb.org/t/p/w342/orRoouqMgCue45ViwPLVg8RlL5J.jpg","year":"2023","result":"HD","language":["Hindi"],"country":[],"original_language":"pa","genres":[],"imdb_id":"tt15263842","backdrop":"https://image.tmdb.org/t/p/original/mIVNWP53CXBMJGpHhWT2zHghIeA.jpg","watch":"<iframe src=\"https://bysebuho.com/e/lur2ft4poufx/paune-9-2024-720p-hd-rip-hevc-punjabi-x265-aac-esub-vegamovies-to-mkv\" frameborder=\"0\" marginwidth=\"0\" marginheight=\"0\" scrolling=\"no\" width=\"640\" height=\"360\" allowfullscreen></iframe>","release_date":"2023-07-28"},{"id":"1100668","type":"movie","title":"Nigah Marda Ayi Ve","poster":"https://image.tmdb.org/t/p/w342/f4X8Mup2DOkFxJJ29jWQ0Kt0HzH.jpg","year":"2023","result":"HD","language":["CAM RESULT"],"country":["IN"],"original_language":"pa","genres":["Drama","Romance"],"imdb_id":"tt15422336","backdrop":"","watch":"<iframe src=\"https://bysebuho.com/e/b9pdr13ugej0/nigah-marda-ayi-ve-2023-720p-camrip-pun\" frameborder=\"0\" marginwidth=\"0\" marginheight=\"0\" scrolling=\"no\" width=\"640\" height=\"360\" allowfullscreen></iframe>","release_date":"2023-03-17"},{"id":"1555258","type":"movie","title":"Asi Desi","poster":"https://image.tmdb.org/t/p/w342/gRMgtKMtYUukEkOWfKJKoFfgqqB.jpg","year":"2022","result":"HD","language":["PUNJABI"],"country":["IN"],"original_language":"pa","genres":["Drama"],"imdb_id":"","backdrop":"","watch":"<iframe src=\"https://bysebuho.com/e/sx7z9aobl0t0/asi-desi-2025-720p-web-dl-punjabi-x264\" frameborder=\"0\" marginwidth=\"0\" marginheight=\"0\" scrolling=\"no\" width=\"640\" height=\"360\" allowfullscreen></iframe>","release_date":"2022-08-09"},{"id":"979971","type":"movie","title":"Dakuaan Da Munda 2","poster":"https://image.tmdb.org/t/p/w342/aBaBWIkMm6QIa4kee5zB1YRh5tW.jpg","year":"2022","result":"HD","language":["Hindi"],"country":["US"],"original_language":"pa","genres":["Action","Crime"],"imdb_id":"tt14888342","backdrop":"https://image.tmdb.org/t/p/original/3G95ZXKSULZMYj21B5eJRXVUPt7.jpg","watch":"<iframe src=\"https://bysebuho.com/e/lfto5t26swgl/Dakuaan_Da_Munda_2_720p_CHTV_WEB-DL_AAC2_0_H_264-DANIEWATCH.mkv\" width=\"640\" height=\"360\" frameborder=\"0\" allowfullscreen></iframe>","release_date":"2022-05-27"},{"id":"957997","type":"movie","title":"Saunkan Saunkne","poster":"https://image.tmdb.org/t/p/w342/rMAreVJF8PxvKFSUNsTYyCuJdTi.jpg","year":"2022","result":"HD","language":["PUNJABI"],"country":["IN"],"original_language":"pa","genres":["Comedy","Drama","Romance"],"imdb_id":"tt14230846","backdrop":"https://image.tmdb.org/t/p/original/gL7bOfeLCQm2b8sClY4mBy2fRoS.jpg","watch":"<iframe src=\"https://bysebuho.com/e/hj8nvut6jtcz/saunkan-saunkne-2022-punjabi-720p-hevc-amzn\" frameborder=\"0\" marginwidth=\"0\" marginheight=\"0\" scrolling=\"no\" width=\"640\" height=\"360\" allowfullscreen></iframe>","release_date":"2022-05-13"},{"id":"878667","type":"movie","title":"Chal Mera Putt 3","poster":"https://image.tmdb.org/t/p/w342/vhlwENeB4bDPl1YeSiPLNfDAJnz.jpg","year":"2021","result":"HD","language":["Punjabi"],"country":["IN"],"original_language":"pa","genres":["Comedy","Drama"],"imdb_id":"tt14156154","backdrop":"https://image.tmdb.org/t/p/original/5IwrHiXMeKxOLZnkmMa116xGya4.jpg","watch":"<iframe src=\"https://bysebuho.com/e/bxgu9xabsnwv/chal-mera-putt-3-2021-panjabi-movie-720p-esub\" frameborder=\"0\" marginwidth=\"0\" marginheight=\"0\" scrolling=\"no\" width=\"640\" height=\"360\" allowfullscreen></iframe>","release_date":"2021-10-01"},{"id":"869062","type":"movie","title":"Panchhi","poster":"https://image.tmdb.org/t/p/w342/qPVzGWt0J09wtOoocAiccYWUrwY.jpg","year":"2021","result":"HD","language":["PUNJABI"],"country":[],"original_language":"pa","genres":[],"imdb_id":"tt15307258","backdrop":"https://image.tmdb.org/t/p/original/4YfUZq2F1Q8ikm2ZcwbySgNPREC.jpg","watch":"<iframe src=\"https://bysebuho.com/e/0s7o4x86akc0/panchhi-2021-720p-web-dl-pun-2-0-esub-x264\" frameborder=\"0\" marginwidth=\"0\" marginheight=\"0\" scrolling=\"no\" width=\"640\" height=\"360\" allowfullscreen></iframe>","release_date":"2021-08-29"},{"id":"680956","type":"movie","title":"Chal Mera Putt 2","poster":"https://image.tmdb.org/t/p/w342/nz1EnqItS3KmeRnRiuWjONnrNVE.jpg","year":"2020","result":"HD","language":["Hindi"],"country":["IN"],"original_language":"pa","genres":["Comedy","Drama"],"imdb_id":"tt11737772","backdrop":"https://image.tmdb.org/t/p/original/itX3uCksEUcg37jfPW8Ja2cYVPR.jpg","watch":"<iframe src=\"https://bysebuho.com/e/mxtvjhe8o66a/chal-mera-putt-2-2020-720p-punjabi-web-dl-5-1-esub-x264-daniewatch-is\" frameborder=\"0\" marginwidth=\"0\" marginheight=\"0\" scrolling=\"no\" width=\"640\" height=\"360\" allowfullscreen></iframe>","release_date":"2020-03-13"},{"id":"617483","type":"movie","title":"Chal Mera Putt","poster":"https://image.tmdb.org/t/p/w342/i4ckFOOeyvU3EGnxbARsoORWbCT.jpg","year":"2019","result":"HD","language":["Hindi"],"country":["IN"],"original_language":"pa","genres":["Comedy","Drama"],"imdb_id":"tt10623524","backdrop":"https://image.tmdb.org/t/p/original/g7BLrCt4YTMGy2owE9qHxjC8ES.jpg","watch":"<iframe src=\"https://bysebuho.com/e/0vb00kfhk0cx/chal-mera-putt-2019-punjabi-movie-720p-webrip-daniewatch-nl\" frameborder=\"0\" marginwidth=\"0\" marginheight=\"0\" scrolling=\"no\" width=\"640\" height=\"360\" allowfullscreen></iframe>","release_date":"2019-07-26"},{"id":"613047","type":"movie","title":"Laiye Je Yaarian","poster":"https://image.tmdb.org/t/p/w342/zXRsiwdffZUZceDeaYRerzI2xqP.jpg","year":"2019","result":"HD","language":["Hindi"],"country":[],"original_language":"pa","genres":[],"imdb_id":"tt10356526","backdrop":"https://image.tmdb.org/t/p/original/rQW6W7oi45QgQQRKbAmOQ34CgZc.jpg","watch":"<iframe src=\"https://bysebuho.com/e/wic1xl2hbqt5/Laiye.Je.Yaarian.2019.720p.Punjabi.WEB-DL.2.0.ESub.x264-DANIEWATCH.mkv\" width=\"640\" height=\"360\" frameborder=\"0\" allowfullscreen></iframe>","release_date":"2019-06-07"},{"id":"541757","type":"movie","title":"Dakuaan Da Munda","poster":"https://image.tmdb.org/t/p/w342/f8hS7PeaDefxFAUdBh6r75rYQN4.jpg","year":"2018","result":"HD","language":["Hindi"],"country":[],"original_language":"pa","genres":["Action","Drama"],"imdb_id":"tt8409498","backdrop":"https://image.tmdb.org/t/p/original/cKldkMrRg338DQh8dPx5HQfqrmQ.jpg","watch":"<iframe src=\"https://bysebuho.com/e/0efoabkkoipg/Dakuaan_Da_Munda__2018__Punjabi_720p_DANIEWATCH.mp4\" width=\"640\" height=\"360\" frameborder=\"0\" allowfullscreen></iframe>","release_date":"2018-08-10"},{"id":"417636","type":"movie","title":"Bambukat","poster":"https://image.tmdb.org/t/p/w342/klK3kCAaPHzSUUyc4pma6XKU8sm.jpg","year":"2016","result":"HD","language":["Hindi"],"country":["IN"],"original_language":"pa","genres":["Drama","Comedy"],"imdb_id":"tt5929890","backdrop":"https://image.tmdb.org/t/p/original/qkSYZjqgrkh2fIE1whHBvZkTn56.jpg","watch":"<iframe src=\"https://bysebuho.com/e/x5a880nxg56k/bambukat-2016-punjabi\" frameborder=\"0\" marginwidth=\"0\" marginheight=\"0\" scrolling=\"no\" width=\"640\" height=\"360\" allowfullscreen></iframe>","release_date":"2016-07-29"},{"id":"1584340","type":"movie","title":"Ekam Singh: A Warrior","poster":"https://image.tmdb.org/t/p/w342/gUS0ejNw8wbUlWSgmCAtqbNp7D2.jpg","year":"","result":"HD","language":["Hindi"],"country":[],"original_language":"pa","genres":[],"imdb_id":"tt38948983","backdrop":"https://image.tmdb.org/t/p/original/tUqqEOJCe3XcQX17Yj4tTizLfO6.jpg","watch":"<iframe src=\"https://bysebuho.com/e/f1e1isvsr9js/Ekam_Singh-A_Warrior_2025_720p_Punjabi_WEB-DL_AAC5_1_x264_ESub-DANIEWATCH.mkv\" frameborder=\"0\" marginwidth=\"0\" marginheight=\"0\" scrolling=\"no\" width=\"640\" height=\"360\" allowfullscreen></iframe>"}]}