{"page":14,"total_pages":67,"total_items":3303,"items":[{"id":"1517212","type":"movie","title":"The Truth About Jussie Smollett?","poster":"https://image.tmdb.org/t/p/w342/iRR9Ri2GX3c5bikrz1Zuj4u5bkl.jpg","year":"2025","result":"HD","language":["Hindi"],"country":["GB","US"],"original_language":"en","genres":["Documentary"],"imdb_id":"tt37670615"},{"id":"1516391","type":"movie","title":"Cover-Up","poster":"https://image.tmdb.org/t/p/w342/3kVAkwPrNNw3kxe2yJVatj86QKo.jpg","year":"2025","result":"HD","language":["Hindi"],"country":["US"],"original_language":"en","genres":["Documentary"],"imdb_id":"tt37660887"},{"id":"1514898","type":"movie","title":"Kuladalli Keelyavudo","poster":"https://image.tmdb.org/t/p/w342/s31pY3kEvCSPLQMOWo1nvMKXzk1.jpg","year":"2025","result":"HD","language":["Hindi"],"country":[],"original_language":"kn","genres":[],"imdb_id":"tt33298765"},{"id":"1513598","type":"movie","title":"Stolen: Heist of the Century","poster":"https://image.tmdb.org/t/p/w342/aqZOJkBd3DR6ioacm136lP7BGvi.jpg","year":"2025","result":"HD","language":["Hindi"],"country":[],"original_language":"en","genres":["Documentary","Crime"],"imdb_id":"tt37543886"},{"id":"1511556","type":"movie","title":"Under Fire","poster":"https://image.tmdb.org/t/p/w342/dIQcDDuDPewwELfhmYMnt25AyZ6.jpg","year":"2025","result":"HD","language":["Hindi"],"country":["US"],"original_language":"en","genres":["Action","Comedy","Thriller","Drama"],"imdb_id":"tt32212611"},{"id":"1511417","type":"movie","title":"Bāhubali: The Epic","poster":"https://image.tmdb.org/t/p/w342/z9YIo2qscyaXYgRqIdRJtND3bw8.jpg","year":"2025","result":"HD","language":["Hindi"],"country":["IN"],"original_language":"te","genres":["Action","Drama"],"imdb_id":"tt37893389"},{"id":"1510251","type":"movie","title":"Murderbaad","poster":"https://image.tmdb.org/t/p/w342/70kbo9qJ3i98CRVyKP0DfYQoJLe.jpg","year":"2025","result":"HD","language":["Hindi"],"country":["IN"],"original_language":"hi","genres":["Thriller","Crime"],"imdb_id":"tt37392885"},{"id":"1510235","type":"movie","title":"Gyanvapi Files: A Tailor's Murder Story","poster":"https://image.tmdb.org/t/p/w342/dofvavrizF7KnF6Jl6g6yMp7y1B.jpg","year":"2025","result":"HD","language":["Hindi"],"country":["IN"],"original_language":"hi","genres":["Crime","Drama"],"imdb_id":"tt28630806"},{"id":"1509871","type":"movie","title":"She Said Maybe","poster":"https://image.tmdb.org/t/p/w342/ujNDflVpoFsBqlbVt58pc7lT1WR.jpg","year":"2025","result":"HD","language":["Hindi"],"country":["DE","TR"],"original_language":"de","genres":["Comedy","Romance","Drama"],"imdb_id":"tt36754289"},{"id":"1509350","type":"movie","title":"Yaadhum Ariyaan","poster":"https://image.tmdb.org/t/p/w342/cqnTAE5uDQs8Sff2bVOy0gsjJMU.jpg","year":"2025","result":"HD","language":["Hindi"],"country":["IN"],"original_language":"ta","genres":["Thriller"],"imdb_id":"tt37265441"},{"id":"1508889","type":"movie","title":"Show Time","poster":"https://image.tmdb.org/t/p/w342/lFGOj6LDZachNPmXaGPQbeAu7jy.jpg","year":"2025","result":"HD","language":["Hindi"],"country":[],"original_language":"te","genres":["Comedy","Thriller"],"imdb_id":"tt37432084"},{"id":"1508485","type":"movie","title":"No Escape","poster":"https://image.tmdb.org/t/p/w342/eddv1XJWyN5trgetdOFplbRYx0C.jpg","year":"2025","result":"HD","language":["Hindi"],"country":["CN"],"original_language":"zh","genres":["Action","Crime"],"imdb_id":""},{"id":"1507649","type":"movie","title":"Andaaz 2","poster":"https://image.tmdb.org/t/p/w342/4aev7jUk0ITeUovbirv5EFdgKAR.jpg","year":"2025","result":"HD","language":["Hindi"],"country":["IN"],"original_language":"hi","genres":["Romance","Drama"],"imdb_id":"tt30224735"},{"id":"1507617","type":"movie","title":"Solo Boy","poster":"https://image.tmdb.org/t/p/w342/5WQcGQJnQrpgksHts0oEhjqHxfQ.jpg","year":"2025","result":"HD","language":["Hindi"],"country":["IN"],"original_language":"te","genres":["Drama","Romance","Family"],"imdb_id":"tt31242102"},{"id":"1506821","type":"movie","title":"Well Done C.A. Sahab!","poster":"https://image.tmdb.org/t/p/w342/AeeEbI604LBWI21Hkeask5JgYRm.jpg","year":"2025","result":"HD","language":["Hindi"],"country":["IN"],"original_language":"hi","genres":["Drama","Comedy"],"imdb_id":"tt35327667"},{"id":"1506578","type":"movie","title":"Thank You Dear","poster":"https://image.tmdb.org/t/p/w342/kgFwTGoEAUJEwSQTJ2cMgLflPta.jpg","year":"2025","result":"HD","language":["Hindi"],"country":["IN"],"original_language":"te","genres":["Thriller","Romance"],"imdb_id":"tt37376961"},{"id":"1505116","type":"movie","title":"Nafratein","poster":"https://image.tmdb.org/t/p/w342/sAZS4QN11yrexVoTVa8aQ039J7A.jpg","year":"2025","result":"HD","language":["Hindi"],"country":["IN"],"original_language":"hi","genres":["Drama","Action","Romance"],"imdb_id":"tt37184259"},{"id":"1504735","type":"movie","title":"Squid Game in Conversation","poster":"https://image.tmdb.org/t/p/w342/vMNcd8up1wvgBJnjNkOkWpZLHPC.jpg","year":"2025","result":"HD","language":["Hindi"],"country":["KR"],"original_language":"ko","genres":["Documentary"],"imdb_id":"tt37455270"},{"id":"1504369","type":"movie","title":"Maa Jaye","poster":"https://image.tmdb.org/t/p/w342/zw2snDOakQLbvEg0sVlDs3sdJij.jpg","year":"2025","result":"HD","language":["Hindi"],"country":["IN"],"original_language":"pa","genres":["Drama"],"imdb_id":"tt33056940"},{"id":"1500691","type":"movie","title":"Fantasy Football Ruined Our Lives","poster":"https://image.tmdb.org/t/p/w342/d3T9jjdLjnhMzuFvmWImlVKiIrv.jpg","year":"2025","result":"HD","language":["Hindi"],"country":["IT"],"original_language":"it","genres":["Comedy"],"imdb_id":"tt37038661"},{"id":"1499180","type":"movie","title":"Bomb","poster":"https://image.tmdb.org/t/p/w342/jCS8gu2QiZDUqq3MWVe164ss966.jpg","year":"2025","result":"HD","language":["Hindi"],"country":["IN"],"original_language":"ta","genres":["Drama","Comedy"],"imdb_id":"tt28717622"},{"id":"1499099","type":"movie","title":"Karamsutra","poster":"https://image.tmdb.org/t/p/w342/akxdNCJQ3wh0bRLRl2p7VaICRXe.jpg","year":"2025","result":"HD","language":["Hindi"],"country":[],"original_language":"pa","genres":["Thriller"],"imdb_id":"tt37285355"},{"id":"1499082","type":"movie","title":"Nishaanchi","poster":"https://image.tmdb.org/t/p/w342/aDI8pTr7QDs1QnDKCKsAoEampZj.jpg","year":"2025","result":"HD","language":["Hindi"],"country":["IN"],"original_language":"hi","genres":["Crime","Drama"],"imdb_id":"tt34794166"},{"id":"1497036","type":"movie","title":"Dr. Seuss's The Sneetches","poster":"https://image.tmdb.org/t/p/w342/5jqpfOY6q8ltnCFEfUPY3c0bpR5.jpg","year":"2025","result":"HD","language":["Hindi"],"country":["IE"],"original_language":"en","genres":["Animation","Family"],"imdb_id":"tt37677952"},{"id":"1494406","type":"movie","title":"Kaisi Ye Paheli","poster":"https://image.tmdb.org/t/p/w342/3Z9bXM0ZDsQgoFkeK9KI2cFaGJm.jpg","year":"2025","result":"HD","language":["Hindi"],"country":["IN"],"original_language":"hi","genres":["Mystery","Thriller"],"imdb_id":"tt31101929"},{"id":"1494159","type":"movie","title":"Maadeva","poster":"https://image.tmdb.org/t/p/w342/kdEWBpXscXN6MNUFi6NJhZaSiR5.jpg","year":"2025","result":"HD","language":["Hindi"],"country":["IN"],"original_language":"kn","genres":["Action","Thriller"],"imdb_id":"tt28789314"},{"id":"1490329","type":"movie","title":"Shubhchintak","poster":"https://image.tmdb.org/t/p/w342/yggCq5PcPU8KWmVlawKzTyrsXLV.jpg","year":"2025","result":"HD","language":["Hindi"],"country":["IN"],"original_language":"gu","genres":["Comedy","Drama","Thriller"],"imdb_id":"tt35977123"},{"id":"1489510","type":"movie","title":"Aaromaley","poster":"https://image.tmdb.org/t/p/w342/80YOW8UVr1ublMX2Q638MCdS2Q4.jpg","year":"2025","result":"HD","language":["Hindi"],"country":["IN"],"original_language":"ta","genres":["Comedy","Romance","Drama"],"imdb_id":"tt36587142"},{"id":"1488449","type":"movie","title":"Ikk Kudi","poster":"https://image.tmdb.org/t/p/w342/sHuAznqwfhqxbk0SYb4ISPMdzFH.jpg","year":"2025","result":"HD","language":["Hindi"],"country":["IN"],"original_language":"pa","genres":["Comedy","Drama"],"imdb_id":"tt35063604"},{"id":"1488441","type":"movie","title":"Haan Main Pagal Haan","poster":"https://image.tmdb.org/t/p/w342/jBqVrgglVVheW5eAffKBdQd19f6.jpg","year":"2025","result":"HD","language":["Hindi"],"country":["IN"],"original_language":"pa","genres":["Mystery","Drama"],"imdb_id":"tt36415633"},{"id":"1487289","type":"movie","title":"Jombieland","poster":"https://image.tmdb.org/t/p/w342/h78roUiZylCIzTrmeBN6Pnhv8cI.jpg","year":"2025","result":"HD","language":["Hindi"],"country":["IN"],"original_language":"pa","genres":["Action","Comedy","Horror"],"imdb_id":"tt36375452"},{"id":"1487106","type":"movie","title":"Raunak","poster":"https://image.tmdb.org/t/p/w342/xupYWGFIZ4NM4LVWxYyT9yr8J6V.jpg","year":"2025","result":"HD","language":["Hindi"],"country":["IN"],"original_language":"pa","genres":["Drama","Family","Romance"],"imdb_id":"tt36412691"},{"id":"1486799","type":"movie","title":"Sarbala Ji","poster":"https://image.tmdb.org/t/p/w342/eCERukldal4nrbupGdOzviAv5cQ.jpg","year":"2025","result":"HD","language":["Hindi"],"country":["IN"],"original_language":"pa","genres":["Action","Drama"],"imdb_id":"tt32872825"},{"id":"1484640","type":"movie","title":"Swim to Me","poster":"https://image.tmdb.org/t/p/w342/5pkYUOyvxjAYlUpq4GDTp04gxMa.jpg","year":"2025","result":"HD","language":["Hindi"],"country":["CL"],"original_language":"es","genres":["Drama","Crime"],"imdb_id":"tt34682204"},{"id":"1482176","type":"movie","title":"Lovedale","poster":"https://image.tmdb.org/t/p/w342/qI9SP3Ao1LoKSmFEoppBCfcNSuv.jpg","year":"2025","result":"HD","language":["Hindi"],"country":[],"original_language":"te","genres":["Drama"],"imdb_id":"tt35257690"},{"id":"1482085","type":"movie","title":"Romeo S3","poster":"https://image.tmdb.org/t/p/w342/f3sgIwJY6xgeXKZeIXIbDtGEwXJ.jpg","year":"2025","result":"HD","language":["Hindi"],"country":[],"original_language":"hi","genres":["Action","Thriller"],"imdb_id":"tt36812950"},{"id":"1481965","type":"movie","title":"Dakuaan Da Munda 3","poster":"https://image.tmdb.org/t/p/w342/xhuzfeyG4qml1c2KDKeaZhbxO1u.jpg","year":"2025","result":"HD","language":["Hindi"],"country":["IN"],"original_language":"pa","genres":["Action"],"imdb_id":"tt36389438"},{"id":"1479860","type":"movie","title":"Blind Spot","poster":"https://image.tmdb.org/t/p/w342/n9SaFZccB7pZdEf5HzmaUZEhPCT.jpg","year":"2025","result":"HD","language":["Hindi"],"country":["IN"],"original_language":"te","genres":["Thriller","Crime"],"imdb_id":"tt36591293"},{"id":"1479090","type":"movie","title":"Edagaiye Apaghatakke Karana","poster":"https://image.tmdb.org/t/p/w342/cMQPSIZdFmdbLTI97eWsEkpSsZ5.jpg","year":"2025","result":"HD","language":["Hindi"],"country":["IN"],"original_language":"kn","genres":["Comedy","Thriller","Romance"],"imdb_id":"tt15333916"},{"id":"1479030","type":"movie","title":"Stolen","poster":"https://image.tmdb.org/t/p/w342/8XR1tGffFOH4QYV2RYShh0fexYg.jpg","year":"2025","result":"HD","language":["Hindi"],"country":[],"original_language":"en","genres":["Crime","Mystery","Drama"],"imdb_id":""},{"id":"1478644","type":"movie","title":"Shaunki Sardar","poster":"https://image.tmdb.org/t/p/w342/Bx2FNrdYMRSgzihsC0VcG4omqw.jpg","year":"2025","result":"HD","language":["Hindi"],"country":[],"original_language":"pa","genres":["Action","Crime","Drama"],"imdb_id":"tt32965688"},{"id":"1477870","type":"movie","title":"Jora Kaiya Thattunga","poster":"https://image.tmdb.org/t/p/w342/kom0PpAofXsyGzsuL76XApU8Dtr.jpg","year":"2025","result":"HD","language":["Hindi"],"country":["IN"],"original_language":"ta","genres":["Thriller","Family","Drama"],"imdb_id":"tt32474216"},{"id":"1473354","type":"movie","title":"Sarvam Maya","poster":"https://image.tmdb.org/t/p/w342/mgLY1aQayVX6dQ2DiylLAhjEG8w.jpg","year":"2025","result":"HD","language":["Hindi"],"country":["IN"],"original_language":"ml","genres":["Comedy","Family"],"imdb_id":"tt32362695"},{"id":"1472031","type":"movie","title":"Chaurya Paatam","poster":"https://image.tmdb.org/t/p/w342/1YLMmspugk0Td4cNBynfqmhZXxf.jpg","year":"2025","result":"HD","language":["Hindi"],"country":[],"original_language":"te","genres":["Comedy","Drama"],"imdb_id":"tt31311161"},{"id":"1469409","type":"movie","title":"Guru Nanak Jahaz","poster":"https://image.tmdb.org/t/p/w342/aB3Rvx7S25HBog1TZuuGoqBYXoJ.jpg","year":"2025","result":"HD","language":["Hindi"],"country":["IN"],"original_language":"pa","genres":["Drama"],"imdb_id":"tt36722524"},{"id":"1468971","type":"movie","title":"Yuddhakaanda Chapter 2","poster":"https://image.tmdb.org/t/p/w342/pTMxZ37mWmDimn24eTy9EiDNjAK.jpg","year":"2025","result":"HD","language":["Hindi"],"country":[],"original_language":"kn","genres":[],"imdb_id":"tt36071404"},{"id":"1467823","type":"movie","title":"Mithada Maheman","poster":"https://image.tmdb.org/t/p/w342/ofrAJihhCn60NC50e0Idw5bJvT.jpg","year":"2025","result":"HD","language":["Hindi"],"country":["IN"],"original_language":"gu","genres":["Comedy","Drama"],"imdb_id":"tt36204257"},{"id":"1467506","type":"movie","title":"Costao","poster":"https://image.tmdb.org/t/p/w342/kM8TFQtD0YttXEaDcLFYSGCnc1m.jpg","year":"2025","result":"HD","language":["Hindi"],"country":["IN"],"original_language":"hi","genres":["Drama"],"imdb_id":"tt13261550"},{"id":"1466115","type":"movie","title":"Even If This Love Disappears Tonight","poster":"https://image.tmdb.org/t/p/w342/5eNN8KLDPUXDqIkTdCbmn1gx5P7.jpg","year":"2025","result":"HD","language":["Hindi"],"country":["KR"],"original_language":"ko","genres":["Romance","Drama"],"imdb_id":"tt39049192"},{"id":"1465277","type":"movie","title":"The Demon Hunter","poster":"https://image.tmdb.org/t/p/w342/lLOmriVwsfJRA1gQhA7g9na5mdO.jpg","year":"2025","result":"HD","language":["Hindi"],"country":["CN"],"original_language":"zh","genres":["Action","Adventure","Fantasy"],"imdb_id":"tt36617638"}]}