{"page":4,"total_pages":67,"total_items":3303,"items":[{"id":"1658163","type":"movie","title":"Suyodhana","poster":"https://image.tmdb.org/t/p/w342/s56x3fGTN6J1jbBMBDnLY7t4iyU.jpg","year":"2026","result":"HD","language":["Hindi"],"country":[],"original_language":"te","genres":["Family","Thriller","Mystery"],"imdb_id":"tt40744793"},{"id":"1647932","type":"movie","title":"Mission C1000","poster":"https://image.tmdb.org/t/p/w342/jrwKIZR9P7IWkP5oPe5Xlw1j3vH.jpg","year":"2026","result":"CAM","language":["Hindi"],"country":[],"original_language":"te","genres":["Action"],"imdb_id":"tt35022209"},{"id":"1646589","type":"movie","title":"13 Teen","poster":"https://image.tmdb.org/t/p/w342/rpaYcOV8oYOAVQmHyALZNAn3zka.jpg","year":"2026","result":"HD","language":["Hindi"],"country":[],"original_language":"pa","genres":["Drama","Thriller"],"imdb_id":"tt39958734"},{"id":"1643729","type":"movie","title":"Ishqa'n De Lekhe","poster":"https://image.tmdb.org/t/p/w342/eky8n1Xu5oMDe4iu4pKFCdStHkt.jpg","year":"2026","result":"HD","language":["Hindi"],"country":[],"original_language":"pa","genres":["Drama","Romance","Music"],"imdb_id":"tt39385906"},{"id":"1641965","type":"movie","title":"Untold: Jail Blazers","poster":"https://image.tmdb.org/t/p/w342/vmp45llJTRr6JLaIamt3RlfxgTH.jpg","year":"2026","result":"HD","language":["Hindi"],"country":["US"],"original_language":"en","genres":["Documentary"],"imdb_id":"tt40224401"},{"id":"1641961","type":"movie","title":"Untold: The Death & Life of Lamar Odom","poster":"https://image.tmdb.org/t/p/w342/9Go8VKSzJIzn65b9c9l02ymHRlv.jpg","year":"2026","result":"HD","language":["Hindi"],"country":["US"],"original_language":"en","genres":["Documentary"],"imdb_id":"tt40224397"},{"id":"1640340","type":"movie","title":"Bhootan Wala Khooh","poster":"https://image.tmdb.org/t/p/w342/2QSBXVrduSGCHDdH04mwKZkoFh.jpg","year":"2026","result":"HD","language":["Hindi"],"country":[],"original_language":"pa","genres":["Drama","Mystery","Thriller"],"imdb_id":""},{"id":"1639763","type":"movie","title":"Viyaah Kartaare Da","poster":"https://image.tmdb.org/t/p/w342/oypl2SgvWqPhPGERB4n7Dhml3og.jpg","year":"2026","result":"HD","language":["Hindi"],"country":[],"original_language":"pa","genres":["Comedy","Romance"],"imdb_id":"tt39875252"},{"id":"1639138","type":"movie","title":"Shatak","poster":"https://image.tmdb.org/t/p/w342/el9P81GOvCmD7RFf2TcLJEtUJ1n.jpg","year":"2026","result":"HD","language":["Hindi"],"country":[],"original_language":"hi","genres":["Drama","History"],"imdb_id":"tt39328471"},{"id":"1637367","type":"movie","title":"Udd Da Teer","poster":"https://image.tmdb.org/t/p/w342/nJEheWpcezgfIbFRrKD6Odv1zrR.jpg","year":"2026","result":"HD","language":["Hindi"],"country":["IN"],"original_language":"pa","genres":["Drama","Thriller"],"imdb_id":"tt39958737"},{"id":"1635529","type":"movie","title":"Bambukat 2","poster":"https://image.tmdb.org/t/p/w342/yZToIdLzKfaG0sv2JKuJQMMD8Qd.jpg","year":"2026","result":"HD","language":["Hindi"],"country":["IN"],"original_language":"pa","genres":["Comedy","Drama"],"imdb_id":"tt11173332"},{"id":"1635276","type":"movie","title":"Eat Pray Bark","poster":"https://image.tmdb.org/t/p/w342/kZ0ntedjG2X6hZ7upzupeUe2g5n.jpg","year":"2026","result":"HD","language":["Hindi"],"country":["DE"],"original_language":"de","genres":["Comedy"],"imdb_id":"tt39465484"},{"id":"1635086","type":"movie","title":"Punha Ekda Sade Made 3","poster":"https://image.tmdb.org/t/p/w342/sGVkRvxF2vAHu6Y0JnVQLwRh7XD.jpg","year":"2026","result":"HD","language":["Hindi"],"country":["IN"],"original_language":"mr","genres":["Comedy"],"imdb_id":"tt33097985"},{"id":"1634790","type":"movie","title":"Elimination Chamber","poster":"https://image.tmdb.org/t/p/w342/tlcqashIw55ptqJBRZ9997ZlGcZ.jpg","year":"2026","result":"HD","language":["Hindi"],"country":["US"],"original_language":"en","genres":["Action"],"imdb_id":"tt38806791"},{"id":"1634301","type":"movie","title":"Vanaveera","poster":"https://image.tmdb.org/t/p/w342/oBYExKI8E3bTzQjPkofhpV2EJon.jpg","year":"2026","result":"HD","language":["Hindi"],"country":[],"original_language":"te","genres":["Action","Drama"],"imdb_id":""},{"id":"1633765","type":"movie","title":"Na Jaane Kaun Aa Gaya","poster":"https://image.tmdb.org/t/p/w342/jTQDTVXjmL071PzJbjlVr27YZu2.jpg","year":"2026","result":"HD","language":["Cam"],"country":["IN"],"original_language":"hi","genres":["Romance","Drama"],"imdb_id":"tt34623382"},{"id":"1633264","type":"movie","title":"Louis Theroux: Inside the Manosphere","poster":"https://image.tmdb.org/t/p/w342/ouOvRvsgF37yEx3D6ZLWyuxZFjE.jpg","year":"2026","result":"HD","language":["Hindi"],"country":["GB"],"original_language":"en","genres":["Documentary"],"imdb_id":"tt39792948"},{"id":"1631917","type":"movie","title":"18th Rose","poster":"https://image.tmdb.org/t/p/w342/6pUwaXT6tdA6sek8o6SdFYudJDj.jpg","year":"2026","result":"HD","language":["Hindi"],"country":["PH"],"original_language":"tl","genres":["Drama","Romance"],"imdb_id":"tt39751309"},{"id":"1630433","type":"movie","title":"The Red Line","poster":"https://image.tmdb.org/t/p/w342/q3ROA6OqVA9rWSsC2DzdkPQvxWW.jpg","year":"2026","result":"HD","language":["Hindi"],"country":["TH"],"original_language":"th","genres":["Thriller","Crime","Drama"],"imdb_id":"tt39744394"},{"id":"1629369","type":"movie","title":"The Truth and Tragedy of Moriah Wilson","poster":"https://image.tmdb.org/t/p/w342/zoa2XatA43nKhF1kx8nVcVyH1M0.jpg","year":"2026","result":"HD","language":["Hindi"],"country":["US"],"original_language":"en","genres":["Documentary"],"imdb_id":"tt32572716"},{"id":"1628116","type":"movie","title":"BTS: THE RETURN","poster":"https://image.tmdb.org/t/p/w342/9CNUWleZWN9EGMZjvaSTcxmAAGg.jpg","year":"2026","result":"HD","language":["Hindi"],"country":["US","KR"],"original_language":"ko","genres":["Documentary","Music"],"imdb_id":"tt39578551"},{"id":"1627976","type":"movie","title":"Hashtag Star","poster":"https://image.tmdb.org/t/p/w342/qta6Zgj4J1SY2GwyhGDNrIac1Kr.jpg","year":"2026","result":"HD","language":["Hindi"],"country":[],"original_language":"pa","genres":["Drama"],"imdb_id":""},{"id":"1626312","type":"movie","title":"Paro Pinaki Ki Kahani","poster":"https://image.tmdb.org/t/p/w342/mU8MoyOmXNJCru3ys11h6jGvQZn.jpg","year":"2026","result":"HD","language":["Cam"],"country":[],"original_language":"hi","genres":["Drama","Romance","Crime","Thriller"],"imdb_id":"tt32903849"},{"id":"1625582","type":"movie","title":"The Kerala Story 2 Goes Beyond","poster":"https://image.tmdb.org/t/p/w342/97jAFQcAnspd416cupbAbGMNT9z.jpg","year":"2026","result":"HD","language":["Hindi"],"country":["IN"],"original_language":"hi","genres":["Crime","Drama"],"imdb_id":"tt39310158"},{"id":"1624346","type":"movie","title":"Sagwaan","poster":"https://image.tmdb.org/t/p/w342/2HHm2YHrApJ82ALdvm6VHgxZhHG.jpg","year":"2026","result":"HD","language":["Hindi"],"country":["IN"],"original_language":"hi","genres":["Crime","Drama","Thriller"],"imdb_id":"tt38840875"},{"id":"1621842","type":"movie","title":"Bebe Main Badmash Banuga","poster":"https://image.tmdb.org/t/p/w342/xs1UbPD98BKoKrlhw4BhrGHjg4S.jpg","year":"2026","result":"HD","language":["Hindi"],"country":["IN"],"original_language":"pa","genres":["Drama"],"imdb_id":"tt39319045"},{"id":"1621160","type":"movie","title":"Mcoca","poster":"https://image.tmdb.org/t/p/w342/9T4j2xFJHUComly4vP9CgytuS6t.jpg","year":"2026","result":"HD","language":["Hindi"],"country":[],"original_language":"pa","genres":["Thriller"],"imdb_id":"tt23866180"},{"id":"1620991","type":"movie","title":"The Investigation of Lucy Letby","poster":"https://image.tmdb.org/t/p/w342/qhNThwc72GqihJhXaP29Af5hJ2A.jpg","year":"2026","result":"HD","language":["Hindi"],"country":["GB"],"original_language":"en","genres":["Documentary","Crime"],"imdb_id":"tt39389929"},{"id":"1620943","type":"movie","title":"Welcome Jija Ji","poster":"https://image.tmdb.org/t/p/w342/zpNA8T0INCCTvRLyovGuAMFPiNC.jpg","year":"2026","result":"HD","language":["Hindi"],"country":[],"original_language":"pa","genres":["Comedy","Family"],"imdb_id":"tt39373668"},{"id":"1620888","type":"movie","title":"Addiction","poster":"https://image.tmdb.org/t/p/w342/11fOA7872PpxlLSCMPYM6GWtRhu.jpg","year":"2026","result":"HD","language":["Hindi"],"country":[],"original_language":"hi","genres":["Romance","Drama","Crime"],"imdb_id":"tt21853406"},{"id":"1620551","type":"movie","title":"Feel My Voice","poster":"https://image.tmdb.org/t/p/w342/4Tf0qTA73XLhBnfP6YgvqtLZBnt.jpg","year":"2026","result":"HD","language":["Hindi"],"country":["IT"],"original_language":"it","genres":["Music","Drama","Comedy"],"imdb_id":"tt38589464"},{"id":"1617536","type":"movie","title":"One Two Cha Cha Chaa","poster":"https://image.tmdb.org/t/p/w342/cWfX0Pog0ZHgTKY3glhIjvkWxgB.jpg","year":"2026","result":"HD","language":["Hindi"],"country":[],"original_language":"hi","genres":["Action","Adventure","Comedy"],"imdb_id":"tt38283987"},{"id":"1616993","type":"movie","title":"Safia/Safdar","poster":"https://image.tmdb.org/t/p/w342/ggN2WBU8cRMehVdS1nV0VYHACin.jpg","year":"2026","result":"HD","language":["Hindi"],"country":["IN"],"original_language":"hi","genres":["Drama","Romance"],"imdb_id":"tt39392710"},{"id":"1614475","type":"movie","title":"Seeds","poster":"https://image.tmdb.org/t/p/w342/enm6mkdU7aGqR62lYKQ7d2yChd9.jpg","year":"2026","result":"HD","language":["Hindi"],"country":[],"original_language":"pa","genres":[],"imdb_id":"tt39387371"},{"id":"1612071","type":"movie","title":"Elaichi: Ek Prem Katha","poster":"https://image.tmdb.org/t/p/w342/uaHRJYzURYiNyZmF0p0bTiQMpOK.jpg","year":"2026","result":"HD","language":["Hindi"],"country":[],"original_language":"hi","genres":["Drama","Romance"],"imdb_id":"tt39328668"},{"id":"1610866","type":"movie","title":"Is It Cake? Valentines","poster":"https://image.tmdb.org/t/p/w342/p0FvNm1dZnGTnUiYOGMTLl3eD9N.jpg","year":"2026","result":"HD","language":["Hindi"],"country":["US"],"original_language":"en","genres":["Comedy"],"imdb_id":"tt39309902"},{"id":"1610413","type":"movie","title":"One Last Adventure: The Making of Stranger Things 5","poster":"https://image.tmdb.org/t/p/w342/aZhrAx5CevLfjXcGIG3wBXxDiAL.jpg","year":"2026","result":"HD","language":["Hindi"],"country":["US"],"original_language":"en","genres":["Documentary"],"imdb_id":"tt39307872"},{"id":"1608982","type":"movie","title":"From the Ashes: The Pit","poster":"https://image.tmdb.org/t/p/w342/iwZIR8wp1lqj69zsbWmZKhXTTIU.jpg","year":"2026","result":"HD","language":["Hindi"],"country":["SA"],"original_language":"ar","genres":["Thriller","Drama"],"imdb_id":"tt36398562"},{"id":"1608579","type":"movie","title":"Anantha","poster":"https://image.tmdb.org/t/p/w342/y1GAbomStmF8dnvrsYzUGiqBFy4.jpg","year":"2026","result":"HD","language":["Hindi"],"country":["IN"],"original_language":"ta","genres":["Drama"],"imdb_id":"tt38854883"},{"id":"1608277","type":"movie","title":"Toh, Ti Ani Fuji","poster":"https://image.tmdb.org/t/p/w342/1JGkVOvJZEwVOHzmdRvkc7dPI6r.jpg","year":"2026","result":"HD","language":["Hindi"],"country":["IN"],"original_language":"mr","genres":["Romance","Drama"],"imdb_id":"tt21364576"},{"id":"1607762","type":"movie","title":"Hostellers","poster":"https://i.ibb.co/FLW1hfPY/Gemini-Generated-Image-bhmmlcbhmmlcbhmm-1.png","year":"2026","result":"HD","language":["Hindi"],"country":[],"original_language":"te","genres":["Horror","Thriller"],"imdb_id":"tt39302439"},{"id":"1607762","type":"movie","title":"Honey","poster":"https://image.tmdb.org/t/p/w342/aiDE86ihhMcoDpcCLCHvuUDm0en.jpg","year":"2026","result":"HD","language":["Hindi"],"country":[],"original_language":"te","genres":["Horror","Thriller"],"imdb_id":"tt39302439"},{"id":"1604829","type":"movie","title":"Godaan","poster":"https://image.tmdb.org/t/p/w342/A13J7VV2QM8n7ZVawcPjq2lWoiA.jpg","year":"2026","result":"HD","language":["Cam"],"country":["IN"],"original_language":"en","genres":["Drama","Family"],"imdb_id":"tt39281437"},{"id":"1602783","type":"movie","title":"Thaai Kizhavi","poster":"https://image.tmdb.org/t/p/w342/qbqRzqitfwAReJ3q2v9iMmpoh7k.jpg","year":"2026","result":"HD","language":["Hindi"],"country":["IN"],"original_language":"ta","genres":["Comedy","Drama"],"imdb_id":"tt39255646"},{"id":"1602304","type":"movie","title":"Bihu Attack","poster":"https://image.tmdb.org/t/p/w342/hbWi60gYPSI3d9KEY58KQgtrEBT.jpg","year":"2026","result":"HD","language":["Hindi"],"country":[],"original_language":"hi","genres":[],"imdb_id":""},{"id":"1599099","type":"movie","title":"Azad Bharath","poster":"https://image.tmdb.org/t/p/w342/zeUHs0NACraRyOPlUyuuBC0Iarz.jpg","year":"2026","result":"HD","language":["Cam"],"country":["IN"],"original_language":"hi","genres":["History","Drama"],"imdb_id":"tt39089025"},{"id":"1596291","type":"movie","title":"Queen of Chess","poster":"https://image.tmdb.org/t/p/w342/ag5TZNcK3vHdCCpZIY8syjwzgfr.jpg","year":"2026","result":"HD","language":["Hindi"],"country":["US"],"original_language":"en","genres":["Documentary"],"imdb_id":"tt39162904"},{"id":"1595507","type":"movie","title":"Vadh 2","poster":"https://image.tmdb.org/t/p/w342/eogkCbECkd7WSB7XkJZ4PGXbQRz.jpg","year":"2026","result":"HD","language":["Hindi"],"country":["IN"],"original_language":"hi","genres":["Crime","Drama","Thriller"],"imdb_id":"tt30176955"},{"id":"1595481","type":"movie","title":"Kidnapped: Elizabeth Smart","poster":"https://image.tmdb.org/t/p/w342/hMVhZxgbFLXZcDUIZ10NGb6s8w4.jpg","year":"2026","result":"HD","language":["Hindi"],"country":["US"],"original_language":"en","genres":["Documentary","Crime"],"imdb_id":"tt39140662"},{"id":"1587124","type":"movie","title":"Bhabiji Ghar Par Hain! Fun on The Run","poster":"https://image.tmdb.org/t/p/w342/iuVlVRoBL1fHhBlVjS58MpBES05.jpg","year":"2026","result":"HD","language":["Hindi"],"country":["IN"],"original_language":"hi","genres":["Adventure","Comedy","Family","Romance","TV Movie"],"imdb_id":"tt39045215"}]}