{"page":63,"total_pages":67,"total_items":3303,"items":[{"id":"71325","type":"movie","title":"With Every Heartbeat","poster":"https://image.tmdb.org/t/p/w342/rYThXhsiDKWoFcxqMSvV2jZHSws.jpg","year":"2011","result":"HD","language":["Hindi"],"country":["SE"],"original_language":"sv","genres":["Romance","Drama"],"imdb_id":"tt1859522"},{"id":"41630","type":"movie","title":"No Strings Attached","poster":"https://image.tmdb.org/t/p/w342/9C09L1U9S13J4Ut029Qhu0oLcTQ.jpg","year":"2011","result":"HD","language":["Hindi"],"country":["US"],"original_language":"en","genres":["Comedy","Romance"],"imdb_id":"tt1411238"},{"id":"49444","type":"movie","title":"Kung Fu Panda 2","poster":"https://image.tmdb.org/t/p/w342/mtqqD00vB4PGRt20gWtGqFhrkd0.jpg","year":"2011","result":"HD","language":["Hindi"],"country":["US"],"original_language":"en","genres":["Animation","Family","Comedy","Action"],"imdb_id":"tt1302011"},{"id":"70006","type":"movie","title":"Never Back Down 2: The Beatdown","poster":"https://image.tmdb.org/t/p/w342/7VjtTMQpfy9GxMyjUfuYTfyatZz.jpg","year":"2011","result":"HD","language":["Hindi"],"country":["US"],"original_language":"en","genres":["Drama","Action"],"imdb_id":"tt1754264"},{"id":"64685","type":"movie","title":"Extremely Loud & Incredibly Close","poster":"https://image.tmdb.org/t/p/w342/6pszViNvKr1r31pP7gJNYDHEx5P.jpg","year":"2011","result":"HD","language":["Hindi"],"country":["US"],"original_language":"en","genres":["Drama"],"imdb_id":"tt0477302"},{"id":"58574","type":"movie","title":"Sherlock Holmes: A Game of Shadows","poster":"https://image.tmdb.org/t/p/w342/vskIKrMNUAhns05dx8WYBQfcJEs.jpg","year":"2011","result":"HD","language":["Hindi"],"country":["US"],"original_language":"en","genres":["Adventure","Crime","Mystery","Action"],"imdb_id":"tt1515091"},{"id":"55680","type":"movie","title":"The Craigslist Killer","poster":"https://image.tmdb.org/t/p/w342/6kv8tLMxL3OkotgmESuTVM0ihb5.jpg","year":"2011","result":"HD","language":["Hindi"],"country":["US"],"original_language":"en","genres":["Drama","Thriller"],"imdb_id":"tt1772373"},{"id":"12445","type":"movie","title":"Harry Potter and the Deathly Hallows: Part 2","poster":"https://image.tmdb.org/t/p/w342/c54HpQmuwXjHq2C9wmoACjxoom3.jpg","year":"2011","result":"HD","language":["Hindi"],"country":["GB","US"],"original_language":"en","genres":["Adventure","Fantasy"],"imdb_id":"tt1201607"},{"id":"1771","type":"movie","title":"Captain America: The First Avenger","poster":"https://image.tmdb.org/t/p/w342/vSNxAJTlD0r02V9sPYpOjqDZXUK.jpg","year":"2011","result":"HD","language":["Hindi"],"country":["US"],"original_language":"en","genres":["Action","Adventure","Science Fiction"],"imdb_id":"tt0458339"},{"id":"4607","type":"tv","title":"Lost","poster":"https://image.tmdb.org/t/p/w342/og6S0aTZU6YUJAbqxeKjCa3kY1E.jpg","year":"2010","result":"HD","language":["Hindi"],"country":["US"],"original_language":"en","genres":["Mystery","Action & Adventure","Drama"],"imdb_id":"tt0411008","latest_uploaded_season":6,"total_uploaded_episodes":118},{"id":"45202","type":"movie","title":"The Housemaid","poster":"https://image.tmdb.org/t/p/w342/acrlZuaS7ypiEUb3oZRA28Ox7TV.jpg","year":"2010","result":"HD","language":["Hindi"],"country":["KR"],"original_language":"ko","genres":["Thriller","Drama"],"imdb_id":"tt1314652"},{"id":"10192","type":"movie","title":"Shrek Forever After","poster":"https://image.tmdb.org/t/p/w342/6HrfPZtKcGmX2tUWW3cnciZTaSD.jpg","year":"2010","result":"HD","language":["Hindi"],"country":["US"],"original_language":"en","genres":["Comedy","Adventure","Fantasy","Animation","Family"],"imdb_id":"tt0892791"},{"id":"86184","type":"movie","title":"Doraemon: Nobita's Great Battle of the Mermaid King","poster":"https://image.tmdb.org/t/p/w342/lvi0MjGJvWPAAqQaxCwwMsLqBG8.jpg","year":"2010","result":"HD","language":["Hindi"],"country":["JP"],"original_language":"ja","genres":["Adventure","Family","Animation","Fantasy","Science Fiction"],"imdb_id":"tt1613031"},{"id":"12685","type":"movie","title":"BloodRayne: The Third Reich","poster":"https://image.tmdb.org/t/p/w342/kS48eBvmVXtNJGXWW5QMQmm1JbO.jpg","year":"2010","result":"HD","language":["Hindi"],"country":["CA","DE","US"],"original_language":"en","genres":["Action","Adventure","Fantasy","Horror"],"imdb_id":"tt1153546"},{"id":"44014","type":"movie","title":"Groupie","poster":"https://image.tmdb.org/t/p/w342/nTRKVxWXA1R1xOsKQmVPpN0fUZa.jpg","year":"2010","result":"HD","language":["Hindi"],"country":["US"],"original_language":"en","genres":["Horror","Thriller"],"imdb_id":"tt1422653"},{"id":"43947","type":"movie","title":"I Spit on Your Grave","poster":"https://image.tmdb.org/t/p/w342/xDbNbIqsdA1D0W2gve2QRTp4z83.jpg","year":"2010","result":"HD","language":["Hindi"],"country":["US"],"original_language":"en","genres":["Thriller","Crime","Horror"],"imdb_id":"tt1242432"},{"id":"43593","type":"movie","title":"Piranha 3D","poster":"https://image.tmdb.org/t/p/w342/lMLS2OFBbNYMSB1ZbVp4q2S4zTU.jpg","year":"2010","result":"HD","language":["Hindi"],"country":["US"],"original_language":"en","genres":["Comedy","Horror"],"imdb_id":"tt0464154"},{"id":"50393","type":"movie","title":"Kung Fu Panda Holiday","poster":"https://image.tmdb.org/t/p/w342/vJv3pI8pyS13rLjy0ok7a3BiE0a.jpg","year":"2010","result":"HD","language":["Hindi"],"country":["US"],"original_language":"en","genres":["Animation","Family","TV Movie","Comedy","Fantasy"],"imdb_id":"tt1702433"},{"id":"42966","type":"movie","title":"Once Upon a Time in Mumbaai","poster":"https://image.tmdb.org/t/p/w342/qkPmQx9GMuwTDEuIUMoeN6DEqVA.jpg","year":"2010","result":"HD","language":["Hindi"],"country":["IN"],"original_language":"hi","genres":["Drama","Thriller","Crime"],"imdb_id":"tt1395054"},{"id":"20352","type":"movie","title":"Despicable Me","poster":"https://image.tmdb.org/t/p/w342/b1BT309QWjtFUlJPLmXmrcHOWEL.jpg","year":"2010","result":"HD","language":["Hindi"],"country":["US"],"original_language":"en","genres":["Animation","Comedy","Crime","Family","Science Fiction"],"imdb_id":"tt1323594"},{"id":"45317","type":"movie","title":"The Fighter","poster":"https://image.tmdb.org/t/p/w342/xfsFerGhO1h6rLk8vwLgMyQ8WVJ.jpg","year":"2010","result":"HD","language":["Hindi"],"country":["US"],"original_language":"en","genres":["Drama"],"imdb_id":"tt0964517"},{"id":"59421","type":"movie","title":"Bedevilled","poster":"https://image.tmdb.org/t/p/w342/3ZgFJY1kje1XhXPvC8UtRKA2tX.jpg","year":"2010","result":"HD","language":["Hindi"],"country":["KR"],"original_language":"ko","genres":["Thriller","Crime","Drama","Horror"],"imdb_id":"tt1646959"},{"id":"35687","type":"movie","title":"LSD: Love, Sex aur Dhokha","poster":"https://image.tmdb.org/t/p/w342/cGB0TZ27GXUTaBIxhf7IBPiHXzr.jpg","year":"2010","result":"HD","language":["Hindi"],"country":["IN"],"original_language":"hi","genres":["Drama","Crime","Comedy"],"imdb_id":"tt1608777"},{"id":"34851","type":"movie","title":"Predators","poster":"https://image.tmdb.org/t/p/w342/wdniP8NDaJIydi1hMxhpbJMUfr6.jpg","year":"2010","result":"HD","language":["Hindi"],"country":["US"],"original_language":"en","genres":["Science Fiction","Action","Thriller"],"imdb_id":"tt1424381"},{"id":"26389","type":"movie","title":"From Paris with Love","poster":"https://image.tmdb.org/t/p/w342/2nD0RAWVOccomLp1iToVJn6KC2a.jpg","year":"2010","result":"HD","language":["Hindi"],"country":["GB","FR"],"original_language":"en","genres":["Action","Crime","Thriller"],"imdb_id":"tt1179034"},{"id":"12444","type":"movie","title":"Harry Potter and the Deathly Hallows: Part 1","poster":"https://image.tmdb.org/t/p/w342/iGoXIpQb7Pot00EEdwpwPajheZ5.jpg","year":"2010","result":"HD","language":["Hindi"],"country":["GB","US"],"original_language":"en","genres":["Adventure","Fantasy"],"imdb_id":"tt0926084"},{"id":"20453","type":"movie","title":"3 Idiots","poster":"https://image.tmdb.org/t/p/w342/66A9MqXOyVFCssoloscw79z8Tew.jpg","year":"2009","result":"HD","language":["Hindi"],"country":["IN"],"original_language":"hi","genres":["Drama","Comedy"],"imdb_id":"tt1187043"},{"id":"26123","type":"movie","title":"American Pie Presents: The Book of Love","poster":"https://image.tmdb.org/t/p/w342/hwP0GEP0zy8ar965Xaht19SmMd3.jpg","year":"2009","result":"HD","language":["Hindi"],"country":["US"],"original_language":"en","genres":["Comedy"],"imdb_id":"tt1407050"},{"id":"44114","type":"movie","title":"3some","poster":"https://image.tmdb.org/t/p/w342/h61c54Dc5Ax6PbCVNxr3aIywKLA.jpg","year":"2009","result":"HD","language":["Hindi"],"country":["ES"],"original_language":"es","genres":["Romance","Drama"],"imdb_id":"tt1188985"},{"id":"15092","type":"movie","title":"Crank: High Voltage","poster":"https://image.tmdb.org/t/p/w342/tzTC4EEvF0OPL63frEiogxL2T8M.jpg","year":"2009","result":"HD","language":["Hindi"],"country":["US"],"original_language":"en","genres":["Action","Thriller","Crime"],"imdb_id":"tt1121931"},{"id":"17609","type":"movie","title":"Antichrist","poster":"https://image.tmdb.org/t/p/w342/ge7zbYvpfsDP3luKi0iSpzOgncM.jpg","year":"2009","result":"HD","language":["Hindi"],"country":["DK","FR","DE","IT","PL","SE"],"original_language":"en","genres":["Drama","Horror","Thriller"],"imdb_id":"tt0870984"},{"id":"16258","type":"movie","title":"The Butterfly Effect 3: Revelations","poster":"https://image.tmdb.org/t/p/w342/7utgDyfae053YExAuUKcwkzUKMs.jpg","year":"2009","result":"HD","language":["ENGLISH"],"country":["US"],"original_language":"en","genres":["Science Fiction","Thriller","Drama","Crime"],"imdb_id":"tt1234541"},{"id":"26466","type":"movie","title":"Triangle","poster":"https://image.tmdb.org/t/p/w342/cRlMrbc4Iof7vN0ZqHwJnMBYBLi.jpg","year":"2009","result":"HD","language":["ENGLISH"],"country":["AU","GB"],"original_language":"en","genres":["Horror"],"imdb_id":"tt1187064"},{"id":"34496","type":"movie","title":"Storage","poster":"https://image.tmdb.org/t/p/w342/31Yi65s8gdhBpjfbrIbpXCPyVvP.jpg","year":"2009","result":"HD","language":["Hindi"],"country":["AU"],"original_language":"en","genres":["Crime","Thriller"],"imdb_id":"tt1223893"},{"id":"32985","type":"movie","title":"Solomon Kane","poster":"https://image.tmdb.org/t/p/w342/jwwVNuGRUBXcudG6wOKP9U60BzU.jpg","year":"2009","result":"HD","language":["Hindi"],"country":["CZ","FR","GB","US"],"original_language":"en","genres":["Adventure","Fantasy","Action"],"imdb_id":"tt0970452"},{"id":"24756","type":"movie","title":"The Art of War III: Retribution","poster":"https://image.tmdb.org/t/p/w342/igxwKUqgGh5gD1Z2TzVmW1f4DZQ.jpg","year":"2009","result":"HD","language":["Hindi"],"country":["US"],"original_language":"en","genres":["Action","Adventure","Thriller"],"imdb_id":"tt0878647"},{"id":"19995","type":"movie","title":"Avatar","poster":"https://image.tmdb.org/t/p/w342/gKY6q7SjCkAU6FqvqWybDYgUKIF.jpg","year":"2009","result":"HD","language":["Hindi"],"country":["US","GB"],"original_language":"en","genres":["Science Fiction","Action","Adventure"],"imdb_id":"tt0499549"},{"id":"10528","type":"movie","title":"Sherlock Holmes","poster":"https://image.tmdb.org/t/p/w342/zz0vClg5NdYbhpqaEGyJENrGVSw.jpg","year":"2009","result":"HD","language":["Hindi"],"country":["US","DE","GB"],"original_language":"en","genres":["Adventure","Crime","Mystery","Action"],"imdb_id":"tt0988045"},{"id":"7980","type":"movie","title":"The Lovely Bones","poster":"https://image.tmdb.org/t/p/w342/sn0iDphRxQ7I6aLd9igIgACITak.jpg","year":"2009","result":"HD","language":["Hindi"],"country":["GB","NZ","US"],"original_language":"en","genres":["Fantasy","Drama"],"imdb_id":"tt0380510"},{"id":"8247","type":"movie","title":"Jumper","poster":"https://image.tmdb.org/t/p/w342/3pPZ9JhNz3VMmASVir5SMHvTDUU.jpg","year":"2008","result":"HD","language":["Hindi"],"country":["US"],"original_language":"en","genres":["Action","Adventure","Science Fiction"],"imdb_id":"tt0489099"},{"id":"136686","type":"movie","title":"Doraemon: Nobita and the Green Giant Legend","poster":"https://image.tmdb.org/t/p/w342/jY2c8s4s8YyGxuxX8ymmzGUdnwZ.jpg","year":"2008","result":"HD","language":["Hindi"],"country":["JP"],"original_language":"ja","genres":["Adventure","Animation","Family","Comedy","Science Fiction","Fantasy"],"imdb_id":"tt1180304"},{"id":"14503","type":"movie","title":"Bachelor Party 2: The Last Temptation","poster":"https://image.tmdb.org/t/p/w342/5jYCn53G4oqNnGLh6TThQduJqxT.jpg","year":"2008","result":"HD","language":["Hindi"],"country":["US"],"original_language":"en","genres":["Comedy"],"imdb_id":"tt0954541"},{"id":"45722","type":"movie","title":"Don't Look Down","poster":"https://image.tmdb.org/t/p/w342/s7igxMxtKQKHdnDxnSAJej7RTGp.jpg","year":"2008","result":"HD","language":["Hindi"],"country":["AR","FR"],"original_language":"es","genres":["Drama","Romance"],"imdb_id":"tt1233487"},{"id":"17166","type":"movie","title":"Insanitarium","poster":"https://image.tmdb.org/t/p/w342/osefLZ4RWntoKHbut9bwphsCRDX.jpg","year":"2008","result":"HD","language":["Hindi"],"country":["US"],"original_language":"en","genres":["Horror","Thriller"],"imdb_id":"tt1103984"},{"id":"6968","type":"movie","title":"The Baader Meinhof Complex","poster":"https://image.tmdb.org/t/p/w342/36Y0UT6bXnkHBGmmVFWGEnEh8nI.jpg","year":"2008","result":"HD","language":["Hindi"],"country":["CZ","FR","DE"],"original_language":"de","genres":["Action","Crime","Drama","History","Thriller"],"imdb_id":"tt0765432"},{"id":"13009","type":"movie","title":"Zombie Strippers!","poster":"https://image.tmdb.org/t/p/w342/iQcOzXCpewM9pbEwLoIrHLjpMvB.jpg","year":"2008","result":"HD","language":["Hindi"],"country":["US"],"original_language":"en","genres":["Comedy","Horror","Science Fiction"],"imdb_id":"tt0960890"},{"id":"9502","type":"movie","title":"Kung Fu Panda","poster":"https://image.tmdb.org/t/p/w342/wWt4JYXTg5Wr3xBW2phBrMKgp3x.jpg","year":"2008","result":"HD","language":["Hindi"],"country":["US"],"original_language":"en","genres":["Action","Animation","Comedy","Family"],"imdb_id":"tt0441773"},{"id":"14212","type":"movie","title":"Pulse 2: Afterlife","poster":"https://image.tmdb.org/t/p/w342/z0SGvrvvTlGosfA16yPmp4HpfWg.jpg","year":"2008","result":"HD","language":["Hindi"],"country":["US"],"original_language":"en","genres":["Drama","Horror","Science Fiction"],"imdb_id":"tt1038072"},{"id":"13988","type":"movie","title":"The Art of War II: Betrayal","poster":"https://image.tmdb.org/t/p/w342/gJmkrZSJmPckuB3uwhZTOqZIRDo.jpg","year":"2008","result":"HD","language":["Hindi"],"country":["CA"],"original_language":"en","genres":["Action","Thriller"],"imdb_id":"tt1233571"},{"id":"13460","type":"movie","title":"Doomsday","poster":"https://image.tmdb.org/t/p/w342/cKUmTyXgmhv8cMRCY9RYTKcAeTn.jpg","year":"2008","result":"HD","language":["Hindi"],"country":["DE","GB","US","ZA"],"original_language":"en","genres":["Action","Thriller","Science Fiction"],"imdb_id":"tt0483607"}]}