{"page":17,"total_pages":67,"total_items":3303,"items":[{"id":"1379877","type":"movie","title":"Azaad","poster":"https://image.tmdb.org/t/p/w342/yWFpiJcUJfXRbm3om48kNJ0MU7A.jpg","year":"2025","result":"HD","language":["Hindi"],"country":["IN"],"original_language":"hi","genres":["Drama","Action"],"imdb_id":"tt26439870"},{"id":"1377946","type":"movie","title":"Match Fixing - The Nation At Stake","poster":"https://image.tmdb.org/t/p/w342/szmEGYLFC7caihW0qrOoWgcMn5c.jpg","year":"2025","result":"HD","language":["Hindi"],"country":["IN"],"original_language":"hi","genres":["Drama"],"imdb_id":"tt34038181"},{"id":"1376870","type":"movie","title":"Humans in the Loop","poster":"https://image.tmdb.org/t/p/w342/1RzvbwKwkNy5yzA48MGEbh21007.jpg","year":"2025","result":"HD","language":["Hindi"],"country":["IN"],"original_language":"hi","genres":["Drama"],"imdb_id":"tt33581992"},{"id":"1372588","type":"movie","title":"Akhanda 2: Thaandavam","poster":"https://image.tmdb.org/t/p/w342/jo9efbQSGDZNQ6xMocyD1prFjdF.jpg","year":"2025","result":"HD","language":["Hindi"],"country":["IN"],"original_language":"te","genres":["Action","Drama"],"imdb_id":"tt15387182"},{"id":"1371189","type":"movie","title":"Ruth & Boaz","poster":"https://image.tmdb.org/t/p/w342/mtMJEIHjeHcLtvP0tFPAptk1Var.jpg","year":"2025","result":"HD","language":["Hindi"],"country":["US"],"original_language":"en","genres":["Romance","Drama","Music"],"imdb_id":"tt32306048"},{"id":"1371185","type":"movie","title":"Song Sung Blue","poster":"https://image.tmdb.org/t/p/w342/kQzDdxI0F5z16qo2vzDoqdVMl4O.jpg","year":"2025","result":"HD","language":["Hindi"],"country":["US"],"original_language":"en","genres":["Music","Romance","Drama"],"imdb_id":"tt30343021"},{"id":"1370264","type":"movie","title":"Crazxy","poster":"https://image.tmdb.org/t/p/w342/nWxEtbryAPP7gI0TtNYejoAUJlr.jpg","year":"2025","result":"HD","language":["Hindi"],"country":["IN"],"original_language":"hi","genres":["Thriller"],"imdb_id":"tt30798612"},{"id":"1363282","type":"movie","title":"The Carman Family Deaths","poster":"https://image.tmdb.org/t/p/w342/yFc6F5PmAIdqpAU9wReCqLHWwMm.jpg","year":"2025","result":"HD","language":["Hindi"],"country":["US"],"original_language":"en","genres":["Documentary","Crime"],"imdb_id":"tt31137117"},{"id":"1359490","type":"movie","title":"(MAD)²","poster":"https://image.tmdb.org/t/p/w342/cYGNd3oMRYsvM9gW4i0bzAclOUb.jpg","year":"2025","result":"HD","language":["Hindi"],"country":["IN"],"original_language":"te","genres":["Drama","Romance","Comedy"],"imdb_id":"tt32327574"},{"id":"1357713","type":"movie","title":"Kudumbasthan","poster":"https://image.tmdb.org/t/p/w342/xSF6fDlSKI1qrftN9OKOnBLvGZH.jpg","year":"2025","result":"HD","language":["Hindi"],"country":["IN"],"original_language":"ta","genres":["Family","Drama","Comedy"],"imdb_id":"tt31958285"},{"id":"1356084","type":"movie","title":"Kaalidhar Laapata","poster":"https://image.tmdb.org/t/p/w342/a7ctu6C6f7tN87ve4HFDoELp7cH.jpg","year":"2025","result":"HD","language":["Hindi"],"country":["IN"],"original_language":"hi","genres":["Comedy","Drama"],"imdb_id":"tt27866781"},{"id":"1355666","type":"movie","title":"Love Untangled","poster":"https://image.tmdb.org/t/p/w342/e7jStO2xfBUAUK37LbINHd1qtgy.jpg","year":"2025","result":"HD","language":["Hindi"],"country":["KR"],"original_language":"ko","genres":["Romance","Drama","Comedy"],"imdb_id":"tt33549683"},{"id":"1354069","type":"movie","title":"Sarangapani Jathakam","poster":"https://image.tmdb.org/t/p/w342/h7q2oskyTlhJPOVuvdk1GL2HNNZ.jpg","year":"2025","result":"HD","language":["Hindi"],"country":[],"original_language":"te","genres":["Comedy","Drama","Romance"],"imdb_id":"tt32327480"},{"id":"1352755","type":"movie","title":"Maintenance Required","poster":"https://image.tmdb.org/t/p/w342/lM7Q1y0pmHPWZCPmGkAWGKdgu6W.jpg","year":"2025","result":"HD","language":["Hindi"],"country":["US","GB"],"original_language":"en","genres":["Romance","Comedy"],"imdb_id":"tt33335602"},{"id":"1352528","type":"movie","title":"Single Salma","poster":"https://image.tmdb.org/t/p/w342/wjWX2IAZphVJydldUZBTwzDIFHb.jpg","year":"2025","result":"HD","language":["Hindi"],"country":["IN"],"original_language":"hi","genres":["Comedy","Family"],"imdb_id":"tt27826850"},{"id":"1351923","type":"movie","title":"120 Bahadur","poster":"https://image.tmdb.org/t/p/w342/fdxf02vUous6fty6O4nollyuo4m.jpg","year":"2025","result":"HD","language":["Hindi"],"country":["IN"],"original_language":"hi","genres":["Action","War"],"imdb_id":"tt15911108"},{"id":"1340486","type":"movie","title":"Interrogation","poster":"https://image.tmdb.org/t/p/w342/gO6sVcutuZNryfuOcQ1pn4kJw3u.jpg","year":"2025","result":"HD","language":["Hindi"],"country":["IN"],"original_language":"hi","genres":["Thriller","Crime"],"imdb_id":"tt33245951"},{"id":"1339952","type":"movie","title":"Kis Kisko Pyaar Karoon 2","poster":"https://image.tmdb.org/t/p/w342/yxCAHqkhDYmE9HEDgD6Ta9WJn1H.jpg","year":"2025","result":"HD","language":["Hindi"],"country":["IN"],"original_language":"hi","genres":["Comedy","Romance","Drama"],"imdb_id":"tt33307516"},{"id":"1339055","type":"movie","title":"Ronth","poster":"https://image.tmdb.org/t/p/w342/50MxvHckUkNgPI4EzjMwcWAq7ea.jpg","year":"2025","result":"HD","language":["Hindi"],"country":["IN"],"original_language":"ml","genres":["Crime","Drama"],"imdb_id":"tt33294533"},{"id":"1338111","type":"movie","title":"Sarhadein","poster":"https://image.tmdb.org/t/p/w342/2ZoTASuaGS8abb8jbVO03RlkFXC.jpg","year":"2025","result":"HD","language":["Hindi"],"country":[],"original_language":"hi","genres":["Family","Drama","Romance"],"imdb_id":"tt33242025"},{"id":"1337562","type":"movie","title":"Splitsville","poster":"https://image.tmdb.org/t/p/w342/cX6MVLl99pMDUmM3XKPFN4UKB8j.jpg","year":"2025","result":"HD","language":["Hindi"],"country":["US"],"original_language":"en","genres":["Comedy","Romance"],"imdb_id":"tt33247023"},{"id":"1336283","type":"movie","title":"Tara And Akash: Love Beyond Realms","poster":"https://image.tmdb.org/t/p/w342/fY0XOGrpIiFrPBXnpLGvZttjoSX.jpg","year":"2025","result":"HD","language":["Hindi"],"country":["IN"],"original_language":"hi","genres":["Drama","Romance","Fantasy"],"imdb_id":"tt33312086"},{"id":"1329271","type":"movie","title":"Oho Enthan Baby","poster":"https://image.tmdb.org/t/p/w342/ffnBY54B4Etmu0UCpMXiJNNTlRV.jpg","year":"2025","result":"HD","language":["Hindi"],"country":["IN"],"original_language":"ta","genres":["Romance"],"imdb_id":"tt31312310"},{"id":"1327862","type":"movie","title":"Regretting You","poster":"https://image.tmdb.org/t/p/w342/z4gVnxTaks3anTycwKjDmvQSuWt.jpg","year":"2025","result":"HD","language":["Hindi"],"country":["US","DE"],"original_language":"en","genres":["Romance","Drama"],"imdb_id":"tt33088452"},{"id":"1327769","type":"movie","title":"27 Nights","poster":"https://image.tmdb.org/t/p/w342/kVMUTLFbfQvNYdFHiexTDnSHntV.jpg","year":"2025","result":"HD","language":["Hindi"],"country":["AR"],"original_language":"es","genres":["Comedy"],"imdb_id":"tt38095263"},{"id":"1323880","type":"movie","title":"Idli Kadai","poster":"https://image.tmdb.org/t/p/w342/9ViF6UTWMh14gx77RvFALe5R6AL.jpg","year":"2025","result":"HD","language":["Hindi"],"country":["IN"],"original_language":"ta","genres":["Action","Drama","Comedy"],"imdb_id":"tt33029024"},{"id":"1323475","type":"movie","title":"Champagne Problems","poster":"https://image.tmdb.org/t/p/w342/A2TCPPkzmWd5SwjBlxMlB6yQ4yK.jpg","year":"2025","result":"HD","language":["Hindi"],"country":["US","FR"],"original_language":"en","genres":["Romance","Comedy"],"imdb_id":"tt33053440"},{"id":"1322218","type":"movie","title":"Mononoke the Movie: Chapter II - The Ashes of Rage","poster":"https://image.tmdb.org/t/p/w342/tPExtAM958Gx07itJ7nWqSddBQ9.jpg","year":"2025","result":"HD","language":["Hindi"],"country":["JP"],"original_language":"ja","genres":["Animation","Fantasy","Mystery"],"imdb_id":"tt35301440"},{"id":"1321439","type":"movie","title":"The Wrong Paris","poster":"https://image.tmdb.org/t/p/w342/A0KRoR842OgNByCfw9iFHbWoeR9.jpg","year":"2025","result":"HD","language":["Hindi"],"country":["US"],"original_language":"en","genres":["Romance","Comedy"],"imdb_id":"tt33039440"},{"id":"1321108","type":"movie","title":"Dude","poster":"https://image.tmdb.org/t/p/w342/6DoLxt1LLXcBuNeByHsSGLiAB0L.jpg","year":"2025","result":"HD","language":["Hindi"],"country":["IN"],"original_language":"ta","genres":["Action","Comedy","Drama","Romance"],"imdb_id":"tt36388163"},{"id":"1320752","type":"movie","title":"Gangers","poster":"https://image.tmdb.org/t/p/w342/9VOKdmARTbZ8MuYM3quxlBivYkm.jpg","year":"2025","result":"HD","language":["Hindi"],"country":["IN"],"original_language":"ta","genres":["Comedy","Crime"],"imdb_id":"tt36408254"},{"id":"1319951","type":"movie","title":"40 Acres","poster":"https://image.tmdb.org/t/p/w342/3zCEo21Y9wVFBgGhgDVWCyvMZ47.jpg","year":"2025","result":"HD","language":["Hindi"],"country":["CA"],"original_language":"en","genres":["Action","Thriller","Drama","Science Fiction"],"imdb_id":"tt29634843"},{"id":"1318308","type":"movie","title":"Aaryan","poster":"https://image.tmdb.org/t/p/w342/rRjh3zumdW89fNMe4tdjmALB1xG.jpg","year":"2025","result":"HD","language":["Hindi"],"country":["IN"],"original_language":"ta","genres":["Action","Thriller","Crime"],"imdb_id":"tt28434143"},{"id":"1316719","type":"movie","title":"The Ugly","poster":"https://image.tmdb.org/t/p/w342/sNLTSYHRfQJ2gpdrA2UXjkfEije.jpg","year":"2025","result":"HD","language":["Hindi"],"country":["KR"],"original_language":"ko","genres":["Mystery","Thriller"],"imdb_id":"tt33514451"},{"id":"1314784","type":"movie","title":"Hridayapoorvam","poster":"https://image.tmdb.org/t/p/w342/j6M2odS1RqGEUPKirIvB1VZ9i6Y.jpg","year":"2025","result":"HD","language":["Hindi"],"country":["IN"],"original_language":"ml","genres":["Romance","Comedy","Drama","Family"],"imdb_id":"tt30818546"},{"id":"1314129","type":"movie","title":"Preparation for the Next Life","poster":"https://image.tmdb.org/t/p/w342/8JbuKgQBc8KlXopF1eege54HNQ5.jpg","year":"2025","result":"HD","language":["Hindi"],"country":["US"],"original_language":"en","genres":["Drama","Romance"],"imdb_id":"tt31727191"},{"id":"1312946","type":"movie","title":"The Map That Leads to You","poster":"https://image.tmdb.org/t/p/w342/uwvKQIjJpC37IEsEj4ZAn1ITyRy.jpg","year":"2025","result":"HD","language":["Hindi"],"country":["US","ES","PT"],"original_language":"en","genres":["Romance","Drama"],"imdb_id":"tt33549478"},{"id":"1312559","type":"movie","title":"Maalik","poster":"https://image.tmdb.org/t/p/w342/etb6zsDB8SmIWBKXIUI2U73gfUH.jpg","year":"2025","result":"HD","language":["Hindi"],"country":["IN"],"original_language":"hi","genres":["Action","Thriller","Crime","Drama"],"imdb_id":"tt32832266"},{"id":"1311649","type":"movie","title":"Son of Sardaar 2","poster":"https://image.tmdb.org/t/p/w342/k47tmhqiUsmD6UoyoimHVQAjHx9.jpg","year":"2025","result":"HD","language":["Hindi"],"country":["IN"],"original_language":"hi","genres":["Comedy","Drama"],"imdb_id":"tt29429860"},{"id":"1311031","type":"movie","title":"Demon Slayer: Kimetsu no Yaiba Infinity Castle","poster":"https://image.tmdb.org/t/p/w342/fWVSwgjpT2D78VUh6X8UBd2rorW.jpg","year":"2025","result":"HD","language":["Hindi"],"country":["JP"],"original_language":"ja","genres":["Animation","Action","Fantasy"],"imdb_id":"tt32820897"},{"id":"1310779","type":"movie","title":"Maine Pyar Kiya","poster":"https://image.tmdb.org/t/p/w342/2eU8iygSmd7gY6K3TGVx2w3SPFh.jpg","year":"2025","result":"HD","language":["Hindi"],"country":["IN"],"original_language":"ml","genres":["Romance","Action","Drama","Comedy"],"imdb_id":"tt33310930"},{"id":"1309643","type":"movie","title":"Eleven","poster":"https://image.tmdb.org/t/p/w342/zrLStjPERNYWIESwlrfBPE3jsDb.jpg","year":"2025","result":"HD","language":["Hindi"],"country":["IN"],"original_language":"ta","genres":["Thriller"],"imdb_id":"tt28679253"},{"id":"1307078","type":"movie","title":"My Oxford Year","poster":"https://image.tmdb.org/t/p/w342/jrhXbIOFingzdLjkccjg9vZnqIp.jpg","year":"2025","result":"HD","language":["Hindi"],"country":["US"],"original_language":"en","genres":["Romance","Comedy","Drama"],"imdb_id":"tt4978342"},{"id":"1306845","type":"movie","title":"Jaat","poster":"https://image.tmdb.org/t/p/w342/guTflsCTgLNqTbpHTi9gJANk1Rf.jpg","year":"2025","result":"HD","language":["Hindi"],"country":["IN"],"original_language":"hi","genres":["Crime","Action","Thriller"],"imdb_id":"tt32223398"},{"id":"1306525","type":"movie","title":"The Elixir","poster":"https://image.tmdb.org/t/p/w342/A6aJLPhtmin9ZTWC2h7dnrMHU4z.jpg","year":"2025","result":"HD","language":["Hindi"],"country":["ID"],"original_language":"id","genres":["Horror","Thriller"],"imdb_id":"tt32643830"},{"id":"1301632","type":"movie","title":"Bhool Chuk Maaf","poster":"https://image.tmdb.org/t/p/w342/plWzFq6eVXOm8vpgJG0xUGmifHS.jpg","year":"2025","result":"HD","language":["Hindi"],"country":["IN","US"],"original_language":"hi","genres":["Comedy","Romance","Science Fiction"],"imdb_id":"tt32058735"},{"id":"1300116","type":"movie","title":"Fall for Me","poster":"https://image.tmdb.org/t/p/w342/mduZ3YRKele4rHhrse7b7B3d44b.jpg","year":"2025","result":"HD","language":["Hindi"],"country":["DE"],"original_language":"de","genres":["Romance","Thriller"],"imdb_id":"tt32543884"},{"id":"1297181","type":"movie","title":"Madharaasi","poster":"https://image.tmdb.org/t/p/w342/dw3Dllz1gV7186m7clqNDnI9R28.jpg","year":"2025","result":"HD","language":["Hindi"],"country":["IN"],"original_language":"ta","genres":["Action","Romance","Thriller"],"imdb_id":"tt28252563"},{"id":"1296504","type":"movie","title":"Stand Your Ground","poster":"https://image.tmdb.org/t/p/w342/vKB59pPIYvjRxxEXoRoyUfaiBoD.jpg","year":"2025","result":"HD","language":["Hindi"],"country":["US"],"original_language":"en","genres":["Action","Thriller","Crime"],"imdb_id":"tt30826955"},{"id":"1296404","type":"movie","title":"Good News","poster":"https://image.tmdb.org/t/p/w342/uA3o8q7JTym6lUM8pnITwQDfvhO.jpg","year":"2025","result":"HD","language":["Hindi"],"country":["KR"],"original_language":"ko","genres":["Thriller","Comedy","History"],"imdb_id":"tt33550069"}]}