{"page":32,"total_pages":67,"total_items":3303,"items":[{"id":"533535","type":"movie","title":"Deadpool & Wolverine","poster":"https://image.tmdb.org/t/p/w342/8cdWjvZQUExUUTzyp4t6EDMubfO.jpg","year":"2024","result":"HD","language":["Hindi"],"country":["US"],"original_language":"en","genres":["Action","Comedy","Science Fiction"],"imdb_id":"tt6263850"},{"id":"1097870","type":"movie","title":"Dear Santa","poster":"https://image.tmdb.org/t/p/w342/fRbDHbGBXg6kwQYr3CRYeKPJW5q.jpg","year":"2024","result":"HD","language":["Hindi"],"country":["US"],"original_language":"en","genres":["Comedy","Fantasy"],"imdb_id":"tt2396431"},{"id":"1043905","type":"movie","title":"Dirty Angels","poster":"https://image.tmdb.org/t/p/w342/1y3TG8N8zwwMxqh0qzdyDs3IyCq.jpg","year":"2024","result":"HD","language":["Hindi"],"country":["US","BG"],"original_language":"en","genres":["Drama","Thriller","War"],"imdb_id":"tt23872640"},{"id":"1331375","type":"movie","title":"Dominique","poster":"https://image.tmdb.org/t/p/w342/jvug7Esd89yNLJwGvUfeQ9j69cE.jpg","year":"2024","result":"HD","language":["Hindi"],"country":["CO","US"],"original_language":"en","genres":["Action","Thriller"],"imdb_id":"tt14972766"},{"id":"1158915","type":"movie","title":"Dìdi (弟弟)","poster":"https://image.tmdb.org/t/p/w342/3UCTNaZgxW6BbeHMMTe6uL07MpV.jpg","year":"2024","result":"HD","language":["Hindi"],"country":["US"],"original_language":"en","genres":["Comedy","Drama"],"imdb_id":"tt30319503"},{"id":"1108828","type":"movie","title":"Girls Will Be Girls","poster":"https://image.tmdb.org/t/p/w342/psklilaTgyczbHidamDlpFWodb0.jpg","year":"2024","result":"HD","language":["Hindi"],"country":["FR","IN","NO"],"original_language":"hi","genres":["Drama","Romance"],"imdb_id":"tt18277182"},{"id":"974250","type":"movie","title":"Greedy People","poster":"https://image.tmdb.org/t/p/w342/aIUZiciO0nMh8MrhmsTaMWZvEWK.jpg","year":"2024","result":"HD","language":["Hindi"],"country":["US"],"original_language":"en","genres":["Comedy","Mystery","Crime"],"imdb_id":"tt20201748"},{"id":"1171640","type":"movie","title":"GTMAX","poster":"https://image.tmdb.org/t/p/w342/exXm4o4ebjGr7besyFjuRfKDoVf.jpg","year":"2024","result":"HD","language":["Hindi"],"country":["BE","FR"],"original_language":"fr","genres":["Action","Crime"],"imdb_id":"tt29260436"},{"id":"5492","type":"movie","title":"Gunner","poster":"https://image.tmdb.org/t/p/w342/cS2TXN1YlrCvkZmMxaevC1ZKtEz.jpg","year":"2024","result":"HD","language":["Hindi"],"country":["US"],"original_language":"en","genres":["Action","Thriller","Crime"],"imdb_id":"tt12598606"},{"id":"1181214","type":"movie","title":"Guy Manley: Super Spy","poster":"https://image.tmdb.org/t/p/w342/sQIElGaXYAnQZKt5FzGSLl4P4Kh.jpg","year":"2024","result":"HD","language":["Hindi"],"country":["SE"],"original_language":"en","genres":["Action","Comedy","Science Fiction","Thriller"],"imdb_id":"tt29005580"},{"id":"1087822","type":"movie","title":"Hellboy: The Crooked Man","poster":"https://image.tmdb.org/t/p/w342/iz2GabtToVB05gLTVSH7ZvFtsMM.jpg","year":"2024","result":"HD","language":["Hindi"],"country":["US","DE","BG"],"original_language":"en","genres":["Fantasy","Horror","Action"],"imdb_id":"tt26757462"},{"id":"1138194","type":"movie","title":"Heretic","poster":"https://image.tmdb.org/t/p/w342/fr96XzlzsONrQrGfdLMiwtQjott.jpg","year":"2024","result":"HD","language":["Hindi"],"country":["US"],"original_language":"en","genres":["Thriller","Horror"],"imdb_id":"tt28015403"},{"id":"949709","type":"movie","title":"High Forces","poster":"https://image.tmdb.org/t/p/w342/b8xNJ39aOtEk3I7MFt8XJuN2bGS.jpg","year":"2024","result":"HD","language":["Hindi"],"country":["CN"],"original_language":"zh","genres":["Action","Crime"],"imdb_id":"tt17501870"},{"id":"1290287","type":"movie","title":"Hot Frosty","poster":"https://image.tmdb.org/t/p/w342/waW6R5WJQSxq65gwBkvnKlseU6n.jpg","year":"2024","result":"HD","language":["Hindi"],"country":["US","CA"],"original_language":"en","genres":["Romance","Comedy"],"imdb_id":"tt32359447"},{"id":"858017","type":"movie","title":"I Saw the TV Glow","poster":"https://image.tmdb.org/t/p/w342/hS4GYkYpN1rfl4GIxyc02sCyfAj.jpg","year":"2024","result":"HD","language":["Hindi"],"country":["US"],"original_language":"en","genres":["Horror","Drama"],"imdb_id":"tt15574270"},{"id":"1214509","type":"movie","title":"In a Violent Nature","poster":"https://image.tmdb.org/t/p/w342/hPfWHgq07nXbeldwEGxWB4JqwtE.jpg","year":"2024","result":"HD","language":["Hindi"],"country":["CA","US"],"original_language":"en","genres":["Drama","Horror","Thriller"],"imdb_id":"tt30321146"},{"id":"539972","type":"movie","title":"Kraven the Hunter","poster":"https://image.tmdb.org/t/p/w342/1GvBhRxY6MELDfxFrete6BNhBB5.jpg","year":"2024","result":"HD","language":["Hindi"],"country":["US"],"original_language":"en","genres":["Action","Adventure","Thriller"],"imdb_id":"tt8790086"},{"id":"1011985","type":"movie","title":"Kung Fu Panda 4","poster":"https://image.tmdb.org/t/p/w342/kDp1vUBnMpe8ak4rjgl3cLELqjU.jpg","year":"2024","result":"HD","language":["Hindi"],"country":["US"],"original_language":"en","genres":["Action","Adventure","Animation","Comedy","Family","Fantasy"],"imdb_id":"tt21692408"},{"id":"1387198","type":"movie","title":"Love in 39 Degrees","poster":"https://image.tmdb.org/t/p/w342/b8nL536SEMBRcoHs5fipgO7991m.jpg","year":"2024","result":"HD","language":["Hindi"],"country":["TR"],"original_language":"tr","genres":["Romance","Drama","Comedy"],"imdb_id":"tt34605805"},{"id":"1304168","type":"movie","title":"Love Kills","poster":"https://image.tmdb.org/t/p/w342/tNDQmXduXUXKq07mVrCTM2tBaRZ.jpg","year":"2024","result":"HD","language":["Hindi"],"country":["US"],"original_language":"en","genres":["Drama","Romance"],"imdb_id":"tt27833165"},{"id":"947891","type":"movie","title":"My Old Ass","poster":"https://image.tmdb.org/t/p/w342/yUs4Sw9AyTg2sA1qWBkNpD2mGSj.jpg","year":"2024","result":"HD","language":["Hindi"],"country":["US"],"original_language":"en","genres":["Comedy","Drama"],"imdb_id":"tt18559464"},{"id":"1180702","type":"movie","title":"Nice Girls","poster":"https://image.tmdb.org/t/p/w342/zqgE8TVxZm7v0iH3Yzl1dPAvK6Y.jpg","year":"2024","result":"HD","language":["Hindi"],"country":["FR"],"original_language":"fr","genres":["Comedy","Crime","Action"],"imdb_id":"tt29288566"},{"id":"1028196","type":"movie","title":"Nickel Boys","poster":"https://image.tmdb.org/t/p/w342/lu2vmmtStmTNMmSZl2LgrrQpLZo.jpg","year":"2024","result":"HD","language":["Hindi"],"country":["US"],"original_language":"en","genres":["Drama","History"],"imdb_id":"tt23055660"},{"id":"426063","type":"movie","title":"Nosferatu","poster":"https://image.tmdb.org/t/p/w342/5qGIxdEO841C0tdY8vOdLoRVrr0.jpg","year":"2024","result":"HD","language":["Hindi"],"country":["US"],"original_language":"en","genres":["Horror","Fantasy"],"imdb_id":"tt5040012"},{"id":"1222248","type":"movie","title":"Number 24","poster":"https://image.tmdb.org/t/p/w342/pJeWUCCkW92X0LGs6mFx7GMQoPZ.jpg","year":"2024","result":"HD","language":["Hindi"],"country":["NO"],"original_language":"no","genres":["War","History","Drama"],"imdb_id":"tt23782584"},{"id":"1084222","type":"movie","title":"Operation Blood Hunt","poster":"https://image.tmdb.org/t/p/w342/u36L4VEFTRIw11eK3xw8zjT0blT.jpg","year":"2024","result":"HD","language":["Hindi"],"country":["TH","US"],"original_language":"en","genres":["Action","Adventure","Horror"],"imdb_id":"tt23553640"},{"id":"1234811","type":"movie","title":"Our Little Secret","poster":"https://image.tmdb.org/t/p/w342/gkydRYX3VTqMIjJGDT7kXJ6SrfZ.jpg","year":"2024","result":"HD","language":["Hindi"],"country":["US"],"original_language":"en","genres":["Romance","Comedy","Drama"],"imdb_id":"tt31022050"},{"id":"516729","type":"movie","title":"Paddington in Peru","poster":"https://image.tmdb.org/t/p/w342/1ffZAucqfvQu36x1C49XfOdjuOG.jpg","year":"2024","result":"HD","language":["Hindi"],"country":["GB","JP"],"original_language":"en","genres":["Adventure","Comedy","Family"],"imdb_id":"tt5822536"},{"id":"876911","type":"movie","title":"Parallel","poster":"https://image.tmdb.org/t/p/w342/4RQ2xOgRjw00ge7f2srg3bBAwZp.jpg","year":"2024","result":"HD","language":["Hindi"],"country":["US"],"original_language":"en","genres":["Science Fiction","Thriller","Drama"],"imdb_id":"tt14637386"},{"id":"1109255","type":"movie","title":"Parthenope","poster":"https://image.tmdb.org/t/p/w342/k3BL39ca5pliALDTzUdC9ZIB9gk.jpg","year":"2024","result":"HD","language":["Hindi"],"country":["FR","IT"],"original_language":"it","genres":["Drama"],"imdb_id":"tt23853982"},{"id":"1069387","type":"movie","title":"Pedro Páramo","poster":"https://image.tmdb.org/t/p/w342/gugzjPIalz5hy2RbVxqXCpXWanj.jpg","year":"2024","result":"HD","language":["Hindi"],"country":["MX"],"original_language":"es","genres":["Drama","Fantasy","Western"],"imdb_id":"tt27717667"},{"id":"1236419","type":"movie","title":"Piece by Piece","poster":"https://image.tmdb.org/t/p/w342/fmOPcP8WRvm8cok4Hz3REwD7rlJ.jpg","year":"2024","result":"HD","language":["Hindi"],"country":["US"],"original_language":"en","genres":["Animation","Music","Documentary","Comedy"],"imdb_id":"tt31064841"},{"id":"1222064","type":"movie","title":"River of Blood","poster":"https://image.tmdb.org/t/p/w342/kgCfN7zuC2k9VaqeDdquUwroC8u.jpg","year":"2024","result":"HD","language":["Hindi"],"country":["DK","GB","TH"],"original_language":"en","genres":["Horror","Thriller"],"imdb_id":"tt29708137"},{"id":"1389147","type":"movie","title":"SDI: Secret Department of Intervention","poster":"https://image.tmdb.org/t/p/w342/owX06DajHa0TIqYt5z57x4nIGWw.jpg","year":"2024","result":"HD","language":["Hindi"],"country":[],"original_language":"fr","genres":["Action"],"imdb_id":"tt13360220"},{"id":"1220635","type":"movie","title":"Season of Love","poster":"https://image.tmdb.org/t/p/w342/mYus8GNVi8BYIubE5bsPkrz6u13.jpg","year":"2024","result":"HD","language":["Hindi"],"country":["TR"],"original_language":"tr","genres":["Romance"],"imdb_id":"tt30050756"},{"id":"1211472","type":"movie","title":"September 5","poster":"https://image.tmdb.org/t/p/w342/3kcQOLwYKGPwyjiynFsvP8vHvRn.jpg","year":"2024","result":"HD","language":["Hindi"],"country":["DE","US"],"original_language":"en","genres":["Thriller","Drama","History"],"imdb_id":"tt28082769"},{"id":"1283707","type":"movie","title":"Shadow Land","poster":"https://image.tmdb.org/t/p/w342/n6tk8oqhUki6Zp4PIuQqr1aTSXq.jpg","year":"2024","result":"HD","language":["Hindi"],"country":["US"],"original_language":"en","genres":["Thriller","Action"],"imdb_id":"tt31956123"},{"id":"1037113","type":"movie","title":"Snack Shack","poster":"https://image.tmdb.org/t/p/w342/wCXd5tpUSc12LVPd2oN9OKU1EVQ.jpg","year":"2024","result":"HD","language":["Hindi"],"country":["US"],"original_language":"en","genres":["Comedy"],"imdb_id":"tt22004344"},{"id":"1269192","type":"movie","title":"Snake Skin Beauty","poster":"https://image.tmdb.org/t/p/w342/lXgLM1XtAkCx5SLClGJTP3sAJ2n.jpg","year":"2024","result":"HD","language":["Hindi"],"country":["CN"],"original_language":"zh","genres":["Horror","Action","Fantasy"],"imdb_id":"tt32014347"},{"id":"939243","type":"movie","title":"Sonic the Hedgehog 3","poster":"https://image.tmdb.org/t/p/w342/d8Ryb8AunYAuycVKDp5HpdWPKgC.jpg","year":"2024","result":"HD","language":["Hindi"],"country":["US","JP"],"original_language":"en","genres":["Action","Science Fiction","Comedy","Family"],"imdb_id":"tt18259086"},{"id":"1064028","type":"movie","title":"Subservience","poster":"https://image.tmdb.org/t/p/w342/gBenxR01Uy0Ev9RTIw6dVBPoyQU.jpg","year":"2024","result":"HD","language":["Hindi"],"country":["US"],"original_language":"en","genres":["Science Fiction","Horror","Thriller"],"imdb_id":"tt24871974"},{"id":"1196470","type":"movie","title":"Survive","poster":"https://image.tmdb.org/t/p/w342/7fR3KxswtY8OHHZuOUB9td58CRX.jpg","year":"2024","result":"HD","language":["Hindi"],"country":["FR"],"original_language":"fr","genres":["Science Fiction","Thriller","Adventure","Action"],"imdb_id":"tt27032708"},{"id":"1094974","type":"movie","title":"Take Cover","poster":"https://image.tmdb.org/t/p/w342/xNLiMNyFzKTL9PVIEulG55Hei8j.jpg","year":"2024","result":"HD","language":["Hindi"],"country":["US"],"original_language":"en","genres":["Action","Thriller"],"imdb_id":"tt28129054"},{"id":"1034541","type":"movie","title":"Terrifier 3","poster":"https://image.tmdb.org/t/p/w342/ju10W5gl3PPK3b7TjEmVOZap51I.jpg","year":"2024","result":"HD","language":["Hindi"],"country":["US"],"original_language":"en","genres":["Horror"],"imdb_id":"tt27911000"},{"id":"1206617","type":"movie","title":"The Best Christmas Pageant Ever","poster":"https://image.tmdb.org/t/p/w342/6XjvhydAlXbQodoWbIf77H0Dd9R.jpg","year":"2024","result":"HD","language":["Hindi"],"country":["US"],"original_language":"en","genres":["Comedy","Drama","Family"],"imdb_id":"tt2347285"},{"id":"549509","type":"movie","title":"The Brutalist","poster":"https://image.tmdb.org/t/p/w342/vP7Yd6couiAaw9jgMd5cjMRj3hQ.jpg","year":"2024","result":"HD","language":["Hindi"],"country":["GB","US"],"original_language":"en","genres":["Drama"],"imdb_id":"tt8999762"},{"id":"957452","type":"movie","title":"The Crow","poster":"https://image.tmdb.org/t/p/w342/g8TbOXrNMuqq7AaKqdvqS2oG4ob.jpg","year":"2024","result":"HD","language":["Hindi"],"country":["FR","DE","GB","US"],"original_language":"en","genres":["Action","Fantasy","Horror"],"imdb_id":"tt1340094"},{"id":"610219","type":"movie","title":"The Fire Inside","poster":"https://image.tmdb.org/t/p/w342/dMorkoCdZJ1xmKv0VAXcpUax6Ar.jpg","year":"2024","result":"HD","language":["Hindi"],"country":["US"],"original_language":"en","genres":["Drama","History"],"imdb_id":"tt6133444"},{"id":"1186532","type":"movie","title":"The Forge","poster":"https://image.tmdb.org/t/p/w342/oranxontIQRmhuyQlkoAwxpeBYz.jpg","year":"2024","result":"HD","language":["Hindi"],"country":["US"],"original_language":"en","genres":["Drama","Family"],"imdb_id":"tt26731216"},{"id":"1279596","type":"movie","title":"The Little Mermaid","poster":"https://image.tmdb.org/t/p/w342/thRKCI7ex7He9rflOcO6JZojxk1.jpg","year":"2024","result":"HD","language":["Hindi"],"country":["KN","US"],"original_language":"en","genres":["Horror","Fantasy"],"imdb_id":"tt27722894"}]}