{"page":13,"total_pages":67,"total_items":3303,"items":[{"id":"1557961","type":"movie","title":"Bank Of Bhagyalakshmi","poster":"https://image.tmdb.org/t/p/w342/k3ZkowkAPpfLwhD8eV3OhFooYgo.jpg","year":"2025","result":"HD","language":["Hindi"],"country":["IN"],"original_language":"kn","genres":["Comedy","Action","Crime","Thriller"],"imdb_id":"tt32447918"},{"id":"1557889","type":"movie","title":"Soohe Ve Cheere Waleya","poster":"https://image.tmdb.org/t/p/w342/xs574v4F6OPysyfzmwBh6AbPdN.jpg","year":"2025","result":"HD","language":["Hindi"],"country":["IN"],"original_language":"pa","genres":["Romance","Drama"],"imdb_id":"tt38582643"},{"id":"1557855","type":"movie","title":"Raavi de Kande","poster":"https://image.tmdb.org/t/p/w342/xs9qan2fvt1TgJr6PcL3CYVPZ57.jpg","year":"2025","result":"HD","language":["Hindi"],"country":[],"original_language":"pa","genres":["Drama"],"imdb_id":"tt37701965"},{"id":"1555298","type":"movie","title":"Rajini Gaang","poster":"https://image.tmdb.org/t/p/w342/grMIi3H6XrqJQTtJdkzmZtkoYL7.jpg","year":"2025","result":"HD","language":["Hindi"],"country":["IN"],"original_language":"ta","genres":["Horror","Comedy"],"imdb_id":"tt38938222"},{"id":"1554565","type":"movie","title":"Evil Nun","poster":"https://image.tmdb.org/t/p/w342/fLJQgDd9qXZiCEYM9XQqtg1raAC.jpg","year":"2025","result":"HD","language":["Hindi"],"country":["US"],"original_language":"en","genres":["Horror"],"imdb_id":"tt38265135"},{"id":"1554048","type":"movie","title":"Godday Godday Chaa 2","poster":"https://image.tmdb.org/t/p/w342/ixaCAzYYO8NzYwJUg6v7Dy7qfxx.jpg","year":"2025","result":"HD","language":["Hindi"],"country":["IN"],"original_language":"pa","genres":["Comedy","Drama"],"imdb_id":"tt38504130"},{"id":"1554037","type":"movie","title":"Bhagwat - Chapter One: Raakshas","poster":"https://image.tmdb.org/t/p/w342/hXVDG74ykzadnIHtPpV8eZWwtZB.jpg","year":"2025","result":"HD","language":["Hindi"],"country":["IN"],"original_language":"hi","genres":["Thriller"],"imdb_id":"tt38525492"},{"id":"1553347","type":"movie","title":"Tu Meri Poori Kahani","poster":"https://image.tmdb.org/t/p/w342/2V0Qjds0tHzCiB0PoSLQkrvrqsa.jpg","year":"2025","result":"HD","language":["Hindi"],"country":["IN"],"original_language":"en","genres":["Romance","Drama"],"imdb_id":"tt33097892"},{"id":"1552819","type":"movie","title":"Assassin","poster":"https://image.tmdb.org/t/p/w342/fLRCNUz3MsnC0MdhaWpw3hp4Eye.jpg","year":"2025","result":"HD","language":["Hindi"],"country":[],"original_language":"zh","genres":["Action"],"imdb_id":"tt36350780"},{"id":"1552117","type":"movie","title":"Chalo Bulaava Aaya Hai","poster":"https://image.tmdb.org/t/p/w342/469JpVpXBucgfGVS7J2OMqinTAf.jpg","year":"2025","result":"HD","language":["Hindi"],"country":["IN","GB"],"original_language":"pa","genres":["Drama","Family"],"imdb_id":"tt38043583"},{"id":"1550785","type":"movie","title":"My Father, the BTK Killer","poster":"https://image.tmdb.org/t/p/w342/47EblKlcEQ4lHdTVnay4P1d6thf.jpg","year":"2025","result":"HD","language":["Hindi"],"country":["US"],"original_language":"en","genres":["Crime","Documentary"],"imdb_id":"tt38466379"},{"id":"1550569","type":"movie","title":"Aileen: Queen of the Serial Killers","poster":"https://image.tmdb.org/t/p/w342/iBCorGTwpXhIOeWwTA21HC5Rprx.jpg","year":"2025","result":"HD","language":["Hindi"],"country":["GB","US"],"original_language":"en","genres":["Documentary","Crime"],"imdb_id":"tt38457052"},{"id":"1550223","type":"movie","title":"The Time That Remains","poster":"https://image.tmdb.org/t/p/w342/pjtrhgskggN2uD3lF2A9QxHO2Wd.jpg","year":"2025","result":"HD","language":["Hindi"],"country":["PH"],"original_language":"tl","genres":["Drama","Romance","Fantasy"],"imdb_id":"tt38366532"},{"id":"1549390","type":"movie","title":"Vijeyta","poster":"https://image.tmdb.org/t/p/w342/vWVw9ZFUEWyhUm8iJQZDFI7hLd9.jpg","year":"2025","result":"HD","language":["Hindi"],"country":[],"original_language":"hi","genres":["Drama"],"imdb_id":"tt36591334"},{"id":"1548037","type":"movie","title":"Khalnigranaaya","poster":"https://image.tmdb.org/t/p/w342/d5MDrJ2LAk9ETZwSzVgoOxYxif0.jpg","year":"2025","result":"HD","language":["Hindi"],"country":["IN"],"original_language":"hi","genres":["Action"],"imdb_id":"tt30050713"},{"id":"1545576","type":"movie","title":"Mannu Kya? Karegga","poster":"https://image.tmdb.org/t/p/w342/pMUYfdV8iwwO84e5iZ7Y2GILzsQ.jpg","year":"2025","result":"HD","language":["Hindi"],"country":[],"original_language":"hi","genres":["Romance","Comedy"],"imdb_id":"tt34000241"},{"id":"1543574","type":"movie","title":"Punjabi Aa Gaye Oye","poster":"https://image.tmdb.org/t/p/w342/pfS0P0E2vg0pi7qHFwfykzztm3.jpg","year":"2025","result":"HD","language":["Hindi"],"country":["IN"],"original_language":"pa","genres":["Drama","Comedy"],"imdb_id":"tt37563418"},{"id":"1542910","type":"movie","title":"Enai Sudum Pani","poster":"https://image.tmdb.org/t/p/w342/pgrSjbfhq1zOf8YjVVKOfRiYYwM.jpg","year":"2025","result":"HD","language":["Hindi"],"country":[],"original_language":"ta","genres":["Thriller"],"imdb_id":"tt36256256"},{"id":"1541550","type":"movie","title":"Mehar","poster":"https://image.tmdb.org/t/p/w342/f6ygZaUcXcRJVgFVc7oIxR8uR5Y.jpg","year":"2025","result":"HD","language":["Hindi"],"country":["IN"],"original_language":"pa","genres":["Drama"],"imdb_id":"tt36328115"},{"id":"1541316","type":"movie","title":"Arjun Chakravarthy: Journey of an Unsung Champion","poster":"https://image.tmdb.org/t/p/w342/tCZZFxQdneZ2z9ajfrKKp92Pvei.jpg","year":"2025","result":"HD","language":["Hindi"],"country":[],"original_language":"te","genres":["Drama"],"imdb_id":"tt29522022"},{"id":"1540775","type":"movie","title":"McGuffin","poster":"https://image.tmdb.org/t/p/w342/hNqBojWzhxJ242FTOTqLQ0rUmQu.jpg","year":"2025","result":"HD","language":["Hindi"],"country":[],"original_language":"hi","genres":["Drama","Mystery","Thriller"],"imdb_id":"tt21199592"},{"id":"1538573","type":"movie","title":"Cleopatra's Final Secret","poster":"https://image.tmdb.org/t/p/w342/3S1f8REqAu3kUjN6M8hWAgdQh8s.jpg","year":"2025","result":"HD","language":["Hindi"],"country":["GB","US"],"original_language":"en","genres":["Documentary","History"],"imdb_id":"tt37975375"},{"id":"1537411","type":"movie","title":"jaggo aayi aa","poster":"https://image.tmdb.org/t/p/w342/b58niEUpSPpxnvfn2NXqphM1H0k.jpg","year":"2025","result":"HD","language":["Hindi"],"country":[],"original_language":"pa","genres":["Drama"],"imdb_id":"tt36277724"},{"id":"1536876","type":"movie","title":"Mirage","poster":"https://image.tmdb.org/t/p/w342/glSCReT2vcnD7PO2P2959BtNTdC.jpg","year":"2025","result":"HD","language":["Hindi"],"country":[],"original_language":"en","genres":["Drama"],"imdb_id":"tt37762576"},{"id":"1536626","type":"movie","title":"Love in Vietnam","poster":"https://image.tmdb.org/t/p/w342/hhuIXwVSsQYWYSjgQ6t9AkzFmDi.jpg","year":"2025","result":"HD","language":["Hindi"],"country":["IN","VN"],"original_language":"hi","genres":["Romance","Drama"],"imdb_id":"tt32447822"},{"id":"1536607","type":"movie","title":"Della Bella Badlegi Kahaani","poster":"https://image.tmdb.org/t/p/w342/l6uJfwpE4kstuEI52Nn6VmqA8NM.jpg","year":"2025","result":"HD","language":["Hindi"],"country":["IN"],"original_language":"pa","genres":["Drama"],"imdb_id":"tt37537270"},{"id":"1535385","type":"movie","title":"Rebel Royals: An Unlikely Love Story","poster":"https://image.tmdb.org/t/p/w342/7vIkk6WNThpI89dyJMZ8IFrIz7n.jpg","year":"2025","result":"HD","language":["Hindi"],"country":["US"],"original_language":"en","genres":["Documentary"],"imdb_id":"tt37996139"},{"id":"1534964","type":"movie","title":"Tribanadhari Barbarik","poster":"https://image.tmdb.org/t/p/w342/kROWntI6dunaPfN27lCu0NzyVNV.jpg","year":"2025","result":"HD","language":["Hindi"],"country":["IN"],"original_language":"te","genres":["Thriller"],"imdb_id":"tt34479177"},{"id":"1534291","type":"movie","title":"Ufff Yeh Siyapaa","poster":"https://image.tmdb.org/t/p/w342/6ntsWm5J9S45ItTBjQvNRy3wWfY.jpg","year":"2025","result":"HD","language":["Hindi"],"country":["IN"],"original_language":"hi","genres":["Comedy","Action"],"imdb_id":"tt37867075"},{"id":"1532315","type":"movie","title":"Mukk Gyi Feem Dabbi Cho Yaaro","poster":"https://image.tmdb.org/t/p/w342/sGIUTJ6lMkPdkTZjOBo9bUjoGoI.jpg","year":"2025","result":"HD","language":["Hindi"],"country":["IN"],"original_language":"pa","genres":["Comedy","Drama"],"imdb_id":"tt36812916"},{"id":"1531858","type":"movie","title":"The Taj Story","poster":"https://image.tmdb.org/t/p/w342/6oMIAvdPWFbwowAq7Zn8unbREAY.jpg","year":"2025","result":"HD","language":["Hindi"],"country":["IN"],"original_language":"hi","genres":["Drama"],"imdb_id":"tt32495339"},{"id":"1531405","type":"movie","title":"Avihitham","poster":"https://image.tmdb.org/t/p/w342/gPHdHjoUK2Hft5XpyYQ4s7XqxrE.jpg","year":"2025","result":"HD","language":["Hindi"],"country":["IN"],"original_language":"ml","genres":["Comedy","Drama"],"imdb_id":"tt38202962"},{"id":"1531058","type":"movie","title":"Others","poster":"https://image.tmdb.org/t/p/w342/2rdDxephzH5bpp3Z5aKf55evRbA.jpg","year":"2025","result":"HD","language":["Hindi"],"country":["IN"],"original_language":"ta","genres":["Action","Thriller"],"imdb_id":"tt37897558"},{"id":"1530875","type":"movie","title":"All the Devils Are Here","poster":"https://image.tmdb.org/t/p/w342/4GJTUSjbCGynQo4PpTTNzzxYfBM.jpg","year":"2025","result":"HD","language":["Hindi"],"country":["US"],"original_language":"en","genres":["Thriller","Crime","Mystery"],"imdb_id":"tt26896414"},{"id":"1530321","type":"movie","title":"Virgin Boys","poster":"https://image.tmdb.org/t/p/w342/s4QoF3Be7CDzSnYjcUWSDXLwszz.jpg","year":"2025","result":"HD","language":["Hindi"],"country":[],"original_language":"te","genres":["Comedy","Romance"],"imdb_id":"tt36955269"},{"id":"1529276","type":"movie","title":"Kooran","poster":"https://image.tmdb.org/t/p/w342/k20svCrYZqC71hVYypQmm9S8SL4.jpg","year":"2025","result":"HD","language":["Hindi"],"country":["IN"],"original_language":"ta","genres":["Drama"],"imdb_id":"tt35814786"},{"id":"1529088","type":"movie","title":"Bakasura Restaurant","poster":"https://image.tmdb.org/t/p/w342/pyznPP82WBdWOYvKHbQq9bDv4Ng.jpg","year":"2025","result":"HD","language":["Hindi"],"country":[],"original_language":"te","genres":["Comedy","Horror"],"imdb_id":"tt36793656"},{"id":"1528839","type":"movie","title":"Unfiltered Naari","poster":"https://i.ibb.co/fzc6P8rK/Gemini-Generated-Image-99h6ii99h6ii99h6.png","year":"2025","result":"HD","language":["Hindi"],"country":[],"original_language":"hi","genres":["Comedy"],"imdb_id":""},{"id":"1528660","type":"movie","title":"Holy Ghost","poster":"https://image.tmdb.org/t/p/w342/z1lwn6GWAjJ7CSn80ZcURb0Cj4G.jpg","year":"2025","result":"HD","language":["Hindi"],"country":[],"original_language":"en","genres":["Horror","Mystery","Thriller"],"imdb_id":"tt36364273"},{"id":"1527619","type":"movie","title":"Zora","poster":"https://image.tmdb.org/t/p/w342/15tO9pmJyoEIlujET8mc1Xf5fy8.jpg","year":"2025","result":"HD","language":["Hindi"],"country":[],"original_language":"hi","genres":["Drama","Mystery","Thriller"],"imdb_id":"tt33396471"},{"id":"1526946","type":"movie","title":"Phaphey Kuttniyan","poster":"https://image.tmdb.org/t/p/w342/kjwkWmr7HrybmEqPkmrkxe5fJcR.jpg","year":"2025","result":"HD","language":["Hindi"],"country":["IN"],"original_language":"pa","genres":["Comedy","Drama"],"imdb_id":"tt34930715"},{"id":"1525636","type":"movie","title":"Heer Express","poster":"https://image.tmdb.org/t/p/w342/4rgfq74rY9ZuBixODvLoROEphd2.jpg","year":"2025","result":"HD","language":["Hindi"],"country":["IN"],"original_language":"hi","genres":["Comedy","Drama","Family"],"imdb_id":"tt28754073"},{"id":"1525484","type":"movie","title":"Ek Chatur Naar","poster":"https://image.tmdb.org/t/p/w342/apMb2Oz9uvqA19dawmeglKM7THX.jpg","year":"2025","result":"HD","language":["Hindi"],"country":["IN"],"original_language":"hi","genres":["Drama","Comedy","Crime"],"imdb_id":"tt37970307"},{"id":"1525091","type":"movie","title":"All the Empty Rooms","poster":"https://image.tmdb.org/t/p/w342/38odJEJiluUBLI58tO6oTmv5wZl.jpg","year":"2025","result":"HD","language":["Hindi"],"country":["US"],"original_language":"en","genres":["Documentary"],"imdb_id":"tt37798645"},{"id":"1523579","type":"movie","title":"Enna Nu Rehna Sehna Ni Aaunda","poster":"https://image.tmdb.org/t/p/w342/gm0BcnnxiHVGgnO5xczlyp5mXCw.jpg","year":"2025","result":"HD","language":["Hindi"],"country":["CA","PK"],"original_language":"pa","genres":["Comedy"],"imdb_id":"tt33044546"},{"id":"1523326","type":"movie","title":"Kothalavadi","poster":"https://image.tmdb.org/t/p/w342/gbC7LjWwiuWlxbl2qfdrlaS6Goc.jpg","year":"2025","result":"HD","language":["Hindi"],"country":["IN"],"original_language":"kn","genres":["Drama"],"imdb_id":"tt36997822"},{"id":"1522790","type":"movie","title":"Kuriyan Jawan Baapu Preshaan 2","poster":"https://image.tmdb.org/t/p/w342/k6PlfMehsn7mODyqtzMQpOkJqfT.jpg","year":"2025","result":"HD","language":["Hindi"],"country":["IN"],"original_language":"pa","genres":["Comedy","Drama"],"imdb_id":"tt37563463"},{"id":"1522377","type":"movie","title":"Two Worlds One Wish","poster":"https://image.tmdb.org/t/p/w342/mZcwX1aN2RdCLwamxdkoINIhVAm.jpg","year":"2025","result":"HD","language":["Hindi"],"country":["TR"],"original_language":"tr","genres":["Romance","Drama"],"imdb_id":"tt36499994"},{"id":"1520294","type":"movie","title":"Vritta","poster":"https://image.tmdb.org/t/p/w342/oNPao9volH0jAA1jULlQ6hCOmAe.jpg","year":"2025","result":"HD","language":["Hindi"],"country":["IN"],"original_language":"kn","genres":["Mystery","Thriller"],"imdb_id":"tt27664022"},{"id":"1519168","type":"movie","title":"The Jester 2","poster":"https://image.tmdb.org/t/p/w342/47dsw1jSOV0Be5zmy7CtLhYpqU.jpg","year":"2025","result":"HD","language":["Hindi"],"country":["US"],"original_language":"en","genres":["Horror","Thriller","Crime"],"imdb_id":"tt37334010"}]}