{"page":1,"total_pages":67,"total_items":3303,"items":[{"id":"1318447","type":"movie","title":"Apex","poster":"https://image.tmdb.org/t/p/w342/5TGSFX6dxYfM2balJrFoSVB42Nv.jpg","year":"2026","result":"HD","language":["Hindi"],"country":["US","IS"],"original_language":"en","genres":["Action","Thriller"],"imdb_id":"tt16431404"},{"id":"318880","type":"tv","title":"Hulk Hogan: Real American","poster":"https://image.tmdb.org/t/p/w342/pdEEOQystKjHtC71RV6yRobY8bk.jpg","year":"2026","result":"HD","language":["Hindi"],"country":["US"],"original_language":"en","genres":["Documentary"],"imdb_id":"tt41508977","latest_uploaded_season":1,"total_uploaded_episodes":4},{"id":"285838","type":"tv","title":"If Wishes Could Kill","poster":"https://image.tmdb.org/t/p/w342/2CfTNVaR8kZQkWtWWE3Cntaiq33.jpg","year":"2026","result":"HD","language":["Hindi"],"country":["KR"],"original_language":"ko","genres":["Mystery","Drama"],"imdb_id":"tt36104233","latest_uploaded_season":1,"total_uploaded_episodes":8},{"id":"1660940","type":"movie","title":"Nee Forever","poster":"https://image.tmdb.org/t/p/w342/qEYp2LgileilGofZVVLL8Juuh2G.jpg","year":"2026","result":"HD","language":["Hindi"],"country":["IN"],"original_language":"ta","genres":["Drama","Romance"],"imdb_id":"tt40720168"},{"id":"1516501","type":"movie","title":"Prathichaya","poster":"https://image.tmdb.org/t/p/w342/4VD2H8ZwFDORWCaYS5TbhMVPdAv.jpg","year":"2026","result":"HD","language":["Hindi"],"country":["IN"],"original_language":"ml","genres":["Drama"],"imdb_id":"tt39283431"},{"id":"244623","type":"tv","title":"Running Point","poster":"https://image.tmdb.org/t/p/w342/q8KnHFt3igvQXKYDLtfERSYAY7F.jpg","year":"2026","result":"HD","language":["Hindi"],"country":["US"],"original_language":"en","genres":["Comedy"],"imdb_id":"tt14879018","latest_uploaded_season":2,"total_uploaded_episodes":20},{"id":"290230","type":"tv","title":"Santita","poster":"https://image.tmdb.org/t/p/w342/qVC23ZONOn7rEI2s1NqX5jzKQ8T.jpg","year":"2026","result":"HD","language":["Hindi"],"country":["MX"],"original_language":"es","genres":["Drama"],"imdb_id":"tt36742714","latest_uploaded_season":1,"total_uploaded_episodes":7},{"id":"1434973","type":"movie","title":"The Truce","poster":"https://image.tmdb.org/t/p/w342/gk3VVTTRWVhuAVpuxJrGKCKBat5.jpg","year":"2026","result":"HD","language":["Hindi"],"country":["ES","KZ"],"original_language":"es","genres":["Drama","History"],"imdb_id":"tt35091739"},{"id":"154385","type":"tv","title":"BEEF","poster":"https://image.tmdb.org/t/p/w342/25ih0Xq2zWbxhhKxwhvswKYQyEr.jpg","year":"2026","result":"HD","language":["Hindi"],"country":["US"],"original_language":"en","genres":["Comedy","Drama"],"imdb_id":"tt14403178","latest_uploaded_season":2,"total_uploaded_episodes":18},{"id":"224263","type":"tv","title":"Stranger Things: Tales from '85","poster":"https://image.tmdb.org/t/p/w342/2orq3F4a1prP3RnJjYSWzSjHYZQ.jpg","year":"2026","result":"HD","language":["Hindi"],"country":["US"],"original_language":"en","genres":["Animation","Sci-Fi & Fantasy","Mystery","Action & Adventure"],"imdb_id":"tt27486290","latest_uploaded_season":1,"total_uploaded_episodes":10},{"id":"124411","type":"tv","title":"Aspirants","poster":"https://image.tmdb.org/t/p/w342/lG8wK40jH4EX6dbVFI1fzw2E96N.jpg","year":"2026","result":"HD","language":["Hindi"],"country":["IN"],"original_language":"hi","genres":["Drama"],"imdb_id":"tt14392248","latest_uploaded_season":3,"total_uploaded_episodes":15},{"id":"249522","type":"tv","title":"Beast Games","poster":"https://image.tmdb.org/t/p/w342/6Zww0KyC518xni9m12dA3qB392D.jpg","year":"2026","result":"HD","language":["Hindi"],"country":["US"],"original_language":"en","genres":["Reality"],"imdb_id":"tt31812476","latest_uploaded_season":2,"total_uploaded_episodes":20},{"id":"297594","type":"tv","title":"Bindiya Ke Bahubali","poster":"https://image.tmdb.org/t/p/w342/eSJGKRff52Pg2SfOiIdC4IlMMQR.jpg","year":"2026","result":"HD","language":["Hindi"],"country":["IN"],"original_language":"hi","genres":["Comedy"],"imdb_id":"tt37787357","latest_uploaded_season":2,"total_uploaded_episodes":12},{"id":"127529","type":"tv","title":"Bloodhounds","poster":"https://image.tmdb.org/t/p/w342/yu4oHDi6kO3cYXdmEnYT6SibATj.jpg","year":"2026","result":"HD","language":["Hindi"],"country":["KR"],"original_language":"ko","genres":["Drama","Action & Adventure","Crime"],"imdb_id":"tt26315487","latest_uploaded_season":2,"total_uploaded_episodes":15},{"id":"91239","type":"tv","title":"Bridgerton","poster":"https://image.tmdb.org/t/p/w342/uXTg565ahu9RwonCX1V2Hex1NU6.jpg","year":"2026","result":"HD","language":["Hindi"],"country":["US"],"original_language":"en","genres":["Drama"],"imdb_id":"tt8740790","latest_uploaded_season":4,"total_uploaded_episodes":32},{"id":"72517","type":"tv","title":"Classroom of the Elite","poster":"https://image.tmdb.org/t/p/w342/yuHanbUUIv2UWRxxQFt9n8jtmOJ.jpg","year":"2026","result":"HD","language":["Hindi"],"country":["JP"],"original_language":"ja","genres":["Animation","Drama","Mystery"],"imdb_id":"tt7263328","latest_uploaded_season":4,"total_uploaded_episodes":39},{"id":"246799","type":"tv","title":"Crooks","poster":"https://image.tmdb.org/t/p/w342/8KkAi8uaCKainPE0OeBp6zHRWTa.jpg","year":"2026","result":"HD","language":["Hindi"],"country":["DE"],"original_language":"de","genres":["Action & Adventure","Drama","Crime"],"imdb_id":"tt27054614","latest_uploaded_season":2,"total_uploaded_episodes":14},{"id":"293703","type":"tv","title":"Dr. Seuss's Red Fish, Blue Fish","poster":"https://image.tmdb.org/t/p/w342/fhtkX44A4cTYMNKNcosEFYX7zfq.jpg","year":"2026","result":"HD","language":["Hindi"],"country":["US"],"original_language":"en","genres":["Animation","Kids"],"imdb_id":"tt18940264","latest_uploaded_season":2,"total_uploaded_episodes":11},{"id":"227042","type":"tv","title":"Gangs of Galicia","poster":"https://image.tmdb.org/t/p/w342/yAltqHzzA1WhrN5HWCPbAgfI9xR.jpg","year":"2026","result":"HD","language":["Hindi"],"country":["ES"],"original_language":"es","genres":["Drama","Crime"],"imdb_id":"tt27843828","latest_uploaded_season":2,"total_uploaded_episodes":13},{"id":"158154","type":"tv","title":"Heartbreak High","poster":"https://image.tmdb.org/t/p/w342/1KTYMK7N2vRe8PowCyb799DbDRR.jpg","year":"2026","result":"HD","language":["Hindi"],"country":["AU"],"original_language":"en","genres":["Drama"],"imdb_id":"tt15054962","latest_uploaded_season":3,"total_uploaded_episodes":24},{"id":"45790","type":"tv","title":"JoJo's Bizarre Adventure","poster":"https://image.tmdb.org/t/p/w342/ogAWwbh3frWtiTyyXrZaVFtqCgp.jpg","year":"2026","result":"HD","language":["Hindi"],"country":["JP"],"original_language":"ja","genres":["Animation","Action & Adventure","Sci-Fi & Fantasy"],"imdb_id":"tt2359704","latest_uploaded_season":6,"total_uploaded_episodes":191},{"id":"230034","type":"tv","title":"Kohrra","poster":"https://image.tmdb.org/t/p/w342/oZbiASZweEKFOHsl56QTeNJ6a8R.jpg","year":"2026","result":"HD","language":["Hindi"],"country":["IN"],"original_language":"hi","genres":["Crime","Drama"],"imdb_id":"tt27853283","latest_uploaded_season":2,"total_uploaded_episodes":7},{"id":"246483","type":"tv","title":"Maamla Legal Hai","poster":"https://image.tmdb.org/t/p/w342/tDP5vC5wxSpHKx88RdyRpdaSo2u.jpg","year":"2026","result":"HD","language":["Hindi"],"country":["IN"],"original_language":"hi","genres":["Comedy","Drama"],"imdb_id":"tt31183656","latest_uploaded_season":2,"total_uploaded_episodes":9},{"id":"297678","type":"tv","title":"Raakh","poster":"https://image.tmdb.org/t/p/w342/f24jO3ihgKEOUbeuX6qjXaKnVdD.jpg","year":"2026","result":"HD","language":["Hindi"],"country":["IN"],"original_language":"hi","genres":["Crime"],"imdb_id":"","latest_uploaded_season":1,"total_uploaded_episodes":1},{"id":"129552","type":"tv","title":"The Night Agent","poster":"https://image.tmdb.org/t/p/w342/4c5yUNcaff4W4aPrkXE6zr7papX.jpg","year":"2026","result":"HD","language":["Hindi"],"country":["US"],"original_language":"en","genres":["Action & Adventure","Drama","Mystery"],"imdb_id":"tt13918776","latest_uploaded_season":3,"total_uploaded_episodes":30},{"id":"61859","type":"tv","title":"The Night Manager","poster":"https://image.tmdb.org/t/p/w342/1MccRnw41qQjREuZkovqP2UX1i3.jpg","year":"2026","result":"HD","language":["Hindi"],"country":["GB"],"original_language":"en","genres":["Drama","Mystery","Crime"],"imdb_id":"tt1399664","latest_uploaded_season":2,"total_uploaded_episodes":12},{"id":"250307","type":"tv","title":"The Pitt","poster":"https://image.tmdb.org/t/p/w342/kvFSpESyBZMjaeOJDx7RS3P1jey.jpg","year":"2026","result":"HD","language":["Hindi"],"country":["US"],"original_language":"en","genres":["Drama"],"imdb_id":"tt31938062","latest_uploaded_season":2,"total_uploaded_episodes":30},{"id":"88324","type":"tv","title":"Virgin River","poster":"https://image.tmdb.org/t/p/w342/oHEqfmSWR4Ex4V4AJyUn8HGHHnt.jpg","year":"2026","result":"HD","language":["Hindi"],"country":["US"],"original_language":"en","genres":["Drama"],"imdb_id":"tt9077530","latest_uploaded_season":7,"total_uploaded_episodes":74},{"id":"289485","type":"tv","title":"WWE: Unreal","poster":"https://image.tmdb.org/t/p/w342/4wfySL6AUTwXRCiL6tumMq9oFam.jpg","year":"2026","result":"HD","language":["Hindi"],"country":["US"],"original_language":"en","genres":["Documentary"],"imdb_id":"tt36614693","latest_uploaded_season":2,"total_uploaded_episodes":10},{"id":"195670","type":"tv","title":"XO, Kitty","poster":"https://image.tmdb.org/t/p/w342/hxvTdKAwv27PUfpXOQp6AwWr6V.jpg","year":"2026","result":"HD","language":["Hindi"],"country":["US"],"original_language":"en","genres":["Comedy","Drama"],"imdb_id":"tt14490706","latest_uploaded_season":3,"total_uploaded_episodes":26},{"id":"1613798","type":"movie","title":"Vengeance","poster":"https://image.tmdb.org/t/p/w342/ygWXPL0RS91JyJPNOfK34eV3bRE.jpg","year":"2026","result":"HD","language":["Hindi"],"country":["MX","US"],"original_language":"es","genres":["Action","Thriller"],"imdb_id":"tt37989803"},{"id":"269161","type":"tv","title":"Bandi","poster":"https://image.tmdb.org/t/p/w342/bbU23S58nbHK3PkIpbbprRFTVGl.jpg","year":"2026","result":"HD","language":["Hindi"],"country":["FR"],"original_language":"fr","genres":["Drama"],"imdb_id":"tt37024175","latest_uploaded_season":1,"total_uploaded_episodes":8},{"id":"1304313","type":"movie","title":"Lee Cronin's The Mummy","poster":"https://image.tmdb.org/t/p/w342/lTQoEczVEnkuxHFEGgWYfJB98tL.jpg","year":"2026","result":"HD","language":["Hindi"],"country":["US","IE"],"original_language":"en","genres":["Horror","Mystery"],"imdb_id":"tt32612507"},{"id":"1401542","type":"movie","title":"Project Y","poster":"https://image.tmdb.org/t/p/w342/1KMG1inDAnKaGZ1W8Ac3wn6bdXu.jpg","year":"2026","result":"HD","language":["Hindi"],"country":["KR"],"original_language":"ko","genres":["Crime","Drama"],"imdb_id":"tt37658798"},{"id":"1260210","type":"movie","title":"Aadu 3","poster":"https://image.tmdb.org/t/p/w342/3yqreNY1f4iOXX0vBAqY64ZvxiV.jpg","year":"2026","result":"HD","language":["Hindi"],"country":["IN"],"original_language":"ml","genres":["Comedy","Fantasy"],"imdb_id":"tt8142672"},{"id":"1423251","type":"movie","title":"Biker","poster":"https://image.tmdb.org/t/p/w342/aduDhtZAcV6OlZzr7zAFbLE5aWE.jpg","year":"2026","result":"HD","language":["Hindi"],"country":["IN"],"original_language":"te","genres":["Adventure","Drama"],"imdb_id":"tt31593809"},{"id":"1481041","type":"movie","title":"Ginny Wedss Sunny 2","poster":"https://image.tmdb.org/t/p/w342/8lovlbsow4B5KbznLYDNky8usgc.jpg","year":"2026","result":"HD","language":["CAMERA RESULT"],"country":["IN"],"original_language":"hi","genres":["Romance","Comedy","Drama"],"imdb_id":"tt36277018"},{"id":"223386","type":"tv","title":"Man on Fire","poster":"https://image.tmdb.org/t/p/w342/9cZzmT8rhBXbZ1QFBPs3ggABYB3.jpg","year":"2026","result":"HD","language":["Hindi"],"country":["US"],"original_language":"en","genres":["Action & Adventure","Crime"],"imdb_id":"tt27331527","latest_uploaded_season":1,"total_uploaded_episodes":7},{"id":"1327688","type":"movie","title":"One Mile: Chapter One","poster":"https://image.tmdb.org/t/p/w342/1GZaoYe0mQy211DgDSAxAXr30ul.jpg","year":"2026","result":"HD","language":["ENGLISH"],"country":["US","CA"],"original_language":"en","genres":["Action","Crime"],"imdb_id":"tt24326458"},{"id":"1171094","type":"movie","title":"Ek Din","poster":"https://image.tmdb.org/t/p/w342/jpKXZyWh6WN55UJ3rqkwbzWeD5Q.jpg","year":"2026","result":"HD","language":["CAM RESULT"],"country":["IN"],"original_language":"hi","genres":["Romance","Drama"],"imdb_id":"tt35682680"},{"id":"283657","type":"tv","title":"Glory","poster":"https://image.tmdb.org/t/p/w342/juAQ7fFQGu2n3A2gW5tfNub1cW8.jpg","year":"2026","result":"HD","language":["Hindi"],"country":["IN"],"original_language":"hi","genres":["Drama","Mystery","Action & Adventure"],"imdb_id":"tt35668375","latest_uploaded_season":2,"total_uploaded_episodes":7},{"id":"1518247","type":"movie","title":"Happy Raj","poster":"https://image.tmdb.org/t/p/w342/hHJlk5VABzAyxUijIAeo8CzkfLa.jpg","year":"2026","result":"HD","language":["Hindi"],"country":["IN"],"original_language":"ta","genres":["Romance","Comedy","Drama"],"imdb_id":"tt39122419"},{"id":"1209511","type":"movie","title":"Love Insurance Kompany","poster":"https://image.tmdb.org/t/p/w342/dTaHHJ9enIvoKeUPKA2GkhFk3OC.jpg","year":"2026","result":"HD","language":["Hindi"],"country":["IN"],"original_language":"ta","genres":["Romance","Science Fiction","Comedy"],"imdb_id":"tt30460421"},{"id":"1239198","type":"movie","title":"My Dearest Señorita","poster":"https://image.tmdb.org/t/p/w342/cTcJs2bEsJDhQEpeYSOZD3yayZI.jpg","year":"2026","result":"HD","language":["Hindi"],"country":["ES"],"original_language":"es","genres":["Drama","Romance"],"imdb_id":"tt31116965"},{"id":"1650939","type":"movie","title":"Pitt Siyapa","poster":"https://image.tmdb.org/t/p/w342/pee6fD1cudLr0Fbj4F37S49XjUH.jpg","year":"2026","result":"HD","language":["CAM RESULT"],"country":["IN"],"original_language":"pa","genres":["Comedy","Drama"],"imdb_id":"tt39387317"},{"id":"1247165","type":"movie","title":"Raja Shivaji","poster":"https://image.tmdb.org/t/p/w342/9e2Wc6sbeU1YdBWLJIDyMcEWrN2.jpg","year":"2026","result":"HD","language":["CAM RESULT"],"country":["IN"],"original_language":"mr","genres":["Action","History","Drama"],"imdb_id":"tt31390893"},{"id":"240983","type":"tv","title":"Sapne vs Everyone","poster":"https://image.tmdb.org/t/p/w342/ajBMZ9JNpfrecj4xpZz49tCONBm.jpg","year":"2026","result":"HD","language":["Hindi"],"country":["IN"],"original_language":"hi","genres":["Drama"],"imdb_id":"tt30263074","latest_uploaded_season":2,"total_uploaded_episodes":10},{"id":"300529","type":"tv","title":"Straight to Hell","poster":"https://image.tmdb.org/t/p/w342/fRgQ7noEDUoP6w2EEQlQgvnrpiy.jpg","year":"2026","result":"HD","language":["Hindi"],"country":["JP"],"original_language":"ja","genres":["Drama"],"imdb_id":"tt38337374","latest_uploaded_season":1,"total_uploaded_episodes":9},{"id":"1007757","type":"movie","title":"Swapped","poster":"https://image.tmdb.org/t/p/w342/tHhxWxge06goXU6ZQH1hj7vK8Hd.jpg","year":"2026","result":"HD","language":["Hindi"],"country":["US","ES"],"original_language":"en","genres":["Adventure","Animation","Drama","Family","Fantasy"],"imdb_id":"tt29552248"},{"id":"1534530","type":"movie","title":"The Whisper","poster":"https://image.tmdb.org/t/p/w342/sanKujWA3g7StpK9y7NU78FAJ6O.jpg","year":"2026","result":"HD","language":["Hindi"],"country":["AR","UY"],"original_language":"es","genres":["Horror"],"imdb_id":"tt35956182"}]}