{"page":61,"total_pages":67,"total_items":3303,"items":[{"id":"334376","type":"movie","title":"Ghost in the Shell: The New Movie","poster":"https://image.tmdb.org/t/p/w342/eLd31emY3jann7JV0AkSPJ06Xep.jpg","year":"2015","result":"HD","language":["Hindi"],"country":["JP"],"original_language":"ja","genres":["Science Fiction","Animation"],"imdb_id":"tt4337072"},{"id":"332976","type":"movie","title":"Absolution","poster":"https://image.tmdb.org/t/p/w342/582SiBOAYRk17fou5lgOjdW7zNi.jpg","year":"2015","result":"HD","language":["Hindi"],"country":["US"],"original_language":"en","genres":["Action","Thriller","Adventure","Crime"],"imdb_id":"tt3503840"},{"id":"332177","type":"movie","title":"Vendetta","poster":"https://image.tmdb.org/t/p/w342/7hfZbdtuxmbDbXZocYOVQNmUeXy.jpg","year":"2015","result":"HD","language":["Hindi"],"country":["US"],"original_language":"en","genres":["Action","Drama"],"imdb_id":"tt3746298"},{"id":"328589","type":"movie","title":"The Lady in the Van","poster":"https://image.tmdb.org/t/p/w342/sqz4CGInI1bysFH674HYWtQSmYn.jpg","year":"2015","result":"HD","language":["Hindi"],"country":["GB"],"original_language":"en","genres":["Comedy","Drama"],"imdb_id":"tt3722070"},{"id":"316654","type":"movie","title":"Bombay Velvet","poster":"https://image.tmdb.org/t/p/w342/pLd96xMgrwNBNRnBaTa1h0bgeSS.jpg","year":"2015","result":"HD","language":["Hindi"],"country":["IN"],"original_language":"hi","genres":["Crime","Thriller"],"imdb_id":"tt2979920"},{"id":"301728","type":"movie","title":"Infini","poster":"https://image.tmdb.org/t/p/w342/3RpZabrzEKiwoG5Y74HkX4rMQHM.jpg","year":"2015","result":"HD","language":["Hindi"],"country":["AU"],"original_language":"en","genres":["Horror","Science Fiction","Thriller"],"imdb_id":"tt3327624"},{"id":"76341","type":"movie","title":"Mad Max: Fury Road","poster":"https://image.tmdb.org/t/p/w342/hA2ple9q4qnwxp3hKVNhroipsir.jpg","year":"2015","result":"HD","language":["Hindi"],"country":["AU","US"],"original_language":"en","genres":["Action","Adventure","Science Fiction"],"imdb_id":"tt1392190"},{"id":"64592","type":"tv","title":"The Lost Tomb","poster":"https://image.tmdb.org/t/p/w342/uqOqVGdNheWAXUhZcybOGA7aPuT.jpg","year":"2015","result":"HD","language":["Hindi"],"country":["CN"],"original_language":"zh","genres":["Action & Adventure","Mystery"],"imdb_id":"tt4219438","latest_uploaded_season":1,"total_uploaded_episodes":12},{"id":"62952","type":"tv","title":"Hidden Identity","poster":"https://image.tmdb.org/t/p/w342/cwn8rIJO4Oad4ECkgJAzAeb59U2.jpg","year":"2015","result":"HD","language":["Hindi"],"country":["KR"],"original_language":"ko","genres":["Crime"],"imdb_id":"tt4780416","latest_uploaded_season":1,"total_uploaded_episodes":16},{"id":"62511","type":"tv","title":"Who Are You: School 2015","poster":"https://image.tmdb.org/t/p/w342/snrF3YkSzsmUacDUtURKzZYZOfh.jpg","year":"2015","result":"HD","language":["Hindi"],"country":["KR"],"original_language":"ko","genres":["Drama","Mystery"],"imdb_id":"tt5087824","latest_uploaded_season":1,"total_uploaded_episodes":16},{"id":"62266","type":"tv","title":"Kill Me, Heal Me","poster":"https://image.tmdb.org/t/p/w342/dNH6NO0akHMIqbq5EC4qnCeeuC6.jpg","year":"2015","result":"HD","language":["Hindi"],"country":["KR"],"original_language":"ko","genres":["Comedy","Drama","Mystery"],"imdb_id":"tt4339192","latest_uploaded_season":1,"total_uploaded_episodes":20},{"id":"168530","type":"movie","title":"Ride Along","poster":"https://image.tmdb.org/t/p/w342/qrt65VVaP5DEEBZgB5XYctA82Qv.jpg","year":"2014","result":"HD","language":["Hindi"],"country":["US"],"original_language":"en","genres":["Action","Comedy"],"imdb_id":"tt1408253"},{"id":"61786","type":"tv","title":"Pride and Prejudice","poster":"https://image.tmdb.org/t/p/w342/9ai6t3XlWg5VoLTqYx2DP4JplgL.jpg","year":"2014","result":"HD","language":["Hindi"],"country":["KR"],"original_language":"ko","genres":["Crime","Drama"],"imdb_id":"tt4284162","latest_uploaded_season":1,"total_uploaded_episodes":21},{"id":"61197","type":"tv","title":"Emergency Couple","poster":"https://image.tmdb.org/t/p/w342/pvk9IYxxLNgsdXDhA1is3LFKeCC.jpg","year":"2014","result":"HD","language":["Hindi"],"country":["KR"],"original_language":"ko","genres":["Comedy","Drama"],"imdb_id":"tt3530644","latest_uploaded_season":1,"total_uploaded_episodes":21},{"id":"287767","type":"movie","title":"Mardaani","poster":"https://image.tmdb.org/t/p/w342/fD1zfYXgMbDkgIt9ZrHfte6mWHE.jpg","year":"2014","result":"HD","language":["Hindi"],"country":["IN"],"original_language":"hi","genres":["Action","Crime","Drama","Thriller"],"imdb_id":"tt3495000"},{"id":"63435","type":"tv","title":"Silver Spoon","poster":"https://image.tmdb.org/t/p/w342/kDEpaBqnD40tI7XpRDUFWn4JWcA.jpg","year":"2014","result":"HD","language":["Hindi"],"country":["RU"],"original_language":"ru","genres":["Drama","Crime"],"imdb_id":"tt4426042","latest_uploaded_season":1,"total_uploaded_episodes":12},{"id":"61670","type":"tv","title":"Healer","poster":"https://image.tmdb.org/t/p/w342/4Zc0XtzXasrfgOyCH7wX8stqkEu.jpg","year":"2014","result":"HD","language":["Hindi"],"country":["KR"],"original_language":"ko","genres":["Comedy","Action & Adventure","Mystery","Drama"],"imdb_id":"tt4284216","latest_uploaded_season":1,"total_uploaded_episodes":20},{"id":"60956","type":"tv","title":"Doctor Stranger","poster":"https://image.tmdb.org/t/p/w342/odH9cebqUNHKh1p6BKVSs0gsD34.jpg","year":"2014","result":"HD","language":["Hindi"],"country":["KR"],"original_language":"ko","genres":["Drama","Crime"],"imdb_id":"tt3693414","latest_uploaded_season":1,"total_uploaded_episodes":20},{"id":"285812","type":"movie","title":"Doraemon: New Nobita's Great Demon - Peko and the Exploration Party of Five","poster":"https://image.tmdb.org/t/p/w342/xKGMXQFGca4nKcO308aZ6nWz0Gc.jpg","year":"2014","result":"HD","language":["Hindi"],"country":["JP"],"original_language":"ja","genres":["Family","Animation","Adventure","Fantasy","Comedy","Science Fiction"],"imdb_id":"tt3949650"},{"id":"265712","type":"movie","title":"Stand by Me Doraemon","poster":"https://image.tmdb.org/t/p/w342/wc7XQbfx6EIQqCuvmBMt3aisb2Y.jpg","year":"2014","result":"HD","language":["Hindi"],"country":["JP"],"original_language":"ja","genres":["Animation","Adventure","Science Fiction","Drama","Family","Fantasy"],"imdb_id":"tt3331846"},{"id":"210577","type":"movie","title":"Gone Girl","poster":"https://image.tmdb.org/t/p/w342/ts996lKsxvjkO2yiYG0ht4qAicO.jpg","year":"2014","result":"HD","language":["English"],"country":["US"],"original_language":"en","genres":["Mystery","Thriller","Drama"],"imdb_id":"tt2267998"},{"id":"253046","type":"movie","title":"Jailbait","poster":"https://image.tmdb.org/t/p/w342/bNaKWcYARKnvDBCFEIc0uOQxX2v.jpg","year":"2014","result":"HD","language":["Hindi"],"country":["US"],"original_language":"en","genres":["Crime","Drama","Thriller"],"imdb_id":"tt3290276"},{"id":"321015","type":"movie","title":"Name Me","poster":"https://image.tmdb.org/t/p/w342/kWXcLTt0Qn9iQ1nppTkjbHlg92r.jpg","year":"2014","result":"HD","language":["Hindi"],"country":["RU"],"original_language":"ru","genres":["Drama","Adventure"],"imdb_id":"tt4058346"},{"id":"225886","type":"movie","title":"Sex Tape","poster":"https://image.tmdb.org/t/p/w342/pFdS7SIdjcrYXtf141dabWVly9B.jpg","year":"2014","result":"HD","language":["Hindi"],"country":["US"],"original_language":"en","genres":["Comedy"],"imdb_id":"tt1956620"},{"id":"286554","type":"movie","title":"Two Night Stand","poster":"https://image.tmdb.org/t/p/w342/rz0YnlHieXP9SBuJU4ANBW8ttIw.jpg","year":"2014","result":"HD","language":["Hindi"],"country":["US"],"original_language":"en","genres":["Romance","Comedy"],"imdb_id":"tt2140619"},{"id":"255495","type":"movie","title":"Heartless","poster":"https://image.tmdb.org/t/p/w342/7CUulfSpqAvNtemgO4ZiNf6zy3s.jpg","year":"2014","result":"HD","language":["Hindi"],"country":["IN"],"original_language":"hi","genres":["Drama","Family","Romance"],"imdb_id":"tt3334348"},{"id":"284296","type":"movie","title":"Top Five","poster":"https://image.tmdb.org/t/p/w342/nM5zWv6zpWHsrKNMrPKg23UHZCA.jpg","year":"2014","result":"HD","language":["Hindi"],"country":["US"],"original_language":"en","genres":["Drama","Comedy","Romance"],"imdb_id":"tt2784678"},{"id":"284293","type":"movie","title":"Still Alice","poster":"https://image.tmdb.org/t/p/w342/jJiGGbuLW8IkEnh5073maEmIr7V.jpg","year":"2014","result":"HD","language":["Hindi"],"country":["FR","GB","US"],"original_language":"en","genres":["Drama"],"imdb_id":"tt3316960"},{"id":"99838","type":"tv","title":"Qaatil Hasina","poster":"https://m.media-amazon.com/images/M/MV5BYmJmNWI0NmItNGUyNi00MTM1LTg4N2UtZGU5ZDAxYzE3MzU0XkEyXkFqcGc@._V1_FMjpg_UX1000_.jpg","year":"2014","result":"HD","language":["Hindi"],"country":["IN"],"original_language":"hi","genres":["Drama","Soap"],"imdb_id":"tt7263828","latest_uploaded_season":1,"total_uploaded_episodes":1},{"id":"284536","type":"movie","title":"The Gambler","poster":"https://image.tmdb.org/t/p/w342/hIgU3cxn7Y87joQGM3srofnXOm5.jpg","year":"2014","result":"HD","language":["Hindi"],"country":["US"],"original_language":"en","genres":["Thriller","Crime","Drama"],"imdb_id":"tt2039393"},{"id":"279254","type":"movie","title":"Ghost in the Shell: Arise - Border 4: Ghost Stands Alone","poster":"https://image.tmdb.org/t/p/w342/dNlPBbpsyZCHDbYa4VxZOCj3RiI.jpg","year":"2014","result":"HD","language":["Hindi"],"country":["JP"],"original_language":"ja","genres":["Action","Animation","Science Fiction","Crime"],"imdb_id":"tt4016942"},{"id":"277685","type":"movie","title":"Unfriended","poster":"https://image.tmdb.org/t/p/w342/8byPxREr3BqBNyyij5WHVSOVtYk.jpg","year":"2014","result":"HD","language":["Hindi"],"country":["US"],"original_language":"en","genres":["Horror","Mystery"],"imdb_id":"tt3713166"},{"id":"265851","type":"movie","title":"No Tears for the Dead","poster":"https://image.tmdb.org/t/p/w342/t3vtsQtu76xMKLal0g1UYkmZD2e.jpg","year":"2014","result":"HD","language":["E-Subtitles"],"country":["KR"],"original_language":"ko","genres":["Action","Thriller","Drama"],"imdb_id":"tt3697566"},{"id":"240341","type":"movie","title":"Ghost in the Shell: Arise - Border 3: Ghost Tears","poster":"https://image.tmdb.org/t/p/w342/nrMr4ht4CgX4tyseN1uYVHXENJN.jpg","year":"2014","result":"HD","language":["Hindi"],"country":["JP"],"original_language":"ja","genres":["Action","Animation","Science Fiction"],"imdb_id":"tt3579524"},{"id":"196867","type":"movie","title":"Annie","poster":"https://image.tmdb.org/t/p/w342/aKAM9V0izx4VhsdyAdBvAB26UCZ.jpg","year":"2014","result":"HD","language":["Hindi"],"country":["US"],"original_language":"en","genres":["Comedy","Drama","Family"],"imdb_id":"tt1823664"},{"id":"157336","type":"movie","title":"Interstellar","poster":"https://image.tmdb.org/t/p/w342/gEU2QniE6E77NI6lCU6MxlNBvIx.jpg","year":"2014","result":"HD","language":["Hindi"],"country":["GB","US"],"original_language":"en","genres":["Adventure","Drama","Science Fiction"],"imdb_id":"tt0816692"},{"id":"144336","type":"movie","title":"Sabotage","poster":"https://image.tmdb.org/t/p/w342/ygG17WukZCidKm7wGM3Zzrr5WRi.jpg","year":"2014","result":"HD","language":["Hindi"],"country":["US"],"original_language":"en","genres":["Action","Drama","Thriller","Crime"],"imdb_id":"tt1742334"},{"id":"122917","type":"movie","title":"The Hobbit: The Battle of the Five Armies","poster":"https://image.tmdb.org/t/p/w342/xT98tLqatZPQApyRmlPL12LtiWp.jpg","year":"2014","result":"HD","language":["Hindi"],"country":["NZ","US"],"original_language":"en","genres":["Action","Adventure","Fantasy"],"imdb_id":"tt2310332"},{"id":"100402","type":"movie","title":"Captain America: The Winter Soldier","poster":"https://image.tmdb.org/t/p/w342/tVFRpFw3xTedgPGqxW0AOI8Qhh0.jpg","year":"2014","result":"HD","language":["Hindi"],"country":["US"],"original_language":"en","genres":["Action","Adventure","Science Fiction"],"imdb_id":"tt1843866"},{"id":"61663","type":"tv","title":"Your Lie in April","poster":"https://image.tmdb.org/t/p/w342/rRjfH3ckTYz8z8aSkJshFL4VyK9.jpg","year":"2014","result":"HD","language":["Hindi"],"country":["JP"],"original_language":"ja","genres":["Animation","Comedy","Drama"],"imdb_id":"tt3895150","latest_uploaded_season":1,"total_uploaded_episodes":22},{"id":"61611","type":"tv","title":"Pinocchio","poster":"https://image.tmdb.org/t/p/w342/i97YOqvylMMkiNzi4l5yyEVbYQi.jpg","year":"2014","result":"HD","language":["Hindi"],"country":["KR"],"original_language":"ko","genres":["Drama","Comedy","Mystery"],"imdb_id":"tt4201628","latest_uploaded_season":1,"total_uploaded_episodes":20},{"id":"61606","type":"tv","title":"Birth of a Beauty","poster":"https://image.tmdb.org/t/p/w342/6z9mEvrF6g9UPTan7xhWq9ssE5Y.jpg","year":"2014","result":"HD","language":["Hindi"],"country":["KR"],"original_language":"ko","genres":["Comedy"],"imdb_id":"tt4269776","latest_uploaded_season":1,"total_uploaded_episodes":21},{"id":"56559","type":"tv","title":"Theatre of Darkness: Yamishibai","poster":"https://image.tmdb.org/t/p/w342/coYJ1i9QLlHZTanckLZ4iceptlj.jpg","year":"2013","result":"HD","language":["Hindi"],"country":["JP"],"original_language":"ja","genres":["Animation"],"imdb_id":"tt3111906","latest_uploaded_season":1,"total_uploaded_episodes":13},{"id":"214910","type":"movie","title":"Hwayi: A Monster Boy","poster":"https://image.tmdb.org/t/p/w342/cDffUvnm2TaLxQYWTy0PnohSGNP.jpg","year":"2013","result":"HD","language":["Hindi"],"country":["KR"],"original_language":"ko","genres":["Action","Thriller","Crime"],"imdb_id":"tt2972362"},{"id":"138832","type":"movie","title":"We're the Millers","poster":"https://image.tmdb.org/t/p/w342/qF2LJ0jwWrtXSuT4AFD5OS2IqaT.jpg","year":"2013","result":"HD","language":["Hindi"],"country":["GB","US"],"original_language":"en","genres":["Comedy","Crime"],"imdb_id":"tt1723121"},{"id":"209247","type":"movie","title":"The Art of the Steal","poster":"https://image.tmdb.org/t/p/w342/4R6ojBfyO8fj3WszLE9rog5qR4W.jpg","year":"2013","result":"HD","language":["Hindi"],"country":["CA","US"],"original_language":"en","genres":["Comedy","Crime"],"imdb_id":"tt2172985"},{"id":"109443","type":"movie","title":"Anchorman 2: The Legend Continues","poster":"https://image.tmdb.org/t/p/w342/BAdmxMdCqzjs6hx3KuEtnoWP8d.jpg","year":"2013","result":"HD","language":["Hindi"],"country":["US"],"original_language":"en","genres":["Comedy"],"imdb_id":"tt1229340"},{"id":"218726","type":"movie","title":"Doraemon: Nobita's Secret Gadget Museum","poster":"https://image.tmdb.org/t/p/w342/cOPhayPb0YzO8GfC4sNmntV9FWE.jpg","year":"2013","result":"HD","language":["Hindi"],"country":["JP"],"original_language":"ja","genres":["Adventure","Family","Animation","Comedy","Fantasy","Science Fiction"],"imdb_id":"tt2768084"},{"id":"207768","type":"movie","title":"I Spit on Your Grave 2","poster":"https://image.tmdb.org/t/p/w342/wit1VRI9sAbCstuwm3KPgxfYYqo.jpg","year":"2013","result":"HD","language":["Hindi"],"country":["US"],"original_language":"en","genres":["Thriller","Horror","Crime"],"imdb_id":"tt2537176"},{"id":"77805","type":"movie","title":"Lovelace","poster":"https://image.tmdb.org/t/p/w342/ibt7chnBsaDbE6ZVwyneuZwYfsC.jpg","year":"2013","result":"HD","language":["Hindi"],"country":["US"],"original_language":"en","genres":["Drama"],"imdb_id":"tt1426329"}]}