{"page":45,"total_pages":67,"total_items":3303,"items":[{"id":"1144161","type":"movie","title":"Lipstick","poster":"https://image.tmdb.org/t/p/w342/tASMoXVdgO4YNltpa1Kyhwxmvls.jpg","year":"2024","result":"HD","language":["Hindi"],"country":["BD"],"original_language":"bn","genres":["Action","Thriller"],"imdb_id":"tt31969078"},{"id":"1132491","type":"movie","title":"Triggered","poster":"https://image.tmdb.org/t/p/w342/50g702Thykuc49lhVpz4zMSpPtL.jpg","year":"2024","result":"HD","language":["Hindi"],"country":["PH"],"original_language":"tl","genres":["Action","Thriller","Crime"],"imdb_id":"tt23182472"},{"id":"1122418","type":"movie","title":"This Time Next Year","poster":"https://image.tmdb.org/t/p/w342/ckLPzRl9ZDHzNt4tDjkTGUyCYg7.jpg","year":"2024","result":"HD","language":["Hindi"],"country":["GB","DE","IT"],"original_language":"en","genres":["Romance","Comedy"],"imdb_id":"tt16301164"},{"id":"1105407","type":"movie","title":"Damaged","poster":"https://image.tmdb.org/t/p/w342/tMO0YLXgJZBnIAjoTSz26zE33YN.jpg","year":"2024","result":"HD","language":["Hindi"],"country":["GB","US"],"original_language":"en","genres":["Action","Drama","Thriller","Crime"],"imdb_id":"tt27304026"},{"id":"1102353","type":"movie","title":"Mechanic Rocky","poster":"https://image.tmdb.org/t/p/w342/muEYTKq3R4aQd44aa3GxcTM5taF.jpg","year":"2024","result":"HD","language":["Hindi"],"country":["IN"],"original_language":"te","genres":["Action","Drama"],"imdb_id":"tt27191250"},{"id":"1100099","type":"movie","title":"We Live in Time","poster":"https://image.tmdb.org/t/p/w342/oeDNBgnlGF6rnyX1P1K8Vl2f3lW.jpg","year":"2024","result":"HD","language":["Hindi"],"country":["GB"],"original_language":"en","genres":["Romance","Drama"],"imdb_id":"tt27131358"},{"id":"1088410","type":"movie","title":"Bhairathi Ranagal","poster":"https://image.tmdb.org/t/p/w342/ghA56IEkZ1FwJVDWWEihtVnRYvZ.jpg","year":"2024","result":"HD","language":["Hindi"],"country":["IN"],"original_language":"kn","genres":["Action","Drama"],"imdb_id":"tt15056920"},{"id":"1086726","type":"movie","title":"LSD 2: Love, Sex aur Dhokha 2","poster":"https://image.tmdb.org/t/p/w342/ywUtbLJngSqykpxiIHIqJNA06EX.jpg","year":"2024","result":"HD","language":["Hindi"],"country":["IN"],"original_language":"hi","genres":["Drama","Comedy","Crime"],"imdb_id":"tt14398312"},{"id":"1084736","type":"movie","title":"The Count of Monte Cristo","poster":"https://image.tmdb.org/t/p/w342/sAT1P3FGhtJ68anUyJScnMu8t1l.jpg","year":"2024","result":"HD","language":["Hindi"],"country":["FR","BE"],"original_language":"fr","genres":["Adventure","Action","Drama"],"imdb_id":"tt26446278"},{"id":"1084514","type":"movie","title":"Rob Peace","poster":"https://image.tmdb.org/t/p/w342/1BwKbTidW5QaEKb1pVY3p4u9cVg.jpg","year":"2024","result":"HD","language":["Hindi"],"country":["US"],"original_language":"en","genres":["Drama","History"],"imdb_id":"tt10740926"},{"id":"1064486","type":"movie","title":"Memoir of a Snail","poster":"https://image.tmdb.org/t/p/w342/woaN8CbloH0akyX0E72ayxlJAB4.jpg","year":"2024","result":"HD","language":["Hindi"],"country":["AU","GB","FR"],"original_language":"en","genres":["Animation","Drama","Comedy"],"imdb_id":"tt23770030"},{"id":"1058537","type":"movie","title":"Angels Fallen: Warriors of Peace","poster":"https://image.tmdb.org/t/p/w342/dKdKUSGQ9E0G73WPr9xIHrofpkT.jpg","year":"2024","result":"HD","language":["Hindi"],"country":["US"],"original_language":"en","genres":["Action","Adventure","Fantasy","Horror"],"imdb_id":"tt20258220"},{"id":"1051891","type":"movie","title":"Thelma","poster":"https://image.tmdb.org/t/p/w342/rUcuageYgv9SsJoWuc0seRWG6JC.jpg","year":"2024","result":"HD","language":["Hindi"],"country":["US","CH"],"original_language":"en","genres":["Action","Comedy","Adventure"],"imdb_id":"tt23778968"},{"id":"1044552","type":"movie","title":"Lal Salaam","poster":"https://image.tmdb.org/t/p/w342/65n64KT32r638HD8WS0mGL0vSGc.jpg","year":"2024","result":"HD","language":["Hindi"],"country":["IN"],"original_language":"ta","genres":["Drama","Action"],"imdb_id":"tt23461428"},{"id":"1035048","type":"movie","title":"Elevation","poster":"https://image.tmdb.org/t/p/w342/tnfc0NJ3BzhJrGJhkkEd6MHBdq5.jpg","year":"2024","result":"HD","language":["Hindi"],"country":["US"],"original_language":"en","genres":["Action","Science Fiction","Thriller"],"imdb_id":"tt23558280"},{"id":"1023922","type":"movie","title":"MaXXXine","poster":"https://image.tmdb.org/t/p/w342/ArvoFK6nlouZRxYmtIOUzKIrg90.jpg","year":"2024","result":"HD","language":["Hindi"],"country":["US"],"original_language":"en","genres":["Horror","Thriller"],"imdb_id":"tt22048412"},{"id":"1017163","type":"movie","title":"The Roundup 4: Punishment","poster":"https://image.tmdb.org/t/p/w342/yk38mNoJpsswmk9o7i7eLhO4mc.jpg","year":"2024","result":"HD","language":["Hindi"],"country":["KR"],"original_language":"ko","genres":["Action","Crime","Thriller","Comedy"],"imdb_id":"tt27811040"},{"id":"1016848","type":"movie","title":"The Front Room","poster":"https://image.tmdb.org/t/p/w342/zjkU6mZH9dMbQK2B622MlsRT8uw.jpg","year":"2024","result":"HD","language":["Hindi"],"country":["GB","US"],"original_language":"en","genres":["Horror"],"imdb_id":"tt21905744"},{"id":"1012201","type":"movie","title":"HAIKYU!! The Dumpster Battle","poster":"https://image.tmdb.org/t/p/w342/ntRU0OA4etGGiMMmH1Yw0bnaMdW.jpg","year":"2024","result":"HD","language":["Hindi"],"country":["JP"],"original_language":"ja","genres":["Animation","Comedy"],"imdb_id":"tt30476486"},{"id":"1010600","type":"movie","title":"The Strangers: Chapter 1","poster":"https://image.tmdb.org/t/p/w342/oYsCNpW4k7Pd7ac3uQfBhr2ihtW.jpg","year":"2024","result":"HD","language":["Hindi"],"country":["GB","US"],"original_language":"en","genres":["Horror","Thriller"],"imdb_id":"tt22050754"},{"id":"1007127","type":"movie","title":"Troll Factory","poster":"https://image.tmdb.org/t/p/w342/1joLg8gwVTZe7tarh0isaWntdhQ.jpg","year":"2024","result":"HD","language":["Hindi"],"country":["KR"],"original_language":"ko","genres":["Crime","Drama"],"imdb_id":"tt31315820"},{"id":"1005076","type":"movie","title":"Duchess","poster":"https://image.tmdb.org/t/p/w342/5TR7JlJbKucNSq84rkbnjLd1JB5.jpg","year":"2024","result":"HD","language":["Hindi"],"country":["GB"],"original_language":"en","genres":["Action","Crime","Thriller"],"imdb_id":"tt18300732"},{"id":"1001311","type":"movie","title":"Under Paris","poster":"https://image.tmdb.org/t/p/w342/qZPLK5ktRKa3CL4sKRZtj8UlPYc.jpg","year":"2024","result":"HD","language":["Hindi"],"country":["FR"],"original_language":"fr","genres":["Action","Horror"],"imdb_id":"tt13964390"},{"id":"999582","type":"movie","title":"Babes","poster":"https://image.tmdb.org/t/p/w342/1Cg4G1iQpisGXmWqns5uo4I6fPk.jpg","year":"2024","result":"HD","language":["Hindi"],"country":["US"],"original_language":"en","genres":["Comedy"],"imdb_id":"tt21276958"},{"id":"997162","type":"movie","title":"Marmalade","poster":"https://image.tmdb.org/t/p/w342/yt66TPbmJn8E4LepeLhBO5V1AED.jpg","year":"2024","result":"HD","language":["Hindi"],"country":["GB","US"],"original_language":"en","genres":["Crime","Thriller","Romance","Drama","Comedy"],"imdb_id":"tt21275544"},{"id":"933088","type":"movie","title":"The Abandon","poster":"https://image.tmdb.org/t/p/w342/vjno0bsWumTvpjQt4D910nUTG3a.jpg","year":"2024","result":"HD","language":["Hindi"],"country":["US"],"original_language":"en","genres":["Science Fiction","Horror","Thriller"],"imdb_id":"tt10273738"},{"id":"931940","type":"movie","title":"The Fix","poster":"https://image.tmdb.org/t/p/w342/vY7bY2xZymoIOti4WM5K29OMzCS.jpg","year":"2024","result":"HD","language":["Hindi"],"country":["ZA"],"original_language":"en","genres":["Science Fiction","Action","Horror"],"imdb_id":"tt10284944"},{"id":"928480","type":"movie","title":"Monster Summer","poster":"https://image.tmdb.org/t/p/w342/zD2UZkh0DwbDEMuOKIR7jgwgulZ.jpg","year":"2024","result":"HD","language":["Hindi"],"country":["US"],"original_language":"en","genres":["Adventure","Fantasy","Mystery","Horror"],"imdb_id":"tt3954936"},{"id":"893591","type":"movie","title":"Nadikar","poster":"https://image.tmdb.org/t/p/w342/oNa0qMQ8KoVZweIz40wQtXBG00z.jpg","year":"2024","result":"HD","language":["Hindi"],"country":["IN"],"original_language":"ml","genres":["Comedy","Drama"],"imdb_id":"tt15816336"},{"id":"838209","type":"movie","title":"Exhuma","poster":"https://image.tmdb.org/t/p/w342/6dasJ58GGFcC62H9KuukAryltUp.jpg","year":"2024","result":"HD","language":["Hindi"],"country":["KR"],"original_language":"ko","genres":["Mystery","Horror","Thriller"],"imdb_id":"tt27802490"},{"id":"832964","type":"movie","title":"Lee","poster":"https://image.tmdb.org/t/p/w342/zdNWyuim8gpJHe1LtKaDrs43dWz.jpg","year":"2024","result":"HD","language":["Hindi"],"country":["AU","US","GB","LU"],"original_language":"en","genres":["History","Drama","War"],"imdb_id":"tt5112584"},{"id":"786892","type":"movie","title":"Furiosa: A Mad Max Saga","poster":"https://image.tmdb.org/t/p/w342/iADOJ8Zymht2JPMoy3R7xceZprc.jpg","year":"2024","result":"HD","language":["Hindi"],"country":["AU","US"],"original_language":"en","genres":["Action","Science Fiction","Adventure"],"imdb_id":"tt12037194"},{"id":"762509","type":"movie","title":"Mufasa: The Lion King","poster":"https://image.tmdb.org/t/p/w342/lurEK87kukWNaHd0zYnsi3yzJrs.jpg","year":"2024","result":"HD","language":["Hindi"],"country":["US"],"original_language":"en","genres":["Adventure","Family","Animation"],"imdb_id":"tt13186482"},{"id":"755388","type":"movie","title":"Ayalaan","poster":"https://image.tmdb.org/t/p/w342/8nryykQqfU7yqTz4FD7uEBjseZp.jpg","year":"2024","result":"HD","language":["Hindi"],"country":["IN"],"original_language":"ta","genres":["Science Fiction","Action","Adventure"],"imdb_id":"tt7892066"},{"id":"743815","type":"movie","title":"Following","poster":"https://image.tmdb.org/t/p/w342/1TSnW71f1J63XgtZIHojLcclm7c.jpg","year":"2024","result":"HD","language":["Hindi"],"country":["KR"],"original_language":"ko","genres":["Thriller","Mystery"],"imdb_id":"tt32220831"},{"id":"720321","type":"movie","title":"Breathe","poster":"https://image.tmdb.org/t/p/w342/wTW2t8ocWDlHns8I7vQxuqkyK58.jpg","year":"2024","result":"HD","language":["Hindi"],"country":["US"],"original_language":"en","genres":["Action","Science Fiction","Mystery","Thriller"],"imdb_id":"tt11540468"},{"id":"719221","type":"movie","title":"Tarot","poster":"https://image.tmdb.org/t/p/w342/gAEUXC37vl1SnM7PXsHTF23I2vq.jpg","year":"2024","result":"HD","language":["Hindi"],"country":["US"],"original_language":"en","genres":["Horror"],"imdb_id":"tt14088510"},{"id":"629078","type":"movie","title":"The Glassworker","poster":"https://image.tmdb.org/t/p/w342/Aj4IhLVphVwKuZrE5EcSGTUMmk2.jpg","year":"2024","result":"HD","language":["Hindi"],"country":["PK"],"original_language":"ur","genres":["Animation","Family","Romance","War"],"imdb_id":"tt5986440"},{"id":"598387","type":"movie","title":"The Tiger's Apprentice","poster":"https://image.tmdb.org/t/p/w342/64ZktFMmTzsm47wdsaMOID0DzcY.jpg","year":"2024","result":"HD","language":["Hindi"],"country":["US"],"original_language":"en","genres":["Animation","Family","Fantasy"],"imdb_id":"tt5834410"},{"id":"402431","type":"movie","title":"Wicked","poster":"https://image.tmdb.org/t/p/w342/xDGbZ0JJ3mYaGKy4Nzd9Kph6M9L.jpg","year":"2024","result":"HD","language":["Hindi"],"country":["US"],"original_language":"en","genres":["Drama","Romance","Fantasy"],"imdb_id":"tt1262426"},{"id":"395817","type":"movie","title":"The Thicket","poster":"https://image.tmdb.org/t/p/w342/jsvk8e0HgITFX0gbDEjj6hOytsP.jpg","year":"2024","result":"HD","language":["Hindi"],"country":["CA","US"],"original_language":"en","genres":["Western","Crime","Thriller"],"imdb_id":"tt4058618"},{"id":"300369","type":"tv","title":"IPC - The Ratnagiri Files","poster":"https://image.tmdb.org/t/p/w342/gLm4yud1TbTNzuvPpdgP00HE0CE.jpg","year":"2024","result":"HD","language":["Hindi"],"country":["IN"],"original_language":"mr","genres":["Drama","Mystery"],"imdb_id":"tt34218696","latest_uploaded_season":1,"total_uploaded_episodes":8},{"id":"278446","type":"tv","title":"Hello Old Friend","poster":"https://image.tmdb.org/t/p/w342/fkKX90TYtlmkMvjYeB90bkYJOS.jpg","year":"2024","result":"HD","language":["Hindi"],"country":["CN"],"original_language":"zh","genres":["Drama"],"imdb_id":"","latest_uploaded_season":1,"total_uploaded_episodes":24},{"id":"275694","type":"tv","title":"The Darkness","poster":"https://image.tmdb.org/t/p/w342/xaPrG1yhXz1SE1cHUu4lmWAlZDR.jpg","year":"2024","result":"HD","language":["Hindi"],"country":["IS"],"original_language":"is","genres":["Crime","Mystery"],"imdb_id":"tt10011518","latest_uploaded_season":1,"total_uploaded_episodes":6},{"id":"274230","type":"tv","title":"Good Doctor","poster":"https://image.tmdb.org/t/p/w342/9RKqT2nKPmGRA9Rx2nIhK4Fi5c5.jpg","year":"2024","result":"HD","language":["Hindi"],"country":["TH"],"original_language":"th","genres":["Drama"],"imdb_id":"tt33417631","latest_uploaded_season":1,"total_uploaded_episodes":20},{"id":"259786","type":"tv","title":"Good Bye, Dragon Life","poster":"https://image.tmdb.org/t/p/w342/n15iwXmYASiAEWUvkfoVKEIoqWq.jpg","year":"2024","result":"HD","language":["Hindi"],"country":["JP"],"original_language":"ja","genres":["Animation","Sci-Fi & Fantasy","Action & Adventure"],"imdb_id":"tt32832435","latest_uploaded_season":1,"total_uploaded_episodes":12},{"id":"259140","type":"tv","title":"Ranma1/2","poster":"https://image.tmdb.org/t/p/w342/cDThx8yRYbdPOSgHbjihS4q7GYc.jpg","year":"2024","result":"HD","language":["Hindi"],"country":["JP"],"original_language":"ja","genres":["Animation","Action & Adventure","Comedy","Sci-Fi & Fantasy"],"imdb_id":"tt32766897","latest_uploaded_season":1,"total_uploaded_episodes":24},{"id":"255008","type":"tv","title":"Present, is Present","poster":"https://image.tmdb.org/t/p/w342/srX5hpFsMhyVMw7zpEXwwg6fwah.jpg","year":"2024","result":"HD","language":["Hindi"],"country":["CN"],"original_language":"zh","genres":["Drama","Mystery"],"imdb_id":"tt32525811","latest_uploaded_season":1,"total_uploaded_episodes":16},{"id":"253767","type":"tv","title":"Smile Code","poster":"https://image.tmdb.org/t/p/w342/bkBU6bt0kYlzEhyPlyXjIsg15zF.jpg","year":"2024","result":"HD","language":["Hindi"],"country":["CN"],"original_language":"zh","genres":["Drama"],"imdb_id":"tt31173610","latest_uploaded_season":1,"total_uploaded_episodes":34},{"id":"252064","type":"tv","title":"Peacock in Wonderland","poster":"https://image.tmdb.org/t/p/w342/iPkB3ZVgWq8VMpj66LChO4ahiQ0.jpg","year":"2024","result":"HD","language":["Hindi"],"country":["CN"],"original_language":"zh","genres":["Sci-Fi & Fantasy"],"imdb_id":"","latest_uploaded_season":1,"total_uploaded_episodes":42}]}