{"page":42,"total_pages":66,"total_items":3299,"items":[{"id":"1296170","type":"movie","title":"The Akaali","poster":"https://image.tmdb.org/t/p/w342/tP2PeEBybZC8orlVve96DeS7DcY.jpg","year":"2024","result":"HD","language":["Hindi"],"country":["IN"],"original_language":"ta","genres":["Thriller"],"imdb_id":"tt31913643","backdrop":"https://image.tmdb.org/t/p/original/fc0z9YX7vw8zanFlKglIiUibofa.jpg","watch":"<iframe src=\"https://bysebuho.com/e/2g3eme1rbim6/The_Akaali_2024_720p_UNCUT_WEB-DL_Hindi-Tamil_x264-_DANIEWATCH.mkv\" frameborder=\"0\" marginwidth=\"0\" marginheight=\"0\" scrolling=\"no\" width=\"640\" height=\"360\" allowfullscreen></iframe>"},{"id":"1287717","type":"movie","title":"Do Not Enter","poster":"https://image.tmdb.org/t/p/w342/1l6eDcH11b9aRmmd4a9WWwhVJ5T.jpg","year":"2024","result":"HD","language":["Hindi"],"country":["AR","PY"],"original_language":"es","genres":["Horror"],"imdb_id":"tt27155283","backdrop":"https://image.tmdb.org/t/p/original/kNI01OBzgKmEXeWTIOsB2aVpVTw.jpg","watch":"<iframe src=\"https://bysebuho.com/e/0vrgucfcij92/do-not-enter-2024-dual-audio-5bhindi-org-english-5d-amazon-720p-vegamovies-is\" frameborder=\"0\" marginwidth=\"0\" marginheight=\"0\" scrolling=\"no\" width=\"640\" height=\"360\" allowfullscreen></iframe>"},{"id":"1286981","type":"movie","title":"Gadera","poster":"https://image.tmdb.org/t/p/w342/vqdfPNWgMeRAa3MA7tQ6RjOFPgB.jpg","year":"2024","result":"HD","language":["Hindi"],"country":[],"original_language":"hi","genres":["Drama","History","Thriller"],"imdb_id":"tt14088270","backdrop":"https://image.tmdb.org/t/p/original/tdso9uZWkB1qEb7H9pKtiMINIVB.jpg","watch":"<iframe src=\"https://bysebuho.com/e/fsiwicz8cn2d/Gadera_The_Stream_2024_720p_SM_WEB-DL_AAC2_0_H_264-DANIEWATCH.mkv\" width=\"640\" height=\"360\" frameborder=\"0\" allowfullscreen></iframe>"},{"id":"1277697","type":"movie","title":"Prathinidhi 2","poster":"https://image.tmdb.org/t/p/w342/qSXmUTXfRaJxfQ1r5qPbPFqUT4A.jpg","year":"2024","result":"HD","language":["Hindi"],"country":[],"original_language":"te","genres":["Drama"],"imdb_id":"tt28479388","backdrop":"https://image.tmdb.org/t/p/original/b1pXTBHrEYjoC8fEiRcp7kJUVFO.jpg","watch":"<iframe src=\"https://bysebuho.com/e/702hdoo7umtl/Pratinidhi_2_2025_720p_SNXT_WEB-DL_Hindi-Telugu_DDP5_1_H_264-DANIEWATCH.mkv\" width=\"640\" height=\"360\" frameborder=\"0\" allowfullscreen></iframe>"},{"id":"1277572","type":"movie","title":"Vallavan Vaguthathada","poster":"https://image.tmdb.org/t/p/w342/iCqNGLSR5RHJg6YcnsXCnioSuK1.jpg","year":"2024","result":"HD","language":["Hindi"],"country":[],"original_language":"ta","genres":["Crime","Drama","Thriller"],"imdb_id":"tt31494567","backdrop":"https://image.tmdb.org/t/p/original/j076cV771jcfVOyJxDdZYHJoR4c.jpg","watch":"<iframe src=\"https://bysebuho.com/e/39je4428yvqx/Vallavan_Vaguthadhada_2024_720p_WEB-DL_Hindi_Dubbed_x264-DANIEWATCH.mkv\" width=\"640\" height=\"360\" frameborder=\"0\" allowfullscreen></iframe>"},{"id":"1263421","type":"movie","title":"Baki Hanma VS Kengan Ashura","poster":"https://image.tmdb.org/t/p/w342/etbHJxil0wHvYOCmibzFLsMcl2C.jpg","year":"2024","result":"HD","language":["Hindi"],"country":["JP"],"original_language":"ja","genres":["Animation","Action","Fantasy"],"imdb_id":"tt31869664","backdrop":"https://image.tmdb.org/t/p/original/kti9ufHhCKaOLjg2to4RKfrlkmh.jpg","watch":"<iframe src=\"https://bysebuho.com/e/pydm7bm7yio2/baki-hanma-vs-kengan-ashura-2024-720p-web-dl-hindi-english-japanese\" frameborder=\"0\" marginwidth=\"0\" marginheight=\"0\" scrolling=\"no\" width=\"640\" height=\"360\" allowfullscreen></iframe>"},{"id":"1262530","type":"movie","title":"The Mehta Boys","poster":"https://image.tmdb.org/t/p/w342/4fDGHQLhauxRAzProug4AspfYwQ.jpg","year":"2024","result":"HD","language":["Hindi"],"country":["IN"],"original_language":"hi","genres":["Comedy","Drama","Family"],"imdb_id":"tt31897917","backdrop":"https://image.tmdb.org/t/p/original/nmQAWG0F3pmRPnHjkVAEdSuV9eI.jpg","watch":"<iframe src=\"https://bysebuho.com/e/l9vopcc6ffdw/the-mehta-boys-2025-720p-amzn-web-dl-hindi-ddp5-1-h-264-daniewatch-is\" frameborder=\"0\" marginwidth=\"0\" marginheight=\"0\" scrolling=\"no\" width=\"640\" height=\"360\" allowfullscreen></iframe>"},{"id":"1257416","type":"movie","title":"Idi Minnal Kadhal","poster":"https://image.tmdb.org/t/p/w342/1q1y0rutBM12M6KZXJczmPymNFv.jpg","year":"2024","result":"HD","language":["Hindi"],"country":["IN"],"original_language":"ta","genres":["Action","Drama"],"imdb_id":"tt31646764","backdrop":"https://image.tmdb.org/t/p/original/evpyrh2KdFVX0TBx6BtME8vsUUu.jpg","watch":"<iframe src=\"https://bysebuho.com/e/2vve4jzxxtgz/Idi_Minnal_Kadhal_2024_720p_AMZN_WEB-DL_Hindi_DDP2_0-Tamil_DDP5_1_H_264-_DANIEWATCH.mkv\" width=\"640\" height=\"360\" frameborder=\"0\" allowfullscreen></iframe>"},{"id":"1251687","type":"movie","title":"Don't Tell Mom the Babysitter's Dead","poster":"https://image.tmdb.org/t/p/w342/aMLrX8qaagRUESyPSJCARNlT8Xd.jpg","year":"2024","result":"HD","language":["Hindi"],"country":["US"],"original_language":"en","genres":["Comedy"],"imdb_id":"tt12444168","backdrop":"https://image.tmdb.org/t/p/original/xAAYm7bUC5LnAj2Hs2hePOMHh2z.jpg","watch":"<iframe src=\"https://bysebuho.com/e/vmhmlr83dqjn/Dont_Tell_Mom_The_Babysitters_Dead_2024_720p_WEB-DL_HIN-ENG_x264-_DANIEWATCH.mkv\" frameborder=\"0\" marginwidth=\"0\" marginheight=\"0\" scrolling=\"no\" width=\"640\" height=\"360\" allowfullscreen></iframe>"},{"id":"1249902","type":"movie","title":"Mathu Vadalara 2","poster":"https://image.tmdb.org/t/p/w342/7gDzqf5tSwnwfREEVJeTAZtK64F.jpg","year":"2024","result":"HD","language":["Hindi"],"country":["IN"],"original_language":"te","genres":["Comedy","Crime","Thriller"],"imdb_id":"tt33291871","backdrop":"https://image.tmdb.org/t/p/original/dOcSWUrAi1FCBGNAk4BB71o7n0K.jpg","watch":"<iframe src=\"https://bysebuho.com/e/wrynm1el8rma/Mathu_Vadalara_2_2024_720p_NF_WEB-DL_Hindi_DDP2_0-Telugu_AAC5_1_H_264-_DANIEWATCH.mpeg\" width=\"640\" height=\"360\" frameborder=\"0\" allowfullscreen></iframe>"},{"id":"1249812","type":"movie","title":"Checkmate","poster":"https://image.tmdb.org/t/p/w342/2hUTyzhfB0CUo43p7udAqL7Rkh8.jpg","year":"2024","result":"HD","language":["Hindi"],"country":["IN","US"],"original_language":"ml","genres":["Crime","Thriller"],"imdb_id":"tt28213147","backdrop":"https://image.tmdb.org/t/p/original/8cG8fgS3QlLZiTrTzqXTYv4VMgL.jpg","watch":"<iframe src=\"https://bysebuho.com/e/s0yxpxvbf3s6/Checkmate_2024_Dual_Audio__Hindi_ORG-Malayalam__Zee5_720p_-_DANIEWATCH.mkv\" width=\"640\" height=\"360\" frameborder=\"0\" allowfullscreen></iframe>"},{"id":"1244361","type":"movie","title":"Operation Undead","poster":"https://image.tmdb.org/t/p/w342/rs10lMBnJFnJX1Y7MYpyB8JiNAF.jpg","year":"2024","result":"HD","language":["Hindi"],"country":["SG","TH"],"original_language":"th","genres":["Horror","Action","Thriller","War"],"imdb_id":"tt32750439","backdrop":"https://image.tmdb.org/t/p/original/Kj14WdD0Xqk7wZ5jXqHiyBMKtv.jpg","watch":"<iframe src=\"https://bysebuho.com/e/vphsdw2xkcix/Operation_Undead_2024_720p_AMZN_WEB-DL_DUAL_x264-DANIEWATCH.mkv\" frameborder=\"0\" marginwidth=\"0\" marginheight=\"0\" scrolling=\"no\" width=\"640\" height=\"360\" allowfullscreen></iframe>"},{"id":"1243485","type":"movie","title":"Bhoothaddam Bhaskar Narayana","poster":"https://image.tmdb.org/t/p/w342/1V2XNaIrEUm6j5CKcW45gxF4nTO.jpg","year":"2024","result":"HD","language":["Hindi"],"country":[],"original_language":"te","genres":["Thriller","Fantasy","Crime"],"imdb_id":"tt21437674","backdrop":"https://image.tmdb.org/t/p/original/hNwWxOxudlcWu3WBDJTTsfO4bP9.jpg","watch":"<iframe src=\"https://bysebuho.com/e/dr14b6p6hffp/Bhoothadham_Bhaskar_Narayana_2024_720p_AMZN_WEB-DL_Hindi_DD2_0-Telugu_DD5_1_x264-DANIEWATCH.mkv\" frameborder=\"0\" marginwidth=\"0\" marginheight=\"0\" scrolling=\"no\" width=\"640\" height=\"360\" allowfullscreen></iframe>"},{"id":"1240592","type":"movie","title":"The Wild Blade of Strangers","poster":"https://image.tmdb.org/t/p/w342/9DZOU5qibB8WeXtzQ00Nl6tiqfw.jpg","year":"2024","result":"HD","language":["Hindi"],"country":["CN"],"original_language":"zh","genres":["Action","Drama"],"imdb_id":"tt31494700","backdrop":"https://image.tmdb.org/t/p/original/iAZxbaTMFJRido8cgVbl1JvSEEp.jpg","watch":"<iframe src=\"https://bysebuho.com/e/nop7aem7p0ff/the-wild-blade-of-strangers-2024-720p-amzn-web-dl-multi-ddp5-1-h-264-daniewatch-is\" frameborder=\"0\" marginwidth=\"0\" marginheight=\"0\" scrolling=\"no\" width=\"640\" height=\"360\" allowfullscreen></iframe>"},{"id":"1239991","type":"movie","title":"Hello Mummy","poster":"https://image.tmdb.org/t/p/w342/u6VU1xfyIce7yZtO4pNNauMPnOx.jpg","year":"2024","result":"HD","language":["Hindi"],"country":["IN"],"original_language":"ml","genres":["Fantasy","Comedy"],"imdb_id":"tt31702438","backdrop":"https://image.tmdb.org/t/p/original/26t6QQWPgoAfcShoePjvG3M2ok1.jpg","watch":"<iframe src=\"https://bysebuho.com/e/dnc4jxazasb4/Hello_Mummy_2024_Uncut_Dual_Audio__Hindi_ORG-Malayalam__WEB-DL_720p-DanieWatch.mkv\" width=\"640\" height=\"360\" frameborder=\"0\" allowfullscreen></iframe>"},{"id":"1235922","type":"movie","title":"I Am Nevenka","poster":"https://image.tmdb.org/t/p/w342/aE2lnlUhXaD3enmbxAmgGjb3MPS.jpg","year":"2024","result":"HD","language":["Hindi"],"country":["ES"],"original_language":"es","genres":["Drama","History"],"imdb_id":"tt30973261","backdrop":"https://image.tmdb.org/t/p/original/iVVm3k0U2bML9tQPhwWe4nYms7E.jpg","watch":"<iframe src=\"https://bysebuho.com/e/fr61qpkbukp7/I_Am_Nevenka_2024_720p_AMZN_WEB-DL_DUAL_x264-DANIEWATCH.mkv\" frameborder=\"0\" marginwidth=\"0\" marginheight=\"0\" scrolling=\"no\" width=\"640\" height=\"360\" allowfullscreen></iframe>"},{"id":"1235623","type":"movie","title":"Eye for an Eye 2","poster":"https://image.tmdb.org/t/p/w342/mkfznkTshGBp88SFQQAGsr3R62z.jpg","year":"2024","result":"HD","language":["Hindi"],"country":["CN"],"original_language":"zh","genres":["Action","Drama"],"imdb_id":"tt30972810","backdrop":"https://image.tmdb.org/t/p/original/bx6LoGl8L3hwgOCoD2H8JgIu7uC.jpg","watch":"<iframe src=\"https://bysebuho.com/e/ogqtz2h0szhq/eye-for-an-eye-2-2024-720p-bluray-hindi-chinese-amzn-esub-daniewatch\" frameborder=\"0\" marginwidth=\"0\" marginheight=\"0\" scrolling=\"no\" width=\"640\" height=\"360\" allowfullscreen></iframe>"},{"id":"1227842","type":"movie","title":"Danny Jigar - Ek Matra","poster":"https://image.tmdb.org/t/p/w342/qbBtkgD3XERaaNHat3A24lcHc9j.jpg","year":"2024","result":"HD","language":["Hindi"],"country":["IN"],"original_language":"gu","genres":["Comedy","Action"],"imdb_id":"","backdrop":"https://image.tmdb.org/t/p/original/bqtebQbfNWtY0pN8Se6d1fNZcsO.jpg","watch":"<iframe src=\"https://bysebuho.com/e/b9itul5dtfnu/danny-jigar-2024-hindi-org-dual-audio-720p-daniewatch\" frameborder=\"0\" marginwidth=\"0\" marginheight=\"0\" scrolling=\"no\" width=\"640\" height=\"360\" allowfullscreen></iframe>"},{"id":"1223371","type":"movie","title":"Accident or Conspiracy: Godhra","poster":"https://image.tmdb.org/t/p/w342/7qhCjhhUcoQg7gqB2Q5N5IAZh6J.jpg","year":"2024","result":"HD","language":["Hindi"],"country":["IN"],"original_language":"hi","genres":["History","Crime","Drama","Thriller"],"imdb_id":"tt27866501","backdrop":"https://image.tmdb.org/t/p/original/pFNdRfAKC8Dd5f6jwSX3WUB1nmb.jpg","watch":"<iframe src=\"https://bysebuho.com/e/8joyj93u0x71/Accident.or.Conspiracy.Godhra.2024.720p.WEB-DL.Hindi.x264-DANIEWATCH.mkv\" width=\"640\" height=\"360\" frameborder=\"0\" allowfullscreen></iframe>"},{"id":"1222306","type":"movie","title":"Saali Mohabbat","poster":"https://image.tmdb.org/t/p/w342/7VUvNkXT1HuNeA4tudFVGzFpQlo.jpg","year":"2024","result":"HD","language":["Hindi"],"country":["IN"],"original_language":"hi","genres":["Drama"],"imdb_id":"tt23988936","backdrop":"https://image.tmdb.org/t/p/original/6otQiRxByWjc7ap0Hh9jsNx3cuY.jpg","watch":"<iframe src=\"https://bysebuho.com/e/wkjoy3garxnu/saali-mohabbat-2025-720p-zee5-web-dl-hindi-dd5-1-x264-vegamovies-is\" frameborder=\"0\" marginwidth=\"0\" marginheight=\"0\" scrolling=\"no\" width=\"640\" height=\"360\" allowfullscreen></iframe>"},{"id":"1216385","type":"movie","title":"Toofan","poster":"https://image.tmdb.org/t/p/w342/5TS3piPf3ZqISbRSrJ8lYeGQvfQ.jpg","year":"2024","result":"HD","language":["Hindi"],"country":["BD"],"original_language":"bn","genres":["Crime","Action"],"imdb_id":"tt30415138","backdrop":"https://image.tmdb.org/t/p/original/gulpbpfwzaC6ls7w7XYON7KqWc5.jpg","watch":"<iframe src=\"https://bysebuho.com/e/voshofzwhatb/toofan-2024-hindi-yt-dl-720p-avc-aac-2-0-daniewatch-is\" frameborder=\"0\" marginwidth=\"0\" marginheight=\"0\" scrolling=\"no\" width=\"640\" height=\"360\" allowfullscreen></iframe>"},{"id":"1213742","type":"movie","title":"Tyler Perry's Divorce in the Black","poster":"https://image.tmdb.org/t/p/w342/d5X03SA51Ezd02iF9BCjWXC9X9F.jpg","year":"2024","result":"HD","language":["Hindi"],"country":["US"],"original_language":"en","genres":["Drama","Thriller"],"imdb_id":"tt28248897","backdrop":"https://image.tmdb.org/t/p/original/gZMxWasedXCUOTv2ZpCJiAMkTtH.jpg","watch":"<iframe src=\"https://bysebuho.com/e/2hsry29cyud6/Tyler_Perrys_Divorce_in_the_Black_2024_720p_WEB-DL_HIN-ENG_x264_ESub_Vegamovies_To.mkv\" frameborder=\"0\" marginwidth=\"0\" marginheight=\"0\" scrolling=\"no\" width=\"640\" height=\"360\" allowfullscreen></iframe>"},{"id":"1211242","type":"movie","title":"Vadda Ghar","poster":"https://image.tmdb.org/t/p/w342/f1mYUS35jHgWOtFPxG5PoI8UKX3.jpg","year":"2024","result":"HD","language":["Hindi"],"country":["IN"],"original_language":"pa","genres":["Comedy","Drama"],"imdb_id":"tt26249690","backdrop":"","watch":"<iframe src=\"https://bysebuho.com/e/79ydhaknnrvx/Vadda.Ghar.2024.720p.WEB-DL.Punjabi.x264-DANIEWATCH.mkv\" width=\"640\" height=\"360\" frameborder=\"0\" allowfullscreen></iframe>"},{"id":"1210465","type":"movie","title":"Shahkot","poster":"https://image.tmdb.org/t/p/w342/81jPpZNvBP4t1mFXiZSBfC0pcpN.jpg","year":"2024","result":"HD","language":["Hindi"],"country":["IN"],"original_language":"pa","genres":["Drama"],"imdb_id":"tt29549471","backdrop":"https://image.tmdb.org/t/p/original/glIvQasrEUCnTe3aIhnbmqGjLvX.jpg","watch":"<iframe src=\"https://bysebuho.com/e/n9gcu1bqqo0p/shahkot-2024-720p-web-hdrip-hindi-aac2-0-punjabi-aac2-0-esub-daniewatch-is\" frameborder=\"0\" marginwidth=\"0\" marginheight=\"0\" scrolling=\"no\" width=\"640\" height=\"360\" allowfullscreen></iframe>"},{"id":"1208831","type":"movie","title":"Rode College","poster":"https://image.tmdb.org/t/p/w342/aQ1VjUhn0wXpdS0mjqSTvgMvCKC.jpg","year":"2024","result":"HD","language":["Hindi"],"country":["IN"],"original_language":"pa","genres":["Drama","Comedy"],"imdb_id":"tt28350704","backdrop":"https://image.tmdb.org/t/p/original/4bdXNZkNgMD8LzXvVLYqQsmSl8y.jpg","watch":"<iframe src=\"https://bysebuho.com/e/x8sg0vnqb45h/Rode_College_2024_720p_HEVC_WeB-DL_Panjabi_x265_ESub_DanieWatch_to.mkv\" width=\"640\" height=\"360\" frameborder=\"0\" allowfullscreen></iframe>"},{"id":"1189826","type":"movie","title":"Little Hearts","poster":"https://image.tmdb.org/t/p/w342/58Ib9F5MH7ES8urjp6OSAcBV2nb.jpg","year":"2024","result":"HD","language":["Hindi"],"country":["IN"],"original_language":"ml","genres":["Romance","Comedy"],"imdb_id":"tt29456979","backdrop":"https://image.tmdb.org/t/p/original/pzO2HjV8AwodSb6bx7D2GC4qoux.jpg","watch":"<iframe src=\"https://bysebuho.com/e/o9oqx008920d/little-hearts-2024-hindi-malayalam-dual-audio-uncut-south-movie-720p-esub-daniewatch\" frameborder=\"0\" marginwidth=\"0\" marginheight=\"0\" scrolling=\"no\" width=\"640\" height=\"360\" allowfullscreen></iframe>"},{"id":"1183761","type":"movie","title":"Here Now","poster":"https://image.tmdb.org/t/p/w342/gVL8eoeI5BgWbFi7E1GGlbrEg5y.jpg","year":"2024","result":"HD","language":["Hindi"],"country":["IT"],"original_language":"it","genres":["Thriller","Crime","Romance"],"imdb_id":"tt29293152","backdrop":"https://image.tmdb.org/t/p/original/73TvqmSy3VeVzxfCJqUFxymuV0I.jpg","watch":"<iframe src=\"https://bysebuho.com/e/mkzt53zzz7uo/here-now-2024-720p-web-dl-hindi-aac2-0-h-264-daniewatch-is-2025\" frameborder=\"0\" marginwidth=\"0\" marginheight=\"0\" scrolling=\"no\" width=\"640\" height=\"360\" allowfullscreen></iframe>"},{"id":"1170784","type":"movie","title":"Qaid: No Wayyy Out","poster":"https://image.tmdb.org/t/p/w342/jcCeHn4AlEvQ1RtiUFIPlr4sKkm.jpg","year":"2024","result":"HD","language":["Hindi"],"country":["GB"],"original_language":"hi","genres":["Thriller"],"imdb_id":"tt15484752","backdrop":"https://image.tmdb.org/t/p/original/8ia8nlbyYjROLwWzpMjPylcEf0F.jpg","watch":"<iframe src=\"https://bysebuho.com/e/z3ei4bps1hvx/Qaid.No.Wayyy.Out.2024.2024.720p.AMZN.WEB-DL.DDP5.1.H.264-DanieWatch.mkv\" width=\"640\" height=\"360\" frameborder=\"0\" allowfullscreen></iframe>"},{"id":"1168528","type":"movie","title":"Jai Ganesh","poster":"https://image.tmdb.org/t/p/w342/5t06YuOR93cqD2egserG91MhD4X.jpg","year":"2024","result":"HD","language":["Hindi"],"country":["IN"],"original_language":"ml","genres":["Drama","Thriller"],"imdb_id":"tt28755837","backdrop":"https://image.tmdb.org/t/p/original/pCswOJxaoRjOLGuhWEagoResqHv.jpg","watch":"<iframe src=\"https://bysebuho.com/e/mo35ylfgf7tp/Jai_Ganesh_2024_720p_AMZN_WEBRip__Hindi-Malayalam__DDP2_0_H_264_ESub-_DANIEWATCH.mkv\" width=\"640\" height=\"360\" frameborder=\"0\" allowfullscreen></iframe>"},{"id":"1167271","type":"movie","title":"Weekend in Taipei","poster":"https://image.tmdb.org/t/p/w342/qSc0AUvs8mRy00R9y8QYEHWIAQ9.jpg","year":"2024","result":"HD","language":["Hindi"],"country":["FR","US"],"original_language":"en","genres":["Action","Adventure","Thriller"],"imdb_id":"tt28142896","backdrop":"https://image.tmdb.org/t/p/original/eItpQ7dJfSp8aFrX1MdjaUv0HrE.jpg","watch":"<iframe src=\"https://bysebuho.com/e/o1gbfszajxd1/Weekend.in.Taipei.2024.720p.BluRay.HIN-ENG.x264.MSub-DANIEWATCH.mkv\" width=\"640\" height=\"360\" frameborder=\"0\" allowfullscreen></iframe>"},{"id":"1160956","type":"movie","title":"Panda Plan","poster":"https://image.tmdb.org/t/p/w342/8iMPQl13q89jQhaA5nXb6UiT0t0.jpg","year":"2024","result":"HD","language":["Hindi"],"country":["CN"],"original_language":"zh","genres":["Action","Comedy"],"imdb_id":"tt28630624","backdrop":"https://image.tmdb.org/t/p/original/dXoBFj9Yl9HDRcDVQubkuVCh26N.jpg","watch":"<iframe src=\"https://bysebuho.com/e/24kjs9silgqs/Panda_Plan_2024_720p_BluRay_HIN-CHI_x264_ESub-DANIEWATCH\" frameborder=\"0\" marginwidth=\"0\" marginheight=\"0\" scrolling=\"no\" width=\"640\" height=\"360\" allowfullscreen></iframe>"},{"id":"1156593","type":"movie","title":"Your Fault","poster":"https://image.tmdb.org/t/p/w342/1sQA7lfcF9yUyoLYC0e6Zo3jmxE.jpg","year":"2024","result":"HD","language":["Hindi"],"country":["ES","US"],"original_language":"es","genres":["Drama","Romance"],"imdb_id":"tt28510079","backdrop":"https://image.tmdb.org/t/p/original/k24eZq5I3jyz4htPkZCRpnUmBzE.jpg","watch":"<iframe src=\"https://bysebuho.com/e/o6120v2mai2w/Your.Fault.2024.AMZN.WEB-DL.720p.Hindi.English.DD.5.1.x264.ESub.DANIEWATCH.mkv\" frameborder=\"0\" marginwidth=\"0\" marginheight=\"0\" scrolling=\"no\" width=\"640\" height=\"360\" allowfullscreen></iframe>"},{"id":"1148677","type":"movie","title":"Doraemon the Movie: Nobita's Earth Symphony","poster":"https://image.tmdb.org/t/p/w342/1W5Kg4K27U3dx9Kxb8DaE6WFLHI.jpg","year":"2024","result":"HD","language":["Hindi"],"country":["JP"],"original_language":"ja","genres":["Animation","Family","Fantasy","Music","Adventure","Comedy","Science Fiction"],"imdb_id":"tt29402528","backdrop":"https://image.tmdb.org/t/p/original/Z3mSxuPRNiFYxf1LBoGz3YrJzC.jpg","watch":"<iframe src=\"https://bysebuho.com/e/c04psbn7exn0/doraemon-nobitas-earth-symphony-2024-720p-bluray-hindi\" frameborder=\"0\" marginwidth=\"0\" marginheight=\"0\" scrolling=\"no\" width=\"640\" height=\"360\" allowfullscreen></iframe>"},{"id":"1147710","type":"movie","title":"Hijack 1971","poster":"https://image.tmdb.org/t/p/w342/68jNkFi61MQjrJEqj2up5wZ4w5R.jpg","year":"2024","result":"HD","language":["Hindi"],"country":["KR"],"original_language":"ko","genres":["Action","Thriller","Crime"],"imdb_id":"tt31624258","backdrop":"https://image.tmdb.org/t/p/original/hQ9grQ2RjHS3X7crItJqhoGvUPm.jpg","watch":"<iframe src=\"https://bysebuho.com/e/02kv39lbu81d/hijack-1971-2024-720p-10bit-web-dl-hin-kor-x265-esub-daniewatch\" frameborder=\"0\" marginwidth=\"0\" marginheight=\"0\" scrolling=\"no\" width=\"640\" height=\"360\" allowfullscreen></iframe>"},{"id":"1144911","type":"movie","title":"Skincare","poster":"https://image.tmdb.org/t/p/w342/ikPzv7el0RcBhtXj3ElCoH54icd.jpg","year":"2024","result":"HD","language":["Hindi"],"country":["FR","IT","US"],"original_language":"en","genres":["Thriller","Drama","Comedy","Mystery"],"imdb_id":"tt28223926","backdrop":"https://image.tmdb.org/t/p/original/cxDae3pWJf2D8LMeRRaaE9zoYK7.jpg","watch":"<iframe src=\"https://bysebuho.com/e/j84qc2nnch5v/Skincare_2024_720p_WEB-DL_HIN-ENG_x264_ESub-DANIEWATCH.mkv\" width=\"640\" height=\"360\" frameborder=\"0\" allowfullscreen></iframe>"},{"id":"1144161","type":"movie","title":"Lipstick","poster":"https://image.tmdb.org/t/p/w342/tASMoXVdgO4YNltpa1Kyhwxmvls.jpg","year":"2024","result":"HD","language":["Hindi"],"country":["BD"],"original_language":"bn","genres":["Action","Thriller"],"imdb_id":"tt31969078","backdrop":"https://image.tmdb.org/t/p/original/npUCXm6lppov5lziYB4KxHBo4dd.jpg","watch":"<iframe src=\"https://bysebuho.com/e/99bkrcjwlm1l/Lipstick__2024__Bengali_Toffee_WEB-DL_720p_-_DANIEWATCH.mkv\" width=\"640\" height=\"360\" frameborder=\"0\" allowfullscreen></iframe>"},{"id":"1132491","type":"movie","title":"Triggered","poster":"https://image.tmdb.org/t/p/w342/50g702Thykuc49lhVpz4zMSpPtL.jpg","year":"2024","result":"HD","language":["Hindi"],"country":["PH"],"original_language":"tl","genres":["Action","Thriller","Crime"],"imdb_id":"tt23182472","backdrop":"https://image.tmdb.org/t/p/original/lC6l36m9M9343mqC9coouVbNwGe.jpg","watch":"<iframe src=\"https://bysebuho.com/e/jmhpo6pwg54c/Topakk.AKA.Triggered.2023.720p.WEB-DL.HIN-FIL.x264.ESub-DANIEWATCH.mkv\" width=\"640\" height=\"360\" frameborder=\"0\" allowfullscreen></iframe>"},{"id":"1122418","type":"movie","title":"This Time Next Year","poster":"https://image.tmdb.org/t/p/w342/ckLPzRl9ZDHzNt4tDjkTGUyCYg7.jpg","year":"2024","result":"HD","language":["Hindi"],"country":["GB","DE","IT"],"original_language":"en","genres":["Romance","Comedy"],"imdb_id":"tt16301164","backdrop":"https://image.tmdb.org/t/p/original/2TaEkr096jxQrzryviiB3izYLEi.jpg","watch":"<iframe src=\"https://bysebuho.com/e/elcdvygvy986/this-time-next-year-2024-720p-10bit-amzn-web-dl-x265-daniewatch-hot\" frameborder=\"0\" marginwidth=\"0\" marginheight=\"0\" scrolling=\"no\" width=\"640\" height=\"360\" allowfullscreen></iframe>"},{"id":"1105407","type":"movie","title":"Damaged","poster":"https://image.tmdb.org/t/p/w342/tMO0YLXgJZBnIAjoTSz26zE33YN.jpg","year":"2024","result":"HD","language":["Hindi"],"country":["GB","US"],"original_language":"en","genres":["Action","Drama","Thriller","Crime"],"imdb_id":"tt27304026","backdrop":"https://image.tmdb.org/t/p/original/hPU12uDcsVyaz368yjxa4BjDHXB.jpg","watch":"<iframe src=\"https://bysebuho.com/e/mbk6iyxj47mt/Damaged.2024.BluRay.720p.x264.Hin._.Eng.DD_5.1.192Kbps.ESub.DANIEWATCH.mkv\" width=\"640\" height=\"360\" frameborder=\"0\" allowfullscreen></iframe>"},{"id":"1102353","type":"movie","title":"Mechanic Rocky","poster":"https://image.tmdb.org/t/p/w342/muEYTKq3R4aQd44aa3GxcTM5taF.jpg","year":"2024","result":"HD","language":["Hindi"],"country":["IN"],"original_language":"te","genres":["Action","Drama"],"imdb_id":"tt27191250","backdrop":"https://image.tmdb.org/t/p/original/y9X4Sqc265J2P5dNspnCfMvWbWG.jpg","watch":"<iframe src=\"https://bysebuho.com/e/y2aic6efcl6q/Mechanic_Rocky__2024___Hindi___Telugu__UnCut_South_Movie_720p_x264_ESub_DANIEWATCH.mkv\" frameborder=\"0\" marginwidth=\"0\" marginheight=\"0\" scrolling=\"no\" width=\"640\" height=\"360\" allowfullscreen></iframe>"},{"id":"1100099","type":"movie","title":"We Live in Time","poster":"https://image.tmdb.org/t/p/w342/oeDNBgnlGF6rnyX1P1K8Vl2f3lW.jpg","year":"2024","result":"HD","language":["Hindi"],"country":["GB"],"original_language":"en","genres":["Romance","Drama"],"imdb_id":"tt27131358","backdrop":"https://image.tmdb.org/t/p/original/4t8IXJF4umwCfbdpeKLvlN3zkKp.jpg","watch":"<iframe src=\"https://bysebuho.com/e/crofzr6ud8wo/We_Live_in_Time_2024_720p_BluRay_x264__Hindi_DD2_1___English__ESub-DANIEWATCH.mkv\" width=\"640\" height=\"360\" frameborder=\"0\" allowfullscreen></iframe>"},{"id":"1088410","type":"movie","title":"Bhairathi Ranagal","poster":"https://image.tmdb.org/t/p/w342/ghA56IEkZ1FwJVDWWEihtVnRYvZ.jpg","year":"2024","result":"HD","language":["Hindi"],"country":["IN"],"original_language":"kn","genres":["Action","Drama"],"imdb_id":"tt15056920","backdrop":"https://image.tmdb.org/t/p/original/13yVuhVKCiN2vUa4PdKSsBFF4nh.jpg","watch":"<iframe src=\"https://bysebuho.com/e/fkkopk54e2pc/Bhairathi_Ranagal__2024__WEBRip_UNCUT_Hindi__Studio-_DANIEWATCH.mkv\" frameborder=\"0\" marginwidth=\"0\" marginheight=\"0\" scrolling=\"no\" width=\"640\" height=\"360\" allowfullscreen></iframe>"},{"id":"1086726","type":"movie","title":"LSD 2: Love, Sex aur Dhokha 2","poster":"https://image.tmdb.org/t/p/w342/ywUtbLJngSqykpxiIHIqJNA06EX.jpg","year":"2024","result":"HD","language":["Hindi"],"country":["IN"],"original_language":"hi","genres":["Drama","Comedy","Crime"],"imdb_id":"tt14398312","backdrop":"https://image.tmdb.org/t/p/original/dmhNtB9HvZq4IPNuw7bRF2G4GX1.jpg","watch":"<iframe src=\"https://bysebuho.com/e/72ec94rf6dzn/LSD_2_Love_Sex_Aur_Dhokha_2_2024_720p_NF_WEB-DL_DDP5_1_x264_DANIEWATCH.mkv\" width=\"640\" height=\"360\" frameborder=\"0\" allowfullscreen></iframe>"},{"id":"1084736","type":"movie","title":"The Count of Monte Cristo","poster":"https://image.tmdb.org/t/p/w342/sAT1P3FGhtJ68anUyJScnMu8t1l.jpg","year":"2024","result":"HD","language":["Hindi"],"country":["FR","BE"],"original_language":"fr","genres":["Adventure","Action","Drama"],"imdb_id":"tt26446278","backdrop":"https://image.tmdb.org/t/p/original/bxT8jFcWNuWK5LmVo1oGhAm4dnZ.jpg","watch":"<iframe src=\"https://bysebuho.com/e/jri7qnrt1uu3/The_Count_of_Monte_Cristo_2024_720p_10Bit_BluRay_Hindi_2_0_English_HEVC_x265_DANIEWATCH.mkv\" width=\"640\" height=\"360\" frameborder=\"0\" allowfullscreen></iframe>"},{"id":"1084514","type":"movie","title":"Rob Peace","poster":"https://image.tmdb.org/t/p/w342/1BwKbTidW5QaEKb1pVY3p4u9cVg.jpg","year":"2024","result":"HD","language":["Hindi"],"country":["US"],"original_language":"en","genres":["Drama","History"],"imdb_id":"tt10740926","backdrop":"https://image.tmdb.org/t/p/original/zJEl8gjYkJrlMNetrMwtb2r8KJ2.jpg","watch":"<iframe src=\"https://bysebuho.com/e/xiovuokg1vtd/Rob_Peace_2024_720p_NF_WEB-DL_DUAL_AAC5_1_H_264-DANIEWATCH.mkv\" frameborder=\"0\" marginwidth=\"0\" marginheight=\"0\" scrolling=\"no\" width=\"640\" height=\"360\" allowfullscreen></iframe>"},{"id":"1064486","type":"movie","title":"Memoir of a Snail","poster":"https://image.tmdb.org/t/p/w342/woaN8CbloH0akyX0E72ayxlJAB4.jpg","year":"2024","result":"HD","language":["Hindi"],"country":["AU","GB","FR"],"original_language":"en","genres":["Animation","Drama","Comedy"],"imdb_id":"tt23770030","backdrop":"https://image.tmdb.org/t/p/original/jl2YIADk391yc6Qjy9JhgCRkHJk.jpg","watch":"<iframe src=\"https://bysebuho.com/e/p8ba0zirfk22/Memoir_of_a_Snail_2025_720p_AMZN_WEB-DL_DUAL_x264-DANIEWATCH.mkv\" frameborder=\"0\" marginwidth=\"0\" marginheight=\"0\" scrolling=\"no\" width=\"640\" height=\"360\" allowfullscreen></iframe>"},{"id":"1058537","type":"movie","title":"Angels Fallen: Warriors of Peace","poster":"https://image.tmdb.org/t/p/w342/dKdKUSGQ9E0G73WPr9xIHrofpkT.jpg","year":"2024","result":"HD","language":["Hindi"],"country":["US"],"original_language":"en","genres":["Action","Adventure","Fantasy","Horror"],"imdb_id":"tt20258220","backdrop":"https://image.tmdb.org/t/p/original/xVcffNU61CclEGgtiWP7KLIE2dm.jpg","watch":"<iframe src=\"https://bysebuho.com/e/3fr74z84cwih/Angels_Fallen_Warriors_of_Peace__2024__WEB-DL_720p_x264__Hin___Eng__AAC_ESub_DANIEWATCH.mkv\" frameborder=\"0\" marginwidth=\"0\" marginheight=\"0\" scrolling=\"no\" width=\"640\" height=\"360\" allowfullscreen></iframe>"},{"id":"1051891","type":"movie","title":"Thelma","poster":"https://image.tmdb.org/t/p/w342/rUcuageYgv9SsJoWuc0seRWG6JC.jpg","year":"2024","result":"HD","language":["Hindi"],"country":["US","CH"],"original_language":"en","genres":["Action","Comedy","Adventure"],"imdb_id":"tt23778968","backdrop":"https://image.tmdb.org/t/p/original/wkPPRIducGfsbaUPsWfw0MCQdX7.jpg","watch":"<iframe src=\"https://bysebuho.com/e/iimmaciju3zm/Thelma_2024_720p_BluRay_Hindi-English_x264-_DANIEWATCH.mkv\" width=\"640\" height=\"360\" frameborder=\"0\" allowfullscreen></iframe>"},{"id":"1044552","type":"movie","title":"Lal Salaam","poster":"https://image.tmdb.org/t/p/w342/65n64KT32r638HD8WS0mGL0vSGc.jpg","year":"2024","result":"HD","language":["Hindi"],"country":["IN"],"original_language":"ta","genres":["Drama","Action"],"imdb_id":"tt23461428","backdrop":"https://image.tmdb.org/t/p/original/giMMpWw75rOxZZnWJI3Guu6dnFB.jpg","watch":"<iframe src=\"https://bysebuho.com/e/qp6xs0x98k8y/Lal_Salaam_2024_Hindi_Dubbed_ORG_UPlay_720p_WEB-DL_Vegamovies.mkv\" width=\"640\" height=\"360\" frameborder=\"0\" allowfullscreen></iframe>"},{"id":"1035048","type":"movie","title":"Elevation","poster":"https://image.tmdb.org/t/p/w342/tnfc0NJ3BzhJrGJhkkEd6MHBdq5.jpg","year":"2024","result":"HD","language":["Hindi"],"country":["US"],"original_language":"en","genres":["Action","Science Fiction","Thriller"],"imdb_id":"tt23558280","backdrop":"https://image.tmdb.org/t/p/original/au3o84ub27qTZiMiEc9UYzN74V3.jpg","watch":"<iframe src=\"https://bysebuho.com/e/nrh9s5tb5h57/Elevation_2024_720p_BluRay_Hindi_English_Esubs_DANIEWATCH.mkv\" width=\"640\" height=\"360\" frameborder=\"0\" allowfullscreen></iframe>"}]}