{"page":20,"total_pages":67,"total_items":3303,"items":[{"id":"1214931","type":"movie","title":"Nuremberg","poster":"https://image.tmdb.org/t/p/w342/7cWTGH2svfNHWVRjsfKIBob9pDj.jpg","year":"2025","result":"HD","language":["Hindi"],"country":["US","HU"],"original_language":"en","genres":["History","Drama"],"imdb_id":"tt29567915"},{"id":"1214835","type":"movie","title":"De De Pyaar De 2","poster":"https://image.tmdb.org/t/p/w342/g3J7r2t3L9HEgyWMX0Fki04Swtu.jpg","year":"2025","result":"HD","language":["Hindi"],"country":["IN"],"original_language":"hi","genres":["Comedy","Romance"],"imdb_id":"tt28802657"},{"id":"1213866","type":"movie","title":"Loveyapa","poster":"https://image.tmdb.org/t/p/w342/ohHiDAwaOo6R1ovMgmUhrBuvknU.jpg","year":"2025","result":"HD","language":["Hindi"],"country":["IN"],"original_language":"hi","genres":["Comedy","Drama","Romance"],"imdb_id":"tt25504468"},{"id":"1213777","type":"movie","title":"Dhadak 2","poster":"https://image.tmdb.org/t/p/w342/s3o23GbRXvHPPRm50kqQjjjCoKP.jpg","year":"2025","result":"HD","language":["Hindi"],"country":["IN"],"original_language":"hi","genres":["Romance","Drama"],"imdb_id":"tt13451410"},{"id":"1212742","type":"movie","title":"The Rule of Jenny Pen","poster":"https://image.tmdb.org/t/p/w342/5vqK1wbrgmUvqHn6yPt9b6qT9iL.jpg","year":"2025","result":"HD","language":["Hindi"],"country":["NZ"],"original_language":"en","genres":["Horror","Thriller"],"imdb_id":"tt6874690"},{"id":"1211999","type":"movie","title":"Kadhalikka Neramillai","poster":"https://image.tmdb.org/t/p/w342/nSgPlMtvKJGyiUivXDRGANUyP5v.jpg","year":"2025","result":"HD","language":["Hindi"],"country":["IN"],"original_language":"ta","genres":["Romance","Drama","Comedy"],"imdb_id":"tt27795377"},{"id":"1211886","type":"movie","title":"Kidnapping Inc.","poster":"https://image.tmdb.org/t/p/w342/n6Mn9Xe7Yy0lo4WHKm4jR3QmmM0.jpg","year":"2025","result":"HD","language":["Hindi"],"country":["CA","FR","HT","PK"],"original_language":"ht","genres":["Comedy","Thriller","Drama","Crime","Action"],"imdb_id":"tt4726640"},{"id":"1208983","type":"movie","title":"Neighborhood Watch","poster":"https://image.tmdb.org/t/p/w342/n1KcNdCrz5s3ruij9eiT5IARter.jpg","year":"2025","result":"HD","language":["Hindi"],"country":["US"],"original_language":"en","genres":["Thriller","Crime"],"imdb_id":"tt1714918"},{"id":"1208735","type":"movie","title":"Thandel","poster":"https://image.tmdb.org/t/p/w342/uaMcu3I9l3qyYovya7dwUcdU6ve.jpg","year":"2025","result":"HD","language":["Hindi"],"country":["IN"],"original_language":"te","genres":["Romance","Action","Drama","Thriller"],"imdb_id":"tt27907811"},{"id":"1204889","type":"movie","title":"Crypto Man","poster":"https://image.tmdb.org/t/p/w342/zTucIUYXTjvCT6PQnUyU7vdJPB9.jpg","year":"2025","result":"HD","language":["Hindi"],"country":["KR"],"original_language":"ko","genres":["Drama","Crime"],"imdb_id":"tt35311650"},{"id":"1202235","type":"movie","title":"Daaku Maharaaj","poster":"https://image.tmdb.org/t/p/w342/rGW9ad5TERuoluGSkgF1wHXP45H.jpg","year":"2025","result":"HD","language":["Hindi"],"country":["IN"],"original_language":"te","genres":["Action","Crime","Drama","Thriller"],"imdb_id":"tt27957740"},{"id":"1201012","type":"movie","title":"Dhoom Dhaam","poster":"https://image.tmdb.org/t/p/w342/2E7me3rPi8HqaeheuD86YlpNX6k.jpg","year":"2025","result":"HD","language":["Hindi"],"country":["IN"],"original_language":"hi","genres":["Comedy"],"imdb_id":"tt21194868"},{"id":"1198208","type":"movie","title":"Veera Dheera Sooran: Part 2","poster":"https://image.tmdb.org/t/p/w342/6iiWsXJ31BVbypWwzvoPKx24NFQ.jpg","year":"2025","result":"HD","language":["Hindi"],"country":["IN"],"original_language":"ta","genres":["Action","Crime","Drama","Thriller"],"imdb_id":"tt29606499"},{"id":"1197137","type":"movie","title":"Black Phone 2","poster":"https://image.tmdb.org/t/p/w342/gFddBLQ8wj9M9O82iPzgX5KVNHz.jpg","year":"2025","result":"HD","language":["Hindi"],"country":["US"],"original_language":"en","genres":["Horror","Thriller"],"imdb_id":"tt29644189"},{"id":"1196943","type":"movie","title":"Chhaava","poster":"https://image.tmdb.org/t/p/w342/ubRsrzb6NRW8YhVTJ6jG1kpNvCi.jpg","year":"2025","result":"HD","language":["Hindi"],"country":["IN"],"original_language":"hi","genres":["History","Action","Drama"],"imdb_id":"tt27922706"},{"id":"1196942","type":"movie","title":"Mere Husband Ki Biwi","poster":"https://image.tmdb.org/t/p/w342/fQMBYG4JOD6WN8QzViPYqxuIsru.jpg","year":"2025","result":"HD","language":["Hindi"],"country":["IN"],"original_language":"hi","genres":["Comedy"],"imdb_id":"tt22457506"},{"id":"1196573","type":"movie","title":"She Rides Shotgun","poster":"https://image.tmdb.org/t/p/w342/nvqW8mOm818QDio3GKKmPLK8kXj.jpg","year":"2025","result":"HD","language":["Hindi"],"country":["US"],"original_language":"en","genres":["Action","Thriller","Crime"],"imdb_id":"tt27986457"},{"id":"1196364","type":"movie","title":"Thamma","poster":"https://image.tmdb.org/t/p/w342/udkbDwBbysCGEydt0FHnl9dVO2k.jpg","year":"2025","result":"HD","language":["Hindi"],"country":["IN"],"original_language":"hi","genres":["Comedy","Horror"],"imdb_id":"tt28102562"},{"id":"1196348","type":"movie","title":"The Girlfriend","poster":"https://image.tmdb.org/t/p/w342/8cYve5muYPeWKvSEfFdkmWDyyDa.jpg","year":"2025","result":"HD","language":["Hindi"],"country":["IN"],"original_language":"te","genres":["Romance","Drama"],"imdb_id":"tt29606526"},{"id":"1195430","type":"movie","title":"Deva","poster":"https://image.tmdb.org/t/p/w342/2JthNUcRU89h9M6k3yQxLkACEJQ.jpg","year":"2025","result":"HD","language":["Hindi"],"country":["IN"],"original_language":"hi","genres":["Action","Thriller","Mystery","Crime"],"imdb_id":"tt27852049"},{"id":"1194963","type":"movie","title":"Noise","poster":"https://image.tmdb.org/t/p/w342/uU3NXe7QqjJNxVpYPdz8dscFWlj.jpg","year":"2025","result":"HD","language":["Hindi"],"country":["KR"],"original_language":"ko","genres":["Horror","Thriller"],"imdb_id":"tt29845247"},{"id":"1193824","type":"movie","title":"Rabbit Trap","poster":"https://image.tmdb.org/t/p/w342/sKnwnnmBpjo9BEskHtja6ToXUV1.jpg","year":"2025","result":"HD","language":["Hindi"],"country":["US","GB"],"original_language":"en","genres":["Thriller","Horror","Mystery","Fantasy"],"imdb_id":"tt29567402"},{"id":"1192174","type":"movie","title":"The Negotiator","poster":"https://image.tmdb.org/t/p/w342/ns0qUI7Y8cK5g6XSvRHmNANAN99.jpg","year":"2025","result":"HD","language":["Hindi"],"country":["IT","BE"],"original_language":"it","genres":["Drama","Thriller"],"imdb_id":"tt31702278"},{"id":"1190511","type":"movie","title":"Sitaare Zameen Par","poster":"https://image.tmdb.org/t/p/w342/adYjCJGSNiL7CIaDW3g0Bcg7r2Z.jpg","year":"2025","result":"HD","language":["Hindi"],"country":["IN"],"original_language":"hi","genres":["Comedy","Drama"],"imdb_id":"tt29471573"},{"id":"1188839","type":"movie","title":"Dilli Dark","poster":"https://image.tmdb.org/t/p/w342/6ZVoH0I3nU0Yoqi8hbCQAXQobvU.jpg","year":"2025","result":"HD","language":["Hindi"],"country":["IN"],"original_language":"hi","genres":["Drama"],"imdb_id":"tt29444671"},{"id":"1181540","type":"movie","title":"Guns Up","poster":"https://image.tmdb.org/t/p/w342/3RokBWEkQqJRZEVP3DPwGm5MYh6.jpg","year":"2025","result":"HD","language":["Hindi"],"country":["US"],"original_language":"en","genres":["Action","Comedy","Crime"],"imdb_id":"tt28026215"},{"id":"1180831","type":"movie","title":"Troll 2","poster":"https://image.tmdb.org/t/p/w342/p6xAExLNFbHcLfvSuvLPoM8aqZU.jpg","year":"2025","result":"HD","language":["Hindi"],"country":["NO"],"original_language":"no","genres":["Action","Fantasy","Thriller"],"imdb_id":"tt29232158"},{"id":"1175942","type":"movie","title":"The Bad Guys 2","poster":"https://image.tmdb.org/t/p/w342/c1msaKf1wyuKcmLjjJd6rIBPFcd.jpg","year":"2025","result":"HD","language":["Hindi"],"country":["US"],"original_language":"en","genres":["Family","Comedy","Crime","Adventure","Animation"],"imdb_id":"tt30017619"},{"id":"1171101","type":"movie","title":"Kuberaa","poster":"https://image.tmdb.org/t/p/w342/xjLC5DeA4FQTBv4xe8r3wYqh8lu.jpg","year":"2025","result":"HD","language":["Hindi"],"country":["IN"],"original_language":"te","genres":["Crime","Thriller","Drama"],"imdb_id":"tt23846482"},{"id":"1156594","type":"movie","title":"Our Fault","poster":"https://image.tmdb.org/t/p/w342/yzqHt4m1SeY9FbPrfZ0C2Hi9x1s.jpg","year":"2025","result":"HD","language":["Hindi"],"country":["ES","US"],"original_language":"es","genres":["Romance","Drama"],"imdb_id":"tt33311244"},{"id":"1153399","type":"movie","title":"Coolie","poster":"https://image.tmdb.org/t/p/w342/kr36awqmziEI5mfUElsHB0pj9zP.jpg","year":"2025","result":"HD","language":["Hindi"],"country":["IN"],"original_language":"ta","genres":["Action","Thriller","Crime"],"imdb_id":"tt27441481"},{"id":"1151766","type":"movie","title":"Murderer Report","poster":"https://image.tmdb.org/t/p/w342/dl0sMMjMkdkziSGeSwiQ1DAb6Ci.jpg","year":"2025","result":"HD","language":["Hindi"],"country":["KR"],"original_language":"ko","genres":["Drama","Thriller"],"imdb_id":"tt37718411"},{"id":"1147546","type":"movie","title":"The Diplomat","poster":"https://image.tmdb.org/t/p/w342/uwl9Y4px8TTIQK4N19k6gnW1RnX.jpg","year":"2025","result":"HD","language":["Hindi"],"country":["IN"],"original_language":"hi","genres":["Thriller","Drama"],"imdb_id":"tt26229612"},{"id":"1146210","type":"movie","title":"Housefull 5","poster":"https://image.tmdb.org/t/p/w342/iGvGkVOfsooO0ZBrhN5i6zXYUCy.jpg","year":"2025","result":"HD","language":["Hindi"],"country":["IN","GB"],"original_language":"hi","genres":["Comedy","Mystery","Thriller"],"imdb_id":"tt9104736"},{"id":"1145221","type":"movie","title":"It Feeds","poster":"https://image.tmdb.org/t/p/w342/uC3lzzgOUgkubje7HR20qznAAGj.jpg","year":"2025","result":"HD","language":["Hindi"],"country":["CA"],"original_language":"en","genres":["Horror"],"imdb_id":"tt28230296"},{"id":"1144443","type":"movie","title":"Follow My Voice","poster":"https://image.tmdb.org/t/p/w342/kBd17L811S97JESH9ma1pPMO0o0.jpg","year":"2025","result":"HD","language":["Hindi"],"country":["ES","US"],"original_language":"es","genres":["Romance","Drama"],"imdb_id":"tt23899310"},{"id":"1143407","type":"movie","title":"Sky Force","poster":"https://image.tmdb.org/t/p/w342/f1KLUpaW7rbXhUm5SxG1lpPFFCJ.jpg","year":"2025","result":"HD","language":["Hindi"],"country":["IN"],"original_language":"hi","genres":["Action","Thriller","War","History"],"imdb_id":"tt27056066"},{"id":"1142921","type":"movie","title":"Tere Ishk Mein","poster":"https://image.tmdb.org/t/p/w342/7FsHlW9z7gDhDE4EXAE2WcXUVQj.jpg","year":"2025","result":"HD","language":["Hindi"],"country":["IN"],"original_language":"hi","genres":["Romance","Drama"],"imdb_id":"tt28142095"},{"id":"1140685","type":"movie","title":"Firefly","poster":"https://image.tmdb.org/t/p/w342/92keBsYz7gRoEiT4KTbAA60siEd.jpg","year":"2025","result":"HD","language":["Hindi"],"country":[],"original_language":"kn","genres":["Adventure","Comedy","Drama"],"imdb_id":"tt27662417"},{"id":"1140535","type":"movie","title":"Presence","poster":"https://image.tmdb.org/t/p/w342/xZIGHoHj0DF0zdibwa66cRWHdHO.jpg","year":"2025","result":"HD","language":["Hindi"],"country":["US"],"original_language":"en","genres":["Horror","Thriller","Drama"],"imdb_id":"tt28249919"},{"id":"1137339","type":"movie","title":"Kesari Chapter 2: The Untold Story of Jallianwala Bagh","poster":"https://image.tmdb.org/t/p/w342/jgGSqe1YgSot6Y1zDVTVkbsZ46z.jpg","year":"2025","result":"HD","language":["Hindi"],"country":["IN","IE"],"original_language":"hi","genres":["Drama","History"],"imdb_id":"tt3562110"},{"id":"1137179","type":"movie","title":"Yadang: The Snitch","poster":"https://image.tmdb.org/t/p/w342/y7dsDbG8zVWkrkyOhA6ckZXX1uC.jpg","year":"2025","result":"HD","language":["Hindi"],"country":["KR"],"original_language":"ko","genres":["Crime","Action","Comedy","Drama","Thriller"],"imdb_id":"tt35851026"},{"id":"1136867","type":"movie","title":"Materialists","poster":"https://image.tmdb.org/t/p/w342/zh4kaa2dGhVjojHulCWt3AR4b2l.jpg","year":"2025","result":"HD","language":["Hindi"],"country":["US","FI"],"original_language":"en","genres":["Romance","Drama"],"imdb_id":"tt30253473"},{"id":"1132152","type":"movie","title":"Ace","poster":"https://image.tmdb.org/t/p/w342/8N9ET0MxfaYi1R2a8my0x3JCAxW.jpg","year":"2025","result":"HD","language":["Hindi"],"country":["IN"],"original_language":"ta","genres":["Crime","Comedy","Action"],"imdb_id":"tt27802912"},{"id":"1129923","type":"movie","title":"Hitman 2","poster":"https://image.tmdb.org/t/p/w342/efCaYlRl0LcZNX15dEz3KxcUigi.jpg","year":"2025","result":"HD","language":["Hindi"],"country":["KR"],"original_language":"ko","genres":["Action","Comedy"],"imdb_id":"tt30788876"},{"id":"1128655","type":"movie","title":"The Surfer","poster":"https://image.tmdb.org/t/p/w342/gm9Ou0dkxhb1vcrkB6uRhoifcHC.jpg","year":"2025","result":"HD","language":["Hindi"],"country":["AU","IE","GB","US"],"original_language":"en","genres":["Thriller","Drama"],"imdb_id":"tt27813235"},{"id":"1128614","type":"movie","title":"A Nice Indian Boy","poster":"https://image.tmdb.org/t/p/w342/xfY2FZlnm5uaQbaWR9IYW41J1xG.jpg","year":"2025","result":"HD","language":["Hindi"],"country":["US"],"original_language":"en","genres":["Romance","Comedy"],"imdb_id":"tt16431330"},{"id":"1127628","type":"movie","title":"The Thing with Feathers","poster":"https://image.tmdb.org/t/p/w342/j3kM0tMW7EQaOrit0JW9NvoPPrp.jpg","year":"2025","result":"HD","language":["Hindi"],"country":["GB"],"original_language":"en","genres":["Drama"],"imdb_id":"tt27773954"},{"id":"1127110","type":"movie","title":"Diablo","poster":"https://image.tmdb.org/t/p/w342/uFQduVyYIinJy3eLjozgfl6Xtcn.jpg","year":"2025","result":"HD","language":["Hindi"],"country":["US","CO"],"original_language":"en","genres":["Action","Thriller","Crime"],"imdb_id":"tt27757546"},{"id":"1126915","type":"movie","title":"Tornado","poster":"https://image.tmdb.org/t/p/w342/iow3KuKBJN2Hfqi7i7Tq3pZUbAa.jpg","year":"2025","result":"HD","language":["Hindi"],"country":["GB","US"],"original_language":"en","genres":["Drama","Action","Western"],"imdb_id":"tt27721490"}]}