{"page":43,"total_pages":67,"total_items":3303,"items":[{"id":"1030109","type":"movie","title":"Ooru Peru Bhairavakona","poster":"https://image.tmdb.org/t/p/w342/bPqtaVDJI2E8SheBhCgtktyBw6a.jpg","year":"2024","result":"HD","language":["Hindi"],"country":["IN"],"original_language":"te","genres":["Fantasy","Comedy","Horror"],"imdb_id":"tt15457802"},{"id":"1317591","type":"movie","title":"Petta Rap","poster":"https://image.tmdb.org/t/p/w342/pt5Wv7YW6Lv4XbZJ7ZeVrswg2EZ.jpg","year":"2024","result":"HD","language":["Hindi"],"country":["IN"],"original_language":"ta","genres":["Action","Music"],"imdb_id":"tt26887171"},{"id":"257669","type":"tv","title":"Pill","poster":"https://image.tmdb.org/t/p/w342/gyXfVqYIBg1ly8xQuJtf79vM2k8.jpg","year":"2024","result":"HD","language":["Hindi"],"country":["IN"],"original_language":"hi","genres":["Drama"],"imdb_id":"tt32729607","latest_uploaded_season":1,"total_uploaded_episodes":1},{"id":"1329956","type":"movie","title":"Pogumidam Vegu Thooramillai","poster":"https://image.tmdb.org/t/p/w342/t9PskkYrJpFsS2eobDHwNl39T1J.jpg","year":"2024","result":"HD","language":["Hindi"],"country":["IN"],"original_language":"ta","genres":["Thriller","Family","Drama"],"imdb_id":"tt32402578"},{"id":"1375013","type":"movie","title":"Pottel","poster":"https://image.tmdb.org/t/p/w342/k0RTkcYbGVbMLkCC5e8kTtGTPvO.jpg","year":"2024","result":"HD","language":["Hindi"],"country":["IN"],"original_language":"te","genres":["Action","Drama"],"imdb_id":"tt31948043"},{"id":"1073264","type":"movie","title":"PT Sir","poster":"https://image.tmdb.org/t/p/w342/1nTKDDzcU0M0I4PonmbjAHkIyQE.jpg","year":"2024","result":"HD","language":["Hindi"],"country":["IN"],"original_language":"ta","genres":["Comedy","Drama"],"imdb_id":"tt23772282"},{"id":"271066","type":"tv","title":"Raat Jawaan Hai","poster":"https://image.tmdb.org/t/p/w342/juIV2AiEshBETv0aAd8AlCuarmY.jpg","year":"2024","result":"HD","language":["Hindi"],"country":["IN"],"original_language":"hi","genres":["Comedy","Drama"],"imdb_id":"tt30819853","latest_uploaded_season":1,"total_uploaded_episodes":1},{"id":"1136418","type":"movie","title":"Raayan","poster":"https://image.tmdb.org/t/p/w342/dHMbqpG7vZk1iEJaEkCCyixFbos.jpg","year":"2024","result":"HD","language":["Hindi"],"country":["IN"],"original_language":"ta","genres":["Action","Drama","Thriller"],"imdb_id":"tt26233598"},{"id":"245467","type":"tv","title":"Raisinghani VS. Raisinghani","poster":"https://image.tmdb.org/t/p/w342/6Y846gCkeE9RlMkxAbYxca1Te3Z.jpg","year":"2024","result":"HD","language":["Hindi"],"country":["IN"],"original_language":"hi","genres":["Drama"],"imdb_id":"tt31032285","latest_uploaded_season":1,"total_uploaded_episodes":1},{"id":"1171532","type":"movie","title":"Rathnam","poster":"https://image.tmdb.org/t/p/w342/j35uUmrMgWNQHrs0Obi8ll0OVfe.jpg","year":"2024","result":"HD","language":["Hindi"],"country":["IN"],"original_language":"ta","genres":["Action","Romance"],"imdb_id":"tt27577888"},{"id":"1293863","type":"movie","title":"Rose Rosy Te Gulab","poster":"https://image.tmdb.org/t/p/w342/aLvgqL7ivOMvtyQmJ0EJ4LgTvVI.jpg","year":"2024","result":"HD","language":["PUNJABI"],"country":["IN"],"original_language":"pa","genres":["Romance","Drama"],"imdb_id":"tt31473803"},{"id":"1196940","type":"movie","title":"Ruslaan","poster":"https://image.tmdb.org/t/p/w342/Wlxn5NCIcXeLrSn79wAtyFr2BD.jpg","year":"2024","result":"HD","language":["Hindi"],"country":["IN"],"original_language":"hi","genres":["Action"],"imdb_id":"tt24245466"},{"id":"1030060","type":"movie","title":"Sabari","poster":"https://image.tmdb.org/t/p/w342/lHZnBvrABc5cTLzu64dQfPcfnzL.jpg","year":"2024","result":"HD","language":["Hindi"],"country":["IN"],"original_language":"te","genres":["Thriller","Mystery"],"imdb_id":"tt24225846"},{"id":"967344","type":"movie","title":"Sarfira","poster":"https://image.tmdb.org/t/p/w342/5crEOhhGl2ORIQRZPbmZpUBK4rt.jpg","year":"2024","result":"HD","language":["Hindi"],"country":["IN"],"original_language":"hi","genres":["Drama"],"imdb_id":"tt23475174"},{"id":"1194915","type":"movie","title":"Saripodhaa Sanivaaram","poster":"https://image.tmdb.org/t/p/w342/e2yVhbMkpi4JvvdIhvRpS0Muge7.jpg","year":"2024","result":"HD","language":["Hindi"],"country":["IN"],"original_language":"te","genres":["Action","Thriller"],"imdb_id":"tt26903104"},{"id":"1194915","type":"movie","title":"Saripodhaa Sanivaaram","poster":"https://image.tmdb.org/t/p/w342/e2yVhbMkpi4JvvdIhvRpS0Muge7.jpg","year":"2024","result":"HD","language":["Hindi"],"country":["IN"],"original_language":"te","genres":["Action","Thriller"],"imdb_id":"tt26903104"},{"id":"261679","type":"tv","title":"Sarpanchi","poster":"https://image.tmdb.org/t/p/w342/t6IpIgNO3FxOPPXsZNGiDz5DDbR.jpg","year":"2024","result":"HD","language":["Hindi"],"country":["IN"],"original_language":"pa","genres":["Drama"],"imdb_id":"tt33062819","latest_uploaded_season":1,"total_uploaded_episodes":1},{"id":"1177157","type":"movie","title":"Satyabhama","poster":"https://image.tmdb.org/t/p/w342/7I0VTzrqJ4erQHNjrwwhAA5rOTv.jpg","year":"2024","result":"HD","language":["Hindi"],"country":["IN"],"original_language":"te","genres":["Crime","Thriller","Drama"],"imdb_id":"tt28101019"},{"id":"1245700","type":"movie","title":"Sector 36","poster":"https://image.tmdb.org/t/p/w342/pbVcZmmcfqk35Q9hNxRoR7JPiVp.jpg","year":"2024","result":"HD","language":["Hindi"],"country":["IN"],"original_language":"hi","genres":["Crime","Thriller","Drama"],"imdb_id":"tt21626774"},{"id":"1360953","type":"movie","title":"Shukrana","poster":"https://image.tmdb.org/t/p/w342/bBX5xHDmk07pVbsUNruBiV5JAQj.jpg","year":"2024","result":"HD","language":["PUNJABI"],"country":["IN"],"original_language":"pa","genres":["Drama"],"imdb_id":"tt33044564"},{"id":"1191542","type":"movie","title":"Siddharth Roy","poster":"https://image.tmdb.org/t/p/w342/cRxvMJo1OgYlgphiiuX0dLwYFeV.jpg","year":"2024","result":"HD","language":["Hindi"],"country":["IN"],"original_language":"te","genres":["Drama","Romance"],"imdb_id":"tt27917467"},{"id":"1252470","type":"movie","title":"Sikandar Ka Muqaddar","poster":"https://image.tmdb.org/t/p/w342/eWUh4rgxtgypgnOa6uGMnUt01ux.jpg","year":"2024","result":"HD","language":["Hindi"],"country":["IN"],"original_language":"hi","genres":["Thriller","Crime","Mystery","Action"],"imdb_id":"tt31522415"},{"id":"1046924","type":"movie","title":"Singapore Saloon","poster":"https://image.tmdb.org/t/p/w342/21llDripC24N3UkfNT5wpsjyDBb.jpg","year":"2024","result":"HD","language":["Hindi"],"country":["IN"],"original_language":"ta","genres":["Comedy","Drama","Family"],"imdb_id":"tt23558124"},{"id":"1112426","type":"movie","title":"Stree 2","poster":"https://image.tmdb.org/t/p/w342/iwEJp4WBM8b3AjCeNcgvv86FEFr.jpg","year":"2024","result":"HD","language":["Hindi"],"country":["IN"],"original_language":"hi","genres":["Horror","Comedy"],"imdb_id":"tt27510174"},{"id":"1130276","type":"movie","title":"Succubus","poster":"https://image.tmdb.org/t/p/w342/7AfBMebJS8mEtSV5ymdxEPpgvXb.jpg","year":"2024","result":"HD","language":["Hindi"],"country":["US"],"original_language":"en","genres":["Horror","Thriller"],"imdb_id":"tt13778486"},{"id":"1339982","type":"movie","title":"Sucha Soorma","poster":"https://image.tmdb.org/t/p/w342/xs0H0WOUTcP9vqRiYpaGNgRSjik.jpg","year":"2024","result":"HD","language":["Hindi"],"country":["IN"],"original_language":"pa","genres":["History","Thriller"],"imdb_id":"tt11090316"},{"id":"1276228","type":"movie","title":"Tenant","poster":"https://image.tmdb.org/t/p/w342/nZxCHxjQJEZi30F69YJwTPEgzoX.jpg","year":"2024","result":"HD","language":["Hindi"],"country":["IN"],"original_language":"te","genres":["Thriller","Mystery"],"imdb_id":"tt29866163"},{"id":"1112108","type":"movie","title":"Thalavan","poster":"https://image.tmdb.org/t/p/w342/142iirjj2365WQTaXgMrmjC0tng.jpg","year":"2024","result":"HD","language":["Hindi"],"country":["IN"],"original_language":"ml","genres":["Thriller","Drama","Crime"],"imdb_id":"tt27510257"},{"id":"1129608","type":"movie","title":"The Greatest of All Time","poster":"https://image.tmdb.org/t/p/w342/kk9SmNt6QcP5thvSYELWvO0NWuC.jpg","year":"2024","result":"HD","language":["Hindi"],"country":["IN"],"original_language":"ta","genres":["Action","Drama","Thriller"],"imdb_id":"tt27487934"},{"id":"276115","type":"tv","title":"The Magic of Shiri","poster":"https://image.tmdb.org/t/p/w342/7iRFzZw0aJlMZGBsxlZBgAMqMcM.jpg","year":"2024","result":"HD","language":["Hindi"],"country":["IN"],"original_language":"hi","genres":["Comedy","Drama","Family"],"imdb_id":"tt28282670","latest_uploaded_season":1,"total_uploaded_episodes":1},{"id":"243963","type":"tv","title":"The Pradeeps of Pittsburgh","poster":"https://image.tmdb.org/t/p/w342/ckqyjYZim2TEC7q46ieB3WoiYl6.jpg","year":"2024","result":"HD","language":["Hindi"],"country":["US"],"original_language":"en","genres":["Comedy","Drama"],"imdb_id":"tt14584532","latest_uploaded_season":1,"total_uploaded_episodes":1},{"id":"989880","type":"movie","title":"The Signature","poster":"https://image.tmdb.org/t/p/w342/nXrwCSHkQNlfzpIZPyN9IlYmINa.jpg","year":"2024","result":"HD","language":["Hindi"],"country":["IN"],"original_language":"hi","genres":["Family","Drama"],"imdb_id":"tt28435822"},{"id":"1336138","type":"movie","title":"Tikdam","poster":"https://image.tmdb.org/t/p/w342/zXhIhFncs7CRtl2OgyWTx7uPth9.jpg","year":"2024","result":"HD","language":["Hindi"],"country":["IN"],"original_language":"hi","genres":["Drama"],"imdb_id":"tt33095240"},{"id":"1283181","type":"movie","title":"Trisha on the Rocks","poster":"https://image.tmdb.org/t/p/w342/k3zltzxeK7JpGd3lYH4OwzACHyj.jpg","year":"2024","result":"HD","language":["Hindi"],"country":["IN"],"original_language":"gu","genres":["Comedy","Romance"],"imdb_id":"tt31914240"},{"id":"1315918","type":"movie","title":"Ucha Dar Babe Nanak Da","poster":"https://image.tmdb.org/t/p/w342/dKg9ae1AbXxC57KF4zy9V3DtLLe.jpg","year":"2024","result":"HD","language":["PUNJABI"],"country":["IN"],"original_language":"pa","genres":["Drama"],"imdb_id":"tt27263294"},{"id":"1124876","type":"movie","title":"Ulajh","poster":"https://image.tmdb.org/t/p/w342/tRTaE89m8As6G6aqgYjCBmm6MKN.jpg","year":"2024","result":"HD","language":["Hindi"],"country":["IN"],"original_language":"hi","genres":["Drama","Thriller"],"imdb_id":"tt19838634"},{"id":"1189518","type":"movie","title":"Vaazha","poster":"https://image.tmdb.org/t/p/w342/6SFL0Z5x4FQTNYoDCp6SbbyydQm.jpg","year":"2024","result":"HD","language":["Hindi"],"country":["IN"],"original_language":"ml","genres":["Comedy","Drama"],"imdb_id":"tt29470244"},{"id":"1051426","type":"movie","title":"Vaazhai","poster":"https://image.tmdb.org/t/p/w342/4AAd41LHVUxTmLwcPXRpPxpZW3v.jpg","year":"2024","result":"HD","language":["Hindi"],"country":["IN"],"original_language":"ta","genres":["Drama"],"imdb_id":"tt23782140"},{"id":"1148486","type":"movie","title":"Vedaa","poster":"https://image.tmdb.org/t/p/w342/wK0p210TWMH4P3isT1bI0FVEuZ9.jpg","year":"2024","result":"HD","language":["Hindi"],"country":["IN"],"original_language":"hi","genres":["Action","Drama","Thriller"],"imdb_id":"tt28153480"},{"id":"1171133","type":"movie","title":"Visfot","poster":"https://image.tmdb.org/t/p/w342/2ObcZd32LJwfnOiWVTo1V3uTtSP.jpg","year":"2024","result":"HD","language":["Hindi"],"country":["IN"],"original_language":"hi","genres":["Thriller","Crime"],"imdb_id":"tt15416100"},{"id":"1252455","type":"movie","title":"Wild Wild Punjab","poster":"https://image.tmdb.org/t/p/w342/5EpIjplAtUiFyjR6C2gYN6xPiCP.jpg","year":"2024","result":"HD","language":["Hindi"],"country":["IN"],"original_language":"hi","genres":["Comedy","Adventure"],"imdb_id":"tt31514262"},{"id":"273534","type":"tv","title":"Zindaginama","poster":"https://image.tmdb.org/t/p/w342/uLmzqvYUaBL7OCsRhg2QAJi5K7x.jpg","year":"2024","result":"HD","language":["Hindi"],"country":["IN"],"original_language":"hi","genres":["Drama"],"imdb_id":"tt33609561","latest_uploaded_season":1,"total_uploaded_episodes":1},{"id":"1094274","type":"movie","title":"Y2K","poster":"https://image.tmdb.org/t/p/w342/qndubIQalyxBJI5EBNZKGXEX74q.jpg","year":"2024","result":"HD","language":["Hindi"],"country":["US"],"original_language":"en","genres":["Science Fiction","Horror","Comedy"],"imdb_id":"tt27218960"},{"id":"1556396","type":"movie","title":"What a Kismat","poster":"https://image.tmdb.org/t/p/w342/5Od5Q1BorNHblZ8eAkxCDmR8Eia.jpg","year":"2024","result":"HD","language":["Hindi"],"country":[],"original_language":"hi","genres":[],"imdb_id":"tt28282341"},{"id":"1551387","type":"movie","title":"Shagun","poster":"https://image.tmdb.org/t/p/w342/npa5kWvVwYpbX1oj6YVtu5kfCoF.jpg","year":"2024","result":"HD","language":["Hindi"],"country":[],"original_language":"en","genres":["Mystery","Thriller"],"imdb_id":""},{"id":"1519583","type":"movie","title":"The Judgement","poster":"https://image.tmdb.org/t/p/w342/7L0a9pzRDxJ7MoNlDrlzscI4nbE.jpg","year":"2024","result":"HD","language":["Hindi"],"country":["IN"],"original_language":"kn","genres":["Thriller"],"imdb_id":"tt30958633"},{"id":"1452351","type":"movie","title":"Nite Road","poster":"https://image.tmdb.org/t/p/w342/lKuFV42ROO6d391OLHFKL5VUK83.jpg","year":"2024","result":"HD","language":["Hindi"],"country":[],"original_language":"kn","genres":["Crime","Mystery","Thriller"],"imdb_id":"tt32979411"},{"id":"1414280","type":"movie","title":"The Prince of Jhansi","poster":"https://image.tmdb.org/t/p/w342/iQMp8Y0g1SPrgXkgf5msGXeMjGc.jpg","year":"2024","result":"HD","language":["Hindi"],"country":["IN"],"original_language":"hi","genres":["Comedy","Drama"],"imdb_id":"tt35484972"},{"id":"1409979","type":"movie","title":"Kisko Tha Pata","poster":"https://image.tmdb.org/t/p/w342/aI6OUbNlbssBK2g5SaG0i9Ez6x9.jpg","year":"2024","result":"HD","language":["Hindi"],"country":["IN"],"original_language":"hi","genres":["Drama","Romance"],"imdb_id":"tt35185670"},{"id":"1392159","type":"movie","title":"Hey Siri Ve Siri","poster":"https://image.tmdb.org/t/p/w342/zrT1foMWh5Ax0GNWQXX8NZpAOoh.jpg","year":"2024","result":"HD","language":["Hindi"],"country":[],"original_language":"en","genres":["Comedy"],"imdb_id":"tt25810932"}]}