{"page":28,"total_pages":67,"total_items":3303,"items":[{"id":"234674","type":"tv","title":"Beyond Goodbye","poster":"https://image.tmdb.org/t/p/w342/zfBIufqT9QcupV17pEqQuGk29Io.jpg","year":"2024","result":"HD","language":["Hindi"],"country":["JP"],"original_language":"ja","genres":["Drama"],"imdb_id":"tt29103836","latest_uploaded_season":1,"total_uploaded_episodes":8},{"id":"225930","type":"tv","title":"Love Endures","poster":"https://image.tmdb.org/t/p/w342/q1ryxOH0JsPG0rYFdOiAg47m4NM.jpg","year":"2024","result":"HD","language":["Hindi"],"country":["CN"],"original_language":"zh","genres":["Drama"],"imdb_id":"tt28151897","latest_uploaded_season":1,"total_uploaded_episodes":32},{"id":"207668","type":"tv","title":"The Legend of ShenLi","poster":"https://image.tmdb.org/t/p/w342/cVlSN6xr9IsTwRSNvZqkLg8ZLnl.jpg","year":"2024","result":"HD","language":["Hindi"],"country":["CN"],"original_language":"zh","genres":["Drama","Sci-Fi & Fantasy"],"imdb_id":"tt27531070","latest_uploaded_season":2,"total_uploaded_episodes":80},{"id":"1075676","type":"movie","title":"Uprising","poster":"https://image.tmdb.org/t/p/w342/hg9OeaCRSpazrfqYyEFr6BDaZW8.jpg","year":"2024","result":"HD","language":["Hindi"],"country":["KR"],"original_language":"ko","genres":["Action","Drama","History"],"imdb_id":"tt27987046"},{"id":"223329","type":"tv","title":"The Whirlwind","poster":"https://image.tmdb.org/t/p/w342/dMNPN1cxX0CuL9POyT5xoiTk10h.jpg","year":"2024","result":"HD","language":["Hindi"],"country":["KR"],"original_language":"ko","genres":["Drama","War & Politics"],"imdb_id":"tt27368132","latest_uploaded_season":1,"total_uploaded_episodes":12},{"id":"249906","type":"tv","title":"Tokyo Swindlers","poster":"https://image.tmdb.org/t/p/w342/892R0peQpBJP6VnAiQWtAGxRUr.jpg","year":"2024","result":"HD","language":["Hindi"],"country":["JP"],"original_language":"ja","genres":["Crime"],"imdb_id":"tt31250132","latest_uploaded_season":1,"total_uploaded_episodes":7},{"id":"635996","type":"movie","title":"Wonderland","poster":"https://image.tmdb.org/t/p/w342/xGFjhFkqpOpFFUkEQjetKS11AWz.jpg","year":"2024","result":"HD","language":["Hindi"],"country":["KR"],"original_language":"ko","genres":["Science Fiction","Drama"],"imdb_id":"tt31254554"},{"id":"221112","type":"tv","title":"Amidst a Snowstorm of Love","poster":"https://image.tmdb.org/t/p/w342/1v5ABzgSMlVJG2acb6S6JAkEM2S.jpg","year":"2024","result":"HD","language":["Hindi"],"country":["CN"],"original_language":"zh","genres":["Drama"],"imdb_id":"tt28183145","latest_uploaded_season":1,"total_uploaded_episodes":30},{"id":"206686","type":"tv","title":"Chicken Nugget","poster":"https://image.tmdb.org/t/p/w342/9hefpkltcFLcZSKXr65l0mPMRKn.jpg","year":"2024","result":"HD","language":["Hindi"],"country":["KR"],"original_language":"ko","genres":["Comedy","Mystery","Sci-Fi & Fantasy"],"imdb_id":"tt28642797","latest_uploaded_season":1,"total_uploaded_episodes":10},{"id":"226527","type":"tv","title":"Hierarchy","poster":"https://image.tmdb.org/t/p/w342/szr7QFNnuspcyhW0rsoDMDN73pP.jpg","year":"2024","result":"HD","language":["Hindi"],"country":["KR"],"original_language":"ko","genres":["Drama"],"imdb_id":"tt27763561","latest_uploaded_season":1,"total_uploaded_episodes":7},{"id":"210098","type":"tv","title":"House of Ninjas","poster":"https://image.tmdb.org/t/p/w342/AoEuSoSnwSSnX1YzykDdOiKAZNB.jpg","year":"2024","result":"HD","language":["Hindi"],"country":["JP"],"original_language":"ja","genres":["Drama","Action & Adventure"],"imdb_id":"tt22012992","latest_uploaded_season":1,"total_uploaded_episodes":8},{"id":"107013","type":"tv","title":"Manayek","poster":"https://image.tmdb.org/t/p/w342/pAAuwezjWffJ1jBaB9xJ4klUi7e.jpg","year":"2024","result":"HD","language":["Hindi"],"country":["IL"],"original_language":"he","genres":["Drama","Crime"],"imdb_id":"tt12819234","latest_uploaded_season":3,"total_uploaded_episodes":30},{"id":"221851","type":"tv","title":"Marry My Husband","poster":"https://image.tmdb.org/t/p/w342/899KcBqooj8nEyPcAEU3h7AdfUo.jpg","year":"2024","result":"HD","language":["Hindi"],"country":["KR"],"original_language":"ko","genres":["Drama","Sci-Fi & Fantasy","Comedy"],"imdb_id":"tt26628595","latest_uploaded_season":1,"total_uploaded_episodes":16},{"id":"156484","type":"tv","title":"The 8 Show","poster":"https://image.tmdb.org/t/p/w342/umBNBnKThMmF1QQZixZ7rsYOowq.jpg","year":"2024","result":"HD","language":["Hindi"],"country":["KR"],"original_language":"ko","genres":["Mystery","Comedy","Drama"],"imdb_id":"tt30423279","latest_uploaded_season":1,"total_uploaded_episodes":8},{"id":"208878","type":"tv","title":"Violet like the sea","poster":"https://image.tmdb.org/t/p/w342/AmGnTDwQxcL9y8NuX8XNF0ZDizp.jpg","year":"2024","result":"HD","language":["Hindi"],"country":["IT"],"original_language":"it","genres":["Crime","Drama","Mystery"],"imdb_id":"tt15472454","latest_uploaded_season":2,"total_uploaded_episodes":24},{"id":"84105","type":"tv","title":"Mirzapur","poster":"https://image.tmdb.org/t/p/w342/1rxLUFVrtTo82OxhbDXJDiJVkwL.jpg","year":"2024","result":"HD","language":["Hindi"],"country":["IN"],"original_language":"hi","genres":["Crime","Action & Adventure","Drama"],"imdb_id":"tt6473300","latest_uploaded_season":3,"total_uploaded_episodes":29},{"id":"976576","type":"movie","title":"Emmanuelle","poster":"https://image.tmdb.org/t/p/w342/s9gmKus9YPTDzdMKZQJYPh0VoGk.jpg","year":"2024","result":"HD","language":["Hindi"],"country":["FR"],"original_language":"en","genres":["Drama","Romance"],"imdb_id":"tt20247888"},{"id":"1217647","type":"movie","title":"Iconic","poster":"https://image.tmdb.org/t/p/w342/62GtFUBzKGrVi5ta26izATtuFBH.jpg","year":"2024","result":"HD","language":["Hindi"],"country":["US"],"original_language":"en","genres":["Thriller","Drama","Horror"],"imdb_id":"tt31565932"},{"id":"1184495","type":"movie","title":"Joy","poster":"https://image.tmdb.org/t/p/w342/inL3nv3hAqlvoBSIWFMYydlwULE.jpg","year":"2024","result":"HD","language":["Hindi"],"country":["GB"],"original_language":"en","genres":["Drama"],"imdb_id":"tt10243672"},{"id":"1326059","type":"movie","title":"Pimpinero: Blood and Oil","poster":"https://image.tmdb.org/t/p/w342/kukotsflOSVGXQezuXohj41dbfL.jpg","year":"2024","result":"HD","language":["Hindi"],"country":["CO"],"original_language":"es","genres":["Action","Adventure"],"imdb_id":"tt27660061"},{"id":"1120911","type":"movie","title":"Saturday Night","poster":"https://image.tmdb.org/t/p/w342/oCf5O6uxooTvRwKVnLHwGqZUifq.jpg","year":"2024","result":"HD","language":["Hindi"],"country":["US"],"original_language":"en","genres":["Comedy","Drama"],"imdb_id":"tt27657135"},{"id":"1073087","type":"movie","title":"Scrambled","poster":"https://image.tmdb.org/t/p/w342/yzwERLkcxNh9uve42IAUBHckU0s.jpg","year":"2024","result":"HD","language":["Hindi"],"country":["US"],"original_language":"en","genres":["Comedy"],"imdb_id":"tt21270966"},{"id":"1267217","type":"movie","title":"Sugar Baby","poster":"https://image.tmdb.org/t/p/w342/kcREsnVDEFFXmt5GuPwyGqyDuDJ.jpg","year":"2024","result":"HD","language":["Hindi"],"country":["RU"],"original_language":"ru","genres":["Romance","Drama"],"imdb_id":"tt30225465"},{"id":"1252309","type":"movie","title":"Tell Me What You Want","poster":"https://image.tmdb.org/t/p/w342/yZXYCiZQPB7Ui6D5206W1zDKv8P.jpg","year":"2024","result":"HD","language":["Hindi"],"country":["ES"],"original_language":"es","genres":["Romance","Drama"],"imdb_id":"tt31723358"},{"id":"804406","type":"movie","title":"The Piano Lesson","poster":"https://image.tmdb.org/t/p/w342/cgampq63AqCrza6bnvmWqCcvCzY.jpg","year":"2024","result":"HD","language":["Hindi"],"country":["US"],"original_language":"en","genres":["Drama","Music"],"imdb_id":"tt15507512"},{"id":"1371540","type":"movie","title":"Umjolo: The Gone Girl","poster":"https://image.tmdb.org/t/p/w342/3h6SyezeKyT7VpEHyLqckbBZuoM.jpg","year":"2024","result":"HD","language":["Hindi"],"country":["ZA"],"original_language":"zu","genres":["Romance","Drama","Comedy"],"imdb_id":"tt33812405"},{"id":"239214","type":"tv","title":"A Condition Called Love","poster":"https://image.tmdb.org/t/p/w342/aaYPPivWuebwIKQvFYuWkp9m0q5.jpg","year":"2024","result":"HD","language":["Hindi"],"country":["JP"],"original_language":"ja","genres":["Animation","Comedy","Drama"],"imdb_id":"tt29899598","latest_uploaded_season":1,"total_uploaded_episodes":12},{"id":"989662","type":"movie","title":"A Different Man","poster":"https://image.tmdb.org/t/p/w342/lZZKTEvo92u1J5pm7QoEA5yN3du.jpg","year":"2024","result":"HD","language":["Hindi"],"country":["US"],"original_language":"en","genres":["Comedy","Drama","Thriller"],"imdb_id":"tt21097228"},{"id":"1269024","type":"movie","title":"A Game in the Woods","poster":"https://image.tmdb.org/t/p/w342/5sZ9mhdnjHsCGMRXwveCogGbabE.jpg","year":"2024","result":"HD","language":["Hindi"],"country":["US"],"original_language":"en","genres":["Horror"],"imdb_id":"tt31615218"},{"id":"1083324","type":"movie","title":"A Mother's Special Love","poster":"https://image.tmdb.org/t/p/w342/4MPZenW0I0AexBbil8das6kupIW.jpg","year":"2024","result":"HD","language":["Hindi"],"country":["FR"],"original_language":"fr","genres":["Comedy","Drama"],"imdb_id":"tt26656538"},{"id":"235758","type":"tv","title":"Alya Sometimes Hides Her Feelings in Russian","poster":"https://image.tmdb.org/t/p/w342/hfnzByZIRj6rx8xaxzS2zDilei1.jpg","year":"2024","result":"HD","language":["Hindi"],"country":["JP"],"original_language":"ja","genres":["Animation","Comedy"],"imdb_id":"tt31131295","latest_uploaded_season":2,"total_uploaded_episodes":13},{"id":"1252428","type":"movie","title":"Anaconda","poster":"https://image.tmdb.org/t/p/w342/pPfsEXzfk2URkQ1OxhUShAXdxMr.jpg","year":"2024","result":"HD","language":["Hindi"],"country":["CN"],"original_language":"zh","genres":["Adventure","Horror"],"imdb_id":"tt11668530"},{"id":"1091298","type":"movie","title":"Attack of the Meth Gator","poster":"https://image.tmdb.org/t/p/w342/td0L3VZvBFPYb6hZ3WTbq0VD9q2.jpg","year":"2024","result":"HD","language":["Hindi"],"country":["US"],"original_language":"en","genres":["Horror","Science Fiction","Action"],"imdb_id":"tt26899693"},{"id":"1025463","type":"movie","title":"Bionic","poster":"https://image.tmdb.org/t/p/w342/xVCYzdBE6lo3sUFK1OMZnXvpGtT.jpg","year":"2024","result":"HD","language":["Hindi"],"country":["BR"],"original_language":"pt","genres":["Science Fiction","Action","Adventure"],"imdb_id":"tt16427902"},{"id":"1360838","type":"movie","title":"Blade of Fury","poster":"https://image.tmdb.org/t/p/w342/utyfULeHcVAwyc3uAYMDpxeTLdN.jpg","year":"2024","result":"HD","language":["Hindi"],"country":["CN"],"original_language":"zh","genres":["Action"],"imdb_id":"tt33318665"},{"id":"1104844","type":"movie","title":"BLUE LOCK THE MOVIE -EPISODE NAGI-","poster":"https://image.tmdb.org/t/p/w342/yZYZqT1f6rddhiSdjl8NVVCoZKE.jpg","year":"2024","result":"HD","language":["Hindi"],"country":["JP"],"original_language":"ja","genres":["Animation","Action","Drama"],"imdb_id":"tt28671146"},{"id":"929590","type":"movie","title":"Civil War","poster":"https://image.tmdb.org/t/p/w342/sh7Rg8Er3tFcN9BpKIPOMvALgZd.jpg","year":"2024","result":"HD","language":["Hindi"],"country":["FI","GB","US"],"original_language":"en","genres":["War","Action","Drama"],"imdb_id":"tt17279496"},{"id":"869291","type":"movie","title":"Cuckoo","poster":"https://image.tmdb.org/t/p/w342/4bGP5cnSZbfBJfIidZNSEIKnav7.jpg","year":"2024","result":"HD","language":["Hindi"],"country":["DE","US"],"original_language":"en","genres":["Horror","Mystery","Thriller"],"imdb_id":"tt12349832"},{"id":"1160923","type":"movie","title":"DarkGame","poster":"https://image.tmdb.org/t/p/w342/kaARRhlsuJGnpOGeDmIhraxmOxi.jpg","year":"2024","result":"HD","language":["Hindi"],"country":["GB"],"original_language":"en","genres":["Horror","Thriller"],"imdb_id":"tt5613018"},{"id":"206629","type":"tv","title":"Days with My Stepsister","poster":"https://image.tmdb.org/t/p/w342/vNeq9t40tzddaZls9YntaHeaVdn.jpg","year":"2024","result":"HD","language":["Hindi"],"country":["JP"],"original_language":"ja","genres":["Animation","Drama"],"imdb_id":"tt21975478","latest_uploaded_season":1,"total_uploaded_episodes":12},{"id":"1308757","type":"movie","title":"Dead Sea","poster":"https://image.tmdb.org/t/p/w342/ohisXa9ArEoV05ajLfX2T5D6NNF.jpg","year":"2024","result":"HD","language":["Hindi"],"country":["US"],"original_language":"en","genres":["Crime","Horror","Thriller"],"imdb_id":"tt11724920"},{"id":"207784","type":"tv","title":"Delicious in Dungeon","poster":"https://image.tmdb.org/t/p/w342/9t3DYdGxK3i4WRzKvIZwJd4kBnr.jpg","year":"2024","result":"HD","language":["Hindi"],"country":["JP"],"original_language":"ja","genres":["Animation","Comedy","Action & Adventure","Sci-Fi & Fantasy"],"imdb_id":"tt21621494","latest_uploaded_season":1,"total_uploaded_episodes":24},{"id":"1236769","type":"movie","title":"Dr. Sander's Sleep Cure","poster":"https://image.tmdb.org/t/p/w342/iyslMalSLEDJzOoJDafLR9rKOt4.jpg","year":"2024","result":"HD","language":["Hindi"],"country":["EE"],"original_language":"en","genres":["Fantasy","Horror"],"imdb_id":"tt30018159"},{"id":"76669","type":"tv","title":"Elite","poster":"https://image.tmdb.org/t/p/w342/3NTAbAiao4JLzFQw6YxP1YZppM8.jpg","year":"2024","result":"HD","language":["Hindi"],"country":["ES"],"original_language":"es","genres":["Crime","Mystery","Drama"],"imdb_id":"tt7134908","latest_uploaded_season":8,"total_uploaded_episodes":64},{"id":"1369679","type":"movie","title":"Get Fast","poster":"https://image.tmdb.org/t/p/w342/tDpTR7xhHu9cz1X4JAIRFwXyf6U.jpg","year":"2024","result":"HD","language":["Hindi"],"country":["CA"],"original_language":"en","genres":["Action","Crime","Thriller"],"imdb_id":"tt27357183"},{"id":"558449","type":"movie","title":"Gladiator II","poster":"https://image.tmdb.org/t/p/w342/2cxhvwyEwRlysAmRH4iodkvo0z5.jpg","year":"2024","result":"HD","language":["Hindi"],"country":["US"],"original_language":"en","genres":["Action","Adventure","Drama"],"imdb_id":"tt9218128"},{"id":"823464","type":"movie","title":"Godzilla x Kong: The New Empire","poster":"https://image.tmdb.org/t/p/w342/z1p34vh7dEOnLDmyCrlUVLuoDzd.jpg","year":"2024","result":"HD","language":["Hindi"],"country":["US"],"original_language":"en","genres":["Action","Adventure","Science Fiction"],"imdb_id":"tt14539740"},{"id":"1201262","type":"movie","title":"Grafted","poster":"https://image.tmdb.org/t/p/w342/u53wFzLoJD7om52Hjma8G27LS2h.jpg","year":"2024","result":"HD","language":["Hindi"],"country":["NZ","GB"],"original_language":"en","genres":["Horror"],"imdb_id":"tt11162260"},{"id":"736720","type":"movie","title":"Handsome Guys","poster":"https://image.tmdb.org/t/p/w342/x8QdSeTe02X8f1EcO7yk90lTGNi.jpg","year":"2024","result":"HD","language":["Hindi"],"country":["KR"],"original_language":"ko","genres":["Comedy","Horror"],"imdb_id":"tt32475217"},{"id":"1000837","type":"movie","title":"I'm Still Here","poster":"https://image.tmdb.org/t/p/w342/gZnsMbhCvhzAQlKaVpeFRHYjGyb.jpg","year":"2024","result":"HD","language":["Hindi"],"country":["BR","FR"],"original_language":"pt","genres":["Drama","History"],"imdb_id":"tt14961016"}]}