{"page":16,"total_pages":66,"total_items":3299,"items":[{"id":"1288072","type":"movie","title":"Keeper","poster":"https://image.tmdb.org/t/p/w342/mbGHijUc0C3fcM12l6ro6FgxIvg.jpg","year":"2025","result":"HD","language":["Hindi"],"country":["CA"],"original_language":"en","genres":["Horror","Mystery"],"imdb_id":"tt32332404","backdrop":"https://image.tmdb.org/t/p/original/8GjH1BU5PtoqAlhMeXQ46eq9z1D.jpg","watch":"<iframe src=\"https://bysebuho.com/e/qttj1cyst2w9/keeper-2025-720p-bluray-hin-eng-esub-vegamovies-is\" frameborder=\"0\" marginwidth=\"0\" marginheight=\"0\" scrolling=\"no\" width=\"640\" height=\"360\" allowfullscreen></iframe>"},{"id":"1287322","type":"movie","title":"Christy","poster":"https://image.tmdb.org/t/p/w342/ssy1uHGZkuXLkIWJWrtsBczPvVC.jpg","year":"2025","result":"HD","language":["Hindi"],"country":["US"],"original_language":"en","genres":["History","Drama"],"imdb_id":"tt32323252","backdrop":"https://image.tmdb.org/t/p/original/d95WgAQXqDVlqbEHdLWfyvRG2ms.jpg","watch":"<iframe src=\"https://bysebuho.com/e/wtbr5jhoi18x/christy-2025-720p-web-dl-hin-eng-esub-daniewatch-hot\" frameborder=\"0\" marginwidth=\"0\" marginheight=\"0\" scrolling=\"no\" width=\"640\" height=\"360\" allowfullscreen></iframe>"},{"id":"1286185","type":"movie","title":"The Carpenter's Son","poster":"https://image.tmdb.org/t/p/w342/tXEtdZjoaHqjDjSxZJWwDVjIfx9.jpg","year":"2025","result":"HD","language":["Hindi"],"country":["FR","US","GB","GR"],"original_language":"en","genres":["Horror"],"imdb_id":"tt32304349","backdrop":"https://image.tmdb.org/t/p/original/aP7w2JPEDyIukrYxIGHmTrmYOWJ.jpg","watch":"<iframe src=\"https://bysebuho.com/e/byzyga1coq8m/the-carpenters-son-2025\" frameborder=\"0\" marginwidth=\"0\" marginheight=\"0\" scrolling=\"no\" width=\"640\" height=\"360\" allowfullscreen></iframe>"},{"id":"1285965","type":"movie","title":"Dangerous Animals","poster":"https://image.tmdb.org/t/p/w342/9tk3Si960hg4E49eMt81dS7Qe9Z.jpg","year":"2025","result":"HD","language":["Hindi"],"country":["AU","US","CA"],"original_language":"en","genres":["Horror","Thriller"],"imdb_id":"tt32299316","backdrop":"https://image.tmdb.org/t/p/original/6bfas8v3FzZ3qpzR2RWpw4z9DT7.jpg","watch":"<iframe src=\"https://bysebuho.com/e/auhjkdf29553/Dangrous_Animals_2025_720p_WEB-DL_HIN-ENG_x264-DANIEWATCH.mkv\" width=\"640\" height=\"360\" frameborder=\"0\" allowfullscreen></iframe>"},{"id":"1282557","type":"movie","title":"Tanvi the Great","poster":"https://image.tmdb.org/t/p/w342/jytZfJtjJnw7Yn2zW52wcbPYVXQ.jpg","year":"2025","result":"HD","language":["Hindi"],"country":["IN"],"original_language":"hi","genres":["Drama"],"imdb_id":"tt31598703","backdrop":"https://image.tmdb.org/t/p/original/oxBkchNIv8xIhHya8TxdKldDwCJ.jpg","watch":"<iframe src=\"https://bysebuho.com/e/0rcgadl6kwmt/tanvi-the-great-2025-720p-hdrip-hindi-dd-2-0-daniewatch-is\" frameborder=\"0\" marginwidth=\"0\" marginheight=\"0\" scrolling=\"no\" width=\"640\" height=\"360\" allowfullscreen></iframe>"},{"id":"1281091","type":"movie","title":"Officer on Duty","poster":"https://image.tmdb.org/t/p/w342/ucwirgaK4v9ylQyDkwoXJtDIlf7.jpg","year":"2025","result":"HD","language":["Hindi"],"country":["IN"],"original_language":"ml","genres":["Crime","Thriller"],"imdb_id":"tt34388152","backdrop":"https://image.tmdb.org/t/p/original/wBuDEg4hA6dtF96Wiqx0E26HhNd.jpg","watch":"<iframe src=\"https://bysebuho.com/e/jaupol5cklvu/officer-on-duty-2025-720p-web-dl-hindi-5-1-malayalam-5-1-esub-x264-daniewatch-is\" frameborder=\"0\" marginwidth=\"0\" marginheight=\"0\" scrolling=\"no\" width=\"640\" height=\"360\" allowfullscreen></iframe>"},{"id":"1280282","type":"movie","title":"Gabby's Dollhouse: The Movie","poster":"https://image.tmdb.org/t/p/w342/t6LLguAmu6iZUN8pWhT7Q0IcaQ5.jpg","year":"2025","result":"HD","language":["Hindi"],"country":["US"],"original_language":"en","genres":["Family","Comedy","Adventure","Animation"],"imdb_id":"tt32214143","backdrop":"https://image.tmdb.org/t/p/original/MrcSSzWGsXf2IUJpjPPFLlNbjX.jpg","watch":"<iframe src=\"https://bysebuho.com/e/3lwrfnckh5r5/Gabbys_Dollhouse_The_Movie_2025_720p_WEB-DL_HIN-ENG_x264_ESub-DANIEWATCH\" frameborder=\"0\" marginwidth=\"0\" marginheight=\"0\" scrolling=\"no\" width=\"640\" height=\"360\" allowfullscreen></iframe>"},{"id":"1279947","type":"movie","title":"Sunray: Fallen Soldier","poster":"https://image.tmdb.org/t/p/w342/ghLaj5dBrdUsD4wjq3QERcisr5k.jpg","year":"2025","result":"HD","language":["Hindi"],"country":["GB"],"original_language":"en","genres":["Action","Thriller"],"imdb_id":"tt15128544","backdrop":"https://image.tmdb.org/t/p/original/qD5tjxgmCIx1At1NzxTlVp2hwHz.jpg","watch":"<iframe src=\"https://bysebuho.com/e/gq1o0ob0ucw9/Sunray_Fallen_Soldier_2024_720p_HS_WEB-DL_AAC2_0_x264-DANIEWATCH.mkv\" width=\"640\" height=\"360\" frameborder=\"0\" allowfullscreen></iframe>"},{"id":"1278950","type":"movie","title":"The Ritual","poster":"https://image.tmdb.org/t/p/w342/uubL8yvtEBjz3V7DFQHjCuSQO8w.jpg","year":"2025","result":"HD","language":["Hindi"],"country":["US"],"original_language":"en","genres":["Horror","Drama","Thriller"],"imdb_id":"tt32194932","backdrop":"https://image.tmdb.org/t/p/original/yAqL0makiGke5yYiVWpmBDSKIVP.jpg","watch":"<iframe src=\"https://bysebuho.com/e/6x2t6ncgnjj4/The_Ritual_2025_Dual_Audio__Hindi_ORG-English__BluRay_720p-DANIEWATCH.mkv\" width=\"640\" height=\"360\" frameborder=\"0\" allowfullscreen></iframe>"},{"id":"1277726","type":"movie","title":"Sundarakanda","poster":"https://image.tmdb.org/t/p/w342/40dBLbqZunJXjEkXVqIvw8OoYDM.jpg","year":"2025","result":"HD","language":["Hindi"],"country":["IN"],"original_language":"te","genres":["Romance","Comedy"],"imdb_id":"tt32161505","backdrop":"https://image.tmdb.org/t/p/original/dpbzuMANVn5LLZykzmn2EpMOuQa.jpg","watch":"<iframe src=\"https://bysebuho.com/e/unfu1lhtajri/Sundarakanda.2025.720p.WEB-DL.Hindi-Telugu.x264-DANIEWATCH.mkv\" width=\"640\" height=\"360\" frameborder=\"0\" allowfullscreen></iframe>"},{"id":"1275151","type":"movie","title":"She Walks in Darkness","poster":"https://image.tmdb.org/t/p/w342/lR7TH2IlUJWh92HuiYrlb8rNuCp.jpg","year":"2025","result":"HD","language":["Hindi"],"country":["ES"],"original_language":"es","genres":["Drama","Thriller"],"imdb_id":"tt32129665","backdrop":"https://image.tmdb.org/t/p/original/l2Fk70FTuBPDx32gTsVUrRvF8jC.jpg","watch":"<iframe src=\"https://bysebuho.com/e/gsdbh3r42lk8/She_Walks_In_Darkness_2025_720p_WEB-DL_HIN-ENG_x264_ESub-DANIEWATCH.mkv\" width=\"640\" height=\"360\" frameborder=\"0\" allowfullscreen></iframe>"},{"id":"1274225","type":"movie","title":"Bromance","poster":"https://image.tmdb.org/t/p/w342/2xzgtY0d7xbqeTWdF3tDgd5WeVM.jpg","year":"2025","result":"HD","language":["Hindi"],"country":["IN"],"original_language":"ml","genres":["Comedy","Action"],"imdb_id":"tt32135710","backdrop":"https://image.tmdb.org/t/p/original/kTx0OshQyYMMJ8EtWwV9DDKNf0R.jpg","watch":"<iframe src=\"https://bysebuho.com/e/ugfm7621zmnn/bromance-2025-dual-audio-hindi-malayalam-sonyliv-720p-daniewatch-is\" frameborder=\"0\" marginwidth=\"0\" marginheight=\"0\" scrolling=\"no\" width=\"640\" height=\"360\" allowfullscreen></iframe>"},{"id":"1273049","type":"movie","title":"Dragon","poster":"https://image.tmdb.org/t/p/w342/vKNJPuejtE6Xrp6RK6LKsQcbL8L.jpg","year":"2025","result":"HD","language":["Hindi"],"country":["IN"],"original_language":"ta","genres":["Romance","Comedy","Drama"],"imdb_id":"tt32080876","backdrop":"https://image.tmdb.org/t/p/original/8y8pxJwYEK1WvQAfoZTwC601eD8.jpg","watch":"<iframe src=\"https://bysebuho.com/e/r3a4l6jxdvea/dragon-2025-720p-web-dl-hindi-5-1-tamil-5-1-esub-x264-daniewatch-is\" frameborder=\"0\" marginwidth=\"0\" marginheight=\"0\" scrolling=\"no\" width=\"640\" height=\"360\" allowfullscreen></iframe>"},{"id":"1272166","type":"movie","title":"Ballad of a Small Player","poster":"https://image.tmdb.org/t/p/w342/yiXpXNiBWENaSJmdKfoT5DU0bL4.jpg","year":"2025","result":"HD","language":["Hindi"],"country":["DE","GB"],"original_language":"en","genres":["Crime","Drama"],"imdb_id":"tt32063098","backdrop":"https://image.tmdb.org/t/p/original/cc48kfehVAkgG73BsPcFLMoxa8h.jpg","watch":"<iframe src=\"https://bysebuho.com/e/h4hiajfn5bv2/Ballad_of_a_Small_Player_2025_720p_NF_WEB-DL_DUAL_AAC5_1_x264_DanieWatch_Hot.mkv\" width=\"640\" height=\"360\" frameborder=\"0\" allowfullscreen></iframe>"},{"id":"1272121","type":"movie","title":"Maranamass","poster":"https://image.tmdb.org/t/p/w342/erU6DGyYGEFrnE4reiGX3pytU2e.jpg","year":"2025","result":"HD","language":["Hindi"],"country":["IN"],"original_language":"ml","genres":["Comedy","Crime","Thriller"],"imdb_id":"tt32065993","backdrop":"https://image.tmdb.org/t/p/original/hzUZ7MQjLhI3ucx33gPSgV9mMW1.jpg","watch":"<iframe src=\"https://bysebuho.com/e/0gda9syztu7l/maranamass-2025-720p-hevc-ds4k-web-dl-hindi-5-1-malayalam-esub-x265-zolomovies-lol\" frameborder=\"0\" marginwidth=\"0\" marginheight=\"0\" scrolling=\"no\" width=\"640\" height=\"360\" allowfullscreen></iframe>"},{"id":"1270908","type":"movie","title":"The Pet Detective","poster":"https://image.tmdb.org/t/p/w342/ydaAO8A9pIdtLN6K3hSAGVn08rH.jpg","year":"2025","result":"HD","language":["Hindi"],"country":["IN"],"original_language":"ml","genres":["Action","Comedy"],"imdb_id":"tt33333712","backdrop":"https://image.tmdb.org/t/p/original/8FLuDc1GhtTjAGTsCERkEKyxSO2.jpg","watch":"<iframe src=\"https://bysebuho.com/e/eqngang7b6dy/The_Pet_Detective_2025_720p_WEB-DL_Hindi_DD5_1-Multi_DD5_1_x264-_DANIEWATCH_is.mkv\" frameborder=\"0\" marginwidth=\"0\" marginheight=\"0\" scrolling=\"no\" width=\"640\" height=\"360\" allowfullscreen></iframe>"},{"id":"1267319","type":"movie","title":"Mantis","poster":"https://image.tmdb.org/t/p/w342/pzsXKLJsZ26HUV1oCMa7WiFFQbW.jpg","year":"2025","result":"HD","language":["Hindi"],"country":["KR"],"original_language":"ko","genres":["Action","Crime","Thriller"],"imdb_id":"tt33312131","backdrop":"https://image.tmdb.org/t/p/original/yOFqBpJ0PEkBdQqalDEaeOiaKbz.jpg","watch":"<iframe src=\"https://bysebuho.com/e/m7952l31ksxh/Mantis_2025_720p_NF_WEB-DL_DDP5_1_x264-DANIEWATCH.mkv\" width=\"640\" height=\"360\" frameborder=\"0\" allowfullscreen></iframe>"},{"id":"1265827","type":"movie","title":"Retro","poster":"https://image.tmdb.org/t/p/w342/yGv62UIUfjrEUlItYPJXb1zU0lB.jpg","year":"2025","result":"HD","language":["Hindi"],"country":["IN"],"original_language":"ta","genres":["Romance","Action","Drama","Crime"],"imdb_id":"tt31945132","backdrop":"https://image.tmdb.org/t/p/original/rGcZhLzwOLz3OWWpYrelgP4HUIQ.jpg","watch":"<iframe src=\"https://bysebuho.com/e/nctnm0oo7qgw/retro-2025-hindi-tamil-dual-audio-uncut-south-movie-hevc-720p-esub-x265-daniewatch-is\" frameborder=\"0\" marginwidth=\"0\" marginheight=\"0\" scrolling=\"no\" width=\"640\" height=\"360\" allowfullscreen></iframe>"},{"id":"1265063","type":"movie","title":"After the Hunt","poster":"https://image.tmdb.org/t/p/w342/ryF8QPGUGlo8gRB4OYKb4J0r3aJ.jpg","year":"2025","result":"HD","language":["Hindi"],"country":["US","IT"],"original_language":"en","genres":["Drama"],"imdb_id":"tt32159989","backdrop":"https://image.tmdb.org/t/p/original/x0J0OMKwnX1eeVRQWeb2D05yd3K.jpg","watch":"<iframe src=\"https://bysebuho.com/e/hgloftzowqx7/After_the_Hunt__2025__WEB-DL720p_x264_Hindi___Eng_ESub_DANIEWATCH.mkv\" frameborder=\"0\" marginwidth=\"0\" marginheight=\"0\" scrolling=\"no\" width=\"640\" height=\"360\" allowfullscreen></iframe>"},{"id":"1263256","type":"movie","title":"Happy Gilmore 2","poster":"https://image.tmdb.org/t/p/w342/nRwDPfYUzzzUQarfMxvPlasxzpL.jpg","year":"2025","result":"HD","language":["Hindi"],"country":["US"],"original_language":"en","genres":["Comedy"],"imdb_id":"tt31868189","backdrop":"https://image.tmdb.org/t/p/original/stCEYCxA3SknIIne1H4LmaIJ8ii.jpg","watch":"<iframe src=\"https://bysebuho.com/e/fdr4maj7id4l/happy-gilmore-2-2025-720p-web-dl-hin-eng-esub-daniewatch-is\" frameborder=\"0\" marginwidth=\"0\" marginheight=\"0\" scrolling=\"no\" width=\"640\" height=\"360\" allowfullscreen></iframe>"},{"id":"1263029","type":"movie","title":"Thammudu","poster":"https://image.tmdb.org/t/p/w342/5rhjx4KLaLrZNxzsBY8j8U6Pntu.jpg","year":"2025","result":"HD","language":["Hindi"],"country":["IN"],"original_language":"te","genres":["Action","Drama"],"imdb_id":"tt27235882","backdrop":"https://image.tmdb.org/t/p/original/2m8zoc7iL1MiWP2FuPiyQvTSBtE.jpg","watch":"<iframe src=\"https://bysebuho.com/e/hf1voz138e6u/Thammudu.2025.720p.DS4K.WEB-DL.Hindi-HQ.Studio-Dub.x264-DANIEWATCH.mkv\" width=\"640\" height=\"360\" frameborder=\"0\" allowfullscreen></iframe>"},{"id":"1262815","type":"movie","title":"The Choral","poster":"https://image.tmdb.org/t/p/w342/yQtms7CSM0CE0W6dYbLLAATb5rL.jpg","year":"2025","result":"HD","language":["Hindi"],"country":["GB"],"original_language":"en","genres":["Comedy","Drama","Music"],"imdb_id":"tt31851518","backdrop":"https://image.tmdb.org/t/p/original/4zyeIE8ceP95gehaPsgqamEYRuy.jpg","watch":"<iframe src=\"https://bysebuho.com/e/ny803feg9s69/the-choral-2025\" frameborder=\"0\" marginwidth=\"0\" marginheight=\"0\" scrolling=\"no\" width=\"640\" height=\"360\" allowfullscreen></iframe>"},{"id":"1262669","type":"movie","title":"Kapkapiii","poster":"https://image.tmdb.org/t/p/w342/9m1lSId0hswbOZZozQanUVyf21D.jpg","year":"2025","result":"HD","language":["Hindi"],"country":["IN"],"original_language":"hi","genres":["Horror","Comedy"],"imdb_id":"tt29625386","backdrop":"https://image.tmdb.org/t/p/original/3SpTGHgsQUXiBGBhDXQL2BVnlIb.jpg","watch":"<iframe src=\"https://bysebuho.com/e/ntlxoacyqtwb/kapkapiii-2025-720p-web-dl-hindi-x264-daniewatch-is\" frameborder=\"0\" marginwidth=\"0\" marginheight=\"0\" scrolling=\"no\" width=\"640\" height=\"360\" allowfullscreen></iframe>"},{"id":"1262548","type":"movie","title":"Uppu Kappurambu","poster":"https://image.tmdb.org/t/p/w342/xzduT5nNgmjvfD9pJom265S9te3.jpg","year":"2025","result":"HD","language":["Hindi"],"country":["IN","US"],"original_language":"te","genres":["Comedy","Drama"],"imdb_id":"tt31850758","backdrop":"https://image.tmdb.org/t/p/original/7pYGnJm7N0TwFK2Caf4jw6Ywr78.jpg","watch":"<iframe src=\"https://bysebuho.com/e/521dgvu3m40i/uppu-kappurambu-2025-720p-amzn-web-dl-ddp5-1-h-264-daniewatch-is\" frameborder=\"0\" marginwidth=\"0\" marginheight=\"0\" scrolling=\"no\" width=\"640\" height=\"360\" allowfullscreen></iframe>"},{"id":"1261825","type":"movie","title":"Oh. What. Fun.","poster":"https://image.tmdb.org/t/p/w342/qynCyBKCJUUcj4wo4PE2aQVvote.jpg","year":"2025","result":"HD","language":["Hindi"],"country":["US"],"original_language":"en","genres":["Comedy"],"imdb_id":"tt31998881","backdrop":"https://image.tmdb.org/t/p/original/haAekI7zBtffqILr90DkviTe9fk.jpg","watch":"<iframe src=\"https://bysebuho.com/e/kysir3f6ruxg/Oh_What_Fun_2025_720p_10Bit_AMZN_WEB-DL_HIN-ENG_x265-_DANIEWATCH.mkv\" frameborder=\"0\" marginwidth=\"0\" marginheight=\"0\" scrolling=\"no\" width=\"640\" height=\"360\" allowfullscreen></iframe>"},{"id":"1261125","type":"movie","title":"Thudarum","poster":"https://image.tmdb.org/t/p/w342/uOTDBabtxHA6szYKQNQe9Y7rFlv.jpg","year":"2025","result":"HD","language":["Hindi"],"country":["IN"],"original_language":"ml","genres":["Action","Drama","Thriller"],"imdb_id":"tt31969600","backdrop":"https://image.tmdb.org/t/p/original/q6tHgBlYpesjUL9NumNoGpePaGT.jpg","watch":"<iframe src=\"https://bysebuho.com/e/hbou3eit52x8/thudarum-2025-dual-audio-hindi-malayalam-jhs-web-dl-720p-daniewatch-is\" frameborder=\"0\" marginwidth=\"0\" marginheight=\"0\" scrolling=\"no\" width=\"640\" height=\"360\" allowfullscreen></iframe>"},{"id":"1259024","type":"movie","title":"Good Bad Ugly","poster":"https://image.tmdb.org/t/p/w342/8DbYYluzdiGDAZzsaP7DWGbwfLd.jpg","year":"2025","result":"HD","language":["Hindi"],"country":["IN"],"original_language":"ta","genres":["Action","Crime","Comedy"],"imdb_id":"tt27540217","backdrop":"https://image.tmdb.org/t/p/original/5CtvMLmCdksbYqqQd812WYML2wJ.jpg","watch":"<iframe src=\"https://bysebuho.com/e/4sihm6ayml06/good-bad-ugly-2025-uncut-720p-hindi-tamil-web-dl-5-1-esub-daniewatch-is\" frameborder=\"0\" marginwidth=\"0\" marginheight=\"0\" scrolling=\"no\" width=\"640\" height=\"360\" allowfullscreen></iframe>"},{"id":"1257960","type":"movie","title":"Sikandar","poster":"https://image.tmdb.org/t/p/w342/41s42CRXafa3OuRGvCtfYPEBmse.jpg","year":"2025","result":"HD","language":["Hindi"],"country":["IN"],"original_language":"hi","genres":["Action","Drama"],"imdb_id":"tt31712434","backdrop":"https://image.tmdb.org/t/p/original/4MNRH73XmwBK2ycv3qvLpa07O5F.jpg","watch":"<iframe src=\"https://bysebuho.com/e/xyy2g1jht9pc/sikandar-2025-720p-nf-web-dl-hindi-x264-daniewatch-is\" frameborder=\"0\" marginwidth=\"0\" marginheight=\"0\" scrolling=\"no\" width=\"640\" height=\"360\" allowfullscreen></iframe>"},{"id":"1257957","type":"movie","title":"Bison Kaalamaadan","poster":"https://image.tmdb.org/t/p/w342/5IPFJ2XFbYjdIw4912ZufCMolX.jpg","year":"2025","result":"HD","language":["Hindi"],"country":["IN"],"original_language":"ta","genres":["Drama","Action"],"imdb_id":"tt15097358","backdrop":"https://image.tmdb.org/t/p/original/6xEk8ZbqCgmicmeICyYGospXU7R.jpg","watch":"<iframe src=\"https://bysebuho.com/e/ahmy7lk1g0kx/bison-kaalamaadan-2025\" frameborder=\"0\" marginwidth=\"0\" marginheight=\"0\" scrolling=\"no\" width=\"640\" height=\"360\" allowfullscreen></iframe>"},{"id":"1257693","type":"movie","title":"Odela 2","poster":"https://image.tmdb.org/t/p/w342/xG5SdRKXjWupcwXj2JJLOSX0PiS.jpg","year":"2025","result":"HD","language":["Hindi"],"country":["IN"],"original_language":"te","genres":["Thriller","Adventure","Crime"],"imdb_id":"tt31529147","backdrop":"https://image.tmdb.org/t/p/original/4D7vkNkdDnAxYkmvpRaSO9diqhq.jpg","watch":"<iframe src=\"https://bysebuho.com/e/vcdg7sg0wbnd/odela-2-2025-hindi-telugu-dual-audio-uncut-south-movie-hevc-720p-esub-x265-daniewatch-is\" frameborder=\"0\" marginwidth=\"0\" marginheight=\"0\" scrolling=\"no\" width=\"640\" height=\"360\" allowfullscreen></iframe>"},{"id":"1257009","type":"movie","title":"Primitive War","poster":"https://image.tmdb.org/t/p/w342/fZnY97zAyATRH50Q1I92fQy1hUg.jpg","year":"2025","result":"HD","language":["Hindi"],"country":["AU"],"original_language":"en","genres":["Action","Horror","War","Science Fiction"],"imdb_id":"tt18312380","backdrop":"https://image.tmdb.org/t/p/original/bWF5ImUscXXYia8owpm8coadR4m.jpg","watch":"<iframe src=\"https://bysebuho.com/e/jmspamn900at/Primitive_War__2025__WEB-DL_720p_x264_HiN-ENG_ESub_DANIEWATCH.mkv\" frameborder=\"0\" marginwidth=\"0\" marginheight=\"0\" scrolling=\"no\" width=\"640\" height=\"360\" allowfullscreen></iframe>"},{"id":"1255775","type":"movie","title":"Merv","poster":"https://image.tmdb.org/t/p/w342/nfGlYjINEcGtxV46viW4olwHHSz.jpg","year":"2025","result":"HD","language":["Hindi"],"country":["US"],"original_language":"en","genres":["Comedy","Romance"],"imdb_id":"tt31281659","backdrop":"https://image.tmdb.org/t/p/original/3MphYnIcLOqy5oVkDTZUiaGfPtN.jpg","watch":"<iframe src=\"https://bysebuho.com/e/318l1xeg8ub2/Merv_2025_720p_AMZN_WEB-DL_DUAL_x264-DANIEWATCH.mkv\" frameborder=\"0\" marginwidth=\"0\" marginheight=\"0\" scrolling=\"no\" width=\"640\" height=\"360\" allowfullscreen></iframe>"},{"id":"1254590","type":"movie","title":"Kalamkaval","poster":"https://image.tmdb.org/t/p/w342/5vdogNH72GrriiZ45H8U7CPWGfO.jpg","year":"2025","result":"HD","language":["Hindi"],"country":["IN"],"original_language":"ml","genres":["Crime","Drama"],"imdb_id":"tt33500164","backdrop":"https://image.tmdb.org/t/p/original/iF0gpj1HFRCi7VcWnJTg90ApYBW.jpg","watch":"<iframe src=\"https://bysebuho.com/e/ceuvc25rgez7/kalamkaval-2026-720p-sliv-web-dl-dual-x264-daniewatch-hot\" frameborder=\"0\" marginwidth=\"0\" marginheight=\"0\" scrolling=\"no\" width=\"640\" height=\"360\" allowfullscreen></iframe>"},{"id":"1252382","type":"movie","title":"Tyler Perry's Finding Joy","poster":"https://image.tmdb.org/t/p/w342/sUMdbrjHhMFDY327B31ctpF9MuY.jpg","year":"2025","result":"HD","language":["Hindi"],"country":["US"],"original_language":"en","genres":["Drama"],"imdb_id":"tt31193547","backdrop":"https://image.tmdb.org/t/p/original/ss8aaeGyPRmOs9l9o9lL7FvcmbQ.jpg","watch":"<iframe src=\"https://bysebuho.com/e/sq2us4vnzkz4/Tyler_Perrys_Finding_Joy_2025_720p_WEB-DL_HIN-ENG_x264_ESub-_DANIEWATCH.mkv\" width=\"640\" height=\"360\" frameborder=\"0\" allowfullscreen></iframe>"},{"id":"1252037","type":"movie","title":"The Tank","poster":"https://image.tmdb.org/t/p/w342/65Jr1JAgWlu9em8zHhAfrNJJQBt.jpg","year":"2025","result":"HD","language":["Hindi"],"country":["DE"],"original_language":"de","genres":["War","Action","Drama"],"imdb_id":"tt31495504","backdrop":"https://image.tmdb.org/t/p/original/vMxOmgmBGegjVObjlb8ugsjGgkD.jpg","watch":"<iframe src=\"https://bysebuho.com/e/efzazifkb7n8/the-tank-2025-720p-amzn-web-dl-dual-x265-hevc-daniewatch-hot\" frameborder=\"0\" marginwidth=\"0\" marginheight=\"0\" scrolling=\"no\" width=\"640\" height=\"360\" allowfullscreen></iframe>"},{"id":"1251970","type":"movie","title":"Padakkalam","poster":"https://image.tmdb.org/t/p/w342/9m4lvnqvwppA4BIoxqcWsWna5is.jpg","year":"2025","result":"HD","language":["Hindi"],"country":["IN"],"original_language":"ml","genres":["Comedy","Fantasy"],"imdb_id":"tt32919734","backdrop":"https://image.tmdb.org/t/p/original/c8hXBIgdTwPtF3PhiJayD6YHqAk.jpg","watch":"<iframe src=\"https://bysebuho.com/e/enhelavqi342/padakkalam-2025-720p-web-dl-hindi-5-1-malayalam-5-1-esub-x264-daniewatch-is\" frameborder=\"0\" marginwidth=\"0\" marginheight=\"0\" scrolling=\"no\" width=\"640\" height=\"360\" allowfullscreen></iframe>"},{"id":"1251717","type":"movie","title":"Vicious","poster":"https://image.tmdb.org/t/p/w342/shKGDGrwqmc9x2aTJcQszoXinq0.jpg","year":"2025","result":"HD","language":["Hindi"],"country":["US"],"original_language":"en","genres":["Horror","Thriller"],"imdb_id":"tt31511689","backdrop":"https://image.tmdb.org/t/p/original/da1mXvCrQrFcw6BxovCavBFbIvz.jpg","watch":"<iframe src=\"https://bysebuho.com/e/w3swu6zzszj2/Vicious_2025_720p_WEB-DL_HIN-ENG_x264_ESub-_DANIEWATCH.mkv\" width=\"640\" height=\"360\" frameborder=\"0\" allowfullscreen></iframe>"},{"id":"1251551","type":"movie","title":"Pravinkoodu Shappu","poster":"https://image.tmdb.org/t/p/w342/19RY8hiPUklE2UrjQrUiSgyVO5f.jpg","year":"2025","result":"HD","language":["Hindi"],"country":["IN"],"original_language":"ml","genres":["Thriller","Crime","Mystery"],"imdb_id":"tt32539176","backdrop":"https://image.tmdb.org/t/p/original/pRhCiMmPfapBIfHNX9YBzI3QhlQ.jpg","watch":"<iframe src=\"https://bysebuho.com/e/jve3j0seha69/pravinkoodu-shappu-2025-webrip-720p-hindi-malayalam-aac-5-1-esub-daniewatch-is\" frameborder=\"0\" marginwidth=\"0\" marginheight=\"0\" scrolling=\"no\" width=\"640\" height=\"360\" allowfullscreen></iframe>"},{"id":"1250508","type":"movie","title":"Kaantha","poster":"https://image.tmdb.org/t/p/w342/a6A0CvOMUUbQNfgkRSPqf5JMpsU.jpg","year":"2025","result":"HD","language":["Hindi"],"country":["IN"],"original_language":"ta","genres":["History","Crime","Drama"],"imdb_id":"tt28508934","backdrop":"https://image.tmdb.org/t/p/original/l6ylNrKhLberlgaLQr4VQXXc6PU.jpg","watch":"<iframe src=\"https://bysebuho.com/e/qwc6mahw33r1/Kaantha_2025_720p_NF_WEB-DL_DUAL_AAC5_1_H_264-DANIEWATCH.mkv\" frameborder=\"0\" marginwidth=\"0\" marginheight=\"0\" scrolling=\"no\" width=\"640\" height=\"360\" allowfullscreen></iframe>"},{"id":"1249926","type":"movie","title":"Ghaati","poster":"https://image.tmdb.org/t/p/w342/d0thFjveYHvUjvnAhY5fjmnp5fM.jpg","year":"2025","result":"HD","language":["Hindi"],"country":["IN"],"original_language":"te","genres":["Drama","Crime"],"imdb_id":"tt31850699","backdrop":"https://image.tmdb.org/t/p/original/yvVNnoBVR306wqE8xDSxEWkyNFq.jpg","watch":"<iframe src=\"https://bysebuho.com/e/7whpch0e6k60/Ghaati_2025_720p_WEB-DL_Hindi_5_1_Dubbed_x264-DANIEWATCH.mkv\" width=\"640\" height=\"360\" frameborder=\"0\" allowfullscreen></iframe>"},{"id":"1249289","type":"movie","title":"Alarum","poster":"https://image.tmdb.org/t/p/w342/ckyYZf5cGTSOwF8LWIRqeThyh18.jpg","year":"2025","result":"HD","language":["Hindi"],"country":["US"],"original_language":"en","genres":["Action","Crime","Thriller"],"imdb_id":"tt31456973","backdrop":"https://image.tmdb.org/t/p/original/qSOMdbZ6AOdHR999HWwVAh6ALFI.jpg","watch":"<iframe src=\"https://bysebuho.com/e/ktus1v696ssf/alarum-2025-720p-blu-ray-hindi-english-x264-daniewatch-is-2025\" frameborder=\"0\" marginwidth=\"0\" marginheight=\"0\" scrolling=\"no\" width=\"640\" height=\"360\" allowfullscreen></iframe>"},{"id":"1248454","type":"movie","title":"Sunny Sanskari Ki Tulsi Kumari","poster":"https://image.tmdb.org/t/p/w342/h3lncTnK86R8XylpXgpe0JfU1wm.jpg","year":"2025","result":"HD","language":["Hindi"],"country":["IN"],"original_language":"hi","genres":["Romance","Comedy","Family"],"imdb_id":"tt30742355","backdrop":"https://image.tmdb.org/t/p/original/jas9AaeGWZjT1qcbvuPjccnS56e.jpg","watch":"<iframe src=\"https://bysebuho.com/e/m2cda4tc8sgm/Sunny_Sanskari_ki_Tulsi_Kumari_2025_720p_NF_WEB-DL_Hindi_AAC5_1_H_264-DANIEWATCH.mkv\" frameborder=\"0\" marginwidth=\"0\" marginheight=\"0\" scrolling=\"no\" width=\"640\" height=\"360\" allowfullscreen></iframe>"},{"id":"1248226","type":"movie","title":"Playdate","poster":"https://image.tmdb.org/t/p/w342/fGodXWqJkkkbSebPIlxLSygV8GY.jpg","year":"2025","result":"HD","language":["Hindi"],"country":["US","CA"],"original_language":"en","genres":["Action","Comedy","Family"],"imdb_id":"tt31425731","backdrop":"https://image.tmdb.org/t/p/original/5lQ4euO30sDin5nCifvi0vURFNd.jpg","watch":"<iframe src=\"https://bysebuho.com/e/x69gefoku8c2/Playdate_2025_720p_WEB-DL_HIN-ENG_x264_ESub-DANIEWATCH\" frameborder=\"0\" marginwidth=\"0\" marginheight=\"0\" scrolling=\"no\" width=\"640\" height=\"360\" allowfullscreen></iframe>"},{"id":"1247528","type":"movie","title":"Ariella","poster":"https://image.tmdb.org/t/p/w342/cksGoj9rd20rH9I43hNd77pWlYR.jpg","year":"2025","result":"HD","language":["Hindi"],"country":["GB"],"original_language":"en","genres":["Drama"],"imdb_id":"tt28131866","backdrop":"https://image.tmdb.org/t/p/original/167xIvJFsuyCviFAllwhsakUtIf.jpg","watch":"<iframe src=\"https://bysebuho.com/e/1wevrewzfl40/Ariella_2025_720p_WEB-Rip_Hindi_Dubbed_x264-DANIEWATCH\" frameborder=\"0\" marginwidth=\"0\" marginheight=\"0\" scrolling=\"no\" width=\"640\" height=\"360\" allowfullscreen></iframe>"},{"id":"1246049","type":"movie","title":"Dracula","poster":"https://image.tmdb.org/t/p/w342/ykyRfv7JDofLxXLAwtLXaSuaFfM.jpg","year":"2025","result":"HD","language":["Hindi"],"country":["FR"],"original_language":"fr","genres":["Horror","Fantasy","Romance"],"imdb_id":"tt31434030","backdrop":"https://image.tmdb.org/t/p/original/8jYyd9mGx5O28FX2OvfcqZfs5tB.jpg","watch":"<iframe src=\"https://bysebuho.com/e/khzosqlm1o8e/Dracula_A_Love_Tale__2025__Dual_Audio__Hindi_ORG-English__Amazon_720p_-_DANIEWATCH_is.mkv\" frameborder=\"0\" marginwidth=\"0\" marginheight=\"0\" scrolling=\"no\" width=\"640\" height=\"360\" allowfullscreen></iframe>"},{"id":"1245993","type":"movie","title":"Caught Stealing","poster":"https://image.tmdb.org/t/p/w342/cvda8s5J8YaHjTyEyXQpvD6f3iV.jpg","year":"2025","result":"HD","language":["Hindi"],"country":["US"],"original_language":"en","genres":["Crime","Thriller","Comedy"],"imdb_id":"tt1493274","backdrop":"https://image.tmdb.org/t/p/original/41043LV7mfluH8iXEUPVseCDAv5.jpg","watch":"<iframe src=\"https://bysebuho.com/e/oki3qxak8l6n/Caught_Stealing_2025_720p_10bit_BluRay_HIN-ENG_x265_ESub-DANIEWATCH\" frameborder=\"0\" marginwidth=\"0\" marginheight=\"0\" scrolling=\"no\" width=\"640\" height=\"360\" allowfullscreen></iframe>"},{"id":"1245571","type":"movie","title":"Alappuzha Gymkhana","poster":"https://image.tmdb.org/t/p/w342/q4OwzcY6r2L1M1S6uYzmtzjwAqX.jpg","year":"2025","result":"HD","language":["Hindi"],"country":["IN"],"original_language":"ml","genres":["Action","Drama","Comedy"],"imdb_id":"tt29884526","backdrop":"https://image.tmdb.org/t/p/original/gndCUsT53TIykPAG393UqgjU69T.jpg","watch":"<iframe src=\"https://bysebuho.com/e/l9f6qzwb6ok2/alappuzha-gymkhana-2025-hindi-tam-kan-sliv-web-dl-720p-hevc-x265-daniewatch-is\" frameborder=\"0\" marginwidth=\"0\" marginheight=\"0\" scrolling=\"no\" width=\"640\" height=\"360\" allowfullscreen></iframe>"},{"id":"1245347","type":"movie","title":"Twinless","poster":"https://image.tmdb.org/t/p/w342/9vaw9Az5tPLMjNLj426KgKsp0k8.jpg","year":"2025","result":"HD","language":["Hindi"],"country":["US"],"original_language":"en","genres":["Comedy","Drama"],"imdb_id":"tt31322753","backdrop":"https://image.tmdb.org/t/p/original/fnvTC96lA7pf8ZlMKI2FgBZ86AP.jpg","watch":"<iframe src=\"https://bysebuho.com/e/c8lwdj2dxm8c/Twinless_2025_720p_AMZN_WEB-DL_DUAL_x264-DANIEWATCH.mkv\" frameborder=\"0\" marginwidth=\"0\" marginheight=\"0\" scrolling=\"no\" width=\"640\" height=\"360\" allowfullscreen></iframe>"},{"id":"1244953","type":"movie","title":"Trust","poster":"https://image.tmdb.org/t/p/w342/n9GS1mUAVMiC3gBn9rb8jrDoK4D.jpg","year":"2025","result":"HD","language":["Hindi"],"country":["US"],"original_language":"en","genres":["Thriller"],"imdb_id":"tt31314745","backdrop":"https://image.tmdb.org/t/p/original/aJgTPBIkB5rovcF9FjUMl05W10D.jpg","watch":"<iframe src=\"https://bysebuho.com/e/qem90tn2bjoo/Trust.2025.720p.AMZN.WEB-DL.Hindi.AAC5.1-English.DDP5.1.ESub.x264-DANIEWATCH.mkv\" width=\"640\" height=\"360\" frameborder=\"0\" allowfullscreen></iframe>"},{"id":"1244944","type":"movie","title":"The Woman in the Yard","poster":"https://image.tmdb.org/t/p/w342/n0WS2TsNcS6dtaZKzxipyO7LuCJ.jpg","year":"2025","result":"HD","language":["Hindi"],"country":["US"],"original_language":"en","genres":["Horror","Mystery"],"imdb_id":"tt31314296","backdrop":"https://image.tmdb.org/t/p/original/3lEV4CoKoeT2cZ4fbKEJugZcw6Z.jpg","watch":"<iframe src=\"https://bysebuho.com/e/r1emk7spsodh/The_Woman_in_the_Yard_2025_720p_BluRay_x264__Hindi___English__ESub-_DANIEWATCH.mkv\" width=\"640\" height=\"360\" frameborder=\"0\" allowfullscreen></iframe>"}]}