{"page":5,"total_pages":67,"total_items":3303,"items":[{"id":"1584215","type":"movie","title":"The Internship","poster":"https://image.tmdb.org/t/p/w342/fYqSOkix4rbDiZW0ACNnvZCpT6X.jpg","year":"2026","result":"HD","language":["Hindi"],"country":["US"],"original_language":"en","genres":["Action"],"imdb_id":"tt38238651"},{"id":"1573913","type":"movie","title":"Hejjaru","poster":"https://i.ibb.co/Y7rPxK4x/Gemini-Generated-Image-57k7di57k7di57k7-1.png","year":"2026","result":"HD","language":["Hindi"],"country":[],"original_language":"en","genres":[],"imdb_id":"tt27996583"},{"id":"1570282","type":"movie","title":"This Is I","poster":"https://image.tmdb.org/t/p/w342/3aMYB238ZU2GPjP7YAvcIzPjQaN.jpg","year":"2026","result":"HD","language":["Hindi"],"country":["JP"],"original_language":"ja","genres":["Drama","Music"],"imdb_id":"tt39196792"},{"id":"1569202","type":"movie","title":"Dirty Entertainers: The Business of Indian Erotica","poster":"https://i.ibb.co/67XS8GKv/Screenshot-2026-02-03-125234.png","year":"2026","result":"HD","language":["Hindi"],"country":[],"original_language":"en","genres":[],"imdb_id":"tt38638837"},{"id":"1568964","type":"movie","title":"Human Cocaine","poster":"https://image.tmdb.org/t/p/w342/5u4PzItZ835kr7PyT6yuR5gI9p0.jpg","year":"2026","result":"HD","language":["Hindi"],"country":["IN"],"original_language":"hi","genres":["Action","Crime","Thriller"],"imdb_id":"tt38783003"},{"id":"1566095","type":"movie","title":"Hotspot 2 Much","poster":"https://image.tmdb.org/t/p/w342/hyjPxlIfljrzdQes1XAABfYvOsj.jpg","year":"2026","result":"HD","language":["Hindi"],"country":["IN"],"original_language":"ta","genres":["Comedy","Romance","Drama"],"imdb_id":"tt33088887"},{"id":"1562758","type":"movie","title":"Vanchana","poster":"https://image.tmdb.org/t/p/original/iL7ubLKPPs0Gq1k2Fqwz2R541uG.jpg","year":"2026","result":"HD","language":["Hindi"],"country":[],"original_language":"te","genres":["Crime","Thriller","Drama"],"imdb_id":"tt34388850"},{"id":"1561758","type":"movie","title":"It Takes a Village","poster":"https://image.tmdb.org/t/p/w342/znUVVJh0WSCHAhiJ6Att5qhmAzG.jpg","year":"2026","result":"HD","language":["Hindi"],"country":["PL"],"original_language":"pl","genres":["Romance","Comedy"],"imdb_id":"tt38681815"},{"id":"1561687","type":"movie","title":"Made in Korea","poster":"https://image.tmdb.org/t/p/w342/foEObhyAMM3dxYeBEr242EdQDB7.jpg","year":"2026","result":"HD","language":["Hindi"],"country":["IN"],"original_language":"ta","genres":["Drama"],"imdb_id":"tt38674977"},{"id":"1552952","type":"movie","title":"Jockey","poster":"https://image.tmdb.org/t/p/w342/69zi48P9NIwPq7qdssxQ8qqbBNG.jpg","year":"2026","result":"HD","language":["Hindi"],"country":["IN"],"original_language":"ta","genres":["Action"],"imdb_id":"tt39122441"},{"id":"1542352","type":"movie","title":"Youth","poster":"https://image.tmdb.org/t/p/w342/rNzk0jlGRPnvZ26On5xhTmLaQhO.jpg","year":"2026","result":"HD","language":["Hindi"],"country":["IN"],"original_language":"ta","genres":["Comedy","Romance","Drama"],"imdb_id":"tt38693888"},{"id":"1539798","type":"movie","title":"Yeh Hai Mera Watan","poster":"https://i.ibb.co/4wsHh1Tb/Gemini-Generated-Image-qwq79dqwq79dqwq7-2.png","year":"2026","result":"HD","language":["Hindi"],"country":[],"original_language":"en","genres":[],"imdb_id":"tt37895069"},{"id":"1527981","type":"movie","title":"Dr. Hedgewar","poster":"https://i.ibb.co/DfLjndT9/Gemini-Generated-Image-uwkl63uwkl63uwkl-1.png","year":"2026","result":"HD","language":["Hindi"],"country":[],"original_language":"en","genres":[],"imdb_id":"tt35304503"},{"id":"1508564","type":"movie","title":"With Love","poster":"https://image.tmdb.org/t/p/w342/84rCbRiY7cXwDO8lAXp5MIxuok5.jpg","year":"2026","result":"HD","language":["Hindi"],"country":["IN"],"original_language":"ta","genres":["Romance","Comedy"],"imdb_id":"tt38123566"},{"id":"1492341","type":"movie","title":"Noah Kahan: Out of Body","poster":"https://image.tmdb.org/t/p/w342/8VtZAonOgK8hae7FwOZCSg7XmCu.jpg","year":"2026","result":"HD","language":["Hindi"],"country":["US"],"original_language":"en","genres":["Documentary","Music"],"imdb_id":"tt37172278"},{"id":"1482168","type":"movie","title":"The Rise of the Red Hot Chili Peppers: Our Brother, Hillel","poster":"https://image.tmdb.org/t/p/w342/y9hHoO3eB7l3ZjYUZoJUJpZW22V.jpg","year":"2026","result":"HD","language":["Hindi"],"country":["US"],"original_language":"en","genres":["Documentary","Music"],"imdb_id":"tt36971084"},{"id":"1469458","type":"movie","title":"Sambhavam Adhyayam Onnu","poster":"https://image.tmdb.org/t/p/w342/tBNSo4T0R8UztkkpjYkzXI4bFAT.jpg","year":"2026","result":"HD","language":["Hindi"],"country":["IN"],"original_language":"ml","genres":["Fantasy","Thriller","Drama"],"imdb_id":"tt36628923"},{"id":"1461274","type":"movie","title":"Charak: Fair of Faith","poster":"https://image.tmdb.org/t/p/w342/zavEC8ywCrM3mgvYzttHdkOzOgs.jpg","year":"2026","result":"CAM","language":["Hindi"],"country":["IN"],"original_language":"hi","genres":["Drama","Thriller"],"imdb_id":"tt32176397"},{"id":"1457939","type":"movie","title":"Rahu Ketu","poster":"https://image.tmdb.org/t/p/w342/zjgWWOIsEqYNSa1fGRr82mBo3gv.jpg","year":"2026","result":"HD","language":["Hindi"],"country":["IN"],"original_language":"hi","genres":["Adventure","Comedy","Fantasy"],"imdb_id":"tt36410586"},{"id":"1446616","type":"movie","title":"Tu Yaa Main","poster":"https://image.tmdb.org/t/p/w342/nUPnA0I1MTaZRVCsUQc5DS5JA8W.jpg","year":"2026","result":"HD","language":["Hindi"],"country":["IN"],"original_language":"hi","genres":["Thriller","Romance"],"imdb_id":"tt36118360"},{"id":"1441149","type":"movie","title":"Vishnu Vinyasam","poster":"https://image.tmdb.org/t/p/w342/5ACLnlafSgtE8mlylhnWLLHfoZJ.jpg","year":"2026","result":"HD","language":["Hindi"],"country":["IN"],"original_language":"te","genres":["Romance","Comedy"],"imdb_id":"tt39195804"},{"id":"1440049","type":"movie","title":"Preschool","poster":"https://image.tmdb.org/t/p/w342/o6JYj1sZDdLgKb6GW39AfGfrGhw.jpg","year":"2026","result":"HD","language":["Hindi"],"country":["US","GB"],"original_language":"en","genres":["Comedy"],"imdb_id":"tt34890320"},{"id":"1439713","type":"movie","title":"Mana ShankaraVaraPrasad Garu","poster":"https://image.tmdb.org/t/p/w342/sfj6SLSzbzHN2633HcqabHFJz5y.jpg","year":"2026","result":"HD","language":["Hindi"],"country":["IN"],"original_language":"te","genres":["Action","Comedy","Mystery"],"imdb_id":"tt28629017"},{"id":"1439594","type":"movie","title":"Chatha Pacha: The Ring of Rowdies","poster":"https://image.tmdb.org/t/p/w342/a41fqMDWRcZcDqidGcq10xmRoh.jpg","year":"2026","result":"HD","language":["Hindi"],"country":["IN"],"original_language":"ml","genres":["Action","Drama"],"imdb_id":"tt36472392"},{"id":"1435606","type":"movie","title":"Assi","poster":"https://image.tmdb.org/t/p/w342/wBs2SZKKaYZJDmq01maIjdZwUT0.jpg","year":"2026","result":"HD","language":["Hindi"],"country":["IN"],"original_language":"hi","genres":["Crime","Drama","Thriller"],"imdb_id":"tt39392533"},{"id":"1433842","type":"movie","title":"Relationship Goals","poster":"https://image.tmdb.org/t/p/w342/o7dVxvZIKnAB7k1eeeWp2k14Es7.jpg","year":"2026","result":"HD","language":["Hindi"],"country":["US"],"original_language":"en","genres":["Romance","Comedy"],"imdb_id":"tt35718349"},{"id":"1428862","type":"movie","title":"Firebreak","poster":"https://image.tmdb.org/t/p/w342/knh3c8LzL9fMhjc5SZPAOotXyiy.jpg","year":"2026","result":"HD","language":["Hindi"],"country":["ES"],"original_language":"es","genres":["Thriller","Drama"],"imdb_id":"tt33474179"},{"id":"1428294","type":"movie","title":"Mrithyunjay","poster":"https://image.tmdb.org/t/p/w342/ugmlp0nM1CUHlnobFKO93aRbOu0.jpg","year":"2026","result":"HD","language":["Hindi"],"country":["IN"],"original_language":"te","genres":["Thriller","Crime","Action"],"imdb_id":"tt32161542"},{"id":"1427822","type":"movie","title":"Valathu Vashathe Kallan","poster":"https://image.tmdb.org/t/p/w342/ko4cEKcBHcCNbGok2YxnlD4u16N.jpg","year":"2026","result":"HD","language":["Hindi"],"country":["IN"],"original_language":"ml","genres":["Crime","Thriller","Drama"],"imdb_id":"tt37049996"},{"id":"1427157","type":"movie","title":"My Lord","poster":"https://image.tmdb.org/t/p/w342/4KeSDSdO327dOYcjbkeQPJ9c73I.jpg","year":"2026","result":"HD","language":["Hindi"],"country":["IN"],"original_language":"ta","genres":["Drama","Thriller"],"imdb_id":"tt32864368"},{"id":"1417849","type":"movie","title":"Naari Naari Naduma Murari","poster":"https://image.tmdb.org/t/p/w342/jFBu7tS0mlEZwYTkjJcKH48bV4m.jpg","year":"2026","result":"HD","language":["Hindi"],"country":["IN"],"original_language":"te","genres":["Romance","Drama","Comedy"],"imdb_id":"tt29638896"},{"id":"1416391","type":"movie","title":"Toaster","poster":"https://image.tmdb.org/t/p/w342/cbYyWHc1dL1bfwEJbaMYDYKgWG2.jpg","year":"2026","result":"HD","language":["Hindi"],"country":["IN"],"original_language":"hi","genres":["Comedy","Crime","Action"],"imdb_id":"tt34498610"},{"id":"1412598","type":"movie","title":"Killer Whale","poster":"https://image.tmdb.org/t/p/w342/xC6zdIoIHjhOIFmjNyGgtzhuhiF.jpg","year":"2026","result":"HD","language":["Hindi"],"country":["AU","US","GB"],"original_language":"en","genres":["Thriller","Horror","Action","Mystery","Science Fiction"],"imdb_id":"tt33479805"},{"id":"1407432","type":"movie","title":"Anaganaga Oka Raju","poster":"https://image.tmdb.org/t/p/w342/1EMPFJPNA0srjlWrudxjDqdlFFq.jpg","year":"2026","result":"HD","language":["Hindi"],"country":["IN"],"original_language":"te","genres":["Comedy","Romance"],"imdb_id":"tt15427952"},{"id":"1403737","type":"movie","title":"Funky","poster":"https://image.tmdb.org/t/p/w342/iICU2CBNat7q9tm88SzrUFwR1hA.jpg","year":"2026","result":"HD","language":["Hindi"],"country":["IN"],"original_language":"te","genres":["Comedy","Romance","Drama"],"imdb_id":"tt33083471"},{"id":"1390575","type":"movie","title":"Nukkad Naatak","poster":"https://image.tmdb.org/t/p/w342/ouT4jOENHVyQ1tvrVK78CP9CBoq.jpg","year":"2026","result":"HD","language":["Hindi"],"country":["IN"],"original_language":"hi","genres":["Drama"],"imdb_id":"tt28769460"},{"id":"1389149","type":"movie","title":"Accused","poster":"https://image.tmdb.org/t/p/w342/e0YNWPVJBs9wUkcB6a1kCMF4LO7.jpg","year":"2026","result":"HD","language":["Hindi"],"country":["IN"],"original_language":"hi","genres":["Thriller","Mystery","Drama"],"imdb_id":"tt39631179"},{"id":"1373198","type":"movie","title":"Twisted","poster":"https://image.tmdb.org/t/p/w342/rF6txsM6cgF9vg6Ra5sNbkvUwrw.jpg","year":"2026","result":"HD","language":["Hindi"],"country":["US"],"original_language":"en","genres":["Horror","Thriller"],"imdb_id":"tt14201728"},{"id":"1367642","type":"movie","title":"Reminders of Him","poster":"https://image.tmdb.org/t/p/w342/7L6rceYgzQ0NeHD7PRDNrRoQ291.jpg","year":"2026","result":"HD","language":["Hindi"],"country":["US"],"original_language":"en","genres":["Romance","Drama"],"imdb_id":"tt33714084"},{"id":"1340110","type":"movie","title":"Redux Redux","poster":"https://image.tmdb.org/t/p/w342/rHstdDcn1Kh6xAwilZL8CyMtZV7.jpg","year":"2026","result":"HD","language":["Hindi"],"country":["US"],"original_language":"en","genres":["Science Fiction","Mystery","Thriller"],"imdb_id":"tt33295741"},{"id":"1339876","type":"movie","title":"Mardaani 3","poster":"https://image.tmdb.org/t/p/w342/dHxLBtHw4InwsVumnthupZYz6NM.jpg","year":"2026","result":"HD","language":["Hindi"],"country":["IN"],"original_language":"hi","genres":["Action","Crime","Thriller"],"imdb_id":"tt27673536"},{"id":"1335092","type":"movie","title":"Sampradayaini Suppini Suddapusaani","poster":"https://image.tmdb.org/t/p/w342/5NaXPthSsxJHo5Br0IIiLYz0z3w.jpg","year":"2026","result":"HD","language":["Hindi"],"country":["IN"],"original_language":"te","genres":["Comedy","Drama"],"imdb_id":"tt33183872"},{"id":"1327819","type":"movie","title":"Hoppers","poster":"https://image.tmdb.org/t/p/w342/xjtWQ2CL1mpmMNwuU5HeS4Iuwuu.jpg","year":"2026","result":"HD","language":["Hindi"],"country":["US"],"original_language":"en","genres":["Animation","Family","Science Fiction","Comedy","Adventure"],"imdb_id":"tt26443616"},{"id":"1327690","type":"movie","title":"One Mile: Chapter Two","poster":"https://image.tmdb.org/t/p/w342/3sjc9qXXmQoUWKQ3qIjS1nZaUJy.jpg","year":"2026","result":"HD","language":["Hindi"],"country":["US","CA"],"original_language":"en","genres":["Action","Crime"],"imdb_id":"tt24326462"},{"id":"1324842","type":"movie","title":"Lucky the Superstar","poster":"https://image.tmdb.org/t/p/w342/fb5ao0wON2Dq3atOy3rikyL8IsP.jpg","year":"2026","result":"HD","language":["Hindi"],"country":["IN"],"original_language":"ta","genres":["Drama","Comedy"],"imdb_id":"tt39182425"},{"id":"1317672","type":"movie","title":"Love Me Love Me","poster":"https://image.tmdb.org/t/p/w342/jfwHKRHRE2X4NTexdzblaioHH51.jpg","year":"2026","result":"HD","language":["Hindi"],"country":["IT","US"],"original_language":"en","genres":["Romance","Drama"],"imdb_id":"tt36331860"},{"id":"1315303","type":"movie","title":"Primate","poster":"https://image.tmdb.org/t/p/w342/rKleYiEj4pFqxedTRWfujLooi84.jpg","year":"2026","result":"HD","language":["Hindi"],"country":["US"],"original_language":"en","genres":["Horror","Thriller"],"imdb_id":"tt33028778"},{"id":"1314786","type":"movie","title":"Agent Zeta","poster":"https://image.tmdb.org/t/p/w342/1cKLG9KMoCjsgFB8Nw1EuglteVi.jpg","year":"2026","result":"HD","language":["Hindi"],"country":["ES"],"original_language":"es","genres":["Drama","Thriller"],"imdb_id":"tt32880540"},{"id":"1309083","type":"movie","title":"Dolly","poster":"https://image.tmdb.org/t/p/w342/sTPUg3XtdcKRAS5Vwsi1GYPFhNZ.jpg","year":"2026","result":"HD","language":["Hindi"],"country":["US"],"original_language":"en","genres":["Horror"],"imdb_id":"tt32639175"},{"id":"1306368","type":"movie","title":"The Rip","poster":"https://image.tmdb.org/t/p/w342/eZo31Dhl5BQ6GfbMNf3oU0tUvPZ.jpg","year":"2026","result":"HD","language":["Hindi"],"country":["US"],"original_language":"en","genres":["Action","Thriller","Crime"],"imdb_id":"tt32642706"}]}