{"page":57,"total_pages":67,"total_items":3303,"items":[{"id":"517909","type":"movie","title":"The Laundromat","poster":"https://image.tmdb.org/t/p/w342/hwNMJgbiUUvPCxsnADjbV9ysM5j.jpg","year":"2019","result":"HD","language":["Hindi"],"country":["US"],"original_language":"en","genres":["Crime","Drama","Comedy"],"imdb_id":"tt5865326"},{"id":"512196","type":"movie","title":"Happy Death Day 2U","poster":"https://image.tmdb.org/t/p/w342/4tdnePOkOOzwuGPEOAHp8UA4vqx.jpg","year":"2019","result":"HD","language":["Hindi"],"country":["US","JP"],"original_language":"en","genres":["Comedy","Horror","Science Fiction"],"imdb_id":"tt8155288"},{"id":"504949","type":"movie","title":"The King","poster":"https://image.tmdb.org/t/p/w342/8u0QBGUbZcBW59VEAdmeFl9g98N.jpg","year":"2019","result":"HD","language":["Hindi"],"country":["AU","US"],"original_language":"en","genres":["Drama","History","War"],"imdb_id":"tt7984766"},{"id":"502416","type":"movie","title":"Ma","poster":"https://image.tmdb.org/t/p/w342/6n7ASmQ1wY2cxTubFFGlcvPpyk7.jpg","year":"2019","result":"HD","language":["Hindi"],"country":["US"],"original_language":"en","genres":["Horror","Thriller"],"imdb_id":"tt7958736"},{"id":"496243","type":"movie","title":"Parasite","poster":"https://image.tmdb.org/t/p/w342/7IiTTgloJzvGI1TAYymCfbfl3vT.jpg","year":"2019","result":"HD","language":["Hindi"],"country":["KR"],"original_language":"ko","genres":["Comedy","Thriller","Drama"],"imdb_id":"tt6751668"},{"id":"474350","type":"movie","title":"It Chapter Two","poster":"https://image.tmdb.org/t/p/w342/zfE0R94v1E8cuKAerbskfD3VfUt.jpg","year":"2019","result":"HD","language":["Hindi"],"country":["US"],"original_language":"en","genres":["Horror","Thriller","Drama"],"imdb_id":"tt7349950"},{"id":"431580","type":"movie","title":"Abominable","poster":"https://image.tmdb.org/t/p/w342/20djTLqppfBx5WYA67Y300S6aPD.jpg","year":"2019","result":"HD","language":["Hindi"],"country":["CN","US"],"original_language":"en","genres":["Family","Animation","Adventure","Comedy","Fantasy"],"imdb_id":"tt6324278"},{"id":"420818","type":"movie","title":"The Lion King","poster":"https://image.tmdb.org/t/p/w342/dzBtMocZuJbjLOXvrl4zGYigDzh.jpg","year":"2019","result":"HD","language":["Hindi"],"country":["US"],"original_language":"en","genres":["Adventure","Drama","Family","Animation"],"imdb_id":"tt6105098"},{"id":"399579","type":"movie","title":"Alita: Battle Angel","poster":"https://image.tmdb.org/t/p/w342/xRWht48C2V8XNfzvPehyClOvDni.jpg","year":"2019","result":"HD","language":["Hindi"],"country":["US"],"original_language":"en","genres":["Action","Science Fiction","Adventure"],"imdb_id":"tt0437086"},{"id":"299537","type":"movie","title":"Captain Marvel","poster":"https://image.tmdb.org/t/p/w342/AtsgWhDnHTq68L0lLsUrCnM7TjG.jpg","year":"2019","result":"HD","language":["Hindi"],"country":["US"],"original_language":"en","genres":["Action","Adventure","Science Fiction"],"imdb_id":"tt4154664"},{"id":"138031","type":"tv","title":"Love as You Taste","poster":"https://image.tmdb.org/t/p/w342/rJtx6qze00ypJCLJpM08QakP4VK.jpg","year":"2019","result":"HD","language":["Hindi"],"country":["KR"],"original_language":"ko","genres":[],"imdb_id":"tt15740698","latest_uploaded_season":1,"total_uploaded_episodes":10},{"id":"99351","type":"tv","title":"Kaale Dhande","poster":"https://image.tmdb.org/t/p/w342/b5ydl4JaKNAVdfswAl1kEBnutkj.jpg","year":"2019","result":"HD","language":["Hindi"],"country":[],"original_language":"hi","genres":["Comedy"],"imdb_id":"tt11192308","latest_uploaded_season":1,"total_uploaded_episodes":2},{"id":"95842","type":"tv","title":"Joy of Life","poster":"https://image.tmdb.org/t/p/w342/7NXlOAFSUPBujmWbnUmqnwNZQhO.jpg","year":"2019","result":"HD","language":["Hindi"],"country":["CN"],"original_language":"zh","genres":["Drama","Comedy"],"imdb_id":"tt11273352","latest_uploaded_season":3,"total_uploaded_episodes":83},{"id":"95686","type":"tv","title":"Love is Fate","poster":"https://image.tmdb.org/t/p/w342/lgNnSY78qkwdsNDuXUJWoiHlDte.jpg","year":"2019","result":"HD","language":["Hindi"],"country":["CN"],"original_language":"zh","genres":["Drama"],"imdb_id":"","latest_uploaded_season":1,"total_uploaded_episodes":48},{"id":"94891","type":"tv","title":"Bhram","poster":"https://image.tmdb.org/t/p/w342/36rrCE1dHxrPP9KBJvzIRV6TrvA.jpg","year":"2019","result":"HD","language":["Hindi"],"country":["IN"],"original_language":"hi","genres":["Mystery"],"imdb_id":"tt10845722","latest_uploaded_season":1,"total_uploaded_episodes":8},{"id":"94615","type":"tv","title":"Catch The Ghost","poster":"https://image.tmdb.org/t/p/w342/7CbhB19d9PlcxAW8YRzKSDBK1RG.jpg","year":"2019","result":"HD","language":["Hindi"],"country":["KR"],"original_language":"ko","genres":["Comedy","Crime","Mystery"],"imdb_id":"tt10712926","latest_uploaded_season":1,"total_uploaded_episodes":16},{"id":"92911","type":"tv","title":"Melting Me Softly","poster":"https://image.tmdb.org/t/p/w342/tci1NuarDuRJqCVKYzsX4FVUL91.jpg","year":"2019","result":"HD","language":["Hindi"],"country":["KR"],"original_language":"ko","genres":["Mystery","Comedy","Sci-Fi & Fantasy"],"imdb_id":"tt10656392","latest_uploaded_season":1,"total_uploaded_episodes":16},{"id":"92732","type":"tv","title":"Flower Crew: Joseon Marriage Agency","poster":"https://image.tmdb.org/t/p/w342/aLGLRySmfI8Us6IFOfziT1cQeJF.jpg","year":"2019","result":"HD","language":["Hindi"],"country":["KR"],"original_language":"ko","genres":["Comedy","Drama"],"imdb_id":"tt10614024","latest_uploaded_season":1,"total_uploaded_episodes":16},{"id":"91284","type":"tv","title":"Coffee & Vanilla","poster":"https://image.tmdb.org/t/p/w342/ofzfbEVT7ayFjoWU31kRPMgeomK.jpg","year":"2019","result":"HD","language":["Hindi"],"country":["JP"],"original_language":"ja","genres":["Drama"],"imdb_id":"tt10495314","latest_uploaded_season":1,"total_uploaded_episodes":10},{"id":"91026","type":"tv","title":"After School Dice Club","poster":"https://image.tmdb.org/t/p/w342/nHVmPRqjGxMi4RNlwgflXA8mvev.jpg","year":"2019","result":"HD","language":["Hindi"],"country":["JP"],"original_language":"ja","genres":["Animation","Comedy"],"imdb_id":"tt11033944","latest_uploaded_season":1,"total_uploaded_episodes":12},{"id":"90706","type":"tv","title":"Doctor John","poster":"https://image.tmdb.org/t/p/w342/2EtZ91FzsFRe3FFtAr29ESgW9QK.jpg","year":"2019","result":"HD","language":["Hindi"],"country":["KR"],"original_language":"ko","genres":["Drama"],"imdb_id":"tt10544464","latest_uploaded_season":1,"total_uploaded_episodes":16},{"id":"90335","type":"tv","title":"Doctor Detective","poster":"https://image.tmdb.org/t/p/w342/693tpPhfqQhlqfw77nQmz9t3299.jpg","year":"2019","result":"HD","language":["Hindi"],"country":["KR"],"original_language":"ko","genres":["Drama","Mystery"],"imdb_id":"tt10473780","latest_uploaded_season":1,"total_uploaded_episodes":32},{"id":"90245","type":"tv","title":"The Lost Tomb 2: Explore with the Note","poster":"https://image.tmdb.org/t/p/w342/m8O09RiqIrIbKwzj4cbmXyASPBb.jpg","year":"2019","result":"HD","language":["Hindi"],"country":["CN"],"original_language":"zh","genres":["Drama","Action & Adventure"],"imdb_id":"tt10433136","latest_uploaded_season":1,"total_uploaded_episodes":24},{"id":"87185","type":"tv","title":"Kill It","poster":"https://image.tmdb.org/t/p/w342/lxTNyRhEUBK6r3o3ZJakcSsvO2b.jpg","year":"2019","result":"HD","language":["Hindi"],"country":["KR"],"original_language":"ko","genres":["Drama","Action & Adventure","Crime","Mystery"],"imdb_id":"tt9772814","latest_uploaded_season":1,"total_uploaded_episodes":12},{"id":"87108","type":"tv","title":"Chernobyl","poster":"https://image.tmdb.org/t/p/w342/hlLXt2tOPT6RRnjiUmoxyG1LTFi.jpg","year":"2019","result":"HD","language":["Hindi"],"country":["US"],"original_language":"en","genres":["Drama"],"imdb_id":"tt7366338","latest_uploaded_season":1,"total_uploaded_episodes":5},{"id":"85404","type":"tv","title":"Touch Your Heart","poster":"https://image.tmdb.org/t/p/w342/kVFflfTOFqFBh34jcVRI1QCWSre.jpg","year":"2019","result":"HD","language":["Hindi"],"country":["KR"],"original_language":"ko","genres":["Comedy","Drama"],"imdb_id":"tt9466990","latest_uploaded_season":1,"total_uploaded_episodes":16},{"id":"82817","type":"tv","title":"Go Go Squid!","poster":"https://image.tmdb.org/t/p/w342/xWnuIoWFejrYJXeEyJYUH4ILlVo.jpg","year":"2019","result":"HD","language":["Hindi"],"country":["CN"],"original_language":"zh","genres":["Drama"],"imdb_id":"tt10369876","latest_uploaded_season":1,"total_uploaded_episodes":41},{"id":"68267","type":"tv","title":"Trollhunters: Tales of Arcadia","poster":"https://image.tmdb.org/t/p/w342/gF03zm8x9B10QyPZyzc8Vgc8lqx.jpg","year":"2018","result":"HD","language":["Hindi"],"country":["US"],"original_language":"en","genres":["Family","Animation","Action & Adventure","Comedy","Sci-Fi & Fantasy"],"imdb_id":"tt1734135","latest_uploaded_season":3,"total_uploaded_episodes":52},{"id":"76557","type":"tv","title":"Welcome to Waikiki","poster":"https://image.tmdb.org/t/p/w342/pggzZamoLNTiRgoYz8WVCISMCqv.jpg","year":"2018","result":"HD","language":["Hindi"],"country":["KR"],"original_language":"ko","genres":["Drama","Comedy"],"imdb_id":"tt7890304","latest_uploaded_season":1,"total_uploaded_episodes":24},{"id":"79434","type":"tv","title":"What's Wrong with Secretary Kim","poster":"https://image.tmdb.org/t/p/w342/qmq7vKRPoK2VHOTeaUdwwe3l5bB.jpg","year":"2018","result":"HD","language":["Hindi"],"country":["KR"],"original_language":"ko","genres":["Comedy","Drama"],"imdb_id":"tt8242904","latest_uploaded_season":1,"total_uploaded_episodes":16},{"id":"79991","type":"tv","title":"Life","poster":"https://image.tmdb.org/t/p/w342/bnZ84kmXw9OlnAaVJlEYKOMlJmt.jpg","year":"2018","result":"HD","language":["Hindi"],"country":["KR"],"original_language":"ko","genres":["Drama"],"imdb_id":"tt8243158","latest_uploaded_season":1,"total_uploaded_episodes":16},{"id":"215984","type":"tv","title":"My Roommate Ghost Diva","poster":"https://i.ibb.co/nMpHW6m2/Gemini-Generated-Image-b15w8wb15w8wb15w-1.png","year":"2018","result":"HD","language":["Hindi"],"country":["KR"],"original_language":"ko","genres":["Drama","Sci-Fi & Fantasy"],"imdb_id":"tt9109028","latest_uploaded_season":1,"total_uploaded_episodes":4},{"id":"78385","type":"tv","title":"Something in the Rain","poster":"https://image.tmdb.org/t/p/w342/sTNXMCASbNn7cSzcQ7DVazixnAc.jpg","year":"2018","result":"HD","language":["Hindi"],"country":["KR"],"original_language":"ko","genres":["Drama"],"imdb_id":"tt8078816","latest_uploaded_season":1,"total_uploaded_episodes":16},{"id":"82642","type":"tv","title":"Sweet and Salty Office","poster":"https://image.tmdb.org/t/p/w342/oTdY3jgmjM8OHA0J41SMnsEKEXO.jpg","year":"2018","result":"HD","language":["Hindi"],"country":["KR"],"original_language":"ko","genres":["Comedy","Drama"],"imdb_id":"tt34422526","latest_uploaded_season":1,"total_uploaded_episodes":20},{"id":"78797","type":"tv","title":"Wok of Love","poster":"https://image.tmdb.org/t/p/w342/dTh81YtdEzacHhnmLw1Tef7cBRl.jpg","year":"2018","result":"HD","language":["Hindi"],"country":["KR"],"original_language":"ko","genres":["Drama","Comedy"],"imdb_id":"tt8236528","latest_uploaded_season":1,"total_uploaded_episodes":19},{"id":"81957","type":"tv","title":"The Ghost Detective","poster":"https://image.tmdb.org/t/p/w342/bbGOIFF4QNyTDygDBqMQSc76Anr.jpg","year":"2018","result":"HD","language":["Hindi"],"country":["KR"],"original_language":"ko","genres":["Action & Adventure","Crime"],"imdb_id":"tt8784636","latest_uploaded_season":1,"total_uploaded_episodes":16},{"id":"80919","type":"tv","title":"Still 17","poster":"https://image.tmdb.org/t/p/w342/rufDz8f0SD86RyFwDNSQUROK51s.jpg","year":"2018","result":"HD","language":["Hindi"],"country":["KR"],"original_language":"ko","genres":["Drama","Comedy","Crime","Mystery"],"imdb_id":"tt8648696","latest_uploaded_season":1,"total_uploaded_episodes":16},{"id":"80331","type":"tv","title":"Dreaming Of You","poster":"https://image.tmdb.org/t/p/w342/iV0o83MRMSECBaXxakQ8UpJVcl4.jpg","year":"2018","result":"HD","language":["Hindi"],"country":["TR"],"original_language":"tr","genres":["Drama","Comedy"],"imdb_id":"tt8586316","latest_uploaded_season":1,"total_uploaded_episodes":35},{"id":"83941","type":"tv","title":"Encounter","poster":"https://image.tmdb.org/t/p/w342/dtP3ZJoMrKYVqPyz6ypHvveaKFo.jpg","year":"2018","result":"HD","language":["Hindi"],"country":["KR"],"original_language":"ko","genres":["Drama"],"imdb_id":"tt8769260","latest_uploaded_season":1,"total_uploaded_episodes":16},{"id":"82714","type":"tv","title":"Room No. 9","poster":"https://image.tmdb.org/t/p/w342/8jCKwe2AoFpnS2uiftmuCMjjdUb.jpg","year":"2018","result":"HD","language":["Hindi"],"country":["KR"],"original_language":"ko","genres":["Drama","Mystery","Sci-Fi & Fantasy"],"imdb_id":"tt8970084","latest_uploaded_season":1,"total_uploaded_episodes":16},{"id":"81271","type":"tv","title":"Sabuesos","poster":"https://image.tmdb.org/t/p/w342/mC5x6sNZr8x9Z7t1umZyoriH0mZ.jpg","year":"2018","result":"HD","language":["Hindi"],"country":["ES"],"original_language":"es","genres":["Action & Adventure","Mystery","Family","Comedy","Crime"],"imdb_id":"tt7090454","latest_uploaded_season":1,"total_uploaded_episodes":10},{"id":"82462","type":"tv","title":"The Third Charm","poster":"https://image.tmdb.org/t/p/w342/80Pauk4xKUzwK9hf94ZJSTpZtBB.jpg","year":"2018","result":"HD","language":["Hindi"],"country":["KR"],"original_language":"ko","genres":["Drama"],"imdb_id":"tt8954026","latest_uploaded_season":1,"total_uploaded_episodes":16},{"id":"78869","type":"tv","title":"Clean with Passion for Now","poster":"https://image.tmdb.org/t/p/w342/6ig2QeFmZuiHi07wpD4OULQiUmx.jpg","year":"2018","result":"HD","language":["Hindi"],"country":["KR"],"original_language":"ko","genres":["Comedy","Drama"],"imdb_id":"tt7981562","latest_uploaded_season":1,"total_uploaded_episodes":16},{"id":"79238","type":"tv","title":"Come and Hug Me","poster":"https://image.tmdb.org/t/p/w342/ph5aNGwzi2ktTcCKBUtr4SIAcTy.jpg","year":"2018","result":"HD","language":["Hindi"],"country":["KR"],"original_language":"ko","genres":["Drama","Mystery"],"imdb_id":"tt8269398","latest_uploaded_season":1,"total_uploaded_episodes":16},{"id":"495925","type":"movie","title":"Doraemon: Nobita's Treasure Island","poster":"https://image.tmdb.org/t/p/w342/t1YkpYAxzD1lxNbjoZBpvYWkucO.jpg","year":"2018","result":"HD","language":["Hindi"],"country":["JP"],"original_language":"ja","genres":["Animation","Adventure","Fantasy","Science Fiction","Comedy","Family"],"imdb_id":"tt8098546"},{"id":"80741","type":"tv","title":"Familiar Wife","poster":"https://image.tmdb.org/t/p/w342/ds84fVavAJX872qh4kUHAfqjp3b.jpg","year":"2018","result":"HD","language":["Hindi"],"country":["KR"],"original_language":"ko","genres":["Drama","Sci-Fi & Fantasy"],"imdb_id":"tt8487786","latest_uploaded_season":1,"total_uploaded_episodes":16},{"id":"84464","type":"tv","title":"My Strange Hero","poster":"https://image.tmdb.org/t/p/w342/p8Uzpksp6TRKwyn6L6EtZd4fJcx.jpg","year":"2018","result":"HD","language":["Hindi"],"country":["KR"],"original_language":"ko","genres":["Drama","Comedy","Mystery"],"imdb_id":"tt9165992","latest_uploaded_season":1,"total_uploaded_episodes":16},{"id":"61889","type":"tv","title":"Marvel's Daredevil","poster":"https://image.tmdb.org/t/p/w342/QWbPaDxiB6LW2LjASknzYBvjMj.jpg","year":"2018","result":"HD","language":["Hindi"],"country":["US"],"original_language":"en","genres":["Crime","Drama","Action & Adventure"],"imdb_id":"tt3322312","latest_uploaded_season":3,"total_uploaded_episodes":17},{"id":"534780","type":"movie","title":"Andhadhun","poster":"https://image.tmdb.org/t/p/w342/dy3K6hNvwE05siGgiLJcEiwgpdO.jpg","year":"2018","result":"HD","language":["Hindi"],"country":["IN"],"original_language":"hi","genres":["Crime","Mystery","Thriller","Comedy"],"imdb_id":"tt8108198"},{"id":"550776","type":"movie","title":"Believe Me: The Abduction of Lisa McVey","poster":"https://image.tmdb.org/t/p/w342/qbJEzCzEKDHPZDiRvSSBiYEKaAH.jpg","year":"2018","result":"HD","language":["Hindi"],"country":["CA"],"original_language":"en","genres":["Drama","TV Movie","Crime"],"imdb_id":"tt9072202"}]}