{"page":33,"total_pages":67,"total_items":3303,"items":[{"id":"1327530","type":"movie","title":"The Lockdown","poster":"https://image.tmdb.org/t/p/w342/78ZjjWtG2AxHMo9buTJbzXsbTJq.jpg","year":"2024","result":"HD","language":["Hindi"],"country":["US"],"original_language":"en","genres":["Action"],"imdb_id":"tt10080130"},{"id":"1372665","type":"movie","title":"The Lost Children","poster":"https://image.tmdb.org/t/p/w342/5Te2bKuSyVkqt0m2GdSueU4dfCZ.jpg","year":"2024","result":"HD","language":["Hindi"],"country":["CO","GB","US"],"original_language":"es","genres":["Documentary"],"imdb_id":"tt34058121"},{"id":"1082195","type":"movie","title":"The Order","poster":"https://image.tmdb.org/t/p/w342/r3BPhDb45sy87kNV41Q1TwCL6BS.jpg","year":"2024","result":"HD","language":["Hindi"],"country":["GB","US","CA"],"original_language":"en","genres":["Crime","Drama","Thriller"],"imdb_id":"tt26625693"},{"id":"1128650","type":"movie","title":"The Prosecutor","poster":"https://image.tmdb.org/t/p/w342/n3ZnFqp988MWfIkT8OHofEJfjlt.jpg","year":"2024","result":"HD","language":["Hindi"],"country":["CN","HK"],"original_language":"cn","genres":["Action","Drama","Crime","Thriller"],"imdb_id":"tt30024043"},{"id":"1278263","type":"movie","title":"The Seed of the Sacred Fig","poster":"https://image.tmdb.org/t/p/w342/ifOazNzv2cNJ5CQjMV7cPXG2Lmy.jpg","year":"2024","result":"HD","language":["Hindi"],"country":["FR","DE"],"original_language":"fr","genres":["Drama","Thriller","Crime"],"imdb_id":"tt32178949"},{"id":"1061699","type":"movie","title":"The Six Triple Eight","poster":"https://image.tmdb.org/t/p/w342/7tvAnzZj9e9AjdoHaN9jshm2Cjw.jpg","year":"2024","result":"HD","language":["Hindi"],"country":["US"],"original_language":"en","genres":["Drama","War","History"],"imdb_id":"tt24458622"},{"id":"1032472","type":"movie","title":"Touch","poster":"https://image.tmdb.org/t/p/w342/yNXfG1CBVzffksd2EkEpJ9NXFOT.jpg","year":"2024","result":"HD","language":["Hindi"],"country":["IS","GB"],"original_language":"is","genres":["Romance","Drama"],"imdb_id":"tt23468836"},{"id":"698687","type":"movie","title":"Transformers One","poster":"https://image.tmdb.org/t/p/w342/iRCgqpdVE4wyLQvGYU3ZP7pAtUc.jpg","year":"2024","result":"HD","language":["Hindi"],"country":["US"],"original_language":"en","genres":["Animation","Science Fiction","Adventure","Family"],"imdb_id":"tt8864596"},{"id":"923667","type":"movie","title":"Twilight of the Warriors: Walled In","poster":"https://image.tmdb.org/t/p/w342/h0tunBO4tMjvKVVG7fXqHgwOr5C.jpg","year":"2024","result":"HD","language":["Hindi"],"country":["CN","HK"],"original_language":"cn","genres":["Action","Crime","Thriller"],"imdb_id":"tt20316748"},{"id":"1395642","type":"movie","title":"Umjolo: Day Ones","poster":"https://image.tmdb.org/t/p/w342/js1ApkcNejdJUIq0f3hpbGaYcyu.jpg","year":"2024","result":"HD","language":["Hindi"],"country":["ZA"],"original_language":"zu","genres":["Romance","Drama"],"imdb_id":"tt34619564"},{"id":"912649","type":"movie","title":"Venom: The Last Dance","poster":"https://image.tmdb.org/t/p/w342/vGXptEdgZIhPg3cGlc7e8sNPC2e.jpg","year":"2024","result":"HD","language":["Hindi"],"country":["US"],"original_language":"en","genres":["Science Fiction","Action","Adventure"],"imdb_id":"tt16366836"},{"id":"1148817","type":"movie","title":"Vina: Before 7 Days","poster":"https://image.tmdb.org/t/p/w342/qWedkukryS8hAXHjP2SRCsVuYjf.jpg","year":"2024","result":"HD","language":["Hindi"],"country":["ID"],"original_language":"id","genres":["Crime","Horror","Drama","Mystery","Thriller"],"imdb_id":"tt28857853"},{"id":"1067341","type":"movie","title":"Warchief","poster":"https://image.tmdb.org/t/p/w342/zFGOcPh7qzkNhTVH2ER0rTz4mfi.jpg","year":"2024","result":"HD","language":["Hindi"],"country":["GB"],"original_language":"en","genres":["Fantasy","Adventure","Action"],"imdb_id":"tt21398192"},{"id":"1059073","type":"movie","title":"Winter Spring Summer or Fall","poster":"https://image.tmdb.org/t/p/w342/mEPi5ISa5RmzpzeDfwkhX0CcNsf.jpg","year":"2024","result":"HD","language":["Hindi"],"country":["US"],"original_language":"en","genres":["Romance","Drama"],"imdb_id":"tt24515124"},{"id":"1282465","type":"movie","title":"Aa Okkati Adakku","poster":"https://image.tmdb.org/t/p/w342/cdKoCt10J6LVhiE5WzpT7jtxKIV.jpg","year":"2024","result":"HD","language":["Hindi"],"country":["IN"],"original_language":"te","genres":["Comedy"],"imdb_id":"tt27216842"},{"id":"1373129","type":"movie","title":"Aayushmati Geeta Matric Pass","poster":"https://image.tmdb.org/t/p/w342/snUfealex5cEPtJCZOLHQhtnxrQ.jpg","year":"2024","result":"HD","language":["Hindi"],"country":["IN"],"original_language":"hi","genres":["Drama"],"imdb_id":"tt27252585"},{"id":"1575056","type":"movie","title":"Gangster","poster":"https://image.tmdb.org/t/p/w342/rUzo80StlFANtfQqSZsY3WXrNiz.jpg","year":"2024","result":"HD","language":["Hindi"],"country":["IN"],"original_language":"te","genres":["Action","Crime","Thriller"],"imdb_id":"tt33531981"},{"id":"918785","type":"movie","title":"Jab Khuli Kitaab","poster":"https://image.tmdb.org/t/p/w342/jOBGisbjCKaM6w7eLdkIyZcVRrn.jpg","year":"2024","result":"HD","language":["Hindi"],"country":["IN"],"original_language":"hi","genres":["Comedy","Drama","Family"],"imdb_id":"tt28023902"},{"id":"1302585","type":"movie","title":"Love Mouli","poster":"https://image.tmdb.org/t/p/w342/wIVY7CZJsUJhq9zWfuvSQ3Of6kG.jpg","year":"2024","result":"HD","language":["Hindi"],"country":["IN"],"original_language":"te","genres":["Romance"],"imdb_id":"tt29120615"},{"id":"922636","type":"movie","title":"One Not Five Minuttess","poster":"https://image.tmdb.org/t/p/w342/c4U7GfLmLtVxnZbweoSVza9VxBn.jpg","year":"2024","result":"HD","language":["Hindi"],"country":["IN"],"original_language":"te","genres":["Horror","Thriller"],"imdb_id":"tt15290106"},{"id":"1121822","type":"movie","title":"Thaanara","poster":"https://image.tmdb.org/t/p/w342/jdhzrBTqDThVeOSyQwrBP9UiJkq.jpg","year":"2024","result":"HD","language":["Hindi"],"country":["IN"],"original_language":"ml","genres":["Comedy","Drama"],"imdb_id":"tt27411215"},{"id":"246178","type":"tv","title":"The Indrani Mukerjea Story: Buried Truth","poster":"https://image.tmdb.org/t/p/w342/bnKsvPH5QnXofRHwO9AJiWhRDPO.jpg","year":"2024","result":"HD","language":["Hindi"],"country":["IN","US"],"original_language":"en","genres":["Documentary","Crime"],"imdb_id":"tt31069611","latest_uploaded_season":1,"total_uploaded_episodes":4},{"id":"987686","type":"movie","title":"A Family Affair","poster":"https://image.tmdb.org/t/p/w342/l0CaVyqnTsWwNd4hWsrLNEk1Wjd.jpg","year":"2024","result":"HD","language":["Hindi"],"country":["US"],"original_language":"en","genres":["Romance","Comedy"],"imdb_id":"tt21051906"},{"id":"1260916","type":"movie","title":"A Journey","poster":"https://image.tmdb.org/t/p/w342/8LbrDogBCM7BxUl5igUrY1CLUfO.jpg","year":"2024","result":"HD","language":["Hindi"],"country":["AU","PH"],"original_language":"tl","genres":["Drama"],"imdb_id":"tt31805808"},{"id":"202783","type":"tv","title":"A Killer Paradox","poster":"https://image.tmdb.org/t/p/w342/i2yYZGT2If8XcCZS9ASF1g13MiT.jpg","year":"2024","result":"HD","language":["Hindi"],"country":["KR"],"original_language":"ko","genres":["Crime","Comedy","Mystery","Drama"],"imdb_id":"tt28642796","latest_uploaded_season":1,"total_uploaded_episodes":8},{"id":"225120","type":"tv","title":"A Man in Full","poster":"https://image.tmdb.org/t/p/w342/o6iM2JDs15CwEGEcNMUU8HtLivE.jpg","year":"2024","result":"HD","language":["Hindi"],"country":["US"],"original_language":"en","genres":["Drama"],"imdb_id":"tt15845610","latest_uploaded_season":1,"total_uploaded_episodes":6},{"id":"626412","type":"movie","title":"Alienoid: Return to the Future","poster":"https://image.tmdb.org/t/p/w342/4RClncz0GTKPZzSAcAalHCw0h3g.jpg","year":"2024","result":"HD","language":["Hindi"],"country":["KR"],"original_language":"ko","genres":["Action","Fantasy","Adventure","Science Fiction"],"imdb_id":"tt20201212"},{"id":"244431","type":"tv","title":"Anthracite","poster":"https://image.tmdb.org/t/p/w342/i6qdl7ycf1dheDih4g7m3OiZRC6.jpg","year":"2024","result":"HD","language":["Hindi"],"country":["FR"],"original_language":"fr","genres":["Mystery","Crime","Drama"],"imdb_id":"tt31609000","latest_uploaded_season":1,"total_uploaded_episodes":6},{"id":"1051896","type":"movie","title":"Arcadian","poster":"https://image.tmdb.org/t/p/w342/h4T8Xeydkw53h9uIbulYsss25UF.jpg","year":"2024","result":"HD","language":["Hindi"],"country":["IE","US"],"original_language":"en","genres":["Action","Horror","Thriller","Science Fiction"],"imdb_id":"tt22939186"},{"id":"1248795","type":"movie","title":"Art of Love","poster":"https://image.tmdb.org/t/p/w342/niVtvS9Kf8G1VDPSqurqHkaSSwm.jpg","year":"2024","result":"HD","language":["Hindi"],"country":["TR"],"original_language":"tr","genres":["Romance","Action","Drama"],"imdb_id":"tt28355490"},{"id":"618588","type":"movie","title":"Arthur the King","poster":"https://image.tmdb.org/t/p/w342/zkKB3kOun5DKAkm61pHvLbrjxfa.jpg","year":"2024","result":"HD","language":["Hindi"],"country":["CA","US"],"original_language":"en","genres":["Adventure","Drama"],"imdb_id":"tt10720352"},{"id":"253249","type":"tv","title":"Ashley Madison: Sex, Lies & Scandal","poster":"https://image.tmdb.org/t/p/w342/f4MOko7qeZ9Qxa4tDz3zYPIklQY.jpg","year":"2024","result":"HD","language":["Hindi"],"country":["GB"],"original_language":"en","genres":["Crime","Documentary"],"imdb_id":"tt32307741","latest_uploaded_season":1,"total_uploaded_episodes":3},{"id":"241259","type":"tv","title":"Baby Reindeer","poster":"https://image.tmdb.org/t/p/w342/tN9OcbkAOPwHSr1sgMornZtQZBx.jpg","year":"2024","result":"HD","language":["Hindi"],"country":["GB"],"original_language":"en","genres":["Drama"],"imdb_id":"tt13649112","latest_uploaded_season":1,"total_uploaded_episodes":7},{"id":"573435","type":"movie","title":"Bad Boys: Ride or Die","poster":"https://image.tmdb.org/t/p/w342/oGythE98MYleE6mZlGs5oBGkux1.jpg","year":"2024","result":"HD","language":["Hindi"],"country":["US"],"original_language":"en","genres":["Action","Comedy","Crime"],"imdb_id":"tt4919268"},{"id":"1170657","type":"movie","title":"Barbie and Stacie to the Rescue","poster":"https://image.tmdb.org/t/p/w342/h6aSbt5z0Rzu6dIFpxy9Vt17vi8.jpg","year":"2024","result":"HD","language":["Hindi"],"country":["CA"],"original_language":"en","genres":["Animation","Family"],"imdb_id":"tt31181357"},{"id":"125909","type":"tv","title":"Batman: Caped Crusader","poster":"https://image.tmdb.org/t/p/w342/imuZQcnPNKNygPw28TESUq4tNsb.jpg","year":"2024","result":"HD","language":["Hindi"],"country":["US"],"original_language":"en","genres":["Animation","Crime","Action & Adventure","Mystery"],"imdb_id":"tt14681596","latest_uploaded_season":1,"total_uploaded_episodes":10},{"id":"1096342","type":"movie","title":"Beautiful Wedding","poster":"https://image.tmdb.org/t/p/w342/cmeYlRD628KrijyY7thzwlV2KPT.jpg","year":"2024","result":"HD","language":["Hindi"],"country":["US"],"original_language":"en","genres":["Romance","Comedy","Drama"],"imdb_id":"tt26546123"},{"id":"280180","type":"movie","title":"Beverly Hills Cop: Axel F","poster":"https://image.tmdb.org/t/p/w342/zszRKfzjM5jltiq8rk6rasKVpUv.jpg","year":"2024","result":"HD","language":["Hindi"],"country":["US"],"original_language":"en","genres":["Action","Comedy","Crime"],"imdb_id":"tt3083016"},{"id":"1172648","type":"movie","title":"Blame the Game","poster":"https://image.tmdb.org/t/p/w342/d0UeupV6kpfDhb5Gx2RclQdxa3W.jpg","year":"2024","result":"HD","language":["Hindi"],"country":["DE"],"original_language":"de","genres":["Comedy","Thriller","Romance"],"imdb_id":"tt28301898"},{"id":"241257","type":"tv","title":"Bodkin","poster":"https://image.tmdb.org/t/p/w342/fvpYJkQaeon5kmxioIPHFmgA2v5.jpg","year":"2024","result":"HD","language":["Hindi"],"country":["US"],"original_language":"en","genres":["Drama","Mystery"],"imdb_id":"tt21072112","latest_uploaded_season":1,"total_uploaded_episodes":7},{"id":"209332","type":"tv","title":"Boy Swallows Universe","poster":"https://image.tmdb.org/t/p/w342/nb0ek7qonE0YkyaB4dsAw5J9NoH.jpg","year":"2024","result":"HD","language":["Hindi"],"country":["AU"],"original_language":"en","genres":["Drama","Crime","Mystery"],"imdb_id":"tt10399902","latest_uploaded_season":1,"total_uploaded_episodes":7},{"id":"249046","type":"tv","title":"Buying London","poster":"https://image.tmdb.org/t/p/w342/tNd9SCEWETYDUrs1hAtSwtVqeG2.jpg","year":"2024","result":"HD","language":["Hindi"],"country":["GB"],"original_language":"en","genres":["Reality"],"imdb_id":"tt31806036","latest_uploaded_season":1,"total_uploaded_episodes":1},{"id":"1061990","type":"movie","title":"City Hunter","poster":"https://image.tmdb.org/t/p/w342/cjQzJ9xFdaN9KAwu7HUImIgbc2Y.jpg","year":"2024","result":"HD","language":["Hindi"],"country":["JP"],"original_language":"ja","genres":["Action"],"imdb_id":"tt24478470"},{"id":"132750","type":"tv","title":"Dead Boy Detectives","poster":"https://image.tmdb.org/t/p/w342/qGEjCjfBSUzaYNzOqUTx3XRniHH.jpg","year":"2024","result":"HD","language":["Hindi"],"country":["US"],"original_language":"en","genres":["Drama","Mystery","Sci-Fi & Fantasy"],"imdb_id":"tt15358446","latest_uploaded_season":1,"total_uploaded_episodes":8},{"id":"224633","type":"tv","title":"Desperate Lies","poster":"https://image.tmdb.org/t/p/w342/uEhFtmjDbaSsYBNEjckJoUrYt61.jpg","year":"2024","result":"HD","language":["Hindi"],"country":["BR"],"original_language":"pt","genres":["Drama"],"imdb_id":"tt27505298","latest_uploaded_season":1,"total_uploaded_episodes":17},{"id":"519182","type":"movie","title":"Despicable Me 4","poster":"https://image.tmdb.org/t/p/w342/wWba3TaojhK7NdycRhoQpsG0FaH.jpg","year":"2024","result":"HD","language":["Hindi"],"country":["US"],"original_language":"en","genres":["Action","Animation","Comedy","Family","Science Fiction"],"imdb_id":"tt7510222"},{"id":"123377","type":"tv","title":"DOM","poster":"https://image.tmdb.org/t/p/w342/sd7gQpzRMM6WMj2n6RJLsSZGFRP.jpg","year":"2024","result":"HD","language":["Hindi"],"country":["BR"],"original_language":"pt","genres":["Crime","Drama"],"imdb_id":"tt13354188","latest_uploaded_season":3,"total_uploaded_episodes":21},{"id":"122226","type":"tv","title":"Echo","poster":"https://image.tmdb.org/t/p/w342/vFyJH630cF68LohVYjQW49074Sy.jpg","year":"2024","result":"HD","language":["Hindi"],"country":["US"],"original_language":"en","genres":["Action & Adventure","Crime","Drama"],"imdb_id":"tt13966962","latest_uploaded_season":1,"total_uploaded_episodes":5},{"id":"248795","type":"tv","title":"Files of the Unexplained","poster":"https://image.tmdb.org/t/p/w342/bVj14gwU0bDGTnBC7rA91l60AKh.jpg","year":"2024","result":"HD","language":["Hindi"],"country":["US"],"original_language":"en","genres":["Documentary","Crime","Mystery"],"imdb_id":"tt31638758","latest_uploaded_season":1,"total_uploaded_episodes":8},{"id":"1255350","type":"movie","title":"Find Me Falling","poster":"https://image.tmdb.org/t/p/w342/8BnahuMWBt9b3migk0as6Ojgr7F.jpg","year":"2024","result":"HD","language":["Hindi"],"country":["CY","US"],"original_language":"en","genres":["Romance","Comedy","Music"],"imdb_id":"tt19862722"}]}