{"page":11,"total_pages":66,"total_items":3299,"items":[{"id":"1550223","type":"movie","title":"The Time That Remains","poster":"https://image.tmdb.org/t/p/w342/pjtrhgskggN2uD3lF2A9QxHO2Wd.jpg","year":"2025","result":"HD","language":["Hindi"],"country":["PH"],"original_language":"tl","genres":["Drama","Romance","Fantasy"],"imdb_id":"tt38366532","backdrop":"https://image.tmdb.org/t/p/original/OCNoxTB6sqZXmiazkZYyUA6Iz7.jpg","watch":"<iframe src=\"https://bysebuho.com/e/s5r8wmrm6xsz/The_Time_That_Remains_2025_720p_NF_WEB-DL_Multi_AAC5_1_x264_DANIEWATCH.mkv\" width=\"640\" height=\"360\" frameborder=\"0\" allowfullscreen></iframe>"},{"id":"1549390","type":"movie","title":"Vijeyta","poster":"https://image.tmdb.org/t/p/w342/vWVw9ZFUEWyhUm8iJQZDFI7hLd9.jpg","year":"2025","result":"HD","language":["Hindi"],"country":[],"original_language":"hi","genres":["Drama"],"imdb_id":"tt36591334","backdrop":"","watch":"<iframe src=\"https://bysebuho.com/e/u6n2ewgaly38/vijeyta-2025-720p-hdtc-hindi-x264-daniewatch-is\" frameborder=\"0\" marginwidth=\"0\" marginheight=\"0\" scrolling=\"no\" width=\"640\" height=\"360\" allowfullscreen></iframe>"},{"id":"1548037","type":"movie","title":"Khalnigranaaya","poster":"https://image.tmdb.org/t/p/w342/d5MDrJ2LAk9ETZwSzVgoOxYxif0.jpg","year":"2025","result":"HD","language":["Hindi"],"country":["IN"],"original_language":"hi","genres":["Action"],"imdb_id":"tt30050713","backdrop":"https://image.tmdb.org/t/p/original/lMl12GYXsrX7Y8LDLXH5350ItEh.jpg","watch":"<iframe src=\"https://bysebuho.com/e/5p5ymzbeulx2/Khalnigranaaya.2025.720p.UPLY.WEB-DL.Hindi.AAC2.0.H.264-DANIEWATCH.is.mkv\" width=\"640\" height=\"360\" frameborder=\"0\" allowfullscreen></iframe>"},{"id":"1545576","type":"movie","title":"Mannu Kya? Karegga","poster":"https://image.tmdb.org/t/p/w342/pMUYfdV8iwwO84e5iZ7Y2GILzsQ.jpg","year":"2025","result":"HD","language":["Hindi"],"country":[],"original_language":"hi","genres":["Romance","Comedy"],"imdb_id":"tt34000241","backdrop":"https://image.tmdb.org/t/p/original/gvr8BISgEUnIWOwa8cedqf2vXMN.jpg","watch":"<iframe src=\"https://bysebuho.com/e/1dps0rv373t0/mannu-kya-karegga-2025-720p-hdts-hindi-aac2-0-daniewatch-is\" frameborder=\"0\" marginwidth=\"0\" marginheight=\"0\" scrolling=\"no\" width=\"640\" height=\"360\" allowfullscreen></iframe>"},{"id":"1543574","type":"movie","title":"Punjabi Aa Gaye Oye","poster":"https://image.tmdb.org/t/p/w342/pfS0P0E2vg0pi7qHFwfykzztm3.jpg","year":"2025","result":"HD","language":["Hindi"],"country":["IN"],"original_language":"pa","genres":["Drama","Comedy"],"imdb_id":"tt37563418","backdrop":"","watch":"<iframe src=\"https://bysebuho.com/e/6gkob3fula5j/Punjabi.Aa.Gaye.Oye.2025.720p.HDTC.Punjabi.AAC2.0.x264.DANIEWATCH.mkv\" width=\"640\" height=\"360\" frameborder=\"0\" allowfullscreen></iframe>"},{"id":"1542910","type":"movie","title":"Enai Sudum Pani","poster":"https://image.tmdb.org/t/p/w342/pgrSjbfhq1zOf8YjVVKOfRiYYwM.jpg","year":"2025","result":"HD","language":["Hindi"],"country":[],"original_language":"ta","genres":["Thriller"],"imdb_id":"tt36256256","backdrop":"https://image.tmdb.org/t/p/original/ilNgfCUAZYCP5rTWruDv4YyRcKZ.jpg","watch":"<iframe src=\"https://bysebuho.com/e/rtmzic3hhsc7/Enai_Sudum_Pani_2025_720p_WEB-DL_HIN-TAM_x264_ESub-_DANIEWATCH.mkv\" frameborder=\"0\" marginwidth=\"0\" marginheight=\"0\" scrolling=\"no\" width=\"640\" height=\"360\" allowfullscreen></iframe>"},{"id":"1541550","type":"movie","title":"Mehar","poster":"https://image.tmdb.org/t/p/w342/f6ygZaUcXcRJVgFVc7oIxR8uR5Y.jpg","year":"2025","result":"HD","language":["Hindi"],"country":["IN"],"original_language":"pa","genres":["Drama"],"imdb_id":"tt36328115","backdrop":"","watch":"<iframe src=\"https://bysebuho.com/e/gb3l1ve0le52/mehar-2025-720p-web-dl-panjabi-aac2-0-h-264-esub-vegamovies-is\" frameborder=\"0\" marginwidth=\"0\" marginheight=\"0\" scrolling=\"no\" width=\"640\" height=\"360\" allowfullscreen></iframe>"},{"id":"1541316","type":"movie","title":"Arjun Chakravarthy: Journey of an Unsung Champion","poster":"https://image.tmdb.org/t/p/w342/tCZZFxQdneZ2z9ajfrKKp92Pvei.jpg","year":"2025","result":"HD","language":["Hindi"],"country":[],"original_language":"te","genres":["Drama"],"imdb_id":"tt29522022","backdrop":"https://image.tmdb.org/t/p/original/sYSBd28KVKFqscCfLpRjE7PqPZ9.jpg","watch":"<iframe src=\"https://bysebuho.com/e/zevhdelflqsh/Arjun.Chakravarthy.A.Journey.of.An.Unsung.Champion.2025.720p.AMZN.WEB-DL.DUAL.DDP5.1.H.264-DANIEWATCH.mkv\" width=\"640\" height=\"360\" frameborder=\"0\" allowfullscreen></iframe>"},{"id":"1540775","type":"movie","title":"McGuffin","poster":"https://image.tmdb.org/t/p/w342/hNqBojWzhxJ242FTOTqLQ0rUmQu.jpg","year":"2025","result":"HD","language":["Hindi"],"country":[],"original_language":"hi","genres":["Drama","Mystery","Thriller"],"imdb_id":"tt21199592","backdrop":"https://image.tmdb.org/t/p/original/jNZ1FkM47Bj7T7vzTKqCmVpFbvW.jpg","watch":"<iframe src=\"https://bysebuho.com/e/pgc5tlnyw265/Mcguffin.2025.720p.AMZN.WEB-DL.DDP5.1.H.264-DanieWatch.mkv\" width=\"640\" height=\"360\" frameborder=\"0\" allowfullscreen></iframe>"},{"id":"1538573","type":"movie","title":"Cleopatra's Final Secret","poster":"https://image.tmdb.org/t/p/w342/3S1f8REqAu3kUjN6M8hWAgdQh8s.jpg","year":"2025","result":"HD","language":["Hindi"],"country":["GB","US"],"original_language":"en","genres":["Documentary","History"],"imdb_id":"tt37975375","backdrop":"https://image.tmdb.org/t/p/original/klD0xdA1iOepMe8qm708Lks4YAQ.jpg","watch":"<iframe src=\"https://bysebuho.com/e/dhj68b7d6boj/cleopatras-final-secret-2025-720p-jhs-web-dl-dual-aac2-0-h-264-daniewatch-is-2025\" frameborder=\"0\" marginwidth=\"0\" marginheight=\"0\" scrolling=\"no\" width=\"640\" height=\"360\" allowfullscreen></iframe>"},{"id":"1537411","type":"movie","title":"jaggo aayi aa","poster":"https://image.tmdb.org/t/p/w342/b58niEUpSPpxnvfn2NXqphM1H0k.jpg","year":"2025","result":"HD","language":["Hindi"],"country":[],"original_language":"pa","genres":["Drama"],"imdb_id":"tt36277724","backdrop":"https://image.tmdb.org/t/p/original/udHdgdR81jgPFABqSfk7fHyvsmY.jpg","watch":"<iframe src=\"https://bysebuho.com/e/sy30yi2dk3wk/Jaggo.Aayi.Aa.2025.720p.Punjabi.WEB-DL.2.0.ESub.x264-DANIEWATCH.mkv\" width=\"640\" height=\"360\" frameborder=\"0\" allowfullscreen></iframe>"},{"id":"1536876","type":"movie","title":"Mirage","poster":"https://image.tmdb.org/t/p/w342/glSCReT2vcnD7PO2P2959BtNTdC.jpg","year":"2025","result":"HD","language":["Hindi"],"country":[],"original_language":"en","genres":["Drama"],"imdb_id":"tt37762576","backdrop":"https://image.tmdb.org/t/p/original/lD9ScnNqDvX75cvQ54h4cUxQ2SW.jpg","watch":"<iframe src=\"https://bysebuho.com/e/7e3pmt954fvg/Mirage_2025_720p_SLIV_WEB-DL_DDP5_1_H_264-_DANIEWATCH.mkv\" width=\"640\" height=\"360\" frameborder=\"0\" allowfullscreen></iframe>"},{"id":"1536626","type":"movie","title":"Love in Vietnam","poster":"https://image.tmdb.org/t/p/w342/hhuIXwVSsQYWYSjgQ6t9AkzFmDi.jpg","year":"2025","result":"HD","language":["Hindi"],"country":["IN","VN"],"original_language":"hi","genres":["Romance","Drama"],"imdb_id":"tt32447822","backdrop":"https://image.tmdb.org/t/p/original/3T8zjFMH286tRDbTROLLprfIop2.jpg","watch":"<iframe src=\"https://bysebuho.com/e/y2pxhdzj5k7m/love-in-vietnam-2025-720p-hdtc-hindi-aac2-0-daniewatch-is\" frameborder=\"0\" marginwidth=\"0\" marginheight=\"0\" scrolling=\"no\" width=\"640\" height=\"360\" allowfullscreen></iframe>"},{"id":"1536607","type":"movie","title":"Della Bella Badlegi Kahaani","poster":"https://image.tmdb.org/t/p/w342/l6uJfwpE4kstuEI52Nn6VmqA8NM.jpg","year":"2025","result":"HD","language":["Hindi"],"country":["IN"],"original_language":"pa","genres":["Drama"],"imdb_id":"tt37537270","backdrop":"","watch":"<iframe src=\"https://bysebuho.com/e/qb3k77h53exy/della-bella-badlegi-kahaani-2025-720p-waves-web-dl-aac2-0-h-264-daniewatch-is\" frameborder=\"0\" marginwidth=\"0\" marginheight=\"0\" scrolling=\"no\" width=\"640\" height=\"360\" allowfullscreen></iframe>"},{"id":"1535385","type":"movie","title":"Rebel Royals: An Unlikely Love Story","poster":"https://image.tmdb.org/t/p/w342/7vIkk6WNThpI89dyJMZ8IFrIz7n.jpg","year":"2025","result":"HD","language":["Hindi"],"country":["US"],"original_language":"en","genres":["Documentary"],"imdb_id":"tt37996139","backdrop":"https://image.tmdb.org/t/p/original/gIP8OnNLfeatLGGVbNPFO8B9n98.jpg","watch":"<iframe src=\"https://bysebuho.com/e/wwi0kumoao82/Rebel.Royals.An.Unlikely.Love.Story.2025.720p.NF.WEB-DL.DANIEWATCH.mkv\" width=\"640\" height=\"360\" frameborder=\"0\" allowfullscreen></iframe>"},{"id":"1534964","type":"movie","title":"Tribanadhari Barbarik","poster":"https://image.tmdb.org/t/p/w342/kROWntI6dunaPfN27lCu0NzyVNV.jpg","year":"2025","result":"HD","language":["Hindi"],"country":["IN"],"original_language":"te","genres":["Thriller"],"imdb_id":"tt34479177","backdrop":"https://image.tmdb.org/t/p/original/8xL7Es2jwbBr7U2PPxXY7hJfd0X.jpg","watch":"<iframe src=\"https://bysebuho.com/e/u44iucqqfyar/Tribhanadhari_Barbarik_2025_720p_WEB-DL_Hindi-Telugu_DD5_1_x264-_DANIEWATCH.mkv\" width=\"640\" height=\"360\" frameborder=\"0\" allowfullscreen></iframe>"},{"id":"1534291","type":"movie","title":"Ufff Yeh Siyapaa","poster":"https://image.tmdb.org/t/p/w342/6ntsWm5J9S45ItTBjQvNRy3wWfY.jpg","year":"2025","result":"HD","language":["Hindi"],"country":["IN"],"original_language":"hi","genres":["Comedy","Action"],"imdb_id":"tt37867075","backdrop":"https://image.tmdb.org/t/p/original/njJQBmalOYu6Re5FObEGtbhVmWm.jpg","watch":"<iframe src=\"https://bysebuho.com/e/s069qa2zaxb4/Ufff_Yeh_Siyapaa_2025_720p_NF_WEB-DL_Hindi_AAC5_1_H_264-_DANIEWATCH.mkv\" width=\"640\" height=\"360\" frameborder=\"0\" allowfullscreen></iframe>"},{"id":"1532315","type":"movie","title":"Mukk Gyi Feem Dabbi Cho Yaaro","poster":"https://image.tmdb.org/t/p/w342/sGIUTJ6lMkPdkTZjOBo9bUjoGoI.jpg","year":"2025","result":"HD","language":["Hindi"],"country":["IN"],"original_language":"pa","genres":["Comedy","Drama"],"imdb_id":"tt36812916","backdrop":"https://image.tmdb.org/t/p/original/jhZijKHs0NRCcjDxywHrxyJYpYQ.jpg","watch":"<iframe src=\"https://bysebuho.com/e/3kc58ktj1kj9/Mukk_Gyi_Feem_Dabbi_Cho_Yaaro_2025_720p_WEB-HDRip_Punjabi_AAC2_0_x264_ESub-DANIEWATCH.mkv\" frameborder=\"0\" marginwidth=\"0\" marginheight=\"0\" scrolling=\"no\" width=\"640\" height=\"360\" allowfullscreen></iframe>"},{"id":"1531858","type":"movie","title":"The Taj Story","poster":"https://image.tmdb.org/t/p/w342/6oMIAvdPWFbwowAq7Zn8unbREAY.jpg","year":"2025","result":"HD","language":["Hindi"],"country":["IN"],"original_language":"hi","genres":["Drama"],"imdb_id":"tt32495339","backdrop":"https://image.tmdb.org/t/p/original/2JFY1Y4vtQWtCre9qbdObKj8wyN.jpg","watch":"<iframe src=\"https://bysebuho.com/e/rete3kt7epno/The_Taj_Story_2025_Hindi_HDTS_720p_-_DANIEWATCH.mkv\" width=\"640\" height=\"360\" frameborder=\"0\" allowfullscreen></iframe>"},{"id":"1531405","type":"movie","title":"Avihitham","poster":"https://image.tmdb.org/t/p/w342/gPHdHjoUK2Hft5XpyYQ4s7XqxrE.jpg","year":"2025","result":"HD","language":["Hindi"],"country":["IN"],"original_language":"ml","genres":["Comedy","Drama"],"imdb_id":"tt38202962","backdrop":"https://image.tmdb.org/t/p/original/6cMXtzw9gJ9Xk2jhVpsotX90paw.jpg","watch":"<iframe src=\"https://bysebuho.com/e/yf1f7qbhzev3/Avihitham_2025_720p_JHS_WEB-DL_Hin-Mal_DD5_1_x264-DANIEWATCH\" frameborder=\"0\" marginwidth=\"0\" marginheight=\"0\" scrolling=\"no\" width=\"640\" height=\"360\" allowfullscreen></iframe>"},{"id":"1531058","type":"movie","title":"Others","poster":"https://image.tmdb.org/t/p/w342/2rdDxephzH5bpp3Z5aKf55evRbA.jpg","year":"2025","result":"HD","language":["Hindi"],"country":["IN"],"original_language":"ta","genres":["Action","Thriller"],"imdb_id":"tt37897558","backdrop":"https://image.tmdb.org/t/p/original/f3tBk0gXJuupvxFuYznyLdxswsT.jpg","watch":"<iframe src=\"https://bysebuho.com/e/cvphrvvs9iy2/others-2025-720p-10bit-amzn-web-dl-dual-x265-daniewatch-hot\" frameborder=\"0\" marginwidth=\"0\" marginheight=\"0\" scrolling=\"no\" width=\"640\" height=\"360\" allowfullscreen></iframe>"},{"id":"1530875","type":"movie","title":"All the Devils Are Here","poster":"https://image.tmdb.org/t/p/w342/4GJTUSjbCGynQo4PpTTNzzxYfBM.jpg","year":"2025","result":"HD","language":["Hindi"],"country":["US"],"original_language":"en","genres":["Thriller","Crime","Mystery"],"imdb_id":"tt26896414","backdrop":"https://image.tmdb.org/t/p/original/jiW3TaZtpMQgMfVnMn5Nmciqhdv.jpg","watch":"<iframe src=\"https://bysebuho.com/e/3dits54eh99c/All_the_Devils_are_Here_2025_720p_WEB-DL_HIN-ENG_x264_ESub-DANIEWATCH.mkv\" width=\"640\" height=\"360\" frameborder=\"0\" allowfullscreen></iframe>"},{"id":"1530321","type":"movie","title":"Virgin Boys","poster":"https://image.tmdb.org/t/p/w342/s4QoF3Be7CDzSnYjcUWSDXLwszz.jpg","year":"2025","result":"HD","language":["Hindi"],"country":[],"original_language":"te","genres":["Comedy","Romance"],"imdb_id":"tt36955269","backdrop":"https://image.tmdb.org/t/p/original/eOWJQYEn7Uu7OYdPbYyGplGLagn.jpg","watch":"<iframe src=\"https://bysebuho.com/e/s92oca3bi29a/virgin-boys-2025-720p-amzn-web-dl-ddp5-1-h-264-daniewatch-is\" frameborder=\"0\" marginwidth=\"0\" marginheight=\"0\" scrolling=\"no\" width=\"640\" height=\"360\" allowfullscreen></iframe>"},{"id":"1529276","type":"movie","title":"Kooran","poster":"https://image.tmdb.org/t/p/w342/k20svCrYZqC71hVYypQmm9S8SL4.jpg","year":"2025","result":"HD","language":["Hindi"],"country":["IN"],"original_language":"ta","genres":["Drama"],"imdb_id":"tt35814786","backdrop":"","watch":"<iframe src=\"https://bysebuho.com/e/0p1n5tcx8swk/sarama-kooran-2025-720p-uply-web-dl-hindi-aac2-0-h-264-daniewatch-is\" frameborder=\"0\" marginwidth=\"0\" marginheight=\"0\" scrolling=\"no\" width=\"640\" height=\"360\" allowfullscreen></iframe>"},{"id":"1529088","type":"movie","title":"Bakasura Restaurant","poster":"https://image.tmdb.org/t/p/w342/pyznPP82WBdWOYvKHbQq9bDv4Ng.jpg","year":"2025","result":"HD","language":["Hindi"],"country":[],"original_language":"te","genres":["Comedy","Horror"],"imdb_id":"tt36793656","backdrop":"https://image.tmdb.org/t/p/original/6tDhr9CRWQ1xWm4LbS7fIVzNFSs.jpg","watch":"<iframe src=\"https://bysebuho.com/e/6lt5f6in007c/Bakasura_Restaurant_2025_720p_AMZN_WEB-DL_DUAL_DDP5_1_H_264-DANIEWATCH.mkv\" width=\"640\" height=\"360\" frameborder=\"0\" allowfullscreen></iframe>"},{"id":"1528839","type":"movie","title":"Unfiltered Naari","poster":"https://i.ibb.co/fzc6P8rK/Gemini-Generated-Image-99h6ii99h6ii99h6.png","year":"2025","result":"HD","language":["Hindi"],"country":[],"original_language":"hi","genres":["Comedy"],"imdb_id":"","backdrop":"","watch":"<iframe src=\"https://bysebuho.com/e/r3hxs1jtyk9r/unfiltered-naari-2025-720p-web-dl-hindi-dubbed-2-0-x264-daniewatch-is\" frameborder=\"0\" marginwidth=\"0\" marginheight=\"0\" scrolling=\"no\" width=\"640\" height=\"360\" allowfullscreen></iframe>"},{"id":"1528660","type":"movie","title":"Holy Ghost","poster":"https://image.tmdb.org/t/p/w342/z1lwn6GWAjJ7CSn80ZcURb0Cj4G.jpg","year":"2025","result":"HD","language":["Hindi"],"country":[],"original_language":"en","genres":["Horror","Mystery","Thriller"],"imdb_id":"tt36364273","backdrop":"https://image.tmdb.org/t/p/original/eTodr0PX3fIDM4VFKJakpPGMZbp.jpg","watch":"<iframe src=\"https://bysebuho.com/e/42u6wz5ks8vb/Holy_Ghost_2025_720p_AMZN_WEB-DL_Hindi-English_5_1_H_264-_DANIEWATCH.mkv\" width=\"640\" height=\"360\" frameborder=\"0\" allowfullscreen></iframe>"},{"id":"1527619","type":"movie","title":"Zora","poster":"https://image.tmdb.org/t/p/w342/15tO9pmJyoEIlujET8mc1Xf5fy8.jpg","year":"2025","result":"HD","language":["Hindi"],"country":[],"original_language":"hi","genres":["Drama","Mystery","Thriller"],"imdb_id":"tt33396471","backdrop":"https://image.tmdb.org/t/p/original/gEGN3C2lsG6Iv0yIjHsZmxYgxdh.jpg","watch":"<iframe src=\"https://bysebuho.com/e/t5gceruba87b/zora-2025-720p-hdts-hindi-line-x264-daniewatch-is\" frameborder=\"0\" marginwidth=\"0\" marginheight=\"0\" scrolling=\"no\" width=\"640\" height=\"360\" allowfullscreen></iframe>"},{"id":"1526946","type":"movie","title":"Phaphey Kuttniyan","poster":"https://image.tmdb.org/t/p/w342/kjwkWmr7HrybmEqPkmrkxe5fJcR.jpg","year":"2025","result":"HD","language":["Hindi"],"country":["IN"],"original_language":"pa","genres":["Comedy","Drama"],"imdb_id":"tt34930715","backdrop":"https://image.tmdb.org/t/p/original/9mHeDgZHkPB1MfUTn89pB7w7Na0.jpg","watch":"<iframe src=\"https://bysebuho.com/e/mkmd1j7x9gwu/Phaphey_Kuttniyan_2025_720p_AMZN_WEB-DL_DDP5_1_H_264-DANIEWATCH\" frameborder=\"0\" marginwidth=\"0\" marginheight=\"0\" scrolling=\"no\" width=\"640\" height=\"360\" allowfullscreen></iframe>"},{"id":"1525636","type":"movie","title":"Heer Express","poster":"https://image.tmdb.org/t/p/w342/4rgfq74rY9ZuBixODvLoROEphd2.jpg","year":"2025","result":"HD","language":["Hindi"],"country":["IN"],"original_language":"hi","genres":["Comedy","Drama","Family"],"imdb_id":"tt28754073","backdrop":"https://image.tmdb.org/t/p/original/5i1iuDU3eZyvJjvXUjsofHCG7UN.jpg","watch":"<iframe src=\"https://bysebuho.com/e/zyjaqd76j4ys/Heer_Express_2025_Hindi_HDTC_720p_x264_DANIEWATCH.mkv\" width=\"640\" height=\"360\" frameborder=\"0\" allowfullscreen></iframe>"},{"id":"1525484","type":"movie","title":"Ek Chatur Naar","poster":"https://image.tmdb.org/t/p/w342/apMb2Oz9uvqA19dawmeglKM7THX.jpg","year":"2025","result":"HD","language":["Hindi"],"country":["IN"],"original_language":"hi","genres":["Drama","Comedy","Crime"],"imdb_id":"tt37970307","backdrop":"https://image.tmdb.org/t/p/original/m223f5ZdF71Bui9FUpmwYNJHDAV.jpg","watch":"<iframe src=\"https://bysebuho.com/e/wf90mrwctpwz/Ek_Chatur_Naar_2025_720p_NF_WEB-DL_Hindi_AAC5_1_H_264-_DANIEWATCH\" frameborder=\"0\" marginwidth=\"0\" marginheight=\"0\" scrolling=\"no\" width=\"640\" height=\"360\" allowfullscreen></iframe>"},{"id":"1525091","type":"movie","title":"All the Empty Rooms","poster":"https://image.tmdb.org/t/p/w342/38odJEJiluUBLI58tO6oTmv5wZl.jpg","year":"2025","result":"HD","language":["Hindi"],"country":["US"],"original_language":"en","genres":["Documentary"],"imdb_id":"tt37798645","backdrop":"https://image.tmdb.org/t/p/original/gFA4Dn0PJJDXV4XPzO8ZPQLRvvH.jpg","watch":"<iframe src=\"https://bysebuho.com/e/kwd3mlm5qy2d/All_the_Empty_Rooms_2025_720p_NF_WEB-DL_HIN-ENG_x264-_DANIEWATCH_hot.mkv\" frameborder=\"0\" marginwidth=\"0\" marginheight=\"0\" scrolling=\"no\" width=\"640\" height=\"360\" allowfullscreen></iframe>"},{"id":"1523579","type":"movie","title":"Enna Nu Rehna Sehna Ni Aaunda","poster":"https://image.tmdb.org/t/p/w342/gm0BcnnxiHVGgnO5xczlyp5mXCw.jpg","year":"2025","result":"HD","language":["Hindi"],"country":["CA","PK"],"original_language":"pa","genres":["Comedy"],"imdb_id":"tt33044546","backdrop":"","watch":"<iframe src=\"https://bysebuho.com/e/5s143q2t5cin/Enna.Nu.Rehna.Sehna.Ni.Aaunda.2025.720p.PreDVD.Punjabi.DD.2.0.x264-DANIEWATCH.mkv\" width=\"640\" height=\"360\" frameborder=\"0\" allowfullscreen></iframe>"},{"id":"1523326","type":"movie","title":"Kothalavadi","poster":"https://image.tmdb.org/t/p/w342/gbC7LjWwiuWlxbl2qfdrlaS6Goc.jpg","year":"2025","result":"HD","language":["Hindi"],"country":["IN"],"original_language":"kn","genres":["Drama"],"imdb_id":"tt36997822","backdrop":"https://image.tmdb.org/t/p/original/sepxTZcZBZnmpocwAHuisA99K0c.jpg","watch":"<iframe src=\"https://bysebuho.com/e/r27euz3gi5eq/Kothalavadi.2025.Hindi._.Kannada.Dual.UnCut.720p.x264.ESub.RogMovies_DANIEWATCH.mkv\" width=\"640\" height=\"360\" frameborder=\"0\" allowfullscreen></iframe>"},{"id":"1522790","type":"movie","title":"Kuriyan Jawan Baapu Preshaan 2","poster":"https://image.tmdb.org/t/p/w342/k6PlfMehsn7mODyqtzMQpOkJqfT.jpg","year":"2025","result":"HD","language":["Hindi"],"country":["IN"],"original_language":"pa","genres":["Comedy","Drama"],"imdb_id":"tt37563463","backdrop":"","watch":"<iframe src=\"https://bysebuho.com/e/upa8vpswk48j/Kuriyan_Jawan_Bapu_Preshaan_2_2025_720p_WEB-DL_Punjabi_x264_AAC_5_1_ESub-_DANIEWATCH.mkv\" width=\"640\" height=\"360\" frameborder=\"0\" allowfullscreen></iframe>"},{"id":"1522377","type":"movie","title":"Two Worlds One Wish","poster":"https://image.tmdb.org/t/p/w342/mZcwX1aN2RdCLwamxdkoINIhVAm.jpg","year":"2025","result":"HD","language":["Hindi"],"country":["TR"],"original_language":"tr","genres":["Romance","Drama"],"imdb_id":"tt36499994","backdrop":"https://image.tmdb.org/t/p/original/2yZmwuXiQw58GiXwJwGNYtsDrEL.jpg","watch":"<iframe src=\"https://bysebuho.com/e/ktvwogoqw5o0/Two_Worlds_One_Wish_2025_720p_AMZN_WEB-DL_DUAL_x264-DANIEWATCH_Hot.mkv\" frameborder=\"0\" marginwidth=\"0\" marginheight=\"0\" scrolling=\"no\" width=\"640\" height=\"360\" allowfullscreen></iframe>"},{"id":"1520294","type":"movie","title":"Vritta","poster":"https://image.tmdb.org/t/p/w342/oNPao9volH0jAA1jULlQ6hCOmAe.jpg","year":"2025","result":"HD","language":["Hindi"],"country":["IN"],"original_language":"kn","genres":["Mystery","Thriller"],"imdb_id":"tt27664022","backdrop":"https://image.tmdb.org/t/p/original/33S0Ie8izrclNs9qn3VJAYoD7ro.jpg","watch":"<iframe src=\"https://bysebuho.com/e/m4gdmo5xx3jx/vritta-2025-720p-zee5-web-dl-dual-ddp5-1-h-264-daniewatch-is\" frameborder=\"0\" marginwidth=\"0\" marginheight=\"0\" scrolling=\"no\" width=\"640\" height=\"360\" allowfullscreen></iframe>"},{"id":"1519168","type":"movie","title":"The Jester 2","poster":"https://image.tmdb.org/t/p/w342/47dsw1jSOV0Be5zmy7CtLhYpqU.jpg","year":"2025","result":"HD","language":["Hindi"],"country":["US"],"original_language":"en","genres":["Horror","Thriller","Crime"],"imdb_id":"tt37334010","backdrop":"https://image.tmdb.org/t/p/original/yZtnGzfZER0QU7ZG4r4RaZAaXJH.jpg","watch":"<iframe src=\"https://bysebuho.com/e/aksxhnbkzqhm/Jester_2_2025_720p_AMZN_WEB-DL_DUAL_DDP2_0_H_264-DANIEWATCH.mkv\" width=\"640\" height=\"360\" frameborder=\"0\" allowfullscreen></iframe>"},{"id":"1517212","type":"movie","title":"The Truth About Jussie Smollett?","poster":"https://image.tmdb.org/t/p/w342/iRR9Ri2GX3c5bikrz1Zuj4u5bkl.jpg","year":"2025","result":"HD","language":["Hindi"],"country":["GB","US"],"original_language":"en","genres":["Documentary"],"imdb_id":"tt37670615","backdrop":"https://image.tmdb.org/t/p/original/muPnU1xs5cYkE1lXZ8c15n7TyHr.jpg","watch":"<iframe src=\"https://bysebuho.com/e/r11jkr1ktga6/The.Truth.About.Jussie.Smollett.2025.720p.NF.WEB-DL.DanieWatch.mkv\" width=\"640\" height=\"360\" frameborder=\"0\" allowfullscreen></iframe>"},{"id":"1516391","type":"movie","title":"Cover-Up","poster":"https://image.tmdb.org/t/p/w342/3kVAkwPrNNw3kxe2yJVatj86QKo.jpg","year":"2025","result":"HD","language":["Hindi"],"country":["US"],"original_language":"en","genres":["Documentary"],"imdb_id":"tt37660887","backdrop":"https://image.tmdb.org/t/p/original/fmu0SG65QYUKs6OkrRLDUzG0bZn.jpg","watch":"<iframe src=\"https://bysebuho.com/e/m7qb0zkqux2k/cover-up-2025-720p-web-dl-hin-eng-esub-daniewatch-hot-2025\" frameborder=\"0\" marginwidth=\"0\" marginheight=\"0\" scrolling=\"no\" width=\"640\" height=\"360\" allowfullscreen></iframe>"},{"id":"1514898","type":"movie","title":"Kuladalli Keelyavudo","poster":"https://image.tmdb.org/t/p/w342/s31pY3kEvCSPLQMOWo1nvMKXzk1.jpg","year":"2025","result":"HD","language":["Hindi"],"country":[],"original_language":"kn","genres":[],"imdb_id":"tt33298765","backdrop":"https://image.tmdb.org/t/p/original/o8w6Ve8DnWmZby1CsUtwJPoNbEw.jpg","watch":"<iframe src=\"https://bysebuho.com/e/61vgls4nxuyv/kuladalli-keelyavudo-2025-720p-web-dl-hindi-kannnada-x264-daniewatch-is\" frameborder=\"0\" marginwidth=\"0\" marginheight=\"0\" scrolling=\"no\" width=\"640\" height=\"360\" allowfullscreen></iframe>"},{"id":"1513598","type":"movie","title":"Stolen: Heist of the Century","poster":"https://image.tmdb.org/t/p/w342/aqZOJkBd3DR6ioacm136lP7BGvi.jpg","year":"2025","result":"HD","language":["Hindi"],"country":[],"original_language":"en","genres":["Documentary","Crime"],"imdb_id":"tt37543886","backdrop":"https://image.tmdb.org/t/p/original/hz59eF5z6ObaaWiGlUKcVbODti7.jpg","watch":"<iframe src=\"https://bysebuho.com/e/bhzhctucb5a1/stolen-heist-of-the-century-2025-720p-web-dl-hin-eng-esub-daniewatch-is\" frameborder=\"0\" marginwidth=\"0\" marginheight=\"0\" scrolling=\"no\" width=\"640\" height=\"360\" allowfullscreen></iframe>"},{"id":"1511556","type":"movie","title":"Under Fire","poster":"https://image.tmdb.org/t/p/w342/dIQcDDuDPewwELfhmYMnt25AyZ6.jpg","year":"2025","result":"HD","language":["Hindi"],"country":["US"],"original_language":"en","genres":["Action","Comedy","Thriller","Drama"],"imdb_id":"tt32212611","backdrop":"https://image.tmdb.org/t/p/original/oAFd9y3myakKyTAwcv0YIpxt08Z.jpg","watch":"<iframe src=\"https://bysebuho.com/e/yyd5pnqpm4q7/under-fire-2025-720p-bluray-hin-eng-esub-vegamovies-is\" frameborder=\"0\" marginwidth=\"0\" marginheight=\"0\" scrolling=\"no\" width=\"640\" height=\"360\" allowfullscreen></iframe>"},{"id":"1511417","type":"movie","title":"Bāhubali: The Epic","poster":"https://image.tmdb.org/t/p/w342/z9YIo2qscyaXYgRqIdRJtND3bw8.jpg","year":"2025","result":"HD","language":["Hindi"],"country":["IN"],"original_language":"te","genres":["Action","Drama"],"imdb_id":"tt37893389","backdrop":"https://image.tmdb.org/t/p/original/wCwZ4ljSsWyZyTiyk1tGQtBHTDx.jpg","watch":"<iframe src=\"https://bysebuho.com/e/swgx6j286yb8/baahubali-the-epic-2025-south-hindi-dubbed-uncut-movie-hevc-720p-esub-10bit-x265-daniewatch-hot\" frameborder=\"0\" marginwidth=\"0\" marginheight=\"0\" scrolling=\"no\" width=\"640\" height=\"360\" allowfullscreen></iframe>"},{"id":"1510251","type":"movie","title":"Murderbaad","poster":"https://image.tmdb.org/t/p/w342/70kbo9qJ3i98CRVyKP0DfYQoJLe.jpg","year":"2025","result":"HD","language":["Hindi"],"country":["IN"],"original_language":"hi","genres":["Thriller","Crime"],"imdb_id":"tt37392885","backdrop":"https://image.tmdb.org/t/p/original/wkPjuqGf7uPMCVu7osZhkRPb8Ht.jpg","watch":"<iframe src=\"https://bysebuho.com/e/l9dysckh29dn/Murderbaad_2025_720p_Hindi_WEB-DL_Vegamovies_Hot.mkv\" width=\"640\" height=\"360\" frameborder=\"0\" allowfullscreen></iframe>"},{"id":"1510235","type":"movie","title":"Gyanvapi Files: A Tailor's Murder Story","poster":"https://image.tmdb.org/t/p/w342/dofvavrizF7KnF6Jl6g6yMp7y1B.jpg","year":"2025","result":"HD","language":["Hindi"],"country":["IN"],"original_language":"hi","genres":["Crime","Drama"],"imdb_id":"tt28630806","backdrop":"https://image.tmdb.org/t/p/original/aykVIMNgq7kJSegkFXVpiDKlKaw.jpg","watch":"<iframe src=\"https://bysebuho.com/e/374ritgeoo4k/Udaipur.Files.Kanhaiya.Lal.Tailor.Murder.2025.720p.HDRip.Hindi.DD.2.0.x264-DanieWatch.mkv\" width=\"640\" height=\"360\" frameborder=\"0\" allowfullscreen></iframe>"},{"id":"1509871","type":"movie","title":"She Said Maybe","poster":"https://image.tmdb.org/t/p/w342/ujNDflVpoFsBqlbVt58pc7lT1WR.jpg","year":"2025","result":"HD","language":["Hindi"],"country":["DE","TR"],"original_language":"de","genres":["Comedy","Romance","Drama"],"imdb_id":"tt36754289","backdrop":"https://image.tmdb.org/t/p/original/rFgdmHbxEocgmzExT3StrRuY4xb.jpg","watch":"<iframe src=\"https://bysebuho.com/e/kl2ma0io7doc/She.Said.Maybe.2025.720p.NF.WEB-DL.HiN.ENG.x264.DANIEWATCH.is.mkv\" width=\"640\" height=\"360\" frameborder=\"0\" allowfullscreen></iframe>"},{"id":"1509350","type":"movie","title":"Yaadhum Ariyaan","poster":"https://image.tmdb.org/t/p/w342/cqnTAE5uDQs8Sff2bVOy0gsjJMU.jpg","year":"2025","result":"HD","language":["Hindi"],"country":["IN"],"original_language":"ta","genres":["Thriller"],"imdb_id":"tt37265441","backdrop":"https://image.tmdb.org/t/p/original/uVUcpYpcxfx3wfqLvm5jssYOCMq.jpg","watch":"<iframe src=\"https://bysebuho.com/e/vg7ao6nv2ypq/yaadhum-ariyaan-2025-720p-web-dl-hindi-dd2-0-tamil-dd5-1-x264-daniewatch-is\" frameborder=\"0\" marginwidth=\"0\" marginheight=\"0\" scrolling=\"no\" width=\"640\" height=\"360\" allowfullscreen></iframe>"},{"id":"1508889","type":"movie","title":"Show Time","poster":"https://image.tmdb.org/t/p/w342/lFGOj6LDZachNPmXaGPQbeAu7jy.jpg","year":"2025","result":"HD","language":["Hindi"],"country":[],"original_language":"te","genres":["Comedy","Thriller"],"imdb_id":"tt37432084","backdrop":"https://image.tmdb.org/t/p/original/dLbK0UGq4YGJZWujBqNaetXrGdp.jpg","watch":"<iframe src=\"https://bysebuho.com/e/qtjzouq2s48o/show-time-2025-720p-web-dl-hindi-2-0-telugu-5-1-esub-x264-vegamovies-is\" frameborder=\"0\" marginwidth=\"0\" marginheight=\"0\" scrolling=\"no\" width=\"640\" height=\"360\" allowfullscreen></iframe>"},{"id":"1508485","type":"movie","title":"No Escape","poster":"https://image.tmdb.org/t/p/w342/eddv1XJWyN5trgetdOFplbRYx0C.jpg","year":"2025","result":"HD","language":["Hindi"],"country":["CN"],"original_language":"zh","genres":["Action","Crime"],"imdb_id":"","backdrop":"https://image.tmdb.org/t/p/original/lVF9HCNczJvVT4yO7XDA5BaFXG0.jpg","watch":"<iframe src=\"https://bysebuho.com/e/n3cvdng9ohzo/no-escape-2025-dual-audio-hindi-org-chinese-720p-daniewatch-is-2025\" frameborder=\"0\" marginwidth=\"0\" marginheight=\"0\" scrolling=\"no\" width=\"640\" height=\"360\" allowfullscreen></iframe>"}]}