{"page":18,"total_pages":67,"total_items":3303,"items":[{"id":"1296338","type":"movie","title":"Sumathi Valavu","poster":"https://image.tmdb.org/t/p/w342/3xIDlnwjMf7kCOpFq8GMmW8on95.jpg","year":"2025","result":"HD","language":["Hindi"],"country":["IN"],"original_language":"ml","genres":["Horror","Comedy","Drama"],"imdb_id":"tt33037773"},{"id":"1294203","type":"movie","title":"My Fault: London","poster":"https://image.tmdb.org/t/p/w342/ttN5D6GKOwKWHmCzDGctAvaNMAi.jpg","year":"2025","result":"HD","language":["Hindi"],"country":["ES","GB","US"],"original_language":"en","genres":["Drama","Romance"],"imdb_id":"tt32434379"},{"id":"1293849","type":"movie","title":"3BHK","poster":"https://image.tmdb.org/t/p/w342/njq3p81KoTVd0lWqGeudId7WwUn.jpg","year":"2025","result":"HD","language":["Hindi"],"country":["IN"],"original_language":"ta","genres":["Family","Drama"],"imdb_id":"tt32411272"},{"id":"1291608","type":"movie","title":"Dhurandhar","poster":"https://image.tmdb.org/t/p/w342/snBOuXDdhmTvlzMUvP9Em3Pp1u1.jpg","year":"2025","result":"HD","language":["Hindi"],"country":["IN"],"original_language":"hi","genres":["Action","Crime","Thriller"],"imdb_id":"tt33014583"},{"id":"1291321","type":"movie","title":"Sweetheart!","poster":"https://image.tmdb.org/t/p/w342/bHxP4Mdgc6RwFZi7b1JDPXDus8j.jpg","year":"2025","result":"HD","language":["Hindi"],"country":["IN"],"original_language":"ta","genres":["Romance","Comedy","Drama"],"imdb_id":"tt33051459"},{"id":"1291198","type":"movie","title":"55","poster":"https://image.tmdb.org/t/p/w342/8Zig074jWJXLxAjgmNcKpgoPOJ7.jpg","year":"2025","result":"HD","language":["Hindi"],"country":["IN"],"original_language":"hi","genres":["Thriller"],"imdb_id":"tt34497070"},{"id":"1290954","type":"movie","title":"Rekhachithram","poster":"https://image.tmdb.org/t/p/w342/ulIAyiSVQZL1Ov6K2Tjf6wPlzFi.jpg","year":"2025","result":"HD","language":["Hindi"],"country":["IN"],"original_language":"ml","genres":["Mystery","Thriller","Crime"],"imdb_id":"tt32284154"},{"id":"1290879","type":"movie","title":"The Woman in Cabin 10","poster":"https://image.tmdb.org/t/p/w342/4kpdyePOlcELQQJcxXPF5GB1Adw.jpg","year":"2025","result":"HD","language":["Hindi"],"country":["GB"],"original_language":"en","genres":["Mystery","Thriller","Crime"],"imdb_id":"tt7130300"},{"id":"1290190","type":"movie","title":"Lokah Chapter 1: Chandra","poster":"https://image.tmdb.org/t/p/w342/nRn6is4m5sikO1rSoCoRT2rYtXB.jpg","year":"2025","result":"HD","language":["Hindi"],"country":["IN"],"original_language":"ml","genres":["Action","Adventure","Fantasy"],"imdb_id":"tt33372494"},{"id":"1290159","type":"movie","title":"A House of Dynamite","poster":"https://image.tmdb.org/t/p/w342/AiJ8L90ftPAwVf3SDx7Fj9IMZoy.jpg","year":"2025","result":"HD","language":["Hindi"],"country":["US"],"original_language":"en","genres":["Thriller"],"imdb_id":"tt32376165"},{"id":"1289936","type":"movie","title":"Downton Abbey: The Grand Finale","poster":"https://image.tmdb.org/t/p/w342/m1tLlMTCwc6oK6OjWTOI4b32wnA.jpg","year":"2025","result":"HD","language":["Hindi"],"country":["GB","US"],"original_language":"en","genres":["Drama","Romance"],"imdb_id":"tt31888477"},{"id":"1289888","type":"movie","title":"French Lover","poster":"https://image.tmdb.org/t/p/w342/bLqPpqNoKbNbXysIeft1tLIl6KB.jpg","year":"2025","result":"HD","language":["Hindi"],"country":["FR"],"original_language":"fr","genres":["Romance","Comedy"],"imdb_id":"tt32360696"},{"id":"1288072","type":"movie","title":"Keeper","poster":"https://image.tmdb.org/t/p/w342/mbGHijUc0C3fcM12l6ro6FgxIvg.jpg","year":"2025","result":"HD","language":["Hindi"],"country":["CA"],"original_language":"en","genres":["Horror","Mystery"],"imdb_id":"tt32332404"},{"id":"1287322","type":"movie","title":"Christy","poster":"https://image.tmdb.org/t/p/w342/ssy1uHGZkuXLkIWJWrtsBczPvVC.jpg","year":"2025","result":"HD","language":["Hindi"],"country":["US"],"original_language":"en","genres":["History","Drama"],"imdb_id":"tt32323252"},{"id":"1286185","type":"movie","title":"The Carpenter's Son","poster":"https://image.tmdb.org/t/p/w342/tXEtdZjoaHqjDjSxZJWwDVjIfx9.jpg","year":"2025","result":"HD","language":["Hindi"],"country":["FR","US","GB","GR"],"original_language":"en","genres":["Horror"],"imdb_id":"tt32304349"},{"id":"1285965","type":"movie","title":"Dangerous Animals","poster":"https://image.tmdb.org/t/p/w342/9tk3Si960hg4E49eMt81dS7Qe9Z.jpg","year":"2025","result":"HD","language":["Hindi"],"country":["AU","US","CA"],"original_language":"en","genres":["Horror","Thriller"],"imdb_id":"tt32299316"},{"id":"1282557","type":"movie","title":"Tanvi the Great","poster":"https://image.tmdb.org/t/p/w342/jytZfJtjJnw7Yn2zW52wcbPYVXQ.jpg","year":"2025","result":"HD","language":["Hindi"],"country":["IN"],"original_language":"hi","genres":["Drama"],"imdb_id":"tt31598703"},{"id":"1281091","type":"movie","title":"Officer on Duty","poster":"https://image.tmdb.org/t/p/w342/ucwirgaK4v9ylQyDkwoXJtDIlf7.jpg","year":"2025","result":"HD","language":["Hindi"],"country":["IN"],"original_language":"ml","genres":["Crime","Thriller"],"imdb_id":"tt34388152"},{"id":"1280282","type":"movie","title":"Gabby's Dollhouse: The Movie","poster":"https://image.tmdb.org/t/p/w342/t6LLguAmu6iZUN8pWhT7Q0IcaQ5.jpg","year":"2025","result":"HD","language":["Hindi"],"country":["US"],"original_language":"en","genres":["Family","Comedy","Adventure","Animation"],"imdb_id":"tt32214143"},{"id":"1279947","type":"movie","title":"Sunray: Fallen Soldier","poster":"https://image.tmdb.org/t/p/w342/ghLaj5dBrdUsD4wjq3QERcisr5k.jpg","year":"2025","result":"HD","language":["Hindi"],"country":["GB"],"original_language":"en","genres":["Action","Thriller"],"imdb_id":"tt15128544"},{"id":"1278950","type":"movie","title":"The Ritual","poster":"https://image.tmdb.org/t/p/w342/uubL8yvtEBjz3V7DFQHjCuSQO8w.jpg","year":"2025","result":"HD","language":["Hindi"],"country":["US"],"original_language":"en","genres":["Horror","Drama","Thriller"],"imdb_id":"tt32194932"},{"id":"1277726","type":"movie","title":"Sundarakanda","poster":"https://image.tmdb.org/t/p/w342/40dBLbqZunJXjEkXVqIvw8OoYDM.jpg","year":"2025","result":"HD","language":["Hindi"],"country":["IN"],"original_language":"te","genres":["Romance","Comedy"],"imdb_id":"tt32161505"},{"id":"1275151","type":"movie","title":"She Walks in Darkness","poster":"https://image.tmdb.org/t/p/w342/lR7TH2IlUJWh92HuiYrlb8rNuCp.jpg","year":"2025","result":"HD","language":["Hindi"],"country":["ES"],"original_language":"es","genres":["Drama","Thriller"],"imdb_id":"tt32129665"},{"id":"1274225","type":"movie","title":"Bromance","poster":"https://image.tmdb.org/t/p/w342/2xzgtY0d7xbqeTWdF3tDgd5WeVM.jpg","year":"2025","result":"HD","language":["Hindi"],"country":["IN"],"original_language":"ml","genres":["Comedy","Action"],"imdb_id":"tt32135710"},{"id":"1273049","type":"movie","title":"Dragon","poster":"https://image.tmdb.org/t/p/w342/vKNJPuejtE6Xrp6RK6LKsQcbL8L.jpg","year":"2025","result":"HD","language":["Hindi"],"country":["IN"],"original_language":"ta","genres":["Romance","Comedy","Drama"],"imdb_id":"tt32080876"},{"id":"1272166","type":"movie","title":"Ballad of a Small Player","poster":"https://image.tmdb.org/t/p/w342/yiXpXNiBWENaSJmdKfoT5DU0bL4.jpg","year":"2025","result":"HD","language":["Hindi"],"country":["DE","GB"],"original_language":"en","genres":["Crime","Drama"],"imdb_id":"tt32063098"},{"id":"1272121","type":"movie","title":"Maranamass","poster":"https://image.tmdb.org/t/p/w342/erU6DGyYGEFrnE4reiGX3pytU2e.jpg","year":"2025","result":"HD","language":["Hindi"],"country":["IN"],"original_language":"ml","genres":["Comedy","Crime","Thriller"],"imdb_id":"tt32065993"},{"id":"1270908","type":"movie","title":"The Pet Detective","poster":"https://image.tmdb.org/t/p/w342/ydaAO8A9pIdtLN6K3hSAGVn08rH.jpg","year":"2025","result":"HD","language":["Hindi"],"country":["IN"],"original_language":"ml","genres":["Action","Comedy"],"imdb_id":"tt33333712"},{"id":"1267319","type":"movie","title":"Mantis","poster":"https://image.tmdb.org/t/p/w342/pzsXKLJsZ26HUV1oCMa7WiFFQbW.jpg","year":"2025","result":"HD","language":["Hindi"],"country":["KR"],"original_language":"ko","genres":["Action","Crime","Thriller"],"imdb_id":"tt33312131"},{"id":"1265827","type":"movie","title":"Retro","poster":"https://image.tmdb.org/t/p/w342/yGv62UIUfjrEUlItYPJXb1zU0lB.jpg","year":"2025","result":"HD","language":["Hindi"],"country":["IN"],"original_language":"ta","genres":["Romance","Action","Drama","Crime"],"imdb_id":"tt31945132"},{"id":"1265063","type":"movie","title":"After the Hunt","poster":"https://image.tmdb.org/t/p/w342/ryF8QPGUGlo8gRB4OYKb4J0r3aJ.jpg","year":"2025","result":"HD","language":["Hindi"],"country":["US","IT"],"original_language":"en","genres":["Drama"],"imdb_id":"tt32159989"},{"id":"1263256","type":"movie","title":"Happy Gilmore 2","poster":"https://image.tmdb.org/t/p/w342/nRwDPfYUzzzUQarfMxvPlasxzpL.jpg","year":"2025","result":"HD","language":["Hindi"],"country":["US"],"original_language":"en","genres":["Comedy"],"imdb_id":"tt31868189"},{"id":"1263029","type":"movie","title":"Thammudu","poster":"https://image.tmdb.org/t/p/w342/5rhjx4KLaLrZNxzsBY8j8U6Pntu.jpg","year":"2025","result":"HD","language":["Hindi"],"country":["IN"],"original_language":"te","genres":["Action","Drama"],"imdb_id":"tt27235882"},{"id":"1262815","type":"movie","title":"The Choral","poster":"https://image.tmdb.org/t/p/w342/yQtms7CSM0CE0W6dYbLLAATb5rL.jpg","year":"2025","result":"HD","language":["Hindi"],"country":["GB"],"original_language":"en","genres":["Comedy","Drama","Music"],"imdb_id":"tt31851518"},{"id":"1262669","type":"movie","title":"Kapkapiii","poster":"https://image.tmdb.org/t/p/w342/9m1lSId0hswbOZZozQanUVyf21D.jpg","year":"2025","result":"HD","language":["Hindi"],"country":["IN"],"original_language":"hi","genres":["Horror","Comedy"],"imdb_id":"tt29625386"},{"id":"1262548","type":"movie","title":"Uppu Kappurambu","poster":"https://image.tmdb.org/t/p/w342/xzduT5nNgmjvfD9pJom265S9te3.jpg","year":"2025","result":"HD","language":["Hindi"],"country":["IN","US"],"original_language":"te","genres":["Comedy","Drama"],"imdb_id":"tt31850758"},{"id":"1261825","type":"movie","title":"Oh. What. Fun.","poster":"https://image.tmdb.org/t/p/w342/qynCyBKCJUUcj4wo4PE2aQVvote.jpg","year":"2025","result":"HD","language":["Hindi"],"country":["US"],"original_language":"en","genres":["Comedy"],"imdb_id":"tt31998881"},{"id":"1261125","type":"movie","title":"Thudarum","poster":"https://image.tmdb.org/t/p/w342/uOTDBabtxHA6szYKQNQe9Y7rFlv.jpg","year":"2025","result":"HD","language":["Hindi"],"country":["IN"],"original_language":"ml","genres":["Action","Drama","Thriller"],"imdb_id":"tt31969600"},{"id":"1259024","type":"movie","title":"Good Bad Ugly","poster":"https://image.tmdb.org/t/p/w342/8DbYYluzdiGDAZzsaP7DWGbwfLd.jpg","year":"2025","result":"HD","language":["Hindi"],"country":["IN"],"original_language":"ta","genres":["Action","Crime","Comedy"],"imdb_id":"tt27540217"},{"id":"1257960","type":"movie","title":"Sikandar","poster":"https://image.tmdb.org/t/p/w342/41s42CRXafa3OuRGvCtfYPEBmse.jpg","year":"2025","result":"HD","language":["Hindi"],"country":["IN"],"original_language":"hi","genres":["Action","Drama"],"imdb_id":"tt31712434"},{"id":"1257957","type":"movie","title":"Bison Kaalamaadan","poster":"https://image.tmdb.org/t/p/w342/5IPFJ2XFbYjdIw4912ZufCMolX.jpg","year":"2025","result":"HD","language":["Hindi"],"country":["IN"],"original_language":"ta","genres":["Drama","Action"],"imdb_id":"tt15097358"},{"id":"1257693","type":"movie","title":"Odela 2","poster":"https://image.tmdb.org/t/p/w342/xG5SdRKXjWupcwXj2JJLOSX0PiS.jpg","year":"2025","result":"HD","language":["Hindi"],"country":["IN"],"original_language":"te","genres":["Thriller","Adventure","Crime"],"imdb_id":"tt31529147"},{"id":"1257009","type":"movie","title":"Primitive War","poster":"https://image.tmdb.org/t/p/w342/fZnY97zAyATRH50Q1I92fQy1hUg.jpg","year":"2025","result":"HD","language":["Hindi"],"country":["AU"],"original_language":"en","genres":["Action","Horror","War","Science Fiction"],"imdb_id":"tt18312380"},{"id":"1255775","type":"movie","title":"Merv","poster":"https://image.tmdb.org/t/p/w342/nfGlYjINEcGtxV46viW4olwHHSz.jpg","year":"2025","result":"HD","language":["Hindi"],"country":["US"],"original_language":"en","genres":["Comedy","Romance"],"imdb_id":"tt31281659"},{"id":"1254590","type":"movie","title":"Kalamkaval","poster":"https://image.tmdb.org/t/p/w342/5vdogNH72GrriiZ45H8U7CPWGfO.jpg","year":"2025","result":"HD","language":["Hindi"],"country":["IN"],"original_language":"ml","genres":["Crime","Drama"],"imdb_id":"tt33500164"},{"id":"1252382","type":"movie","title":"Tyler Perry's Finding Joy","poster":"https://image.tmdb.org/t/p/w342/sUMdbrjHhMFDY327B31ctpF9MuY.jpg","year":"2025","result":"HD","language":["Hindi"],"country":["US"],"original_language":"en","genres":["Drama"],"imdb_id":"tt31193547"},{"id":"1252037","type":"movie","title":"The Tank","poster":"https://image.tmdb.org/t/p/w342/65Jr1JAgWlu9em8zHhAfrNJJQBt.jpg","year":"2025","result":"HD","language":["Hindi"],"country":["DE"],"original_language":"de","genres":["War","Action","Drama"],"imdb_id":"tt31495504"},{"id":"1251970","type":"movie","title":"Padakkalam","poster":"https://image.tmdb.org/t/p/w342/9m4lvnqvwppA4BIoxqcWsWna5is.jpg","year":"2025","result":"HD","language":["Hindi"],"country":["IN"],"original_language":"ml","genres":["Comedy","Fantasy"],"imdb_id":"tt32919734"},{"id":"1251717","type":"movie","title":"Vicious","poster":"https://image.tmdb.org/t/p/w342/shKGDGrwqmc9x2aTJcQszoXinq0.jpg","year":"2025","result":"HD","language":["Hindi"],"country":["US"],"original_language":"en","genres":["Horror","Thriller"],"imdb_id":"tt31511689"},{"id":"1251551","type":"movie","title":"Pravinkoodu Shappu","poster":"https://image.tmdb.org/t/p/w342/19RY8hiPUklE2UrjQrUiSgyVO5f.jpg","year":"2025","result":"HD","language":["Hindi"],"country":["IN"],"original_language":"ml","genres":["Thriller","Crime","Mystery"],"imdb_id":"tt32539176"}]}