{"page":64,"total_pages":67,"total_items":3303,"items":[{"id":"8456","type":"movie","title":"Never Back Down","poster":"https://image.tmdb.org/t/p/w342/8oRUTyP1QAtGDMvRpKZyuyFPG0U.jpg","year":"2008","result":"HD","language":["Hindi"],"country":["US"],"original_language":"en","genres":["Drama","Action"],"imdb_id":"tt1023111"},{"id":"1726","type":"movie","title":"Iron Man","poster":"https://image.tmdb.org/t/p/w342/78lPtwv72eTNqFW9COBYI0dWDJa.jpg","year":"2008","result":"HD","language":["Hindi"],"country":["US"],"original_language":"en","genres":["Action","Science Fiction","Adventure"],"imdb_id":"tt0371746"},{"id":"155","type":"movie","title":"The Dark Knight","poster":"https://image.tmdb.org/t/p/w342/qJ2tW6WMUDux911r6m7haRef0WH.jpg","year":"2008","result":"HD","language":["Hindi"],"country":["GB","US"],"original_language":"en","genres":["Action","Crime","Thriller"],"imdb_id":"tt0468569"},{"id":"8277","type":"movie","title":"American Pie Presents: Beta House","poster":"https://image.tmdb.org/t/p/w342/j7eGbwVb9hTaRFWMlSa7C1OYp3T.jpg","year":"2007","result":"HD","language":["Hindi"],"country":["US","CA"],"original_language":"en","genres":["Comedy"],"imdb_id":"tt0974959"},{"id":"810","type":"movie","title":"Shrek the Third","poster":"https://image.tmdb.org/t/p/w342/n4SexGGQzI26E269tfpa80MZaGV.jpg","year":"2007","result":"HD","language":["Hindi"],"country":["US"],"original_language":"en","genres":["Fantasy","Adventure","Animation","Comedy","Family"],"imdb_id":"tt0413267"},{"id":"70024","type":"movie","title":"Bats: Human Harvest","poster":"https://image.tmdb.org/t/p/w342/ykRiMerjJPWeVlPamivyWhBgnM0.jpg","year":"2007","result":"HD","language":["Hindi"],"country":["US","BG"],"original_language":"en","genres":["Horror"],"imdb_id":"tt0482163"},{"id":"14144","type":"movie","title":"Daddy Day Camp","poster":"https://image.tmdb.org/t/p/w342/fhuhSVb3j8SShe6FhnVUAfSRg6h.jpg","year":"2007","result":"HD","language":["Hindi"],"country":["US"],"original_language":"en","genres":["Family","Comedy"],"imdb_id":"tt0462244"},{"id":"4556","type":"movie","title":"Nightwatching","poster":"https://image.tmdb.org/t/p/w342/vcwa1RqvoYLQIKOA4EjjPNhrkJx.jpg","year":"2007","result":"HD","language":["Hindi"],"country":["CA","NL","PL","GB"],"original_language":"en","genres":["Drama","History"],"imdb_id":"tt0446750"},{"id":"1691","type":"movie","title":"Hostel: Part II","poster":"https://image.tmdb.org/t/p/w342/qB20aiY8Ah3pQikkBxm3j7jQVc8.jpg","year":"2007","result":"HD","language":["Hindi"],"country":["US","CZ"],"original_language":"en","genres":["Horror"],"imdb_id":"tt0498353"},{"id":"4588","type":"movie","title":"Lust, Caution","poster":"https://image.tmdb.org/t/p/w342/6c1tqfJEBuIyhQC19SLlLQAUAvJ.jpg","year":"2007","result":"HD","language":["Hindi"],"country":["CN","HK","TW","US"],"original_language":"zh","genres":["Action","Drama","Romance","Thriller"],"imdb_id":"tt0808357"},{"id":"20223","type":"movie","title":"Charm School","poster":"https://image.tmdb.org/t/p/w342/1tnxyJ18qmSfafLOpS3cRXVsAym.jpg","year":"2007","result":"HD","language":["Hindi"],"country":["MX"],"original_language":"es","genres":["Comedy"],"imdb_id":"tt0806940"},{"id":"1991","type":"movie","title":"Death Proof","poster":"https://image.tmdb.org/t/p/w342/vtu6H4NWnQVqEp3aanUq3hNeeot.jpg","year":"2007","result":"HD","language":["Hindi"],"country":["US"],"original_language":"en","genres":["Action","Thriller"],"imdb_id":"tt1028528"},{"id":"8275","type":"movie","title":"American Pie Presents: The Naked Mile","poster":"https://image.tmdb.org/t/p/w342/6CPJVJrqVjibP5Uub8yCg4FKtJi.jpg","year":"2006","result":"HD","language":["Hindi"],"country":["US"],"original_language":"en","genres":["Comedy"],"imdb_id":"tt0808146"},{"id":"8997","type":"movie","title":"Hollow Man II","poster":"https://image.tmdb.org/t/p/w342/c6Ga1AUGPe3GwlpX3qDYrD9y3EZ.jpg","year":"2006","result":"HD","language":["Hindi"],"country":["US"],"original_language":"en","genres":["Horror","Thriller","Science Fiction"],"imdb_id":"tt0469916"},{"id":"15420","type":"movie","title":"The Plague","poster":"https://image.tmdb.org/t/p/w342/oC1IDjpUXbWwmJnWGb9FBldinoG.jpg","year":"2006","result":"HD","language":["Hindi"],"country":["US"],"original_language":"en","genres":["Thriller","Horror"],"imdb_id":"tt0479125"},{"id":"53335","type":"movie","title":"Candy Stripers","poster":"https://image.tmdb.org/t/p/w342/6RtNbXjAm6MAPaGz0JtlzPrwOU4.jpg","year":"2006","result":"HD","language":["Hindi"],"country":["US"],"original_language":"en","genres":["Horror"],"imdb_id":"tt0463935"},{"id":"1690","type":"movie","title":"Hostel","poster":"https://image.tmdb.org/t/p/w342/dDrtuWUKhgUGp12kgUWuP0NpTdF.jpg","year":"2006","result":"HD","language":["Hindi"],"country":["US","CZ"],"original_language":"en","genres":["Horror"],"imdb_id":"tt0450278"},{"id":"19976","type":"movie","title":"The Exterminating Angels","poster":"https://image.tmdb.org/t/p/w342/oYx8T7LeALZcdGF0JhshWDZxeoH.jpg","year":"2006","result":"HD","language":["Hindi"],"country":["FR"],"original_language":"fr","genres":["Drama","Fantasy"],"imdb_id":"tt0792948"},{"id":"14620","type":"movie","title":"The Butterfly Effect 2","poster":"https://image.tmdb.org/t/p/w342/g87nPhHf2xfENBV6PCbkO88sthd.jpg","year":"2006","result":"HD","language":["ENGLISH"],"country":["US"],"original_language":"en","genres":["Drama","Science Fiction","Thriller"],"imdb_id":"tt0457297"},{"id":"13916","type":"tv","title":"Death Note","poster":"https://image.tmdb.org/t/p/w342/tCZFfYTIwrR7n94J6G14Y4hAFU6.jpg","year":"2006","result":"HD","language":["Hindi"],"country":["JP"],"original_language":"ja","genres":["Animation","Mystery","Sci-Fi & Fantasy"],"imdb_id":"tt0877057","latest_uploaded_season":1,"total_uploaded_episodes":37},{"id":"8975","type":"movie","title":"The Marine","poster":"https://image.tmdb.org/t/p/w342/pONyvBJwHNg5CWu7mtsv4qaq75C.jpg","year":"2006","result":"HD","language":["Hindi"],"country":["AU","US"],"original_language":"en","genres":["Action"],"imdb_id":"tt0419946"},{"id":"8274","type":"movie","title":"American Pie Presents: Band Camp","poster":"https://image.tmdb.org/t/p/w342/6BgKeWEGROpWwEWvpw7vwfTCr9C.jpg","year":"2005","result":"HD","language":["Hindi"],"country":["US"],"original_language":"en","genres":["Comedy"],"imdb_id":"tt0436058"},{"id":"7295","type":"movie","title":"8MM 2","poster":"https://image.tmdb.org/t/p/w342/bSikt4O0ZrR8xVrsP8wliGybZwU.jpg","year":"2005","result":"HD","language":["Hindi"],"country":["HU","US"],"original_language":"en","genres":["Thriller","Mystery","Drama"],"imdb_id":"tt0448172"},{"id":"206013","type":"movie","title":"Spirit Bear: The Simon Jackson Story","poster":"https://image.tmdb.org/t/p/w342/qHUUEa0pfeSAnqqzVihke8unuQj.jpg","year":"2005","result":"HD","language":["Hindi"],"country":[],"original_language":"en","genres":["Drama","Family","Adventure"],"imdb_id":"tt0432088"},{"id":"17124","type":"movie","title":"Wild Things: Diamonds in the Rough","poster":"https://image.tmdb.org/t/p/w342/1O01MpwB6eV0ars0Jxk0yh4x5ED.jpg","year":"2005","result":"HD","language":["Hindi"],"country":["US"],"original_language":"en","genres":["Crime","Drama","Mystery"],"imdb_id":"tt0448179"},{"id":"14174","type":"movie","title":"Lie with Me","poster":"https://image.tmdb.org/t/p/w342/qG2KYlTxTZbKcXJHMe1OG7aI4un.jpg","year":"2005","result":"HD","language":["Hindi"],"country":["CA"],"original_language":"en","genres":["Drama"],"imdb_id":"tt0418832"},{"id":"127711","type":"movie","title":"Sueno","poster":"https://image.tmdb.org/t/p/w342/huJxYV08PB3uxrBNbhE2e5msT4f.jpg","year":"2005","result":"HD","language":["Hindi"],"country":["US"],"original_language":"en","genres":["Drama","Comedy","Romance"],"imdb_id":"tt0383648"},{"id":"19495","type":"movie","title":"Nomad: The Warrior","poster":"https://image.tmdb.org/t/p/w342/vLHtz57xpPBrIl9YAhEgC29LCyk.jpg","year":"2005","result":"HD","language":["Hindi"],"country":["FR","KZ","RU","US"],"original_language":"ru","genres":["Action","History","War"],"imdb_id":"tt0374089"},{"id":"1622","type":"tv","title":"Supernatural","poster":"https://image.tmdb.org/t/p/w342/u40gJarLPlIkwouKlzGdobQOV9k.jpg","year":"2005","result":"HD","language":["English"],"country":["US"],"original_language":"en","genres":["Drama","Mystery","Sci-Fi & Fantasy"],"imdb_id":"tt0460681","latest_uploaded_season":1,"total_uploaded_episodes":22},{"id":"8699","type":"movie","title":"Anchorman: The Legend of Ron Burgundy","poster":"https://image.tmdb.org/t/p/w342/mhZIcRePT7U8viFQVjt1ZjYIsR4.jpg","year":"2004","result":"HD","language":["Hindi"],"country":["US"],"original_language":"en","genres":["Comedy"],"imdb_id":"tt0357413"},{"id":"5460","type":"movie","title":"Cruel Intentions 3","poster":"https://image.tmdb.org/t/p/w342/pxjJf3QnZxe3EO8NuwEeK0Yldcd.jpg","year":"2004","result":"HD","language":["Hindi"],"country":["US"],"original_language":"en","genres":["Drama"],"imdb_id":"tt0391891"},{"id":"34601","type":"movie","title":"Three Way","poster":"https://image.tmdb.org/t/p/w342/4sDNvHPwnCy6dQBU4FjSawNhrow.jpg","year":"2004","result":"HD","language":["Hindi"],"country":["US"],"original_language":"en","genres":["Crime","Drama","Thriller"],"imdb_id":"tt0368343"},{"id":"17209","type":"movie","title":"Madhouse","poster":"https://image.tmdb.org/t/p/w342/ug2DwSZ5WCgMUJcWfEPn7wIHtpn.jpg","year":"2004","result":"HD","language":["Hindi"],"country":["US","GB","RO"],"original_language":"en","genres":["Horror","Thriller"],"imdb_id":"tt0363276"},{"id":"39291","type":"movie","title":"Motives","poster":"https://image.tmdb.org/t/p/w342/sqGiAqnPgW6XUv7oYRiahKnCxXo.jpg","year":"2004","result":"HD","language":["Hindi"],"country":["US"],"original_language":"en","genres":["Drama","Thriller","Mystery","Romance"],"imdb_id":"tt0365519"},{"id":"1954","type":"movie","title":"The Butterfly Effect","poster":"https://image.tmdb.org/t/p/w342/ea5iv7TWMh18fOKoRGgmtcg85Gx.jpg","year":"2004","result":"HD","language":["English"],"country":["CA","US"],"original_language":"en","genres":["Science Fiction","Thriller"],"imdb_id":"tt0289879"},{"id":"8080","type":"movie","title":"Suspect Zero","poster":"https://image.tmdb.org/t/p/w342/sIIahTE5sfOJtieytf252kB9RcS.jpg","year":"2004","result":"HD","language":["Hindi"],"country":["DE","GB","US"],"original_language":"en","genres":["Crime","Thriller"],"imdb_id":"tt0324127"},{"id":"1538","type":"movie","title":"Collateral","poster":"https://image.tmdb.org/t/p/w342/nV5316WUsVij8sVXLCF1g7TFitg.jpg","year":"2004","result":"HD","language":["Hindi"],"country":["US"],"original_language":"en","genres":["Drama","Crime","Thriller"],"imdb_id":"tt0369339"},{"id":"1693","type":"movie","title":"Monster Man","poster":"https://image.tmdb.org/t/p/w342/iFCta7mFC7aVTPMA3opH8Vq62Pn.jpg","year":"2003","result":"HD","language":["Hindi"],"country":["GB"],"original_language":"en","genres":["Horror","Comedy"],"imdb_id":"tt0365513"},{"id":"8273","type":"movie","title":"American Pie Presents American Wedding","poster":"https://image.tmdb.org/t/p/w342/pCO3lJv2PzPkJty29APxCVSjyoE.jpg","year":"2003","result":"HD","language":["ENGLISH"],"country":["US"],"original_language":"en","genres":["Comedy","Romance"],"imdb_id":"tt0328828"},{"id":"98613","type":"movie","title":"Doraemon: Nobita and the Windmasters","poster":"https://image.tmdb.org/t/p/w342/kdBLKFviJckRXOCgPqkTQK16Rq0.jpg","year":"2003","result":"HD","language":["Hindi"],"country":["JP"],"original_language":"ja","genres":["Animation","Fantasy","Adventure","Family","Science Fiction"],"imdb_id":"tt0473474"},{"id":"302","type":"movie","title":"Swimming Pool","poster":"https://image.tmdb.org/t/p/w342/10xMAznUxI0LZPYyPxA9WjJsThr.jpg","year":"2003","result":"HD","language":["Hindi"],"country":["FR","GB"],"original_language":"en","genres":["Crime","Thriller"],"imdb_id":"tt0324133"},{"id":"11820","type":"movie","title":"Mona Lisa Smile","poster":"https://image.tmdb.org/t/p/w342/bg0VKsXnLjIZ0cHmZHZLs9gzrvm.jpg","year":"2003","result":"HD","language":["Hindi"],"country":["US"],"original_language":"en","genres":["Drama","History","Romance"],"imdb_id":"tt0304415"},{"id":"10601","type":"movie","title":"Peter Pan","poster":"https://image.tmdb.org/t/p/w342/6QdU3TZZrIvXFzoHOwafZAynFjB.jpg","year":"2003","result":"HD","language":["Hindi"],"country":["GB","US","AU"],"original_language":"en","genres":["Adventure","Fantasy","Family"],"imdb_id":"tt0316396"},{"id":"670","type":"movie","title":"Oldboy","poster":"https://image.tmdb.org/t/p/w342/pWDtjs568ZfOTMbURQBYuT4Qxka.jpg","year":"2003","result":"HD","language":["Hindi"],"country":["KR"],"original_language":"ko","genres":["Drama","Thriller","Mystery","Action"],"imdb_id":"tt0364569"},{"id":"333","type":"tv","title":"Jewel in the Palace","poster":"https://image.tmdb.org/t/p/w342/oiDr9sZPluqKJH8o0vuX5Dh61dh.jpg","year":"2003","result":"HD","language":["Hindi"],"country":["KR"],"original_language":"ko","genres":["Drama"],"imdb_id":"tt0409546","latest_uploaded_season":1,"total_uploaded_episodes":54},{"id":"14365","type":"movie","title":"Killing Me Softly","poster":"https://image.tmdb.org/t/p/w342/pgfFJw7mqAmJdZizrJ6oOK0ejOZ.jpg","year":"2002","result":"HD","language":["Hindi"],"country":["GB","US"],"original_language":"en","genres":["Thriller","Crime"],"imdb_id":"tt0250468"},{"id":"9884","type":"movie","title":"Collateral Damage","poster":"https://image.tmdb.org/t/p/w342/rALb2pU8QQGIlYdHezB2F5kwecI.jpg","year":"2002","result":"HD","language":["Hindi"],"country":["US"],"original_language":"en","genres":["Action","Thriller","Drama"],"imdb_id":"tt0233469"},{"id":"7451","type":"movie","title":"xXx","poster":"https://image.tmdb.org/t/p/w342/xeEw3eLeSFmJgXZzmF2Efww0q3s.jpg","year":"2002","result":"HD","language":["Hindi"],"country":["US"],"original_language":"en","genres":["Action","Adventure","Thriller","Crime","Drama"],"imdb_id":"tt0295701"},{"id":"65","type":"movie","title":"8 Mile","poster":"https://image.tmdb.org/t/p/w342/7BmQj8qE1FLuLTf7Xjf9sdIHzoa.jpg","year":"2002","result":"HD","language":["Hindi"],"country":["DE","US"],"original_language":"en","genres":["Drama","Music"],"imdb_id":"tt0298203"},{"id":"2770","type":"movie","title":"American Pie 2","poster":"https://image.tmdb.org/t/p/w342/854ZZxXdeabAs90mrV72NqShJqR.jpg","year":"2001","result":"HD","language":["Hindi"],"country":["US"],"original_language":"en","genres":["Comedy","Romance"],"imdb_id":"tt0252866"}]}