{"page":48,"total_pages":67,"total_items":3303,"items":[{"id":"135814","type":"tv","title":"Lady Voyeur","poster":"https://image.tmdb.org/t/p/w342/5BqzppbUELOLDUSuS8d9mWz97iH.jpg","year":"2023","result":"HD","language":["Hindi"],"country":["BR"],"original_language":"pt","genres":["Drama","Mystery"],"imdb_id":"tt15525658","latest_uploaded_season":1,"total_uploaded_episodes":10},{"id":"1078012","type":"movie","title":"Boonie Bears: Guardian Code","poster":"https://image.tmdb.org/t/p/w342/lIR8h3Os8peWOave8CGE7xsTFoi.jpg","year":"2023","result":"HD","language":["Hindi"],"country":["CN"],"original_language":"zh","genres":["Animation","Comedy","Science Fiction","Family","Adventure"],"imdb_id":"tt25981462"},{"id":"129959","type":"tv","title":"Kung Fu Panda: The Dragon Knight","poster":"https://image.tmdb.org/t/p/w342/7C9TKvU5dNyhvoG9kQvRFsg6vlA.jpg","year":"2023","result":"HD","language":["Hindi"],"country":["US"],"original_language":"en","genres":["Animation","Action & Adventure","Comedy","Kids","Sci-Fi & Fantasy"],"imdb_id":"tt18783984","latest_uploaded_season":3,"total_uploaded_episodes":21},{"id":"848326","type":"movie","title":"Rebel Moon - Part One: A Child of Fire","poster":"https://image.tmdb.org/t/p/w342/ui4DrH1cKk2vkHshcUcGt2lKxCm.jpg","year":"2023","result":"HD","language":["Hindi"],"country":["US"],"original_language":"en","genres":["Science Fiction","Action","Adventure"],"imdb_id":"tt14998742"},{"id":"906126","type":"movie","title":"Society of the Snow","poster":"https://image.tmdb.org/t/p/w342/2e853FDVSIso600RqAMunPxiZjq.jpg","year":"2023","result":"HD","language":["Hindi"],"country":["ES","US"],"original_language":"es","genres":["Drama","History"],"imdb_id":"tt16277242"},{"id":"1109534","type":"movie","title":"The Dive","poster":"https://image.tmdb.org/t/p/w342/1aLFglfGkTFG5p6KQg9o07EN3rl.jpg","year":"2023","result":"HD","language":["Hindi"],"country":["BE","FR","DE","MT","GB"],"original_language":"en","genres":["Thriller","Adventure"],"imdb_id":"tt13566172"},{"id":"1179085","type":"movie","title":"The PA and the Manhattan Prince","poster":"https://image.tmdb.org/t/p/w342/ehAxN7gYBtGkfDLPAMfMuXEL7Uy.jpg","year":"2023","result":"HD","language":["Hindi"],"country":["US"],"original_language":"en","genres":["TV Movie","Comedy","Romance","Family"],"imdb_id":"tt29137326"},{"id":"875188","type":"movie","title":"Kho Gaye Hum Kahan","poster":"https://image.tmdb.org/t/p/w342/WUptEusy1sMh3s46Ik7QbfoKts.jpg","year":"2023","result":"HD","language":["Hindi"],"country":["IN"],"original_language":"hi","genres":["Drama","Comedy"],"imdb_id":"tt15434074"},{"id":"1211409","type":"movie","title":"Kya Masti Kya Dhoom","poster":"https://image.tmdb.org/t/p/w342/zq7nyJ5Egw0T0mmBP723oPtbH0P.jpg","year":"2023","result":"HD","language":["Hindi"],"country":["IN"],"original_language":"hi","genres":["Comedy"],"imdb_id":"tt9286896"},{"id":"1093879","type":"movie","title":"The Keepers of the 5 Kingdoms","poster":"https://image.tmdb.org/t/p/w342/zITBvIWO2LRVAVx8BD1KyMWUx47.jpg","year":"2023","result":"HD","language":["Hindi"],"country":["US"],"original_language":"en","genres":["Adventure","Fantasy","Family"],"imdb_id":"tt8959084"},{"id":"945106","type":"movie","title":"Memories","poster":"https://image.tmdb.org/t/p/w342/jyeiTD4mkQrqtApb5FvcwYgUbHK.jpg","year":"2023","result":"HD","language":["Hindi"],"country":["IN"],"original_language":"ta","genres":["Thriller","Mystery"],"imdb_id":"tt14962838"},{"id":"1167842","type":"movie","title":"Rangoli","poster":"https://image.tmdb.org/t/p/w342/iGkbrUo20knzN57sSicrf81r4q4.jpg","year":"2023","result":"HD","language":["Hindi"],"country":["IN"],"original_language":"ta","genres":["Family","Drama","Romance"],"imdb_id":"tt21328202"},{"id":"852445","type":"movie","title":"Acid","poster":"https://image.tmdb.org/t/p/w342/6JrZMrk3ZlQFURI7nmKGMxnTUCs.jpg","year":"2023","result":"HD","language":["Hindi"],"country":["FR","BE"],"original_language":"fr","genres":["Drama","Science Fiction","Fantasy"],"imdb_id":"tt17569526"},{"id":"572802","type":"movie","title":"Aquaman and the Lost Kingdom","poster":"https://image.tmdb.org/t/p/w342/7lTnXOy0iNtBAdRP3TZvaKJ77F6.jpg","year":"2023","result":"HD","language":["Hindi"],"country":["US"],"original_language":"en","genres":["Action","Adventure","Fantasy"],"imdb_id":"tt9663764"},{"id":"1081709","type":"movie","title":"Black Barbie","poster":"https://image.tmdb.org/t/p/w342/y6vyzS6gIhC8vriCf0axTZyxErg.jpg","year":"2023","result":"HD","language":["Hindi"],"country":["US"],"original_language":"en","genres":["Documentary"],"imdb_id":"tt26593387"},{"id":"897160","type":"movie","title":"Brave Citizen","poster":"https://image.tmdb.org/t/p/w342/ixQoOExnnvIxYvnqGgfhaWqXeXc.jpg","year":"2023","result":"HD","language":["Hindi"],"country":["KR"],"original_language":"ko","genres":["Action","Drama","Comedy"],"imdb_id":"tt22505214"},{"id":"1223272","type":"movie","title":"Contagion of Fear","poster":"https://image.tmdb.org/t/p/w342/A5muc6PtApC9ubfmJW3ADRnIIfi.jpg","year":"2023","result":"HD","language":["Hindi"],"country":["AU"],"original_language":"en","genres":["Science Fiction","Thriller"],"imdb_id":"tt27219087"},{"id":"62286","type":"tv","title":"Fear the Walking Dead","poster":"https://image.tmdb.org/t/p/w342/l7N9aS6VyYvjelKoCB2eZge0Qky.jpg","year":"2023","result":"HD","language":["Hindi"],"country":["US"],"original_language":"en","genres":["Action & Adventure","Drama"],"imdb_id":"tt3743822","latest_uploaded_season":8,"total_uploaded_episodes":113},{"id":"913001","type":"movie","title":"The Imaginary","poster":"https://image.tmdb.org/t/p/w342/j2a9eQaoI91EuKnhGbE8yvPfmyV.jpg","year":"2023","result":"HD","language":["Hindi"],"country":["JP"],"original_language":"ja","genres":["Animation","Adventure","Drama","Family","Fantasy"],"imdb_id":"tt16369708"},{"id":"787699","type":"movie","title":"Wonka","poster":"https://image.tmdb.org/t/p/w342/qhb1qOilapbapxWQn9jtRCMwXJF.jpg","year":"2023","result":"HD","language":["Hindi"],"country":["GB","US"],"original_language":"en","genres":["Comedy","Family","Fantasy"],"imdb_id":"tt6166392"},{"id":"1036619","type":"movie","title":"Good Grief","poster":"https://image.tmdb.org/t/p/w342/wJFHUglmh7xlY7g9Ql85QAJBZ6n.jpg","year":"2023","result":"HD","language":["Hindi"],"country":["US"],"original_language":"en","genres":["Comedy","Drama"],"imdb_id":"tt19887550"},{"id":"927107","type":"movie","title":"The Bricklayer","poster":"https://image.tmdb.org/t/p/w342/36pYugctLa70NmwMEgXTR1G31Kq.jpg","year":"2023","result":"HD","language":["Hindi"],"country":["US"],"original_language":"en","genres":["Action","Thriller"],"imdb_id":"tt2016303"},{"id":"956262","type":"movie","title":"The Kitchen","poster":"https://image.tmdb.org/t/p/w342/tV0hK1BiqYrYlehChv4WJXIWgmZ.jpg","year":"2023","result":"HD","language":["Hindi"],"country":["GB","US"],"original_language":"en","genres":["Science Fiction","Thriller","Drama","Adventure","Comedy"],"imdb_id":"tt4460800"},{"id":"845643","type":"movie","title":"The Piper","poster":"https://image.tmdb.org/t/p/w342/A92IidYEd25UHJGh4baSsTcJ650.jpg","year":"2023","result":"HD","language":["Hindi"],"country":["US"],"original_language":"en","genres":["Horror"],"imdb_id":"tt14197038"},{"id":"973468","type":"movie","title":"WILL","poster":"https://image.tmdb.org/t/p/w342/qAhD2oipCFMUXcZ5YDtQg0pwbUY.jpg","year":"2023","result":"HD","language":["Hindi"],"country":["BE"],"original_language":"nl","genres":["Drama","War","History"],"imdb_id":"tt26067432"},{"id":"240947","type":"tv","title":"I Love You","poster":"https://image.tmdb.org/t/p/w342/mDapdMm0EJtk8Y9fhESyd6KcTu9.jpg","year":"2023","result":"HD","language":["Hindi"],"country":["CN"],"original_language":"zh","genres":["Drama"],"imdb_id":"tt30577526","latest_uploaded_season":1,"total_uploaded_episodes":24},{"id":"1181534","type":"movie","title":"Parinda Paar Geyaa","poster":"https://image.tmdb.org/t/p/w342/6TS2drW57IlA5eIRtd1MXkgyAhK.jpg","year":"2023","result":"HD","language":["Hindi"],"country":["IN"],"original_language":"pa","genres":["Drama","Music"],"imdb_id":"tt29932702"},{"id":"1173558","type":"movie","title":"Burning Betrayal","poster":"https://image.tmdb.org/t/p/w342/3MxgXI3VO7QCNnP0mPBjxLIemNM.jpg","year":"2023","result":"HD","language":["Hindi"],"country":["BR"],"original_language":"pt","genres":["Drama","Mystery","Romance"],"imdb_id":"tt26787296"},{"id":"1027073","type":"movie","title":"In the Land of Saints and Sinners","poster":"https://image.tmdb.org/t/p/w342/443c0xNTLackGkFOKfbPClKMpIk.jpg","year":"2023","result":"HD","language":["Hindi"],"country":["BE","FR","IE","CH","US"],"original_language":"en","genres":["Action","Thriller","Crime"],"imdb_id":"tt15782690"},{"id":"1104435","type":"movie","title":"Lucky Hearts","poster":"https://image.tmdb.org/t/p/w342/z9c2vWBUpMUQIBPQTnzSostzpvw.jpg","year":"2023","result":"HD","language":["Hindi"],"country":["CA","US"],"original_language":"en","genres":["TV Movie","Comedy","Romance"],"imdb_id":"tt27199056"},{"id":"1029880","type":"movie","title":"Nightwatch: Demons Are Forever","poster":"https://image.tmdb.org/t/p/w342/7Bj9qbmTiBdOmVlHeQqoEjsDxul.jpg","year":"2023","result":"HD","language":["Hindi"],"country":["DK"],"original_language":"da","genres":["Horror","Thriller","Mystery"],"imdb_id":"tt6318608"},{"id":"1029880","type":"movie","title":"Nightwatch: Demons Are Forever","poster":"https://image.tmdb.org/t/p/w342/7Bj9qbmTiBdOmVlHeQqoEjsDxul.jpg","year":"2023","result":"HD","language":["Hindi"],"country":["DK"],"original_language":"da","genres":["Horror","Thriller","Mystery"],"imdb_id":"tt6318608"},{"id":"1156202","type":"movie","title":"Stolen","poster":"https://image.tmdb.org/t/p/w342/xR5Endhjm4soY6fPgXY0jrpDZvL.jpg","year":"2023","result":"HD","language":["Hindi"],"country":["IN"],"original_language":"hi","genres":["Drama","Thriller"],"imdb_id":"tt28494851"},{"id":"1164874","type":"movie","title":"Cheta Singh","poster":"https://image.tmdb.org/t/p/w342/enMws0lz7SMg1HzMY4EAtmiXHjE.jpg","year":"2023","result":"HD","language":["Hindi"],"country":["IN"],"original_language":"pa","genres":["Action","Crime","Drama","Thriller"],"imdb_id":"tt21264776"},{"id":"1186347","type":"movie","title":"Chidiyan Da Chamba","poster":"https://image.tmdb.org/t/p/w342/rj7VoJbfIy42Wtfhz9SmaAm5l7.jpg","year":"2023","result":"HD","language":["Hindi"],"country":["IN"],"original_language":"pa","genres":["Drama"],"imdb_id":"tt28378248"},{"id":"1147777","type":"movie","title":"Hostel Hudugaru Bekagiddare","poster":"https://image.tmdb.org/t/p/w342/qUOYHFerIeMGrQWREX3UDrr3AaC.jpg","year":"2023","result":"HD","language":["Hindi"],"country":["IN"],"original_language":"kn","genres":["Comedy"],"imdb_id":"tt23770924"},{"id":"1212788","type":"movie","title":"Kaatera","poster":"https://image.tmdb.org/t/p/w342/iP7pN1Y9OBE2D9unv2Bfwv8c3R1.jpg","year":"2023","result":"HD","language":["Hindi"],"country":["IN"],"original_language":"kn","genres":["Action","Drama","Family","Comedy"],"imdb_id":"tt26744208"},{"id":"1090518","type":"movie","title":"Karungaapiyam","poster":"https://image.tmdb.org/t/p/w342/6ssa2D45PoAdp9lqb5r9reOsREr.jpg","year":"2023","result":"HD","language":["Hindi"],"country":["IN"],"original_language":"ta","genres":["Horror","Mystery","Thriller"],"imdb_id":"tt18934038"},{"id":"1014060","type":"movie","title":"Zwigato","poster":"https://image.tmdb.org/t/p/w342/cy5prmLqNUVOqfEqa0ArhqIRDB1.jpg","year":"2023","result":"HD","language":["Hindi"],"country":["IN"],"original_language":"hi","genres":["Drama"],"imdb_id":"tt21998526"},{"id":"938890","type":"movie","title":"Hunt","poster":"https://image.tmdb.org/t/p/w342/6QnfT7zunSxKwbQmmT9FoxccwZe.jpg","year":"2023","result":"HD","language":["Hindi"],"country":["IN"],"original_language":"te","genres":["Action","Thriller"],"imdb_id":"tt21946058"},{"id":"1040194","type":"movie","title":"Ghost","poster":"https://image.tmdb.org/t/p/w342/a5lfrmeIwacElFYKgCBFM80u0z8.jpg","year":"2023","result":"HD","language":["Hindi"],"country":["IN"],"original_language":"kn","genres":["Action","Thriller"],"imdb_id":"tt27125266"},{"id":"1161550","type":"movie","title":"Paune 9","poster":"https://image.tmdb.org/t/p/w342/orRoouqMgCue45ViwPLVg8RlL5J.jpg","year":"2023","result":"HD","language":["Hindi"],"country":[],"original_language":"pa","genres":[],"imdb_id":"tt15263842"},{"id":"1184551","type":"movie","title":"Berlin","poster":"https://image.tmdb.org/t/p/w342/nBCVdo3NO2UPHO2lnrfZa0NQZfB.jpg","year":"2023","result":"HD","language":["Hindi"],"country":["IN"],"original_language":"hi","genres":["Thriller"],"imdb_id":"tt22480126"},{"id":"227213","type":"tv","title":"Wanru's Journey","poster":"https://image.tmdb.org/t/p/w342/ltmGBH6lypg2cJzaaj7TUbNv2ND.jpg","year":"2023","result":"HD","language":["Hindi"],"country":["CN"],"original_language":"zh","genres":["Drama","Comedy","Action & Adventure"],"imdb_id":"tt27851635","latest_uploaded_season":1,"total_uploaded_episodes":24},{"id":"1321937","type":"movie","title":"Chal Zindagi","poster":"https://image.tmdb.org/t/p/w342/fu2fHbX0a99IfutCrWdWF5KgMrj.jpg","year":"2023","result":"HD","language":["Hindi"],"country":["IN"],"original_language":"hi","genres":["Adventure","Drama"],"imdb_id":"tt27425654"},{"id":"1204091","type":"movie","title":"Mandali","poster":"https://image.tmdb.org/t/p/w342/gWrufWfHj4iFehZzefbvBlO34Pw.jpg","year":"2023","result":"HD","language":["Hindi"],"country":["IN"],"original_language":"hi","genres":["Drama"],"imdb_id":"tt29299059"},{"id":"1199148","type":"movie","title":"Anveshi","poster":"https://image.tmdb.org/t/p/w342/jktsMp8RTKKbDJW9wo5ICy16Rjg.jpg","year":"2023","result":"HD","language":["Hindi"],"country":["IN"],"original_language":"te","genres":["Thriller"],"imdb_id":"tt27656274"},{"id":"1196095","type":"movie","title":"Sharmajee Ki Beti","poster":"https://image.tmdb.org/t/p/w342/vJc61J8aZvLz49BHQ7MXyjgQCzk.jpg","year":"2023","result":"HD","language":["Hindi"],"country":["IN"],"original_language":"hi","genres":["Comedy","Drama"],"imdb_id":"tt9691290"},{"id":"1179317","type":"movie","title":"Lord Curzon Ki Haveli","poster":"https://image.tmdb.org/t/p/w342/3Hvhy3cVYCTWXvHDSX4XlCFfrec.jpg","year":"2023","result":"HD","language":["Hindi"],"country":["GB"],"original_language":"hi","genres":["Comedy","Thriller"],"imdb_id":"tt19223248"},{"id":"1173900","type":"movie","title":"I Am Nezha 2","poster":"https://image.tmdb.org/t/p/w342/vHf7HD3DU7Zz5ZiW5NfxagFHmfg.jpg","year":"2023","result":"HD","language":["Hindi"],"country":["CN"],"original_language":"zh","genres":["Animation","Fantasy","Drama"],"imdb_id":""}]}