{"page":15,"total_pages":67,"total_items":3303,"items":[{"id":"1462245","type":"movie","title":"Saaree","poster":"https://image.tmdb.org/t/p/w342/5Q94u10VJF75uyctLmqw5CL2S1d.jpg","year":"2025","result":"HD","language":["Hindi"],"country":["IN"],"original_language":"te","genres":["Crime","Thriller","Romance"],"imdb_id":"tt31587690"},{"id":"1461114","type":"movie","title":"The Door","poster":"https://image.tmdb.org/t/p/w342/2fTLOS6y3v8SCbkFFRagmYXVZTm.jpg","year":"2025","result":"HD","language":["Hindi"],"country":[],"original_language":"ta","genres":["Horror","Thriller"],"imdb_id":"tt27989109"},{"id":"1459683","type":"movie","title":"Vaathiyar Kuppam","poster":"https://image.tmdb.org/t/p/w342/aDgr57EvtCeTvMFgCWWoKeRjylc.jpg","year":"2025","result":"HD","language":["Hindi"],"country":[],"original_language":"ta","genres":["Drama"],"imdb_id":""},{"id":"1459180","type":"movie","title":"Kaafir - The Movie","poster":"https://image.tmdb.org/t/p/w342/9YzSRKdLd9mRTXamjsVhncXlbCB.jpg","year":"2025","result":"HD","language":["Hindi"],"country":["IN"],"original_language":"hi","genres":["Drama","Thriller"],"imdb_id":"tt36451978"},{"id":"1456539","type":"movie","title":"Manada Kadalu","poster":"https://image.tmdb.org/t/p/w342/x0xOpo7PhpO7rCEC0MtdYolxYK.jpg","year":"2025","result":"HD","language":["Hindi"],"country":[],"original_language":"kn","genres":["Romance","Drama"],"imdb_id":"tt34853311"},{"id":"1456459","type":"movie","title":"Leg Piece","poster":"https://image.tmdb.org/t/p/w342/7Tnbmp7ARfKUQGYMJqkUk9B3c6G.jpg","year":"2025","result":"HD","language":["Hindi"],"country":[],"original_language":"ta","genres":["Comedy","Drama"],"imdb_id":"tt35769446"},{"id":"1455239","type":"movie","title":"Jija Sala Jija","poster":"https://image.tmdb.org/t/p/w342/5qehtvUl1qKekFfTf2uBJy7wIGd.jpg","year":"2025","result":"HD","language":["Hindi"],"country":["IN"],"original_language":"gu","genres":["Comedy","Drama"],"imdb_id":"tt35887869"},{"id":"1454405","type":"movie","title":"Akaal: The Unconquered","poster":"https://image.tmdb.org/t/p/w342/pzf5rPLoE5DdYkcZlvYbrH554rE.jpg","year":"2025","result":"HD","language":["Hindi"],"country":["IN"],"original_language":"pa","genres":["Action","History","Drama"],"imdb_id":"tt35402446"},{"id":"1453684","type":"movie","title":"Zakir Khan: Delulu Express","poster":"https://image.tmdb.org/t/p/w342/5wWUt6Fv1s54Bf1pr0eUsiEUORH.jpg","year":"2025","result":"HD","language":["Hindi"],"country":["IN"],"original_language":"hi","genres":["Comedy"],"imdb_id":"tt36372377"},{"id":"1452776","type":"movie","title":"Baida","poster":"https://image.tmdb.org/t/p/w342/op8Edzg2xHeGiprxJDFUt1OdJfh.jpg","year":"2025","result":"HD","language":["Hindi"],"country":["IN"],"original_language":"hi","genres":["Adventure","Science Fiction","Thriller"],"imdb_id":"tt35217961"},{"id":"1449539","type":"movie","title":"RIWAJ","poster":"https://image.tmdb.org/t/p/w342/me7RIXcNdZqaBpXW4swBKNIN12Z.jpg","year":"2025","result":"HD","language":["Hindi"],"country":[],"original_language":"en","genres":["Drama","Family"],"imdb_id":"tt27940347"},{"id":"1449364","type":"movie","title":"Subham","poster":"https://image.tmdb.org/t/p/w342/hl3jiH0YjLRUZXWY2xqHNNTi1Eg.jpg","year":"2025","result":"HD","language":["Hindi"],"country":["IN"],"original_language":"te","genres":["Horror","Comedy"],"imdb_id":"tt34376523"},{"id":"1448560","type":"movie","title":"Wildcat","poster":"https://image.tmdb.org/t/p/w342/h893ImjM6Fsv5DFhKJdlZFZIJno.jpg","year":"2025","result":"HD","language":["Hindi"],"country":["GB"],"original_language":"en","genres":["Action","Thriller"],"imdb_id":"tt36153493"},{"id":"1447985","type":"movie","title":"Aachari Baa","poster":"https://image.tmdb.org/t/p/w342/dGUJofA1WdL2j66CZUWbyQdaEye.jpg","year":"2025","result":"HD","language":["Hindi"],"country":["IN"],"original_language":"hi","genres":["Drama"],"imdb_id":"tt36129120"},{"id":"1447652","type":"movie","title":"Mithde","poster":"https://image.tmdb.org/t/p/w342/aNSeCYQi1ufDueaLcclab51xnfr.jpg","year":"2025","result":"HD","language":["Hindi"],"country":["IN"],"original_language":"pa","genres":["Romance","Drama"],"imdb_id":"tt34930723"},{"id":"1447219","type":"movie","title":"Arjun S/O Vyjayanthi","poster":"https://image.tmdb.org/t/p/w342/3AvCdsmYx6gZ83Bitd9n9ejDLyO.jpg","year":"2025","result":"HD","language":["Hindi"],"country":["IN"],"original_language":"te","genres":["Action","Crime","Thriller"],"imdb_id":"tt28291501"},{"id":"1447109","type":"movie","title":"Ghich Pich","poster":"https://image.tmdb.org/t/p/w342/zQiAoLfGxD3XYlQ4xULS7RN70RA.jpg","year":"2025","result":"HD","language":["Hindi"],"country":["IN"],"original_language":"hi","genres":["Drama","Family","Comedy"],"imdb_id":"tt36014845"},{"id":"1445070","type":"movie","title":"Legally Veer","poster":"https://image.tmdb.org/t/p/w342/8WKeDF6A3s6DGOs8iocVe3BBZxM.jpg","year":"2025","result":"HD","language":["Hindi"],"country":[],"original_language":"te","genres":[],"imdb_id":"tt34896026"},{"id":"1444973","type":"movie","title":"Jatadhara","poster":"https://image.tmdb.org/t/p/w342/91aJa79gHiTUWh86XFRMaD2MGjj.jpg","year":"2025","result":"HD","language":["Hindi"],"country":["IN"],"original_language":"te","genres":["Action","Horror","Thriller"],"imdb_id":"tt32813410"},{"id":"1444425","type":"movie","title":"Six Each","poster":"https://image.tmdb.org/t/p/w342/mSUD3y15nNurCWZv2DyJwalWo2Z.jpg","year":"2025","result":"HD","language":["Hindi"],"country":["IN"],"original_language":"pa","genres":["Crime","Drama"],"imdb_id":"tt35684679"},{"id":"1444255","type":"movie","title":"14 Days (Girlfriend Intlo)","poster":"https://image.tmdb.org/t/p/w342/mnpAFHfTEwurjZUEhV3cJVNENYy.jpg","year":"2025","result":"HD","language":["Hindi"],"country":[],"original_language":"te","genres":["Comedy","Romance"],"imdb_id":"tt31116092"},{"id":"1443762","type":"movie","title":"The Big Fake","poster":"https://image.tmdb.org/t/p/w342/A188B94iDLdB6499QBYbz74WgOF.jpg","year":"2025","result":"HD","language":["Hindi"],"country":["IT"],"original_language":"it","genres":["Thriller","Crime","Drama"],"imdb_id":"tt36741457"},{"id":"1442778","type":"movie","title":"Nikka Zaildar 4","poster":"https://image.tmdb.org/t/p/w342/dPbyKQaYwEIE6qzuM2snwOlZbGj.jpg","year":"2025","result":"HD","language":["Hindi"],"country":["IN"],"original_language":"pa","genres":["Comedy","Drama","Romance"],"imdb_id":"tt31307640"},{"id":"1442486","type":"movie","title":"Tuk Tuk","poster":"https://image.tmdb.org/t/p/w342/AsUsLOZBMpb6zqofvt7yxcbJVEJ.jpg","year":"2025","result":"HD","language":["Hindi"],"country":["IN"],"original_language":"te","genres":["Drama","Comedy","Mystery"],"imdb_id":"tt33088937"},{"id":"1441563","type":"movie","title":"My Secret Santa","poster":"https://image.tmdb.org/t/p/w342/tpOAzBasKPsKwsUtPZOx1Mzuqq3.jpg","year":"2025","result":"HD","language":["Hindi"],"country":["US"],"original_language":"en","genres":["Comedy","Romance"],"imdb_id":"tt35219851"},{"id":"1440754","type":"movie","title":"Dil Dosti Aur Dogs","poster":"https://image.tmdb.org/t/p/w342/zVkCKohDO7Xw7Iq5aoyootDhBG7.jpg","year":"2025","result":"HD","language":["Hindi"],"country":[],"original_language":"hi","genres":["Drama","Romance","Family"],"imdb_id":"tt16141930"},{"id":"1440700","type":"movie","title":"Little Hearts","poster":"https://image.tmdb.org/t/p/w342/qDTHRLgYTUAZimgNsmG6t2Saabz.jpg","year":"2025","result":"HD","language":["Hindi"],"country":["IN"],"original_language":"te","genres":["Comedy","Romance","Drama"],"imdb_id":"tt37962245"},{"id":"1439747","type":"movie","title":"Kishkindhapuri","poster":"https://image.tmdb.org/t/p/w342/uRQ31dXsGHbiubJdObhGVzDiH3n.jpg","year":"2025","result":"HD","language":["Hindi"],"country":["IN"],"original_language":"te","genres":["Horror","Thriller","Comedy","Drama"],"imdb_id":"tt32175880"},{"id":"1439367","type":"movie","title":"Asthram","poster":"https://image.tmdb.org/t/p/w342/19lIAAGCQ8hocMoB4YHUS6smI5Y.jpg","year":"2025","result":"HD","language":["Hindi"],"country":["IN"],"original_language":"ta","genres":["Thriller"],"imdb_id":"tt35267660"},{"id":"1436664","type":"movie","title":"Baapu - A Father's Story","poster":"https://image.tmdb.org/t/p/w342/zwjAtrlT1swTJEdT4dhGdHidTjE.jpg","year":"2025","result":"HD","language":["Hindi"],"country":[],"original_language":"te","genres":[],"imdb_id":"tt35229809"},{"id":"1436603","type":"movie","title":"Don't Talk to Strangers","poster":"https://image.tmdb.org/t/p/w342/9eAPRnVh4O5pJ5lofF2VQEWAn1J.jpg","year":"2025","result":"HD","language":["Hindi"],"country":[],"original_language":"en","genres":[],"imdb_id":""},{"id":"1436133","type":"movie","title":"Kaushaljis vs Kaushal","poster":"https://image.tmdb.org/t/p/w342/ulr4CICHijcXZaeS4M7KupyCu0x.jpg","year":"2025","result":"HD","language":["Hindi"],"country":["IN"],"original_language":"hi","genres":["Comedy","Drama","Family"],"imdb_id":"tt26655658"},{"id":"1435139","type":"movie","title":"Aan Paavam Pollathathu","poster":"https://image.tmdb.org/t/p/w342/5eZzBvETRK8uDz3mUK0Feio2T5C.jpg","year":"2025","result":"HD","language":["Hindi"],"country":["IN"],"original_language":"ta","genres":["Comedy","Romance","Drama"],"imdb_id":"tt32284122"},{"id":"1435092","type":"movie","title":"Goodbye June","poster":"https://image.tmdb.org/t/p/w342/ygsMOnttVCekvJZgvmnvaemxPHA.jpg","year":"2025","result":"HD","language":["Hindi"],"country":["GB"],"original_language":"en","genres":["Drama"],"imdb_id":"tt35766629"},{"id":"1434580","type":"movie","title":"Thalaivan Thalaivii","poster":"https://image.tmdb.org/t/p/w342/jfN2iQLfhvziz9YlR9WbB4VVQvk.jpg","year":"2025","result":"HD","language":["Hindi"],"country":["IN"],"original_language":"ta","genres":["Romance","Comedy","Drama"],"imdb_id":"tt32827713"},{"id":"1434543","type":"movie","title":"Ek Deewane Ki Deewaniyat","poster":"https://image.tmdb.org/t/p/w342/eQGzsELM0n6FOngNRGEIx9nqDwV.jpg","year":"2025","result":"HD","language":["Hindi"],"country":["IN"],"original_language":"hi","genres":["Romance","Drama","Thriller"],"imdb_id":"tt35727678"},{"id":"1433545","type":"movie","title":"House Mates","poster":"https://image.tmdb.org/t/p/w342/1HeWmcvzXKyBrUxCFdbvEni4spb.jpg","year":"2025","result":"HD","language":["Hindi"],"country":["IN"],"original_language":"ta","genres":["Comedy","Drama","Fantasy","Horror"],"imdb_id":"tt32278054"},{"id":"1431645","type":"movie","title":"Bobby Aur Rishi Ki Love Story","poster":"https://image.tmdb.org/t/p/w342/96dyu4Wc3luLC9iRwpz5pqha0Uy.jpg","year":"2025","result":"HD","language":["Hindi"],"country":["IN"],"original_language":"hi","genres":["Romance","Drama"],"imdb_id":"tt14597386"},{"id":"1431043","type":"movie","title":"Gentlewoman","poster":"https://image.tmdb.org/t/p/w342/xbF4NfyaQra7GkGR5OZAWglVhUE.jpg","year":"2025","result":"HD","language":["Hindi"],"country":["IN"],"original_language":"ta","genres":["Drama","Thriller"],"imdb_id":"tt35674559"},{"id":"1429750","type":"movie","title":"Everybody Loves Me When I'm Dead","poster":"https://image.tmdb.org/t/p/w342/p43EHgFFik8csqNlRDI9uVU1onx.jpg","year":"2025","result":"HD","language":["Hindi"],"country":["TH"],"original_language":"th","genres":["Thriller","Crime","Drama"],"imdb_id":"tt35669054"},{"id":"1429744","type":"movie","title":"Ziam","poster":"https://image.tmdb.org/t/p/w342/yHYj2t3NzsjkHVYa0bPri4sMBsg.jpg","year":"2025","result":"HD","language":["Hindi"],"country":["TH"],"original_language":"th","genres":["Horror","Thriller","Action"],"imdb_id":"tt35669009"},{"id":"1428816","type":"movie","title":"Mithra Mandali","poster":"https://image.tmdb.org/t/p/w342/A1nFTGWgoP1FAiDsE0NJXTVjORk.jpg","year":"2025","result":"HD","language":["Hindi"],"country":["IN"],"original_language":"te","genres":["Comedy","Romance"],"imdb_id":"tt37273405"},{"id":"1428470","type":"movie","title":"Mukkam Post Devach Ghar","poster":"https://image.tmdb.org/t/p/w342/7sBQwuyel1EaJCVcexh5xWEOiWv.jpg","year":"2025","result":"HD","language":["Hindi"],"country":["IN"],"original_language":"mr","genres":["Comedy","Drama","Romance"],"imdb_id":"tt34959943"},{"id":"1428301","type":"movie","title":"#Single","poster":"https://image.tmdb.org/t/p/w342/3cX5JISvLrOrwfb0gCOV7Mz7if0.jpg","year":"2025","result":"HD","language":["Hindi"],"country":["IN"],"original_language":"te","genres":["Comedy","Romance"],"imdb_id":"tt35694565"},{"id":"1428278","type":"movie","title":"K-Ramp","poster":"https://image.tmdb.org/t/p/w342/36QgJqloM5Ee8VGx0SDiyQR2Pie.jpg","year":"2025","result":"HD","language":["Hindi"],"country":[],"original_language":"te","genres":["Comedy","Romance"],"imdb_id":"tt35665459"},{"id":"1428213","type":"movie","title":"Kontrabida Academy","poster":"https://image.tmdb.org/t/p/w342/uiW2ff73RZzPABKtnjW5wmt43CU.jpg","year":"2025","result":"HD","language":["Hindi"],"country":["PH"],"original_language":"tl","genres":["Comedy","Fantasy"],"imdb_id":"tt35652650"},{"id":"1426792","type":"movie","title":"Mango","poster":"https://image.tmdb.org/t/p/w342/8aTla8ofmtJdfhInKyLTyZifA3k.jpg","year":"2025","result":"HD","language":["Hindi"],"country":["DK"],"original_language":"da","genres":["Romance","Drama"],"imdb_id":"tt33293169"},{"id":"1425641","type":"movie","title":"Maargan","poster":"https://image.tmdb.org/t/p/w342/sgNetedu19Ar9LkUXGNheh9NL1D.jpg","year":"2025","result":"HD","language":["Hindi"],"country":["IN"],"original_language":"ta","genres":["Crime","Action","Mystery","Thriller"],"imdb_id":"tt33949346"},{"id":"1425630","type":"movie","title":"Shakthi Thirumagan","poster":"https://image.tmdb.org/t/p/w342/eKMNqfF6BJZ47O7OklrMgZ5r6T.jpg","year":"2025","result":"HD","language":["Hindi"],"country":["IN"],"original_language":"ta","genres":["Action","Drama","Thriller"],"imdb_id":"tt35624287"},{"id":"1424895","type":"movie","title":"Paru Parvathy","poster":"https://image.tmdb.org/t/p/w342/5WdDV5heONJKOXdA5AwhACjKRfl.jpg","year":"2025","result":"HD","language":["Hindi"],"country":["IN"],"original_language":"kn","genres":["Comedy","Drama"],"imdb_id":"tt33512998"}]}