{"page":6,"total_pages":67,"total_items":3303,"items":[{"id":"1298092","type":"movie","title":"Lockdown","poster":"https://image.tmdb.org/t/p/w342/2IOEJ3zwB5g8mFBGgEE7yzfKjoW.jpg","year":"2026","result":"HD","language":["Hindi"],"country":["IN"],"original_language":"ta","genres":["Thriller"],"imdb_id":"tt32278140"},{"id":"1297842","type":"movie","title":"GOAT","poster":"https://image.tmdb.org/t/p/w342/wfuqMlaExcoYiUEvKfVpUTt1v4u.jpg","year":"2026","result":"HD","language":["Hindi"],"country":["US"],"original_language":"en","genres":["Animation","Comedy","Family"],"imdb_id":"tt27613895"},{"id":"1290417","type":"movie","title":"Thrash","poster":"https://image.tmdb.org/t/p/w342/adk8weka3O5648g3de4z3y4aE7G.jpg","year":"2026","result":"HD","language":["Hindi"],"country":["US","AU"],"original_language":"en","genres":["Horror","Thriller"],"imdb_id":"tt32362890"},{"id":"1282440","type":"movie","title":"Happy Patel: Khatarnak Jasoos","poster":"https://image.tmdb.org/t/p/w342/tZJBXGNyDanSne6a2TLRU45Uhwu.jpg","year":"2026","result":"HD","language":["Hindi"],"country":["IN"],"original_language":"hi","genres":["Comedy","Action","Romance"],"imdb_id":"tt32245870"},{"id":"1276704","type":"movie","title":"53 Sundays","poster":"https://image.tmdb.org/t/p/w342/olk6MkfHFWEpWmhQn6Mb4jNqspm.jpg","year":"2026","result":"HD","language":["Hindi"],"country":["ES"],"original_language":"es","genres":["Comedy","Drama"],"imdb_id":"tt32155665"},{"id":"1275574","type":"movie","title":"O' Romeo","poster":"https://image.tmdb.org/t/p/w342/aTnIGrfVv03FIDsNDuabNsp9yFM.jpg","year":"2026","result":"HD","language":["Hindi"],"country":["IN"],"original_language":"hi","genres":["Romance","Action","Drama"],"imdb_id":"tt31969779"},{"id":"1272837","type":"movie","title":"28 Years Later: The Bone Temple","poster":"https://image.tmdb.org/t/p/w342/kK1BGkG3KAvWB0WMV1DfOx9yTMZ.jpg","year":"2026","result":"HD","language":["Hindi"],"country":["GB","US"],"original_language":"en","genres":["Horror","Thriller","Science Fiction"],"imdb_id":"tt32141377"},{"id":"1268609","type":"movie","title":"Pavane","poster":"https://image.tmdb.org/t/p/w342/wOXc8stx1CLvM6GC0ABKfWOkbYw.jpg","year":"2026","result":"HD","language":["Hindi"],"country":["KR"],"original_language":"ko","genres":["Romance","Drama"],"imdb_id":"tt39387657"},{"id":"1268127","type":"movie","title":"Humint","poster":"https://image.tmdb.org/t/p/w342/82bX2GK4PhaJQtfkTnfmd2P7erG.jpg","year":"2026","result":"HD","language":["Hindi"],"country":["KR"],"original_language":"ko","genres":["Thriller","Action","Drama"],"imdb_id":"tt32606470"},{"id":"1265609","type":"movie","title":"War Machine","poster":"https://image.tmdb.org/t/p/w342/tlPgDzwIE7VYYIIAGCTUOnN4wI1.jpg","year":"2026","result":"HD","language":["Hindi"],"country":["AU","US"],"original_language":"en","genres":["Action","Science Fiction","Thriller"],"imdb_id":"tt15940132"},{"id":"1263037","type":"movie","title":"Cheekatilo","poster":"https://image.tmdb.org/t/p/w342/pO86EjZb7QyGYk5RW4Xm4UWe5Uv.jpg","year":"2026","result":"HD","language":["Hindi"],"country":["IN"],"original_language":"te","genres":["Thriller"],"imdb_id":"tt31852038"},{"id":"1262547","type":"movie","title":"Subedaar","poster":"https://image.tmdb.org/t/p/w342/gKn63ZWEVK66OaC1svlI7g6r9ah.jpg","year":"2026","result":"HD","language":["Hindi"],"country":["IN"],"original_language":"hi","genres":["Action","Crime","Drama"],"imdb_id":"tt31852278"},{"id":"1261188","type":"movie","title":"The Swedish Connection","poster":"https://image.tmdb.org/t/p/w342/y5EyBB1FIjDAtsIgwNuxEC9caVF.jpg","year":"2026","result":"HD","language":["Hindi"],"country":["SE"],"original_language":"sv","genres":["Drama","History","War"],"imdb_id":"tt28793125"},{"id":"1243460","type":"movie","title":"Joe's College Road Trip","poster":"https://image.tmdb.org/t/p/w342/jWGOCUlzF4aCVLwHoiuqWWfhcrA.jpg","year":"2026","result":"HD","language":["Hindi"],"country":["US"],"original_language":"en","genres":["Comedy"],"imdb_id":"tt33603921"},{"id":"1241693","type":"movie","title":"Do Deewane Seher Mein","poster":"https://image.tmdb.org/t/p/w342/p8yPjT9NAH87oD9TedclRaAW7RY.jpg","year":"2026","result":"HD","language":["Hindi"],"country":["IN"],"original_language":"hi","genres":["Romance","Drama"],"imdb_id":"tt31226272"},{"id":"1239433","type":"movie","title":"Poorna","poster":"https://image.tmdb.org/t/p/w342/bLLTy9l1BL8VvuGpXBlkZjFmw5J.jpg","year":"2026","result":"HD","language":["Hindi"],"country":["IN"],"original_language":"pa","genres":["Drama"],"imdb_id":""},{"id":"1239134","type":"movie","title":"Bhooth Bangla","poster":"https://image.tmdb.org/t/p/w342/ArIS4vwUxdhm3j7tsTHmffdfU8W.jpg","year":"2026","result":"HD","language":["Cam"],"country":["IN"],"original_language":"hi","genres":["Horror","Comedy"],"imdb_id":"tt29540862"},{"id":"1236153","type":"movie","title":"Mercy","poster":"https://image.tmdb.org/t/p/w342/pyok1kZJCfyuFapYXzHcy7BLlQa.jpg","year":"2026","result":"HD","language":["Hindi"],"country":["US"],"original_language":"en","genres":["Science Fiction","Action","Thriller","Crime"],"imdb_id":"tt31050594"},{"id":"1226863","type":"movie","title":"The Super Mario Galaxy Movie","poster":"https://image.tmdb.org/t/p/w342/eJGWx219ZcEMVQJhAgMiqo8tYY.jpg","year":"2026","result":"HD","language":["Hindi"],"country":["JP","US"],"original_language":"en","genres":["Animation","Adventure","Fantasy","Family","Action","Comedy"],"imdb_id":"tt28650488"},{"id":"1220522","type":"movie","title":"Dacoit","poster":"https://image.tmdb.org/t/p/w342/lbrnJY7E0a9xxgj2cotNp6YI4dz.jpg","year":"2026","result":"HD","language":["Cam"],"country":["IN"],"original_language":"te","genres":["Action","Romance","Thriller"],"imdb_id":"tt30413898"},{"id":"1213898","type":"movie","title":"Border 2","poster":"https://image.tmdb.org/t/p/w342/wUcttG71zo9deP4m9sDhYPUcvi5.jpg","year":"2026","result":"HD","language":["Hindi"],"country":["IN"],"original_language":"hi","genres":["Action","Drama","War"],"imdb_id":"tt30387012"},{"id":"1198380","type":"movie","title":"Everybody Loves Sohrab Handa","poster":"https://image.tmdb.org/t/p/w342/a8C4nnnCJN9xZoqAbPF9ouFRubI.jpg","year":"2026","result":"HD","language":["Hindi"],"country":["IN"],"original_language":"hi","genres":["Thriller","Mystery","Drama","Crime"],"imdb_id":"tt29458284"},{"id":"1196946","type":"movie","title":"Ikkis","poster":"https://image.tmdb.org/t/p/w342/8PWu0V10nMqG5SrA13wLRXTD2fH.jpg","year":"2026","result":"HD","language":["Hindi"],"country":["IN"],"original_language":"hi","genres":["History","War","Drama"],"imdb_id":"tt15464188"},{"id":"1171145","type":"movie","title":"Crime 101","poster":"https://image.tmdb.org/t/p/w342/tVvpFIoteRHNnoZMhdnwIVwJpCA.jpg","year":"2026","result":"HD","language":["Hindi"],"country":["GB","US"],"original_language":"en","genres":["Crime","Thriller"],"imdb_id":"tt32430579"},{"id":"1168190","type":"movie","title":"The Wrecking Crew","poster":"https://image.tmdb.org/t/p/w342/gbVwHl4YPSq6BcC92TQpe7qUTh6.jpg","year":"2026","result":"HD","language":["Hindi"],"country":["US","CA"],"original_language":"en","genres":["Action","Comedy","Crime","Mystery"],"imdb_id":"tt33046197"},{"id":"1159559","type":"movie","title":"Scream 7","poster":"https://image.tmdb.org/t/p/w342/jjyuk0edLiW8vOSnlfwWCCLpbh5.jpg","year":"2026","result":"HD","language":["Hindi"],"country":["US"],"original_language":"en","genres":["Horror","Mystery","Crime"],"imdb_id":"tt27047903"},{"id":"1112564","type":"movie","title":"Vaa Vaathiyaar","poster":"https://image.tmdb.org/t/p/w342/47uIUf9KCfDzxQXixw8lrvYl8C8.jpg","year":"2026","result":"HD","language":["Hindi"],"country":["IN"],"original_language":"ta","genres":["Comedy","Action"],"imdb_id":"tt26234108"},{"id":"1101020","type":"movie","title":"Baby Girl","poster":"https://image.tmdb.org/t/p/w342/nEyEFVdlmUdapDl77704aR8o59D.jpg","year":"2026","result":"HD","language":["Hindi"],"country":["IN"],"original_language":"ml","genres":["Drama","Thriller"],"imdb_id":"tt35288598"},{"id":"1094314","type":"movie","title":"Mayasabha: The Hall of Illusion","poster":"https://image.tmdb.org/t/p/w342/hIC4knJmcAO02JPjF840FJBI4ib.jpg","year":"2026","result":"HD","language":["Hindi"],"country":["IN"],"original_language":"hi","genres":["Fantasy","Thriller"],"imdb_id":"tt15671624"},{"id":"1084577","type":"movie","title":"Balls Up","poster":"https://image.tmdb.org/t/p/w342/xwvJ3WzdJ1OCuDoY8LAxBUlQyig.jpg","year":"2026","result":"HD","language":["Hindi"],"country":["US"],"original_language":"en","genres":["Comedy","Action","Adventure"],"imdb_id":"tt26735622"},{"id":"1084187","type":"movie","title":"Pretty Lethal","poster":"https://image.tmdb.org/t/p/w342/znTPnXCK3lEQJgqXCvP7e5FUz6f.jpg","year":"2026","result":"HD","language":["Hindi"],"country":["US","HU","GB"],"original_language":"en","genres":["Music","Thriller","Action","Horror"],"imdb_id":"tt26678938"},{"id":"1066313","type":"movie","title":"The Draft!","poster":"https://image.tmdb.org/t/p/w342/kIgnGTEdizHySPsGaO2RNgN2yE5.jpg","year":"2026","result":"HD","language":["Hindi"],"country":["ID"],"original_language":"id","genres":["Science Fiction","Horror"],"imdb_id":"tt29941083"},{"id":"1054493","type":"movie","title":"Pennum Porattum","poster":"https://image.tmdb.org/t/p/w342/3DNAh3pwPiBBD8FHwzLPUXqs45e.jpg","year":"2026","result":"HD","language":["Hindi"],"country":["IN"],"original_language":"ml","genres":["Comedy","Drama"],"imdb_id":"tt34383084"},{"id":"1034716","type":"movie","title":"People We Meet on Vacation","poster":"https://image.tmdb.org/t/p/w342/kOrJqRyt1pklNgDwJMjzN1GuNXS.jpg","year":"2026","result":"HD","language":["Hindi"],"country":["US"],"original_language":"en","genres":["Comedy","Romance","Drama"],"imdb_id":"tt22740896"},{"id":"1022453","type":"movie","title":"The Rajasaab","poster":"https://image.tmdb.org/t/p/w342/nvK6gYa4diCnQkDVN42uoYXPrdT.jpg","year":"2026","result":"HD","language":["Hindi"],"country":["IN"],"original_language":"te","genres":["Comedy","Horror","Fantasy"],"imdb_id":"tt23790696"},{"id":"959894","type":"movie","title":"Pallichattambi","poster":"https://image.tmdb.org/t/p/w342/znOpOhDmKlspIoeR3MvFeuhG19q.jpg","year":"2026","result":"HD","language":["Cam Result"],"country":["IN"],"original_language":"ml","genres":["Action","Drama"],"imdb_id":"tt10515398"},{"id":"938150","type":"movie","title":"Wardriver","poster":"https://image.tmdb.org/t/p/w342/ipTXhWCJgeg5RN0CpmFZYDzOzQi.jpg","year":"2026","result":"HD","language":["Hindi"],"country":["US"],"original_language":"en","genres":["Crime","Thriller"],"imdb_id":"tt5095076"},{"id":"875828","type":"movie","title":"Peaky Blinders: The Immortal Man","poster":"https://image.tmdb.org/t/p/w342/gRMalasZEzsZi4w2VFuYusfSfqf.jpg","year":"2026","result":"HD","language":["Hindi"],"country":["GB"],"original_language":"en","genres":["Crime","Drama"],"imdb_id":"tt15574124"},{"id":"868668","type":"movie","title":"Ustaad Bhagat Singh","poster":"https://image.tmdb.org/t/p/w342/8n4ypYQWztEXlR8JxD0fctdKwfC.jpg","year":"2026","result":"HD","language":["Hindi"],"country":["IN"],"original_language":"te","genres":["Action","Comedy","Drama"],"imdb_id":"tt14338246"},{"id":"840464","type":"movie","title":"Greenland 2: Migration","poster":"https://image.tmdb.org/t/p/w342/z2tqCJLsw6uEJ8nJV8BsQXGa3dr.jpg","year":"2026","result":"HD","language":["Hindi"],"country":["GB","US"],"original_language":"en","genres":["Adventure","Thriller","Science Fiction"],"imdb_id":"tt14850054"},{"id":"799882","type":"movie","title":"The Bluff","poster":"https://image.tmdb.org/t/p/w342/dl1cA7wdwePc9QU2Rc24EPqlcyJ.jpg","year":"2026","result":"HD","language":["Hindi"],"country":["US","GB"],"original_language":"en","genres":["Drama","Action","Thriller"],"imdb_id":"tt14181714"},{"id":"786567","type":"movie","title":"Gandhi Talks","poster":"https://image.tmdb.org/t/p/w342/p4iQT3s97T3gQOLhTj0UplzYMOj.jpg","year":"2026","result":"HD","language":["Hindi"],"country":["IN"],"original_language":"ta","genres":["Comedy"],"imdb_id":"tt8205190"},{"id":"687163","type":"movie","title":"Project Hail Mary","poster":"https://image.tmdb.org/t/p/w342/yihdXomYb5kTeSivtFndMy5iDmf.jpg","year":"2026","result":"HD","language":["Hindi"],"country":["US"],"original_language":"en","genres":["Science Fiction","Adventure"],"imdb_id":"tt12042730"},{"id":"319102","type":"tv","title":"Zung: The Rust","poster":"https://image.tmdb.org/t/p/w342/jzmmCVj05loavL4iW5NfD0q657N.jpg","year":"2026","result":"HD","language":["Hindi"],"country":["IN"],"original_language":"en","genres":[],"imdb_id":"tt40832405","latest_uploaded_season":1,"total_uploaded_episodes":1},{"id":"319059","type":"tv","title":"Adalat: Insaaf Ki Jung","poster":"https://image.tmdb.org/t/p/w342/5BVhF1GRtaInMFJrtA9uzTkx0To.jpg","year":"2026","result":"HD","language":["Hindi"],"country":["US"],"original_language":"hi","genres":[],"imdb_id":"","latest_uploaded_season":1,"total_uploaded_episodes":7},{"id":"318254","type":"tv","title":"Kaptaan","poster":"https://image.tmdb.org/t/p/w342/ebRoRQdgcP6Xk83KxRy7qrVww5f.jpg","year":"2026","result":"HD","language":["Hindi"],"country":["IN"],"original_language":"hi","genres":["Crime","Drama"],"imdb_id":"","latest_uploaded_season":1,"total_uploaded_episodes":8},{"id":"316973","type":"tv","title":"Dandelion","poster":"https://image.tmdb.org/t/p/w342/r5Cq5wax0sQ1ModcZXWKyXF1xpy.jpg","year":"2026","result":"HD","language":["Hindi"],"country":["JP"],"original_language":"ja","genres":["Animation","Sci-Fi & Fantasy","Drama","Comedy"],"imdb_id":"tt40356933","latest_uploaded_season":1,"total_uploaded_episodes":7},{"id":"316898","type":"tv","title":"Trust Me: The False Prophet","poster":"https://image.tmdb.org/t/p/w342/emukhfluHEAjj0oAPqwn4y6Reg.jpg","year":"2026","result":"HD","language":["Hindi"],"country":["US"],"original_language":"en","genres":["Documentary","Crime"],"imdb_id":"tt40826311","latest_uploaded_season":1,"total_uploaded_episodes":4},{"id":"316879","type":"tv","title":"Chiraiya","poster":"https://image.tmdb.org/t/p/w342/cNoZPewe859o7JAI1Qde4lrZjrN.jpg","year":"2026","result":"HD","language":["Hindi"],"country":["IN"],"original_language":"hi","genres":["Drama"],"imdb_id":"tt40828245","latest_uploaded_season":1,"total_uploaded_episodes":6},{"id":"316295","type":"tv","title":"The Predator of Seville","poster":"https://image.tmdb.org/t/p/w342/ayrLeA54JHe7qvmwAT3kAtWybb7.jpg","year":"2026","result":"HD","language":["Hindi"],"country":["ES","US"],"original_language":"es","genres":["Documentary","Crime"],"imdb_id":"tt40392206","latest_uploaded_season":1,"total_uploaded_episodes":3}]}