{"page":56,"total_pages":67,"total_items":3303,"items":[{"id":"96162","type":"tv","title":"Itaewon Class","poster":"https://image.tmdb.org/t/p/w342/qg7q0piY0fTt2enlIRHwKKRwNjS.jpg","year":"2020","result":"HD","language":["Hindi"],"country":["KR"],"original_language":"ko","genres":["Drama"],"imdb_id":"tt11239552","latest_uploaded_season":1,"total_uploaded_episodes":16},{"id":"95479","type":"tv","title":"JUJUTSU KAISEN","poster":"https://image.tmdb.org/t/p/w342/fHpKWq9ayzSk8nSwqRuaAUemRKh.jpg","year":"2020","result":"HD","language":["Hindi"],"country":["JP"],"original_language":"ja","genres":["Animation","Action & Adventure","Sci-Fi & Fantasy"],"imdb_id":"tt12343534","latest_uploaded_season":1,"total_uploaded_episodes":52},{"id":"93826","type":"tv","title":"October Faction","poster":"https://image.tmdb.org/t/p/w342/7yrXh19tH2ThJHXriORT16WKbBi.jpg","year":"2020","result":"HD","language":["Hindi"],"country":["US"],"original_language":"en","genres":["Sci-Fi & Fantasy","Drama"],"imdb_id":"tt8826128","latest_uploaded_season":1,"total_uploaded_episodes":10},{"id":"81241","type":"tv","title":"Dispatches from Elsewhere","poster":"https://image.tmdb.org/t/p/w342/kWskCna5DnRutdc66XERYFGek5s.jpg","year":"2020","result":"HD","language":["Hindi"],"country":["US"],"original_language":"en","genres":["Drama","Mystery"],"imdb_id":"tt8965666","latest_uploaded_season":1,"total_uploaded_episodes":10},{"id":"543540","type":"movie","title":"The Perfect Date","poster":"https://image.tmdb.org/t/p/w342/rrAYdezO3h1mjdYTaQyTXoj8IZ4.jpg","year":"2019","result":"HD","language":["Hindi"],"country":["US"],"original_language":"en","genres":["Romance","Comedy"],"imdb_id":"tt8201170"},{"id":"1399","type":"tv","title":"Game of Thrones","poster":"https://image.tmdb.org/t/p/w342/1XS1oqL89opfnbLl8WnZY1O1uJx.jpg","year":"2019","result":"HD","language":["Hindi"],"country":["US"],"original_language":"en","genres":["Sci-Fi & Fantasy","Drama","Action & Adventure"],"imdb_id":"tt0944947","latest_uploaded_season":8,"total_uploaded_episodes":73},{"id":"38472","type":"tv","title":"Marvel's Jessica Jones","poster":"https://image.tmdb.org/t/p/w342/1ghmaDw650NuUpGI7mYq6xE2QE2.jpg","year":"2019","result":"HD","language":["Hindi"],"country":["US"],"original_language":"en","genres":["Sci-Fi & Fantasy","Drama"],"imdb_id":"tt2357547","latest_uploaded_season":3,"total_uploaded_episodes":39},{"id":"79070","type":"tv","title":"Partners for Justice","poster":"https://image.tmdb.org/t/p/w342/lPU34PKrjJNISguneRdAB7zQfTj.jpg","year":"2019","result":"HD","language":["Hindi"],"country":["KR"],"original_language":"ko","genres":["Drama","Mystery","Crime"],"imdb_id":"tt8243374","latest_uploaded_season":2,"total_uploaded_episodes":64},{"id":"44217","type":"tv","title":"Vikings","poster":"https://image.tmdb.org/t/p/w342/bQLrHIRNEkE3PdIWQrZHynQZazu.jpg","year":"2019","result":"HD","language":["Hindi"],"country":["CA"],"original_language":"en","genres":["Action & Adventure","Drama","War & Politics"],"imdb_id":"tt2306299","latest_uploaded_season":6,"total_uploaded_episodes":89},{"id":"33217","type":"tv","title":"Young Justice","poster":"https://image.tmdb.org/t/p/w342/zMJw34G4OJhcd9NjKSRjJdDqjbR.jpg","year":"2019","result":"HD","language":["Hindi"],"country":["US"],"original_language":"en","genres":["Animation","Sci-Fi & Fantasy","Action & Adventure"],"imdb_id":"tt1641384","latest_uploaded_season":3,"total_uploaded_episodes":72},{"id":"87299","type":"tv","title":"I Hear You","poster":"https://image.tmdb.org/t/p/w342/2wVMh3vqvt1IgAhextxwUKxaOAH.jpg","year":"2019","result":"HD","language":["Hindi"],"country":["CN"],"original_language":"zh","genres":["Drama"],"imdb_id":"tt10327440","latest_uploaded_season":1,"total_uploaded_episodes":24},{"id":"94838","type":"tv","title":"My Neighbour Can't Sleep","poster":"https://image.tmdb.org/t/p/w342/oYERaVqgXZkYs7BEPduNQDlHogM.jpg","year":"2019","result":"HD","language":["Hindi"],"country":["CN"],"original_language":"zh","genres":["Comedy","Drama"],"imdb_id":"","latest_uploaded_season":1,"total_uploaded_episodes":24},{"id":"88783","type":"tv","title":"The Secret Life of My Secretary","poster":"https://image.tmdb.org/t/p/w342/7owGMGmnlx2EMEm3yFPQ03C0zjr.jpg","year":"2019","result":"HD","language":["Hindi"],"country":["KR"],"original_language":"ko","genres":["Comedy"],"imdb_id":"tt10101272","latest_uploaded_season":1,"total_uploaded_episodes":16},{"id":"90720","type":"tv","title":"Be Melodramatic","poster":"https://image.tmdb.org/t/p/w342/fdPc2MoU8Cm87R3kYw1Hul0Dy76.jpg","year":"2019","result":"HD","language":["Hindi"],"country":["KR"],"original_language":"ko","genres":["Comedy","Drama"],"imdb_id":"tt10559276","latest_uploaded_season":1,"total_uploaded_episodes":16},{"id":"87398","type":"tv","title":"Hello Again!","poster":"https://image.tmdb.org/t/p/w342/u6whLrXrDrYU8SquPWEBC1DAQI6.jpg","year":"2019","result":"HD","language":["Hindi"],"country":["TW"],"original_language":"zh","genres":["Comedy","Drama"],"imdb_id":"tt11323558","latest_uploaded_season":1,"total_uploaded_episodes":26},{"id":"95212","type":"tv","title":"Love with Flaws","poster":"https://image.tmdb.org/t/p/w342/eq4ITUNT2SJTGuUkxO2aHyGyO96.jpg","year":"2019","result":"HD","language":["Hindi"],"country":["KR"],"original_language":"ko","genres":["Comedy"],"imdb_id":"tt11227980","latest_uploaded_season":1,"total_uploaded_episodes":16},{"id":"591101","type":"movie","title":"Mardaani 2","poster":"https://image.tmdb.org/t/p/w342/1oChaDVWUy5tfpKRYTPzrJxp3YC.jpg","year":"2019","result":"HD","language":["Hindi"],"country":["IN"],"original_language":"hi","genres":["Action","Crime","Thriller"],"imdb_id":"tt5668770"},{"id":"95015","type":"tv","title":"The Witch Store","poster":"https://image.tmdb.org/t/p/w342/4t66kig9TOKwzzEswRVvi4eAgBD.jpg","year":"2019","result":"HD","language":["Hindi"],"country":["KR"],"original_language":"ko","genres":["Sci-Fi & Fantasy","Drama"],"imdb_id":"","latest_uploaded_season":1,"total_uploaded_episodes":12},{"id":"90407","type":"tv","title":"At Eighteen","poster":"https://image.tmdb.org/t/p/w342/AbEoQOZO6xnXg52Ehrd8aXchpLF.jpg","year":"2019","result":"HD","language":["Hindi"],"country":["KR"],"original_language":"ko","genres":["Drama","Comedy"],"imdb_id":"tt10474124","latest_uploaded_season":1,"total_uploaded_episodes":16},{"id":"89334","type":"tv","title":"Princess Silver","poster":"https://image.tmdb.org/t/p/w342/nGHIcpN52RhRaW4UAb3jU46JSh3.jpg","year":"2019","result":"HD","language":["Hindi"],"country":["CN"],"original_language":"zh","genres":["Drama","Sci-Fi & Fantasy"],"imdb_id":"tt9537300","latest_uploaded_season":1,"total_uploaded_episodes":58},{"id":"575222","type":"movie","title":"Doraemon: Nobita's Chronicle of the Moon Exploration","poster":"https://image.tmdb.org/t/p/w342/zAZ43208e643rB3pcx8jsLqc6B9.jpg","year":"2019","result":"HD","language":["Hindi"],"country":["JP"],"original_language":"ja","genres":["Animation","Adventure","Comedy","Science Fiction","Fantasy","Family"],"imdb_id":"tt9735672"},{"id":"91827","type":"tv","title":"Mistress","poster":"https://image.tmdb.org/t/p/w342/pUSCs1cEoGsUClxqnH5o0kJw0LZ.jpg","year":"2019","result":"HD","language":["Hindi"],"country":["JP"],"original_language":"ja","genres":["Mystery","Drama"],"imdb_id":"tt10552772","latest_uploaded_season":1,"total_uploaded_episodes":12},{"id":"590350","type":"movie","title":"Pati Patni Aur Woh","poster":"https://image.tmdb.org/t/p/w342/9sAegdBnkfucqhrsocR47zCKcez.jpg","year":"2019","result":"HD","language":["Hindi"],"country":["IN"],"original_language":"hi","genres":["Comedy","Romance"],"imdb_id":"tt9680136"},{"id":"537915","type":"movie","title":"After","poster":"https://image.tmdb.org/t/p/w342/u3B2YKUjWABcxXZ6Nm9h10hLUbh.jpg","year":"2019","result":"HD","language":["Hindi"],"country":["US"],"original_language":"en","genres":["Drama","Romance"],"imdb_id":"tt4126476"},{"id":"530385","type":"movie","title":"Midsommar","poster":"https://image.tmdb.org/t/p/w342/7LEI8ulZzO5gy9Ww2NVCrKmHeDZ.jpg","year":"2019","result":"HD","language":["Hindi"],"country":["SE","US"],"original_language":"en","genres":["Horror","Drama","Mystery"],"imdb_id":"tt8772262"},{"id":"487437","type":"movie","title":"White as Snow","poster":"https://image.tmdb.org/t/p/w342/vOo0cXSb5c5B4SJFRJwXosuYpJV.jpg","year":"2019","result":"HD","language":["Hindi"],"country":["FR","BE"],"original_language":"fr","genres":["Comedy","Drama"],"imdb_id":"tt8054066"},{"id":"95259","type":"tv","title":"Dare Me","poster":"https://image.tmdb.org/t/p/w342/eLmQL6gWgWnhgdv0CxHaVQcnYOX.jpg","year":"2019","result":"HD","language":["Hindi"],"country":["US"],"original_language":"en","genres":["Drama","Mystery","Crime"],"imdb_id":"tt2983222","latest_uploaded_season":1,"total_uploaded_episodes":10},{"id":"616979","type":"movie","title":"Tevar","poster":"https://image.tmdb.org/t/p/w342/kOUwqSMoIHGBvoa1Uo6RwA5EFc8.jpg","year":"2019","result":"HD","language":["Hindi"],"country":["PK"],"original_language":"ur","genres":["Action","Thriller"],"imdb_id":""},{"id":"1424","type":"tv","title":"Orange Is the New Black","poster":"https://image.tmdb.org/t/p/w342/ekaa7YjGPTkFLcPhwWXTnARuCEU.jpg","year":"2019","result":"HD","language":["Hindi"],"country":["US"],"original_language":"en","genres":["Drama","Comedy","Crime"],"imdb_id":"tt2372162","latest_uploaded_season":7,"total_uploaded_episodes":91},{"id":"585747","type":"movie","title":"The Woman Who Keeps a Murderer","poster":"https://image.tmdb.org/t/p/w342/kqR0NFQhMC2VFfBgWxQ6drv4bNk.jpg","year":"2019","result":"HD","language":["Hindi"],"country":["JP"],"original_language":"ja","genres":["Thriller","Horror"],"imdb_id":"tt9844358"},{"id":"461130","type":"movie","title":"Code 8","poster":"https://image.tmdb.org/t/p/w342/izGX7npHEopDQvngYcxMJEfcFbj.jpg","year":"2019","result":"HD","language":["Hindi"],"country":["CA","GB","US"],"original_language":"en","genres":["Science Fiction","Action","Crime"],"imdb_id":"tt6259380"},{"id":"82747","type":"tv","title":"Kung Fu Panda: The Paws of Destiny","poster":"https://image.tmdb.org/t/p/w342/x4yvmIVuXxYKfTlgRtSJnGC1Izs.jpg","year":"2019","result":"HD","language":["Hindi"],"country":["US"],"original_language":"en","genres":["Animation","Kids","Family","Action & Adventure","Comedy"],"imdb_id":"tt8271176","latest_uploaded_season":2,"total_uploaded_episodes":26},{"id":"592545","type":"movie","title":"Athiran","poster":"https://image.tmdb.org/t/p/w342/mpcZ49Z4VH5niZVhiY0rwLJDMS0.jpg","year":"2019","result":"HD","language":["Hindi"],"country":["IN"],"original_language":"ml","genres":["Romance","Thriller"],"imdb_id":"tt9793334"},{"id":"591086","type":"movie","title":"Watchman","poster":"https://image.tmdb.org/t/p/w342/9algOEtuBhdvkmyalaeZglxdacb.jpg","year":"2019","result":"HD","language":["Hindi"],"country":["IN"],"original_language":"ta","genres":["Drama","Action","Thriller"],"imdb_id":"tt9378320"},{"id":"641213","type":"movie","title":"The Dunes","poster":"https://image.tmdb.org/t/p/w342/jRNt7YRAPtYrCnd8eqkIsB6Gppd.jpg","year":"2019","result":"HD","language":["Hindi"],"country":["US"],"original_language":"en","genres":["Thriller","Mystery","Drama"],"imdb_id":"tt4681432"},{"id":"114615","type":"tv","title":"Stranger Kim","poster":"https://image.tmdb.org/t/p/w342/I3X4pVqIZsOkP5yX0XpP7KsNKe.jpg","year":"2019","result":"HD","language":["Hindi"],"country":["KR"],"original_language":"ko","genres":["Mystery","Comedy","Sci-Fi & Fantasy"],"imdb_id":"tt32536456","latest_uploaded_season":1,"total_uploaded_episodes":6},{"id":"682641","type":"movie","title":"Blood Hunters: Rise of the Hybrids","poster":"https://image.tmdb.org/t/p/w342/1wNYtbKO5lMYCZEncqI8fZMtvKp.jpg","year":"2019","result":"HD","language":["Hindi"],"country":["PH"],"original_language":"en","genres":["Action","Fantasy","Horror"],"imdb_id":"tt6754712"},{"id":"657853","type":"movie","title":"Mathu Vadalara","poster":"https://image.tmdb.org/t/p/w342/lo0ALsfiSv5sxNBhCNh35AD1p0x.jpg","year":"2019","result":"HD","language":["Hindi"],"country":["IN"],"original_language":"te","genres":["Crime","Comedy","Thriller"],"imdb_id":"tt11469744"},{"id":"619278","type":"movie","title":"Inside Man: Most Wanted","poster":"https://image.tmdb.org/t/p/w342/zcDZisqVQK9akfKgyrB9HYzYuVh.jpg","year":"2019","result":"HD","language":["Hindi"],"country":["US"],"original_language":"en","genres":["Action","Crime","Thriller"],"imdb_id":"tt7832848"},{"id":"617483","type":"movie","title":"Chal Mera Putt","poster":"https://image.tmdb.org/t/p/w342/i4ckFOOeyvU3EGnxbARsoORWbCT.jpg","year":"2019","result":"HD","language":["Hindi"],"country":["IN"],"original_language":"pa","genres":["Comedy","Drama"],"imdb_id":"tt10623524"},{"id":"616449","type":"movie","title":"Intern Detective","poster":"https://image.tmdb.org/t/p/w342/hxySfPUHtsVO2gEdK27yZGMGtHw.jpg","year":"2019","result":"HD","language":["Hindi"],"country":["KR"],"original_language":"ko","genres":["Action","Crime","Drama"],"imdb_id":"tt26599602"},{"id":"613047","type":"movie","title":"Laiye Je Yaarian","poster":"https://image.tmdb.org/t/p/w342/zXRsiwdffZUZceDeaYRerzI2xqP.jpg","year":"2019","result":"HD","language":["Hindi"],"country":[],"original_language":"pa","genres":[],"imdb_id":"tt10356526"},{"id":"599809","type":"movie","title":"Kuntilanak 2","poster":"https://image.tmdb.org/t/p/w342/jll3ab5w5tLNFfJfgDgzsHr4jfo.jpg","year":"2019","result":"HD","language":["Hindi"],"country":["ID"],"original_language":"id","genres":["Horror"],"imdb_id":"tt10276328"},{"id":"594314","type":"movie","title":"Blood Myth","poster":"https://image.tmdb.org/t/p/w342/9qxxgGeBIuiO9V2LE3x3gSwtjXZ.jpg","year":"2019","result":"HD","language":["Hindi"],"country":["GB"],"original_language":"en","genres":["Horror"],"imdb_id":"tt7158904"},{"id":"584044","type":"movie","title":"The Viking War","poster":"https://image.tmdb.org/t/p/w342/7BEY3dAb6ZVHzND1Ewmw2PTAl76.jpg","year":"2019","result":"HD","language":["Hindi"],"country":["GB"],"original_language":"en","genres":["History","Fantasy","Drama"],"imdb_id":"tt8707008"},{"id":"571627","type":"movie","title":"The Divine Fury","poster":"https://image.tmdb.org/t/p/w342/9Z2qT9iZYLzzsCSYu7A4SEQsKX0.jpg","year":"2019","result":"HD","language":["Hindi"],"country":["KR"],"original_language":"ko","genres":["Action","Horror","Thriller"],"imdb_id":"tt10550884"},{"id":"567609","type":"movie","title":"Ready or Not","poster":"https://image.tmdb.org/t/p/w342/oJD9KQFoObZmxAS1je56SIFVNJt.jpg","year":"2019","result":"HD","language":["Hindi"],"country":["US"],"original_language":"en","genres":["Horror","Comedy"],"imdb_id":"tt7798634"},{"id":"561295","type":"movie","title":"Kadaram Kondan","poster":"https://image.tmdb.org/t/p/w342/n6HGrhMvhq6tYJV4nb2ktNZWXCn.jpg","year":"2019","result":"HD","language":["Hindi"],"country":["IN"],"original_language":"ta","genres":["Action","Thriller"],"imdb_id":"tt9239882"},{"id":"531309","type":"movie","title":"Brightburn","poster":"https://image.tmdb.org/t/p/w342/sJWwkYc9ajwnPRSkqj8Aue5JbKz.jpg","year":"2019","result":"HD","language":["Hindi"],"country":["US"],"original_language":"en","genres":["Horror","Science Fiction"],"imdb_id":"tt7752126"},{"id":"528888","type":"movie","title":"Dolemite Is My Name","poster":"https://image.tmdb.org/t/p/w342/uoAqJg7ZSmftnBGOkupU1ySZQU0.jpg","year":"2019","result":"HD","language":["Hindi"],"country":["US"],"original_language":"en","genres":["Drama","Comedy","History"],"imdb_id":"tt8526872"}]}