{"page":10,"total_pages":66,"total_items":3299,"items":[{"id":"1594317","type":"movie","title":"Durlabh Prasad Ki Dusri Shadi","poster":"https://image.tmdb.org/t/p/w342/ukUnE8AJvt5qnYPsGwzChhFK9Ca.jpg","year":"2025","result":"HD","language":["Hindi"],"country":[],"original_language":"hi","genres":["Comedy","Family"],"imdb_id":"tt31146564","backdrop":"https://image.tmdb.org/t/p/original/2j8rriKUaVAMV51VJjlXQgB3198.jpg","watch":"https://bysebuho.com/d/260wp9p5qrp1/durlabh-prasad-ki-dusari-shadi-2025-720p-jhs-web-dl-hindi-x264-vegamovies-is"},{"id":"1593247","type":"movie","title":"Drive","poster":"https://image.tmdb.org/t/p/w342/lscqFpIx7cpDET9gjZuan5QyURH.jpg","year":"2025","result":"HD","language":["Hindi"],"country":[],"original_language":"te","genres":["Thriller","Drama"],"imdb_id":"tt39109036","backdrop":"https://image.tmdb.org/t/p/original/iL8CLghVjQy0zhZu3l1Y7BuHMeu.jpg","watch":"<iframe src=\"https://bysebuho.com/e/ls0jjtitmq0d/drive-2025-amzn-web-dl-dual-720p-vegamovies-hot\" frameborder=\"0\" marginwidth=\"0\" marginheight=\"0\" scrolling=\"no\" width=\"640\" height=\"360\" allowfullscreen></iframe>"},{"id":"1591399","type":"movie","title":"The Great Shamsuddin Family","poster":"https://image.tmdb.org/t/p/w342/1ZOwQeDMrUStgNEjNTjgyFTq5a2.jpg","year":"2025","result":"HD","language":["Hindi"],"country":["IN"],"original_language":"hi","genres":["Comedy","Drama","Family"],"imdb_id":"tt7944312","backdrop":"https://image.tmdb.org/t/p/original/jOsSikehu2fdurSuB8GWlswi5g3.jpg","watch":"<iframe src=\"https://bysebuho.com/e/v1gdi7go588o/the-great-shamsuddin-family-2025-720p-web-dl-hindi-dd5-1-x264-daniewatch-is\" frameborder=\"0\" marginwidth=\"0\" marginheight=\"0\" scrolling=\"no\" width=\"640\" height=\"360\" allowfullscreen></iframe>"},{"id":"1590920","type":"movie","title":"Me No Pause Me Play","poster":"https://image.tmdb.org/t/p/w342/nMItbnyJaH6mkxxCOpKIcOm18gS.jpg","year":"2025","result":"HD","language":["Hindi"],"country":["IN"],"original_language":"hi","genres":["Drama"],"imdb_id":"tt38672269","backdrop":"https://image.tmdb.org/t/p/original/lcWOH5YqzE6d54kGSsP1npibYcS.jpg","watch":"<iframe src=\"https://bysebuho.com/e/11g8zxgimcrm/me-no-pause-me-play-2025\" frameborder=\"0\" marginwidth=\"0\" marginheight=\"0\" scrolling=\"no\" width=\"640\" height=\"360\" allowfullscreen></iframe>"},{"id":"1590722","type":"movie","title":"GST","poster":"https://image.tmdb.org/t/p/w342/hOzf9I1cXNN6MPeNQ7H35NAMNeh.jpg","year":"2025","result":"HD","language":["Hindi"],"country":["IN"],"original_language":"kn","genres":["Horror","Comedy"],"imdb_id":"tt28718800","backdrop":"https://image.tmdb.org/t/p/original/jf79CFYgrP4J30egHzLfLabkx1r.jpg","watch":"<iframe src=\"https://bysebuho.com/e/vq5z3grk6qwl/gst-2025-720p-amzn-web-dl-dual-ddp2-0-h-264-vegamovies-is\" frameborder=\"0\" marginwidth=\"0\" marginheight=\"0\" scrolling=\"no\" width=\"640\" height=\"360\" allowfullscreen></iframe>"},{"id":"1589891","type":"movie","title":"A Time for Bravery","poster":"https://image.tmdb.org/t/p/w342/qKKG22O5pFxqglG0oMjWTjQWCNl.jpg","year":"2025","result":"HD","language":["Hindi"],"country":["AR"],"original_language":"es","genres":["Comedy","Action"],"imdb_id":"tt37961727","backdrop":"https://image.tmdb.org/t/p/original/gtuXARxjGdfsGFqEwggBB8zUJza.jpg","watch":"<iframe src=\"https://bysebuho.com/e/bix3awdq34mn/a-time-for-bravery-2025-720p-nf-web-dl-dual-aac5-1-x264-daniewatch-hot-2025\" frameborder=\"0\" marginwidth=\"0\" marginheight=\"0\" scrolling=\"no\" width=\"640\" height=\"360\" allowfullscreen></iframe>"},{"id":"1589598","type":"movie","title":"Yeh Dil Bill","poster":"https://image.tmdb.org/t/p/w342/4Q5NDbi8KaiGTy0XPwIxSldoFD0.jpg","year":"2025","result":"HD","language":["Hindi"],"country":[],"original_language":"hi","genres":["Comedy","Romance"],"imdb_id":"tt38351599","backdrop":"https://image.tmdb.org/t/p/original/gNSFbTTZOqChc4MXOiEx3idGtDK.jpg","watch":"<iframe src=\"https://bysebuho.com/e/gw6h9cab4wf6/Yeh_Dil_Bill_2025_720p_WEB-DL_Hindi_DD2_0_x264-_DANIEWATCH_is.mkv\" frameborder=\"0\" marginwidth=\"0\" marginheight=\"0\" scrolling=\"no\" width=\"640\" height=\"360\" allowfullscreen></iframe>"},{"id":"1586820","type":"movie","title":"Elmo and Mark Rober's Merry Giftmas","poster":"https://image.tmdb.org/t/p/w342/gcFxbtsgyMMripGtUIxPmmFxQXT.jpg","year":"2025","result":"HD","language":["Hindi"],"country":["US"],"original_language":"en","genres":["Family","TV Movie"],"imdb_id":"tt38984593","backdrop":"https://image.tmdb.org/t/p/original/l9Zw7G2xOIi8BVqAdqQPrl8Ms1X.jpg","watch":"<iframe src=\"https://bysebuho.com/e/3hjjfjy4ekfi/elmo-and-mark-robers-merry-giftmas-2025-720p-nf-web-dl-dual-aac5-1-h-264-daniewatch-is-2025\" frameborder=\"0\" marginwidth=\"0\" marginheight=\"0\" scrolling=\"no\" width=\"640\" height=\"360\" allowfullscreen></iframe>"},{"id":"1585219","type":"movie","title":"Paanch Minar","poster":"https://image.tmdb.org/t/p/w342/iq7WEDY0iBTf6UglfmvGXycxp9L.jpg","year":"2025","result":"HD","language":["Hindi"],"country":[],"original_language":"te","genres":["Comedy","Thriller","Crime"],"imdb_id":"tt36188425","backdrop":"https://image.tmdb.org/t/p/original/5E8ewc2EFM75AI8SZEtyS93S60R.jpg","watch":"<iframe src=\"https://bysebuho.com/e/nn10pezcfgzm/paanch-minar-2025-720p-amzn-web-dl-hindi-telugu-ddp5-1-h-264-vegamovies-is\" frameborder=\"0\" marginwidth=\"0\" marginheight=\"0\" scrolling=\"no\" width=\"640\" height=\"360\" allowfullscreen></iframe>"},{"id":"1585058","type":"movie","title":"Dining with the Kapoors","poster":"https://image.tmdb.org/t/p/w342/pdgk3I0JOnU4YZmhGfWtf2Ln5XY.jpg","year":"2025","result":"HD","language":["Hindi"],"country":["IN"],"original_language":"hi","genres":["Documentary","Family"],"imdb_id":"tt35665487","backdrop":"https://image.tmdb.org/t/p/original/exq4Twtx4bEVaDb2BE3xhYXNAdx.jpg","watch":"<iframe src=\"https://bysebuho.com/e/037z91b0zaro/Dining_With_The_Kapoors_2025_720p_NF_WEB-DL_DUAL_AAC5_1_x264-DANIEWATCH.mkv\" frameborder=\"0\" marginwidth=\"0\" marginheight=\"0\" scrolling=\"no\" width=\"640\" height=\"360\" allowfullscreen></iframe>"},{"id":"1584619","type":"movie","title":"Murder in Monaco","poster":"https://image.tmdb.org/t/p/w342/hW93OYJnnHwGaGa4S2mNxlEhgsF.jpg","year":"2025","result":"HD","language":["Hindi"],"country":["GB","US"],"original_language":"en","genres":["Crime","Documentary"],"imdb_id":"tt38984577","backdrop":"https://image.tmdb.org/t/p/original/mjYBT4p1IvcNrfyvDPFNkOCKSmm.jpg","watch":"<iframe src=\"https://bysebuho.com/e/x0mztte434i2/murder-in-monaco-2025-720p-web-hdrip-hindi-ddp5-1-multi-x264-daniewatch-is-2025\" frameborder=\"0\" marginwidth=\"0\" marginheight=\"0\" scrolling=\"no\" width=\"640\" height=\"360\" allowfullscreen></iframe>"},{"id":"1584542","type":"movie","title":"Main Tere Qurbaan","poster":"https://image.tmdb.org/t/p/w342/dYiByJNOXVE8Im2EmS5eXuIq87i.jpg","year":"2025","result":"HD","language":["Hindi"],"country":[],"original_language":"pa","genres":[],"imdb_id":"tt35769322","backdrop":"https://image.tmdb.org/t/p/original/ipYRYhLzsQaZrAwwZ6tW4GDyYeL.jpg","watch":"<iframe src=\"https://bysebuho.com/e/48upy43u4z6m/Main_Tere_Qurbaan_2025_1080p_WEB-DL_Punjabi_DD2_0_x264-DANIEWATCH.mkv\" frameborder=\"0\" marginwidth=\"0\" marginheight=\"0\" scrolling=\"no\" width=\"640\" height=\"360\" allowfullscreen></iframe>"},{"id":"1582440","type":"movie","title":"Hi Zindagi","poster":"https://image.tmdb.org/t/p/w342/x3XPkTJrHjTajEYjurdgeWkSAEv.jpg","year":"2025","result":"HD","language":["Hindi"],"country":["IN"],"original_language":"hi","genres":["Drama","Comedy"],"imdb_id":"tt38509022","backdrop":"https://image.tmdb.org/t/p/original/tVodayzf54rXJUENzm6N8NPdANg.jpg","watch":"<iframe src=\"https://bysebuho.com/e/kp1wqkgswnsd/Hi_Zindagi_2025_Hindi_HDTC_720p_x264_AAC_DANIEWATCH\" frameborder=\"0\" marginwidth=\"0\" marginheight=\"0\" scrolling=\"no\" width=\"640\" height=\"360\" allowfullscreen></iframe>"},{"id":"1581326","type":"movie","title":"Love U Muddu","poster":"https://image.tmdb.org/t/p/w342/1c400UHZu3aqRPqOZlcHm7crliB.jpg","year":"2025","result":"HD","language":["Hindi"],"country":["IN"],"original_language":"kn","genres":["Romance","Drama"],"imdb_id":"tt38428491","backdrop":"https://image.tmdb.org/t/p/original/3rQj2EGEPk821lxqxyRV6qk7jID.jpg","watch":"<iframe src=\"https://bysebuho.com/e/hre0zc7v40cf/love-u-muddu-2025-720p-amzn-web-dl-dual-ddp2-0-h-264-daniewatch-is\" frameborder=\"0\" marginwidth=\"0\" marginheight=\"0\" scrolling=\"no\" width=\"640\" height=\"360\" allowfullscreen></iframe>"},{"id":"1580775","type":"movie","title":"Gatha Vaibhava","poster":"https://image.tmdb.org/t/p/w342/aacJ77PR6wx1KE6MQN9IUeytg2J.jpg","year":"2025","result":"HD","language":["Hindi"],"country":["IN"],"original_language":"kn","genres":["Fantasy","Romance","Comedy"],"imdb_id":"tt38755084","backdrop":"https://image.tmdb.org/t/p/original/zpkxU2dOfy32kBJ60Zwkv4h6FKB.jpg","watch":"<iframe src=\"https://bysebuho.com/e/tfc8cm20w1h6/gatha-vaibhava-2025\" frameborder=\"0\" marginwidth=\"0\" marginheight=\"0\" scrolling=\"no\" width=\"640\" height=\"360\" allowfullscreen></iframe>"},{"id":"1580286","type":"movie","title":"Nishaanchi 2","poster":"https://image.tmdb.org/t/p/w342/xUayFrF27SdDZYlKQBUlqxUOxcB.jpg","year":"2025","result":"HD","language":["Hindi"],"country":["IN"],"original_language":"hi","genres":["Drama","Crime"],"imdb_id":"tt38948631","backdrop":"https://image.tmdb.org/t/p/original/rhA68OHeW7pkyVnwpU8vJjsQvuw.jpg","watch":"<iframe src=\"https://bysebuho.com/e/d4km5fe1nbrc/Nishaanchi_2_2025_720p_AMZN_WEB_DL_H_264-DANIEWATCH\" frameborder=\"0\" marginwidth=\"0\" marginheight=\"0\" scrolling=\"no\" width=\"640\" height=\"360\" allowfullscreen></iframe>"},{"id":"1575785","type":"movie","title":"Badaa Karara Pudna","poster":"https://image.tmdb.org/t/p/w342/qJ4WBgDJNXXARfHi0as7Od2hn0R.jpg","year":"2025","result":"HD","language":["Hindi"],"country":["IN"],"original_language":"pa","genres":["Drama"],"imdb_id":"tt38598593","backdrop":"https://image.tmdb.org/t/p/original/cBTefiOLbr3SFNv0rmt8U8nk2C1.jpg","watch":"<iframe src=\"https://bysebuho.com/e/qosu265u0766/Badaa_Karara_Pudna_2025_720p_HDTC_Hindi_AAC2_0_x264_DANIEWATCH\" frameborder=\"0\" marginwidth=\"0\" marginheight=\"0\" scrolling=\"no\" width=\"640\" height=\"360\" allowfullscreen></iframe>"},{"id":"1575782","type":"movie","title":"I Am God","poster":"https://image.tmdb.org/t/p/w342/2fOSXmOiA9Fqt06ESJbFXsUGX3.jpg","year":"2025","result":"HD","language":["Hindi"],"country":["IN"],"original_language":"kn","genres":["Romance","Thriller"],"imdb_id":"tt38775702","backdrop":"https://image.tmdb.org/t/p/original/igkhKVfCPFvI3mmm3mF9Y5rf14a.jpg","watch":"<iframe src=\"https://bysebuho.com/e/m5box4sw5rrc/i-am-god-2025-720p-amzn-web-dl-dual-ddp5-1-h-264-vegamovies-is\" frameborder=\"0\" marginwidth=\"0\" marginheight=\"0\" scrolling=\"no\" width=\"640\" height=\"360\" allowfullscreen></iframe>"},{"id":"1572107","type":"movie","title":"Brat","poster":"https://image.tmdb.org/t/p/w342/y6NVUbgHIz3SmrRSLU4xlfzL2Mi.jpg","year":"2025","result":"HD","language":["Hindi"],"country":[],"original_language":"kn","genres":["Action","Thriller","Comedy"],"imdb_id":"tt35064377","backdrop":"https://image.tmdb.org/t/p/original/2TO6lV2qCgSi86Yod1nojO5dudn.jpg","watch":"<iframe src=\"https://bysebuho.com/e/cgsubkrhvrop/brat-2025-720p-amzn-web-dl-dual-ddp2-0-h-264-daniewatch-is\" frameborder=\"0\" marginwidth=\"0\" marginheight=\"0\" scrolling=\"no\" width=\"640\" height=\"360\" allowfullscreen></iframe>"},{"id":"1571782","type":"movie","title":"Rangbaaz: The Bihar Chapter","poster":"https://image.tmdb.org/t/p/w342/quV0VvQ2y78PeQvUMLgXGof8gNF.jpg","year":"2025","result":"HD","language":["Hindi"],"country":["IN"],"original_language":"hi","genres":["Action","Crime"],"imdb_id":"tt38813422","backdrop":"https://image.tmdb.org/t/p/original/rJQenqQFAOjrwbIzHaIAP9aaCXd.jpg","watch":"<iframe src=\"https://bysebuho.com/e/qu058vnjgezg/Rangbaaz_The_Bihar_Chapter_2025_720p_ZEE5_WEB-DL_Multi_AAC2_0_H_264-_DANIEWATCH.mkv\" width=\"640\" height=\"360\" frameborder=\"0\" allowfullscreen></iframe>"},{"id":"1571470","type":"movie","title":"The Rats: A Witcher Tale","poster":"https://image.tmdb.org/t/p/w342/1T0kO1cgR430AC9I6jurMOezKwg.jpg","year":"2025","result":"HD","language":["Hindi"],"country":["US","PL"],"original_language":"en","genres":["Fantasy","Drama","Adventure"],"imdb_id":"tt28283547","backdrop":"https://image.tmdb.org/t/p/original/en0NbTEjf3qKokHvwGeaq9DBPIP.jpg","watch":"<iframe src=\"https://bysebuho.com/e/p9a6d2qy3zwa/The_Rats_A_Witcher_Tale_2025_720p_NF_WEB-DL_DUAL_x264_DanieWatch_hot.mkv\" width=\"640\" height=\"360\" frameborder=\"0\" allowfullscreen></iframe>"},{"id":"1570904","type":"movie","title":"Happy Khush Ho Gaya","poster":"https://image.tmdb.org/t/p/w342/ewm3xpq1jf9Yy3dV9FAHcaHInpj.jpg","year":"2025","result":"HD","language":["Hindi"],"country":["IN"],"original_language":"pa","genres":["Comedy"],"imdb_id":"tt37896655","backdrop":"https://image.tmdb.org/t/p/original/ZVi7OIwdr8gXI0ZvLqp8LcndQB.jpg","watch":"<iframe src=\"https://bysebuho.com/e/uuekdq6mlel6/Happy_Khush_Ho_Gaya_2025_720p_HDTC_Punjabi_AAC2_0_x264-DANIEWATCH\" frameborder=\"0\" marginwidth=\"0\" marginheight=\"0\" scrolling=\"no\" width=\"640\" height=\"360\" allowfullscreen></iframe>"},{"id":"1569849","type":"movie","title":"The Error","poster":"https://image.tmdb.org/t/p/w342/kgXYHZP7VPsoAw6GxjxX5ANyH3V.jpg","year":"2025","result":"HD","language":["Hindi"],"country":[],"original_language":"pa","genres":["Crime","Drama"],"imdb_id":"tt38689817","backdrop":"https://image.tmdb.org/t/p/original/tUU0FoPuFunnyqaeuOyMt4WFI4Z.jpg","watch":"<iframe src=\"https://bysebuho.com/e/nmxkq4ozsojm/The_Error_2025_720p_WEB-HDRip_Punjabi_DDP2_0_x264_ESub_DANIEWATCH.mkv\" width=\"640\" height=\"360\" frameborder=\"0\" allowfullscreen></iframe>"},{"id":"1569820","type":"movie","title":"Ik Chithi Dard Bhari","poster":"https://image.tmdb.org/t/p/w342/a5KjjKMNY9TmDDXwS1Jmv7xL5HU.jpg","year":"2025","result":"HD","language":["Hindi"],"country":[],"original_language":"pa","genres":["Drama","Family"],"imdb_id":"","backdrop":"https://image.tmdb.org/t/p/original/zH5bZrLVkjbdXdUTl8x2HGkuoa9.jpg","watch":"<iframe src=\"https://bysebuho.com/e/q7s953h965ie/Ik.Chithi.Dard.Bhari.2025.720p.WEB-DL.Punjabi.x264-DANIEWATCH.is.mkv\" width=\"640\" height=\"360\" frameborder=\"0\" allowfullscreen></iframe>"},{"id":"1567645","type":"movie","title":"Laalo: Krishna Sada Sahaayate","poster":"https://image.tmdb.org/t/p/w342/tViDPmnjZG7MHFssC2duXjOgxd4.jpg","year":"2025","result":"HD","language":["Hindi"],"country":["IN"],"original_language":"gu","genres":["Family","Drama"],"imdb_id":"tt37956153","backdrop":"https://image.tmdb.org/t/p/original/2UkPzslRKYdExioA4ASjWDtYGdt.jpg","watch":"<iframe src=\"https://bysebuho.com/e/8130t0p61k2b/laalo-krishna-sada-sahaayate-2025-720p-hdtc-hindi-aac2-0-daniewatch-is\" frameborder=\"0\" marginwidth=\"0\" marginheight=\"0\" scrolling=\"no\" width=\"640\" height=\"360\" allowfullscreen></iframe>"},{"id":"1566269","type":"movie","title":"The First Snow of Fraggle Rock","poster":"https://image.tmdb.org/t/p/w342/xyxAOTToALUkeFS9x5V6MOv8YWr.jpg","year":"2025","result":"HD","language":["Hindi"],"country":["US"],"original_language":"en","genres":["Family","Comedy","Music"],"imdb_id":"tt39089423","backdrop":"https://image.tmdb.org/t/p/original/h5hCdU9KvcCbBihSNfn3vtML7tV.jpg","watch":"<iframe src=\"https://bysebuho.com/e/wc9mhmlxcnq4/The_First_Snow_of_Fraggle_Rock_2025_720p_ATVP_WEB-DL_DUAL_x264-_DANIEWATCH.mkv\" frameborder=\"0\" marginwidth=\"0\" marginheight=\"0\" scrolling=\"no\" width=\"640\" height=\"360\" allowfullscreen></iframe>"},{"id":"1564181","type":"movie","title":"Soulmates","poster":"https://image.tmdb.org/t/p/w342/3nDCYVmxFpQ1MAbdcn61x75m1xw.jpg","year":"2025","result":"HD","language":["Hindi"],"country":["IN"],"original_language":"hi","genres":["Romance","Comedy","Drama"],"imdb_id":"tt38782916","backdrop":"https://image.tmdb.org/t/p/original/j5yrBAfA5DRQsyO4HGvXOIyruzZ.jpg","watch":"<iframe src=\"https://bysebuho.com/e/ajeojso8ovd4/soulmates-2025-hindi-it-web-dl-720p-daniewatch-is\" frameborder=\"0\" marginwidth=\"0\" marginheight=\"0\" scrolling=\"no\" width=\"640\" height=\"360\" allowfullscreen></iframe>"},{"id":"1563575","type":"movie","title":"Rajdhani Punjab","poster":"https://image.tmdb.org/t/p/w342/g0Srs4aCYeoCawDokvuyuDV1gXE.jpg","year":"2025","result":"HD","language":["Hindi"],"country":[],"original_language":"pa","genres":[],"imdb_id":"tt38691549","backdrop":"","watch":"<iframe src=\"https://bysebuho.com/e/c2l42mz28boi/Rajdhani_Punjab_2025_720p_WEB-DL_Punjabi_DDP5_1_x264_ESub_DANIEWATCH.mkv\" width=\"640\" height=\"360\" frameborder=\"0\" allowfullscreen></iframe>"},{"id":"1563109","type":"movie","title":"Greater Kalesh","poster":"https://image.tmdb.org/t/p/w342/pGJ5NNMFENxOekN0Irrsq9Cd7PL.jpg","year":"2025","result":"HD","language":["Hindi"],"country":["IN"],"original_language":"hi","genres":["Drama","Family"],"imdb_id":"tt38672425","backdrop":"https://image.tmdb.org/t/p/original/FwMMeZr9NAc1QBTdSbIVTjDNkE.jpg","watch":"<iframe src=\"https://bysebuho.com/e/vpb9xbdxdi8l/Greater_Kalesh_2025_720p_NF_WEB-DL_AAC5_1_x264-DANIEWATCH.mkv\" width=\"640\" height=\"360\" frameborder=\"0\" allowfullscreen></iframe>"},{"id":"1562241","type":"movie","title":"Jassi Weds Jassi","poster":"https://image.tmdb.org/t/p/w342/rIHbBEnJ1SE1y3RdTA7VKc6LLMV.jpg","year":"2025","result":"HD","language":["Hindi"],"country":[],"original_language":"hi","genres":["Comedy"],"imdb_id":"tt37538305","backdrop":"https://image.tmdb.org/t/p/original/jU6dWI6sukWWYl0MtMms9vBZVB7.jpg","watch":"<iframe src=\"https://bysebuho.com/e/cz2zwucq7vs2/Jassi_Weds_Jassi_2025_720p_HDTS_Hindi_AAC2_0_x264-DANIEWATCH\" frameborder=\"0\" marginwidth=\"0\" marginheight=\"0\" scrolling=\"no\" width=\"640\" height=\"360\" allowfullscreen></iframe>"},{"id":"1561969","type":"movie","title":"Baramulla","poster":"https://image.tmdb.org/t/p/w342/xm5ER19nTk7iuWFaiNRUYe3Zlz.jpg","year":"2025","result":"HD","language":["Hindi"],"country":["IN"],"original_language":"hi","genres":["Horror"],"imdb_id":"tt29247040","backdrop":"https://image.tmdb.org/t/p/original/fbTRgh6moAvhlkB4wPjswP9EdWz.jpg","watch":"<iframe src=\"https://bysebuho.com/e/a8k97x6qrpe3/Baramulla_2025_720p_NF_WEB-DL_Hindi_AAC5_1_x264-DANIEWATCH\" frameborder=\"0\" marginwidth=\"0\" marginheight=\"0\" scrolling=\"no\" width=\"640\" height=\"360\" allowfullscreen></iframe>"},{"id":"1561955","type":"movie","title":"Stephen","poster":"https://image.tmdb.org/t/p/w342/yUURUJzeSTc47T2VeNw7nZwZ8VJ.jpg","year":"2025","result":"HD","language":["Hindi"],"country":["IN"],"original_language":"ta","genres":["Thriller","Mystery"],"imdb_id":"tt38681567","backdrop":"https://image.tmdb.org/t/p/original/7cQjb8cRbRjF5tM5gOCnqsvC0iT.jpg","watch":"<iframe src=\"https://bysebuho.com/e/egp40yw6xsfi/stephen-2025-720p-10bit-hevc-web-dl-hindi-malayalam-kannada-aac-esub-x265-daniewatch\" frameborder=\"0\" marginwidth=\"0\" marginheight=\"0\" scrolling=\"no\" width=\"640\" height=\"360\" allowfullscreen></iframe>"},{"id":"1561205","type":"movie","title":"Controll","poster":"https://image.tmdb.org/t/p/w342/x4D59ZzGcaROt2ZGtSNCsvslM8F.jpg","year":"2025","result":"HD","language":["Hindi"],"country":["IN"],"original_language":"hi","genres":["Action","Thriller"],"imdb_id":"tt27678883","backdrop":"https://image.tmdb.org/t/p/original/l6KeC0gjFtEDDthUo5eVlOxDcEZ.jpg","watch":"<iframe src=\"https://bysebuho.com/e/ntu043pls502/Controll_2025_Hindi_HDTC_720p_x264_AAC_DANIEWATCH.mkv\" width=\"640\" height=\"360\" frameborder=\"0\" allowfullscreen></iframe>"},{"id":"1561142","type":"movie","title":"Saira Khan Case","poster":"https://image.tmdb.org/t/p/w342/83E4KIt9dANAlTjEMJp8ZZsGUZH.jpg","year":"2025","result":"HD","language":["Hindi"],"country":["IN"],"original_language":"hi","genres":["Crime"],"imdb_id":"tt38346232","backdrop":"","watch":"<iframe src=\"https://bysebuho.com/e/b7k8z4s5xs7n/Saira_Khan_Case_2025_Hindi_HDTC_720p_x264-DANIEWATCH.mkv\" width=\"640\" height=\"360\" frameborder=\"0\" allowfullscreen></iframe>"},{"id":"1560664","type":"movie","title":"The Roughneck","poster":"https://image.tmdb.org/t/p/w342/bRPI3ZLSPJehbnb1OCpWBVBBx0c.jpg","year":"2025","result":"HD","language":["Hindi"],"country":["US"],"original_language":"en","genres":["Thriller","Action","Drama"],"imdb_id":"tt35303601","backdrop":"https://image.tmdb.org/t/p/original/y6FIMlDgOMSyyfztaF7EfaxlN8a.jpg","watch":"<iframe src=\"https://bysebuho.com/e/9c0br2fhpc44/the-roughneck-2025-720p-web-dl-hindi-english-x264-daniewatch-is-2025\" frameborder=\"0\" marginwidth=\"0\" marginheight=\"0\" scrolling=\"no\" width=\"640\" height=\"360\" allowfullscreen></iframe>"},{"id":"1560100","type":"movie","title":"Farmhouse","poster":"https://image.tmdb.org/t/p/w342/3UsMp8ZCAIRT7l2BVECSYgFOdvS.jpg","year":"2025","result":"HD","language":["Hindi"],"country":["IN"],"original_language":"pa","genres":["Thriller"],"imdb_id":"tt38608144","backdrop":"","watch":"<iframe src=\"https://bysebuho.com/e/ujg0jbababxs/Farmhouse_2025_720p_WEB-DL_Punjabi_x264-DANIEWATCH.mkv\" width=\"640\" height=\"360\" frameborder=\"0\" allowfullscreen></iframe>"},{"id":"1560093","type":"movie","title":"Soch Toh Parey","poster":"https://image.tmdb.org/t/p/w342/eTRNXLeLFBcLAB8ZB3STlrNz7Nm.jpg","year":"2025","result":"HD","language":["Hindi"],"country":[],"original_language":"pa","genres":["Drama"],"imdb_id":"","backdrop":"https://image.tmdb.org/t/p/original/qbqIp8ock611V8CXlpOz5S8brPn.jpg","watch":"<iframe src=\"https://bysebuho.com/e/y8td1zjw2rfc/Soch_Toh_Parey_2025_720p_WEB-HDRip_Punjabi_DDP5_1_x264_ESub_DANIEWATCH.mkv\" width=\"640\" height=\"360\" frameborder=\"0\" allowfullscreen></iframe>"},{"id":"1558468","type":"movie","title":"Shambhala","poster":"https://image.tmdb.org/t/p/w342/toCKv7aKlAzYh0vyrrBZjuWGIMD.jpg","year":"2025","result":"HD","language":["Cam"],"country":["IN"],"original_language":"te","genres":["Action","Horror","Thriller"],"imdb_id":"tt34159694","backdrop":"https://image.tmdb.org/t/p/original/1zo8aW25goAHkFB9DaWHp0aYb2v.jpg","watch":"<iframe src=\"https://bysebuho.com/e/pza2l3px2za3/aadi-shambhala-2025-720p-aha-web-dl-hindi-cleaned-aac2-0-telugu-ddp5-1-h-264-vegamovies-is\" frameborder=\"0\" marginwidth=\"0\" marginheight=\"0\" scrolling=\"no\" width=\"640\" height=\"360\" allowfullscreen></iframe>"},{"id":"1557961","type":"movie","title":"Bank Of Bhagyalakshmi","poster":"https://image.tmdb.org/t/p/w342/k3ZkowkAPpfLwhD8eV3OhFooYgo.jpg","year":"2025","result":"HD","language":["Hindi"],"country":["IN"],"original_language":"kn","genres":["Comedy","Action","Crime","Thriller"],"imdb_id":"tt32447918","backdrop":"https://image.tmdb.org/t/p/original/prYwnqHuSdWlBjce6tGOK5KDgqh.jpg","watch":"<iframe src=\"https://bysebuho.com/e/jdiv2dspixul/bank-of-bhagyalakshmi-2025-720p-web-dl-hindi-kannada-x264-daniewatch-is\" frameborder=\"0\" marginwidth=\"0\" marginheight=\"0\" scrolling=\"no\" width=\"640\" height=\"360\" allowfullscreen></iframe>"},{"id":"1557889","type":"movie","title":"Soohe Ve Cheere Waleya","poster":"https://image.tmdb.org/t/p/w342/xs574v4F6OPysyfzmwBh6AbPdN.jpg","year":"2025","result":"HD","language":["Hindi"],"country":["IN"],"original_language":"pa","genres":["Romance","Drama"],"imdb_id":"tt38582643","backdrop":"","watch":"<iframe src=\"https://bysebuho.com/e/w1i3af2b59m1/soohe-ve-cheere-waleya-2025-720p-punjabi\" frameborder=\"0\" marginwidth=\"0\" marginheight=\"0\" scrolling=\"no\" width=\"640\" height=\"360\" allowfullscreen></iframe>"},{"id":"1557855","type":"movie","title":"Raavi de Kande","poster":"https://image.tmdb.org/t/p/w342/xs9qan2fvt1TgJr6PcL3CYVPZ57.jpg","year":"2025","result":"HD","language":["Hindi"],"country":[],"original_language":"pa","genres":["Drama"],"imdb_id":"tt37701965","backdrop":"https://image.tmdb.org/t/p/original/hUyJPfaJVURujPuGS43VKkXC6gv.jpg","watch":"<iframe src=\"https://bysebuho.com/e/h81cu1mo1g4i/Raavi_De_Kande_2025_Punjabi_HDTC_720p_x264_AAC_DANIEWATCH.mkv\" width=\"640\" height=\"360\" frameborder=\"0\" allowfullscreen></iframe>"},{"id":"1555298","type":"movie","title":"Rajini Gaang","poster":"https://image.tmdb.org/t/p/w342/grMIi3H6XrqJQTtJdkzmZtkoYL7.jpg","year":"2025","result":"HD","language":["Hindi"],"country":["IN"],"original_language":"ta","genres":["Horror","Comedy"],"imdb_id":"tt38938222","backdrop":"https://image.tmdb.org/t/p/original/hWnkLYx72lbLUD100WuB1iUJhjo.jpg","watch":"<iframe src=\"https://bysebuho.com/e/3i1q90d08xec/rajini-gaang-2025\" frameborder=\"0\" marginwidth=\"0\" marginheight=\"0\" scrolling=\"no\" width=\"640\" height=\"360\" allowfullscreen></iframe>"},{"id":"1554565","type":"movie","title":"Evil Nun","poster":"https://image.tmdb.org/t/p/w342/fLJQgDd9qXZiCEYM9XQqtg1raAC.jpg","year":"2025","result":"HD","language":["Hindi"],"country":["US"],"original_language":"en","genres":["Horror"],"imdb_id":"tt38265135","backdrop":"https://image.tmdb.org/t/p/original/nGuxAvrVQ379yRMW1NSEVEguGgL.jpg","watch":"<iframe src=\"https://bysebuho.com/e/90syj6gpt42x/Evil_Nun__2025__WEB-DL_720p_x264_Hindi___Rus_DANIEWATCH.mkv\" frameborder=\"0\" marginwidth=\"0\" marginheight=\"0\" scrolling=\"no\" width=\"640\" height=\"360\" allowfullscreen></iframe>"},{"id":"1554048","type":"movie","title":"Godday Godday Chaa 2","poster":"https://image.tmdb.org/t/p/w342/ixaCAzYYO8NzYwJUg6v7Dy7qfxx.jpg","year":"2025","result":"HD","language":["Hindi"],"country":["IN"],"original_language":"pa","genres":["Comedy","Drama"],"imdb_id":"tt38504130","backdrop":"https://image.tmdb.org/t/p/original/zjWtaInjqJ88LOCUpvqdH0w6gUQ.jpg","watch":"<iframe src=\"https://bysebuho.com/e/t59fbno3tm0l/godday-godday-chaa-2-2025-720p-web-hdrip-punjabi-ddp5-1-esub-daniewatch\" frameborder=\"0\" marginwidth=\"0\" marginheight=\"0\" scrolling=\"no\" width=\"640\" height=\"360\" allowfullscreen></iframe>"},{"id":"1554037","type":"movie","title":"Bhagwat - Chapter One: Raakshas","poster":"https://image.tmdb.org/t/p/w342/hXVDG74ykzadnIHtPpV8eZWwtZB.jpg","year":"2025","result":"HD","language":["Hindi"],"country":["IN"],"original_language":"hi","genres":["Thriller"],"imdb_id":"tt38525492","backdrop":"https://image.tmdb.org/t/p/original/k8p6fA6YPvEcqmvbCuBQKmbIT3l.jpg","watch":"<iframe src=\"https://bysebuho.com/e/12uja5wb8akj/Bhagwat_Chapter_One_Raakshas_2025_720p_ZEE5_WEB-DL_Hindi_DDP5_1_H_264-DANIEWATCH.mkv\" width=\"640\" height=\"360\" frameborder=\"0\" allowfullscreen></iframe>"},{"id":"1553347","type":"movie","title":"Tu Meri Poori Kahani","poster":"https://image.tmdb.org/t/p/w342/2V0Qjds0tHzCiB0PoSLQkrvrqsa.jpg","year":"2025","result":"HD","language":["Hindi"],"country":["IN"],"original_language":"en","genres":["Romance","Drama"],"imdb_id":"tt33097892","backdrop":"","watch":"<iframe src=\"https://bysebuho.com/e/ygl5j9mi26e9/Tu_Meri_Poori_Kahani_2025_Hindi_HDTC_720p_x264_AAC_DANIEWATCH.mkv\" width=\"640\" height=\"360\" frameborder=\"0\" allowfullscreen></iframe>"},{"id":"1552819","type":"movie","title":"Assassin","poster":"https://image.tmdb.org/t/p/w342/fLRCNUz3MsnC0MdhaWpw3hp4Eye.jpg","year":"2025","result":"HD","language":["Hindi"],"country":[],"original_language":"zh","genres":["Action"],"imdb_id":"tt36350780","backdrop":"https://image.tmdb.org/t/p/original/gZF6fDtE71Fi3AGcF0PSQAxCgE3.jpg","watch":"<iframe src=\"https://bysebuho.com/e/yq48q83m5yvp/Assassin__2025__Hindi_Dubbed_ORG_JHS_720p_-_DANIEWATCH\" frameborder=\"0\" marginwidth=\"0\" marginheight=\"0\" scrolling=\"no\" width=\"640\" height=\"360\" allowfullscreen></iframe>"},{"id":"1552117","type":"movie","title":"Chalo Bulaava Aaya Hai","poster":"https://image.tmdb.org/t/p/w342/469JpVpXBucgfGVS7J2OMqinTAf.jpg","year":"2025","result":"HD","language":["Hindi"],"country":["IN","GB"],"original_language":"pa","genres":["Drama","Family"],"imdb_id":"tt38043583","backdrop":"","watch":"<iframe src=\"https://bysebuho.com/e/9a92fzkufsqe/chalo-bulaava-aaya-hai-2026-720p-web-dl-punjabi-x264-daniewatch-is\" frameborder=\"0\" marginwidth=\"0\" marginheight=\"0\" scrolling=\"no\" width=\"640\" height=\"360\" allowfullscreen></iframe>"},{"id":"1550785","type":"movie","title":"My Father, the BTK Killer","poster":"https://image.tmdb.org/t/p/w342/47EblKlcEQ4lHdTVnay4P1d6thf.jpg","year":"2025","result":"HD","language":["Hindi"],"country":["US"],"original_language":"en","genres":["Crime","Documentary"],"imdb_id":"tt38466379","backdrop":"https://image.tmdb.org/t/p/original/hItxQ4gE3Eu7vq4HKw78y9YG8AS.jpg","watch":"<iframe src=\"https://bysebuho.com/e/47504q6jwhlp/My_Father_the_BTK_Killer_2025_720p_WEB-DL_HIN-ENG_x264_ESub-Vegamovies_hot.mkv\" width=\"640\" height=\"360\" frameborder=\"0\" allowfullscreen></iframe>"},{"id":"1550569","type":"movie","title":"Aileen: Queen of the Serial Killers","poster":"https://image.tmdb.org/t/p/w342/iBCorGTwpXhIOeWwTA21HC5Rprx.jpg","year":"2025","result":"HD","language":["Hindi"],"country":["GB","US"],"original_language":"en","genres":["Documentary","Crime"],"imdb_id":"tt38457052","backdrop":"https://image.tmdb.org/t/p/original/mrYoBknZhVI7jMsEe4nbbHLgLKa.jpg","watch":"<iframe src=\"https://bysebuho.com/e/xl98fgcnh968/Aileen_Queen_of_the_Serial_Killers_2025_720p_NF_WEB-DL_x264_DANIEWATCH.mkv\" width=\"640\" height=\"360\" frameborder=\"0\" allowfullscreen></iframe>"}]}