{"page":55,"total_pages":67,"total_items":3303,"items":[{"id":"549514","type":"movie","title":"Fatale","poster":"https://image.tmdb.org/t/p/w342/tGFXEyESXIuei5tZWXRkSRSFSxi.jpg","year":"2020","result":"HD","language":["Hindi"],"country":["US"],"original_language":"en","genres":["Drama","Thriller"],"imdb_id":"tt8829830"},{"id":"733049","type":"movie","title":"The Pizzagate Massacre","poster":"https://image.tmdb.org/t/p/w342/4MRYyz3CAzXsuUNDgt6L04GxP8H.jpg","year":"2020","result":"HD","language":["Hindi"],"country":["US"],"original_language":"en","genres":["Comedy","Action","Crime","Horror"],"imdb_id":"tt10725448"},{"id":"87050","type":"tv","title":"Hollywood","poster":"https://image.tmdb.org/t/p/w342/8AvVBcuCpESqdQicuX7s4WOGo1V.jpg","year":"2020","result":"HD","language":["Hindi"],"country":["US"],"original_language":"en","genres":["Drama"],"imdb_id":"tt9827854","latest_uploaded_season":1,"total_uploaded_episodes":7},{"id":"90265","type":"tv","title":"White Lines","poster":"https://image.tmdb.org/t/p/w342/3O1lB4ZhTMZ0Q3VsU7SHtFBDYI1.jpg","year":"2020","result":"HD","language":["Hindi"],"country":["GB"],"original_language":"en","genres":["Drama","Crime","Mystery"],"imdb_id":"tt9073958","latest_uploaded_season":1,"total_uploaded_episodes":10},{"id":"664413","type":"movie","title":"365 Days","poster":"https://image.tmdb.org/t/p/w342/6KwrHucIE3CvNT7kTm2MAlZ4fYF.jpg","year":"2020","result":"HD","language":["Hindi"],"country":["PL"],"original_language":"pl","genres":["Romance","Drama"],"imdb_id":"tt10886166"},{"id":"737586","type":"movie","title":"The Trees Have Eyes","poster":"https://image.tmdb.org/t/p/w342/oPNUbDbRXUbYDQU4hfQNSWkhp3T.jpg","year":"2020","result":"HD","language":["Hindi"],"country":[],"original_language":"en","genres":["Horror"],"imdb_id":"tt2990352"},{"id":"730428","type":"movie","title":"Class of '83","poster":"https://image.tmdb.org/t/p/w342/exlQEMxbolmsCE4D5Ky6u4onnvC.jpg","year":"2020","result":"HD","language":["Hindi"],"country":["IN"],"original_language":"hi","genres":["Action","Crime","Drama"],"imdb_id":"tt10230422"},{"id":"607313","type":"movie","title":"Sarileru Neekevvaru","poster":"https://image.tmdb.org/t/p/w342/66MSawKC7nkqjD1BMlQHXl6y3C.jpg","year":"2020","result":"HD","language":["Hindi"],"country":["IN"],"original_language":"te","genres":["Action"],"imdb_id":"tt10773090"},{"id":"613022","type":"movie","title":"Walter","poster":"https://image.tmdb.org/t/p/w342/9sbshZnFkQrJ9QfFZA1rjnPm2hE.jpg","year":"2020","result":"HD","language":["Hindi"],"country":["IN"],"original_language":"ta","genres":["Action","Thriller","Crime","Drama"],"imdb_id":"tt10300704"},{"id":"117058","type":"tv","title":"7 Days of Romance","poster":"https://image.tmdb.org/t/p/w342/b1zh3YzVTHKLj5iCmUMR5jA1WWg.jpg","year":"2020","result":"HD","language":["Hindi"],"country":["KR"],"original_language":"ko","genres":["Drama"],"imdb_id":"","latest_uploaded_season":2,"total_uploaded_episodes":20},{"id":"790227","type":"movie","title":"Ghost Light","poster":"https://image.tmdb.org/t/p/w342/75UGZrcUCMA1gQAmReapEd73vbz.jpg","year":"2020","result":"HD","language":["Hindi"],"country":["US"],"original_language":"en","genres":["Thriller","Horror"],"imdb_id":"tt10969668"},{"id":"766054","type":"movie","title":"Buoyancy","poster":"https://image.tmdb.org/t/p/w342/oFjdP2L9i9RtcytwChPQOCnIaQs.jpg","year":"2020","result":"HD","language":["Hindi"],"country":["NL"],"original_language":"en","genres":["Thriller"],"imdb_id":"tt8424638"},{"id":"750377","type":"movie","title":"For The New Emperor","poster":"https://image.tmdb.org/t/p/w342/iUQYA0yhRe3k9WGzZxkohAdAPPL.jpg","year":"2020","result":"HD","language":["Hindi"],"country":["KR"],"original_language":"ko","genres":["Action"],"imdb_id":""},{"id":"746817","type":"movie","title":"The Call","poster":"https://image.tmdb.org/t/p/w342/iKmykghTmvQj6zum79TsdUL5mPF.jpg","year":"2020","result":"HD","language":["Hindi"],"country":["CA","US"],"original_language":"en","genres":["Horror","Thriller"],"imdb_id":"tt12971924"},{"id":"745275","type":"movie","title":"Ka/Pae. Ranasingam","poster":"https://image.tmdb.org/t/p/w342/gvNft4f5eXidHf7kTlJv8aP1cHI.jpg","year":"2020","result":"HD","language":["Hindi"],"country":["IN"],"original_language":"ta","genres":["Drama"],"imdb_id":"tt11731768"},{"id":"728552","type":"movie","title":"Side Effect","poster":"https://image.tmdb.org/t/p/w342/6pEnKpR7B08zDctLfpRdFT8hoe6.jpg","year":"2020","result":"HD","language":["Hindi"],"country":["RU"],"original_language":"ru","genres":["Horror","Thriller"],"imdb_id":"tt13616444"},{"id":"682153","type":"movie","title":"Doraemon: Nobita's New Dinosaur","poster":"https://image.tmdb.org/t/p/w342/wxCZmXRJa8hSv1Tpih8TBSR4o6b.jpg","year":"2020","result":"HD","language":["Hindi"],"country":["JP"],"original_language":"ja","genres":["Animation","Adventure","Family","Fantasy","Science Fiction","Comedy"],"imdb_id":"tt10588750"},{"id":"680956","type":"movie","title":"Chal Mera Putt 2","poster":"https://image.tmdb.org/t/p/w342/nz1EnqItS3KmeRnRiuWjONnrNVE.jpg","year":"2020","result":"HD","language":["Hindi"],"country":["IN"],"original_language":"pa","genres":["Comedy","Drama"],"imdb_id":"tt11737772"},{"id":"668391","type":"movie","title":"Seeru","poster":"https://image.tmdb.org/t/p/w342/4sK86QGqPib9rq3Ux8DcUVCkQRj.jpg","year":"2020","result":"HD","language":["Hindi"],"country":[],"original_language":"ta","genres":["Action","Drama"],"imdb_id":"tt10022990"},{"id":"663459","type":"movie","title":"Jungle Beat: The Movie","poster":"https://image.tmdb.org/t/p/w342/cgC67SOxd9xkjN4Bnvjtuj1vI8T.jpg","year":"2020","result":"HD","language":["Hindi"],"country":["MU"],"original_language":"en","genres":["Family","Animation","Science Fiction","Comedy"],"imdb_id":"tt12139700"},{"id":"641501","type":"movie","title":"How I Became a Superhero","poster":"https://image.tmdb.org/t/p/w342/d0wn9YtEnmbucx8ZUsT918ctoiK.jpg","year":"2020","result":"HD","language":["Hindi"],"country":["FR"],"original_language":"fr","genres":["Science Fiction","Adventure","Action","Comedy","Thriller"],"imdb_id":"tt10345590"},{"id":"615677","type":"movie","title":"We Can Be Heroes","poster":"https://image.tmdb.org/t/p/w342/1S21HpcKY6uQ9UAw68aICmrJaq6.jpg","year":"2020","result":"HD","language":["Hindi"],"country":["US"],"original_language":"en","genres":["Family","Action","Fantasy","Comedy"],"imdb_id":"tt10600398"},{"id":"615466","type":"movie","title":"All Together Now","poster":"https://image.tmdb.org/t/p/w342/4QIpIHoYdlt9ekD6mSIxe0FylpR.jpg","year":"2020","result":"HD","language":["Hindi"],"country":["US"],"original_language":"en","genres":["Drama"],"imdb_id":"tt3155342"},{"id":"614560","type":"movie","title":"Mank","poster":"https://image.tmdb.org/t/p/w342/4yzTcAtvzyZLLto4z04xobUK9el.jpg","year":"2020","result":"HD","language":["Hindi"],"country":["US"],"original_language":"en","genres":["Drama","History"],"imdb_id":"tt10618286"},{"id":"611213","type":"movie","title":"The Prom","poster":"https://image.tmdb.org/t/p/w342/9oHvqd1QL5kaqt6zmCuDmM8esjV.jpg","year":"2020","result":"HD","language":["Hindi"],"country":["US"],"original_language":"en","genres":["Romance","Comedy"],"imdb_id":"tt10161886"},{"id":"604362","type":"movie","title":"Hitman: Agent Jun","poster":"https://image.tmdb.org/t/p/w342/dAt3nolyXLEEuXiIXZwv1iikbcA.jpg","year":"2020","result":"HD","language":["Hindi"],"country":["KR"],"original_language":"ko","genres":["Action","Comedy"],"imdb_id":"tt11649614"},{"id":"597219","type":"movie","title":"The Half of It","poster":"https://image.tmdb.org/t/p/w342/jC1PNXGET1ZZQyrJvdFhPfXdPP1.jpg","year":"2020","result":"HD","language":["Hindi"],"country":["US"],"original_language":"en","genres":["Comedy","Romance","Drama"],"imdb_id":"tt9683478"},{"id":"595601","type":"movie","title":"Darkness in Tenement 45","poster":"https://image.tmdb.org/t/p/w342/tdzeisUZTQar9qSKS9Wsljmc6b4.jpg","year":"2020","result":"HD","language":["Hindi"],"country":["US"],"original_language":"en","genres":["Thriller","Drama","Horror"],"imdb_id":"tt6806766"},{"id":"589615","type":"movie","title":"Raat Akeli Hai","poster":"https://image.tmdb.org/t/p/w342/lQPWcvQiv1D1xBlpnn5o0hepXkX.jpg","year":"2020","result":"HD","language":["Hindi"],"country":["IN"],"original_language":"hi","genres":["Crime","Mystery","Thriller"],"imdb_id":"tt12567088"},{"id":"581392","type":"movie","title":"Peninsula","poster":"https://image.tmdb.org/t/p/w342/eeqvAzCccAZOhU3RfbvHB3s44S6.jpg","year":"2020","result":"HD","language":["Hindi"],"country":["KR"],"original_language":"ko","genres":["Horror","Action","Thriller","Adventure"],"imdb_id":"tt8850222"},{"id":"533514","type":"movie","title":"Violet Evergarden: The Movie","poster":"https://image.tmdb.org/t/p/w342/bajajkoErDst0JxdFyBkABiF9rW.jpg","year":"2020","result":"HD","language":["English"],"country":["JP"],"original_language":"ja","genres":["Animation","Drama","Fantasy","Romance"],"imdb_id":"tt8652818"},{"id":"524047","type":"movie","title":"Greenland","poster":"https://image.tmdb.org/t/p/w342/bNo2mcvSwIvnx8K6y1euAc1TLVq.jpg","year":"2020","result":"HD","language":["Hindi"],"country":["GB","US"],"original_language":"en","genres":["Action","Adventure","Thriller","Science Fiction"],"imdb_id":"tt7737786"},{"id":"474764","type":"movie","title":"The Lodge","poster":"https://image.tmdb.org/t/p/w342/yake2myhbW7c6dKbmwYDy1i40bm.jpg","year":"2020","result":"HD","language":["Hindi"],"country":["GB","US"],"original_language":"en","genres":["Horror","Drama","Mystery","Thriller"],"imdb_id":"tt7347846"},{"id":"466622","type":"movie","title":"The Rhythm Section","poster":"https://image.tmdb.org/t/p/w342/spTr0VYyRtl36Lkk6nCnnbFXhus.jpg","year":"2020","result":"HD","language":["Hindi"],"country":["ES","GB","US"],"original_language":"en","genres":["Action","Thriller"],"imdb_id":"tt7134096"},{"id":"114029","type":"tv","title":"Eternal Love Rain","poster":"https://image.tmdb.org/t/p/w342/dQWyDNlkLM8jMyDc4GJYl4mDBMY.jpg","year":"2020","result":"HD","language":["Hindi"],"country":["CN"],"original_language":"zh","genres":["Drama"],"imdb_id":"tt13298236","latest_uploaded_season":1,"total_uploaded_episodes":10},{"id":"112706","type":"tv","title":"Cheat On Me, If You Can","poster":"https://image.tmdb.org/t/p/w342/5nUrDZeZzJSXiY4eRJEg45TYavs.jpg","year":"2020","result":"HD","language":["Hindi"],"country":["KR"],"original_language":"ko","genres":["Comedy","Mystery"],"imdb_id":"tt13092070","latest_uploaded_season":1,"total_uploaded_episodes":16},{"id":"112280","type":"tv","title":"Begin Again","poster":"https://image.tmdb.org/t/p/w342/jKI1eCz4rTcN9wI1HRhXVRwhHiY.jpg","year":"2020","result":"HD","language":["Hindi"],"country":["CN"],"original_language":"zh","genres":["Drama","Comedy"],"imdb_id":"tt12256822","latest_uploaded_season":1,"total_uploaded_episodes":35},{"id":"112119","type":"tv","title":"Kairos","poster":"https://image.tmdb.org/t/p/w342/cnThovHCzJ2YoKrZ0oBBZfkd26j.jpg","year":"2020","result":"HD","language":["Hindi"],"country":["KR"],"original_language":"ko","genres":["Action & Adventure","Crime","Drama","Sci-Fi & Fantasy"],"imdb_id":"tt12874950","latest_uploaded_season":1,"total_uploaded_episodes":32},{"id":"110966","type":"tv","title":"Perfect and Casual","poster":"https://image.tmdb.org/t/p/w342/hcuxSkKXkBgHlSJWPTDy9m9vDzI.jpg","year":"2020","result":"HD","language":["Hindi"],"country":["CN"],"original_language":"zh","genres":["Comedy","Drama"],"imdb_id":"tt13161710","latest_uploaded_season":1,"total_uploaded_episodes":24},{"id":"110267","type":"tv","title":"Strange School Tales","poster":"https://image.tmdb.org/t/p/w342/hGnY0ZVm8GuuQSsR49ENQW8OiOt.jpg","year":"2020","result":"HD","language":["Hindi"],"country":["KR"],"original_language":"ko","genres":["Drama","Mystery","Crime"],"imdb_id":"tt13094066","latest_uploaded_season":1,"total_uploaded_episodes":12},{"id":"107393","type":"tv","title":"Twenty-Twenty","poster":"https://image.tmdb.org/t/p/w342/5iX4K96n5oRLK6q27fXzU3qn7Wu.jpg","year":"2020","result":"HD","language":["Hindi"],"country":["KR"],"original_language":"ko","genres":["Drama"],"imdb_id":"tt13080612","latest_uploaded_season":1,"total_uploaded_episodes":20},{"id":"106935","type":"tv","title":"Kiss Goblin","poster":"https://image.tmdb.org/t/p/w342/1cRHbcm77dBvqMGvHOJgjziteqZ.jpg","year":"2020","result":"HD","language":["Hindi"],"country":["KR"],"original_language":"ko","genres":["Comedy","Drama","Sci-Fi & Fantasy"],"imdb_id":"tt14212332","latest_uploaded_season":1,"total_uploaded_episodes":12},{"id":"104308","type":"tv","title":"She Knows Everything","poster":"https://image.tmdb.org/t/p/w342/pYbaPdAN3M5FJ6IFLJCoAwjUTBM.jpg","year":"2020","result":"HD","language":["Hindi"],"country":["KR"],"original_language":"ko","genres":["Crime","Mystery"],"imdb_id":"tt12538770","latest_uploaded_season":1,"total_uploaded_episodes":8},{"id":"104083","type":"tv","title":"I Don't Want to Be Friends with You","poster":"https://image.tmdb.org/t/p/w342/f9CzGlSYTIgYQEdeI2pBSH4O1ok.jpg","year":"2020","result":"HD","language":["Hindi"],"country":["CN"],"original_language":"zh","genres":["Comedy","Drama"],"imdb_id":"tt12357086","latest_uploaded_season":1,"total_uploaded_episodes":24},{"id":"103469","type":"tv","title":"My Love, Enlighten Me","poster":"https://image.tmdb.org/t/p/w342/o2ov4gmKnYJ9GIopeDbwGwzwwo0.jpg","year":"2020","result":"HD","language":["Hindi"],"country":["CN"],"original_language":"zh","genres":["Comedy","Drama"],"imdb_id":"tt12274642","latest_uploaded_season":1,"total_uploaded_episodes":24},{"id":"101243","type":"tv","title":"Oh My Baby","poster":"https://image.tmdb.org/t/p/w342/83H0ji4wWHVngwQ1EdxhwHZymvq.jpg","year":"2020","result":"HD","language":["Hindi"],"country":["KR"],"original_language":"ko","genres":["Family","Drama","Comedy"],"imdb_id":"tt12324660","latest_uploaded_season":1,"total_uploaded_episodes":16},{"id":"99654","type":"tv","title":"18 Again","poster":"https://image.tmdb.org/t/p/w342/AwoC5PiNdi1RZTZTgOGGdHqCzrC.jpg","year":"2020","result":"HD","language":["Hindi"],"country":["KR"],"original_language":"ko","genres":["Drama","Comedy","Sci-Fi & Fantasy"],"imdb_id":"tt12846096","latest_uploaded_season":1,"total_uploaded_episodes":16},{"id":"99048","type":"tv","title":"Start-Up","poster":"https://image.tmdb.org/t/p/w342/hxJQ3A2wtreuWDnVBbzzXI3YlOE.jpg","year":"2020","result":"HD","language":["Hindi"],"country":["KR"],"original_language":"ko","genres":["Drama","Comedy"],"imdb_id":"tt12867810","latest_uploaded_season":1,"total_uploaded_episodes":16},{"id":"96462","type":"tv","title":"It's Okay to Not Be Okay","poster":"https://image.tmdb.org/t/p/w342/8XSJfLeImX8NszDUFnK1lbseCi8.jpg","year":"2020","result":"HD","language":["Hindi"],"country":["KR"],"original_language":"ko","genres":["Drama","Comedy"],"imdb_id":"tt12451520","latest_uploaded_season":1,"total_uploaded_episodes":25},{"id":"96316","type":"tv","title":"Rent-a-Girlfriend","poster":"https://image.tmdb.org/t/p/w342/6ZpDPUNtVw6UdJoStvVlRZ62yAi.jpg","year":"2020","result":"HD","language":["Hindi"],"country":["JP"],"original_language":"ja","genres":["Animation","Comedy"],"imdb_id":"tt11448214","latest_uploaded_season":1,"total_uploaded_episodes":0}]}