{"page":8,"total_pages":67,"total_items":3303,"items":[{"id":"241372","type":"tv","title":"56 Days","poster":"https://image.tmdb.org/t/p/w342/sdJLbucggwGj8NdX0UN2zt1Vwmn.jpg","year":"2026","result":"HD","language":["Hindi"],"country":["US"],"original_language":"en","genres":["Drama","Crime","Mystery"],"imdb_id":"tt30412869","latest_uploaded_season":1,"total_uploaded_episodes":8},{"id":"240740","type":"tv","title":"Scarpetta","poster":"https://image.tmdb.org/t/p/w342/zvkcHCJUPqv7R9ukaiDNkm75jy.jpg","year":"2026","result":"HD","language":["Hindi"],"country":["US"],"original_language":"en","genres":["Drama","Crime","Mystery"],"imdb_id":"tt14786934","latest_uploaded_season":1,"total_uploaded_episodes":8},{"id":"229891","type":"tv","title":"Can This Love Be Translated?","poster":"https://image.tmdb.org/t/p/w342/zgUh4cgalSzBjbsT5P0qmU7Rjzk.jpg","year":"2026","result":"HD","language":["Hindi"],"country":["KR"],"original_language":"ko","genres":["Drama","Comedy"],"imdb_id":"tt30293074","latest_uploaded_season":1,"total_uploaded_episodes":12},{"id":"225891","type":"tv","title":"The Madison","poster":"https://image.tmdb.org/t/p/w342/6EXDfhfR2nNNK385rA49RY92qGt.jpg","year":"2026","result":"HD","language":["Hindi"],"country":["US"],"original_language":"en","genres":["Drama"],"imdb_id":"tt33204276","latest_uploaded_season":1,"total_uploaded_episodes":6},{"id":"224372","type":"tv","title":"A Knight of the Seven Kingdoms","poster":"https://image.tmdb.org/t/p/w342/3Ra3Wm6pyuyv7IDmJEBAgYJGlNF.jpg","year":"2026","result":"HD","language":["Hindi"],"country":["US"],"original_language":"en","genres":["Drama","Sci-Fi & Fantasy","Action & Adventure"],"imdb_id":"tt27497448","latest_uploaded_season":1,"total_uploaded_episodes":6},{"id":"213703","type":"tv","title":"Agent from Above","poster":"https://image.tmdb.org/t/p/w342/ShizRVGvyFCmGqv7tFA0hxzQ8E.jpg","year":"2026","result":"HD","language":["Hindi"],"country":["TW"],"original_language":"zh","genres":["Drama","Action & Adventure","Sci-Fi & Fantasy"],"imdb_id":"tt23220752","latest_uploaded_season":1,"total_uploaded_episodes":8},{"id":"198178","type":"tv","title":"Wonder Man","poster":"https://image.tmdb.org/t/p/w342/2XSHwBHIvIDPpbcH4ntQIItlThG.jpg","year":"2026","result":"HD","language":["Hindi"],"country":["US"],"original_language":"en","genres":["Comedy","Drama"],"imdb_id":"tt21066182","latest_uploaded_season":1,"total_uploaded_episodes":8},{"id":"1364608","type":"movie","title":"Anemone","poster":"https://image.tmdb.org/t/p/w342/dubKbJTRTJmji0VUEo5pVoZ92ra.jpg","year":"2025","result":"HD","language":["Hindi"],"country":["GB","US"],"original_language":"en","genres":["Drama"],"imdb_id":"tt33549447"},{"id":"1511789","type":"movie","title":"Captain Hook: The Cursed Tides","poster":"https://image.tmdb.org/t/p/w342/oKE2xPJs87V9DbDmoo8igAsDeH1.jpg","year":"2025","result":"HD","language":["Hindi"],"country":["GB"],"original_language":"en","genres":["Adventure","Action","Horror"],"imdb_id":"tt33458086"},{"id":"1235746","type":"movie","title":"Dead of Winter","poster":"https://image.tmdb.org/t/p/w342/5DcrN62sGAiRJxt8rXSRlSRLwIE.jpg","year":"2025","result":"HD","language":["Hindi"],"country":["DE","US","BE"],"original_language":"en","genres":["Thriller","Action"],"imdb_id":"tt7574556"},{"id":"1043197","type":"movie","title":"Dust Bunny","poster":"https://image.tmdb.org/t/p/w342/qa5aZpO8tQqhlDaE0flalS1TuIS.jpg","year":"2025","result":"HD","language":["Hindi"],"country":["US","CA","HU"],"original_language":"en","genres":["Fantasy","Action","Horror"],"imdb_id":"tt23172090"},{"id":"1114967","type":"movie","title":"Good Fortune","poster":"https://image.tmdb.org/t/p/w342/rywxUbd4zvHiRP7nOHeDzuQSLIZ.jpg","year":"2025","result":"HD","language":["Hindi"],"country":["US"],"original_language":"en","genres":["Comedy","Fantasy"],"imdb_id":"tt27543578"},{"id":"1185528","type":"movie","title":"Legends of the Condor Heroes: The Gallants","poster":"https://image.tmdb.org/t/p/w342/fUCFEGFlMIFet9ja72JDAeG1he8.jpg","year":"2025","result":"HD","language":["Hindi"],"country":["CN"],"original_language":"zh","genres":["Action","Drama","History"],"imdb_id":"tt28131433"},{"id":"88989","type":"tv","title":"Nine Perfect Strangers","poster":"https://image.tmdb.org/t/p/w342/oPcqsZIFHrv7HoGgFQnsGDiPulD.jpg","year":"2025","result":"HD","language":["Hindi"],"country":["US"],"original_language":"en","genres":["Drama","Mystery"],"imdb_id":"tt8760932","latest_uploaded_season":2,"total_uploaded_episodes":16},{"id":"1512581","type":"movie","title":"No Tears in Hell","poster":"https://image.tmdb.org/t/p/w342/a0bODl3Ieix1qcGRLIx6PZvluzB.jpg","year":"2025","result":"HD","language":["Hindi"],"country":["US"],"original_language":"en","genres":["Horror","Crime"],"imdb_id":"tt28321883"},{"id":"425274","type":"movie","title":"Now You See Me: Now You Don't","poster":"https://image.tmdb.org/t/p/w342/oD3Eey4e4Z259XLm3eD3WGcoJAh.jpg","year":"2025","result":"HD","language":["Hindi"],"country":["US"],"original_language":"en","genres":["Crime","Thriller"],"imdb_id":"tt4712810"},{"id":"1371151","type":"movie","title":"Off the Grid","poster":"https://image.tmdb.org/t/p/w342/mMUVnkcx2VawTBJYnnnRN8fxJpb.jpg","year":"2025","result":"HD","language":["Hindi"],"country":["IT","US"],"original_language":"en","genres":["Action","Thriller"],"imdb_id":"tt27424511"},{"id":"1512623","type":"movie","title":"Risqué","poster":"https://image.tmdb.org/t/p/w342/h6OsRrDwbspLnKMvlFl57QFDP7d.jpg","year":"2025","result":"HD","language":["Hindi"],"country":["US"],"original_language":"en","genres":["Action","Crime","Thriller"],"imdb_id":"tt37268550"},{"id":"1522923","type":"movie","title":"Safe House","poster":"https://image.tmdb.org/t/p/w342/jlQW7qPp9j6yGqiIEcB3uNYbjys.jpg","year":"2025","result":"HD","language":["Hindi"],"country":["US"],"original_language":"en","genres":["Action","Thriller"],"imdb_id":"tt30954952"},{"id":"1406657","type":"movie","title":"Scarlet","poster":"https://image.tmdb.org/t/p/w342/2O2tOyS4kvO9GtFPHpWmbXvfRQv.jpg","year":"2025","result":"HD","language":["Hindi"],"country":["JP","US"],"original_language":"ja","genres":["Animation","Action","Drama","Science Fiction"],"imdb_id":"tt35114460"},{"id":"801937","type":"movie","title":"Silent Night, Deadly Night","poster":"https://image.tmdb.org/t/p/w342/xCdSd7NnRdnL8DGLVhI95WhUNoi.jpg","year":"2025","result":"HD","language":["Hindi"],"country":["US","CA","FR"],"original_language":"en","genres":["Horror","Thriller"],"imdb_id":"tt34508974"},{"id":"1673401","type":"movie","title":"Sorcerer Heavenly Master · Dark Hades","poster":"https://image.tmdb.org/t/p/w342/m8qxW6QOOxV1teMzsHGIQwAcNgM.jpg","year":"2025","result":"HD","language":["Hindi"],"country":[],"original_language":"zh","genres":["Action","Adventure","Drama","Fantasy"],"imdb_id":"tt35786199"},{"id":"256128","type":"tv","title":"The Best Thing","poster":"https://image.tmdb.org/t/p/w342/okQHEWYmmVDLfxAsT8UBJeTMPIi.jpg","year":"2025","result":"HD","language":["Hindi"],"country":["CN"],"original_language":"zh","genres":["Drama"],"imdb_id":"tt31840873","latest_uploaded_season":1,"total_uploaded_episodes":28},{"id":"1220564","type":"movie","title":"The Secret Agent","poster":"https://image.tmdb.org/t/p/w342/rZqolYhxMEe6TZZTjSmFw9crDTD.jpg","year":"2025","result":"HD","language":["Hindi"],"country":["BR","FR","DE","NL","AR"],"original_language":"pt","genres":["Crime","Drama","Thriller"],"imdb_id":"tt27847051"},{"id":"1325958","type":"movie","title":"The Travellers","poster":"https://image.tmdb.org/t/p/w342/4MFC7rOo9iBfLjjhDN6atNvorKm.jpg","year":"2025","result":"HD","language":["Hindi"],"country":["AU"],"original_language":"en","genres":["Drama"],"imdb_id":"tt33068674"},{"id":"252774","type":"tv","title":"The White Olive Tree","poster":"https://image.tmdb.org/t/p/w342/sLJ7z9IT0nLXJbuszYbZ4uy8AOO.jpg","year":"2025","result":"HD","language":["Hindi"],"country":["CN"],"original_language":"zh","genres":["Drama","Action & Adventure"],"imdb_id":"tt31450820","latest_uploaded_season":1,"total_uploaded_episodes":38},{"id":"946040","type":"movie","title":"Theeyavar Kulaigal Nadunga","poster":"https://image.tmdb.org/t/p/w342/aAQ0I4EZUmg7dEyTwxYZi1dYB8Y.jpg","year":"2025","result":"HD","language":["Hindi"],"country":["IN"],"original_language":"ta","genres":["Crime","Thriller"],"imdb_id":"tt15380786"},{"id":"285788","type":"tv","title":"Tojima Wants to Be a Kamen Rider","poster":"https://image.tmdb.org/t/p/w342/oDHsngq989H1jY2ZsLB5KRUVIb.jpg","year":"2025","result":"HD","language":["Hindi"],"country":["JP"],"original_language":"ja","genres":["Animation","Action & Adventure","Comedy"],"imdb_id":"tt37532319","latest_uploaded_season":1,"total_uploaded_episodes":24},{"id":"122587","type":"tv","title":"A Couple of Cuckoos","poster":"https://image.tmdb.org/t/p/w342/5QErGBshq37p0UKGUHhcYwLufSq.jpg","year":"2025","result":"HD","language":["Hindi"],"country":["JP"],"original_language":"ja","genres":["Animation","Comedy"],"imdb_id":"tt14400866","latest_uploaded_season":2,"total_uploaded_episodes":31},{"id":"245312","type":"tv","title":"A Man on the Inside","poster":"https://image.tmdb.org/t/p/w342/c09XdTLpLku2tqHt158NZBgC4hi.jpg","year":"2025","result":"HD","language":["Hindi"],"country":["US"],"original_language":"en","genres":["Comedy","Crime"],"imdb_id":"tt26670955","latest_uploaded_season":2,"total_uploaded_episodes":16},{"id":"110316","type":"tv","title":"Alice in Borderland","poster":"https://image.tmdb.org/t/p/w342/Ac8ruycRXzgcsndTZFK6ouGA0FA.jpg","year":"2025","result":"HD","language":["Hindi"],"country":["JP"],"original_language":"ja","genres":["Mystery","Drama","Action & Adventure"],"imdb_id":"tt10795658","latest_uploaded_season":3,"total_uploaded_episodes":22},{"id":"246246","type":"tv","title":"Beauty in Black","poster":"https://image.tmdb.org/t/p/w342/i98Jl46WBpK7ymttNOakowtNuFF.jpg","year":"2025","result":"HD","language":["Hindi"],"country":["US"],"original_language":"en","genres":["Drama"],"imdb_id":"tt31260386","latest_uploaded_season":2,"total_uploaded_episodes":24},{"id":"42009","type":"tv","title":"Black Mirror","poster":"https://image.tmdb.org/t/p/w342/seN6rRfN0I6n8iDXjlSMk1QjNcq.jpg","year":"2025","result":"HD","language":["Hindi"],"country":["GB"],"original_language":"en","genres":["Sci-Fi & Fantasy","Drama","Mystery"],"imdb_id":"tt2085059","latest_uploaded_season":7,"total_uploaded_episodes":29},{"id":"216985","type":"tv","title":"Blood Coast","poster":"https://image.tmdb.org/t/p/w342/pKvpiFL4pxrixwpHg77s9oQqfNl.jpg","year":"2025","result":"HD","language":["Hindi"],"country":["FR"],"original_language":"fr","genres":["Action & Adventure","Crime","Drama"],"imdb_id":"tt28129282","latest_uploaded_season":2,"total_uploaded_episodes":12},{"id":"230069","type":"tv","title":"Breathless","poster":"https://image.tmdb.org/t/p/w342/s6qEnmFxRqQQhjPAZPNHlwPc75y.jpg","year":"2025","result":"HD","language":["Hindi"],"country":["ES"],"original_language":"es","genres":["Drama"],"imdb_id":"tt28298539","latest_uploaded_season":2,"total_uploaded_episodes":16},{"id":"87508","type":"tv","title":"Delhi Crime","poster":"https://image.tmdb.org/t/p/w342/xkpkTj6KGsjSaet0VQaq0aTn31D.jpg","year":"2025","result":"HD","language":["Hindi"],"country":["IN"],"original_language":"hi","genres":["Crime"],"imdb_id":"tt9398466","latest_uploaded_season":3,"total_uploaded_episodes":18},{"id":"86031","type":"tv","title":"Dr. STONE","poster":"https://image.tmdb.org/t/p/w342/ve1Sv3sVArmE0nlFjzadcNv1G8r.jpg","year":"2025","result":"HD","language":["Hindi"],"country":["JP"],"original_language":"ja","genres":["Animation","Action & Adventure","Comedy","Sci-Fi & Fantasy"],"imdb_id":"tt9679542","latest_uploaded_season":4,"total_uploaded_episodes":81},{"id":"106379","type":"tv","title":"Fallout","poster":"https://image.tmdb.org/t/p/w342/c15BtJxCXMrISLVmysdsnZUPQft.jpg","year":"2025","result":"HD","language":["Hindi"],"country":["US"],"original_language":"en","genres":["Action & Adventure","Sci-Fi & Fantasy"],"imdb_id":"tt12637874","latest_uploaded_season":2,"total_uploaded_episodes":16},{"id":"88046","type":"tv","title":"Fire Force","poster":"https://image.tmdb.org/t/p/w342/sC4sTJnI0rLakinXMgBHv3Ynl9D.jpg","year":"2025","result":"HD","language":["Hindi"],"country":["JP"],"original_language":"ja","genres":["Animation","Action & Adventure","Sci-Fi & Fantasy","Comedy"],"imdb_id":"tt9307686","latest_uploaded_season":3,"total_uploaded_episodes":73},{"id":"86165","type":"tv","title":"Four More Shots Please!","poster":"https://image.tmdb.org/t/p/w342/a4UNvDfbgk3AY7452dr9uGhulzB.jpg","year":"2025","result":"HD","language":["Hindi"],"country":["IN"],"original_language":"hi","genres":["Drama","Comedy"],"imdb_id":"tt8242548","latest_uploaded_season":4,"total_uploaded_episodes":37},{"id":"205715","type":"tv","title":"Gen V","poster":"https://image.tmdb.org/t/p/w342/tEv842Nd5uMSavURG4aQO1pNtst.jpg","year":"2025","result":"HD","language":["Hindi"],"country":["US"],"original_language":"en","genres":["Action & Adventure","Drama","Sci-Fi & Fantasy"],"imdb_id":"tt13159924","latest_uploaded_season":2,"total_uploaded_episodes":16},{"id":"255468","type":"tv","title":"Gunaah","poster":"https://image.tmdb.org/t/p/w342/5T0Xpy7mrMGKwcRBrUQfA9bqzSX.jpg","year":"2025","result":"HD","language":["Hindi"],"country":["IN"],"original_language":"hi","genres":["Drama","Action & Adventure"],"imdb_id":"tt32537124","latest_uploaded_season":2,"total_uploaded_episodes":28},{"id":"223952","type":"tv","title":"Gutar Gu","poster":"https://image.tmdb.org/t/p/w342/pufzR7ryNgSDK88xsJTaihHSUzG.jpg","year":"2025","result":"HD","language":["Hindi"],"country":["IN"],"original_language":"hi","genres":["Drama","Comedy"],"imdb_id":"tt27303022","latest_uploaded_season":3,"total_uploaded_episodes":18},{"id":"230020","type":"tv","title":"Half CA","poster":"https://image.tmdb.org/t/p/w342/4ckzFeoUzaBYR23uv0f3C6BfeH5.jpg","year":"2025","result":"HD","language":["Hindi"],"country":["IN"],"original_language":"hi","genres":["Drama"],"imdb_id":"tt28285430","latest_uploaded_season":2,"total_uploaded_episodes":10},{"id":"94954","type":"tv","title":"Hazbin Hotel","poster":"https://image.tmdb.org/t/p/w342/aVYHMW8pdzJ9qG1OGRMKyGy9xor.jpg","year":"2025","result":"HD","language":["Hindi"],"country":["US"],"original_language":"en","genres":["Animation","Comedy","Drama","Sci-Fi & Fantasy"],"imdb_id":"tt7216636","latest_uploaded_season":2,"total_uploaded_episodes":16},{"id":"222667","type":"tv","title":"Hunter - Tootega Nahi, Todega","poster":"https://image.tmdb.org/t/p/w342/69waAUsnOMEQJUZgsuWDycrRGnG.jpg","year":"2025","result":"HD","language":["Hindi"],"country":["IN"],"original_language":"hi","genres":["Action & Adventure","Crime","Drama"],"imdb_id":"tt27050076","latest_uploaded_season":2,"total_uploaded_episodes":14},{"id":"99073","type":"tv","title":"I've Been Killing Slimes for 300 Years and Maxed Out My Level","poster":"https://image.tmdb.org/t/p/w342/iyTiJqrAs2YItyTYGI18PdqX65c.jpg","year":"2025","result":"HD","language":["Hindi"],"country":["JP"],"original_language":"ja","genres":["Animation","Comedy","Sci-Fi & Fantasy"],"imdb_id":"tt13248062","latest_uploaded_season":2,"total_uploaded_episodes":24},{"id":"254671","type":"tv","title":"Jamnapaar","poster":"https://image.tmdb.org/t/p/w342/tIVGnsK5ZZNzasNuyDjHpxxw6ZY.jpg","year":"2025","result":"HD","language":["Hindi"],"country":["IN"],"original_language":"hi","genres":["Drama"],"imdb_id":"tt32379268","latest_uploaded_season":2,"total_uploaded_episodes":20},{"id":"228658","type":"tv","title":"Kerala Crime Files","poster":"https://image.tmdb.org/t/p/w342/eM2gQTFRoMAaJ3AjGiB10LZU8n6.jpg","year":"2025","result":"HD","language":["Hindi"],"country":["IN"],"original_language":"ml","genres":["Crime","Mystery","Drama"],"imdb_id":"tt27128638","latest_uploaded_season":2,"total_uploaded_episodes":7},{"id":"157741","type":"tv","title":"Landman","poster":"https://image.tmdb.org/t/p/w342/hYthRgS1nvQkGILn9YmqsF8kSk6.jpg","year":"2025","result":"HD","language":["Hindi"],"country":["US"],"original_language":"en","genres":["Drama"],"imdb_id":"tt14186672","latest_uploaded_season":2,"total_uploaded_episodes":20}]}