{"page":58,"total_pages":67,"total_items":3303,"items":[{"id":"337167","type":"movie","title":"Fifty Shades Freed","poster":"https://image.tmdb.org/t/p/w342/jjPJ4s3DWZZvI4vw8Xfi4Vqa1Q8.jpg","year":"2018","result":"HD","language":["Hindi"],"country":["US"],"original_language":"en","genres":["Drama","Romance"],"imdb_id":"tt4477536"},{"id":"555020","type":"movie","title":"Legend of the Ancient Sword","poster":"https://image.tmdb.org/t/p/w342/1QHwlirJb7MJJcvTICMJvfG3oyh.jpg","year":"2018","result":"HD","language":["Hindi"],"country":["CN"],"original_language":"zh","genres":["Action","Fantasy","Adventure"],"imdb_id":"tt5806792"},{"id":"514885","type":"movie","title":"Strangers of Patience","poster":"https://image.tmdb.org/t/p/w342/yLuHbglmsqvOXCULRTDYTUSAYZm.jpg","year":"2018","result":"HD","language":["Hindi"],"country":["RU"],"original_language":"ru","genres":["Thriller"],"imdb_id":"tt9715742"},{"id":"448358","type":"movie","title":"Darker Shades of Elise","poster":"https://image.tmdb.org/t/p/w342/d2FHfaJ2FM6IRnQbFS0O3hefeZV.jpg","year":"2018","result":"HD","language":["Hindi"],"country":["GB"],"original_language":"en","genres":["Thriller","Drama"],"imdb_id":"tt4208432"},{"id":"592041","type":"movie","title":"Dirty Work","poster":"https://image.tmdb.org/t/p/w342/pLkeHxzyTK5F2TGWruTkebtPKtd.jpg","year":"2018","result":"HD","language":["Hindi"],"country":["GB"],"original_language":"en","genres":["Romance","Drama"],"imdb_id":"tt7243754"},{"id":"517508","type":"movie","title":"Hello Guru Prema Kosame","poster":"https://image.tmdb.org/t/p/w342/7atXs7vvt7P6eHqMkPEjvPcG9af.jpg","year":"2018","result":"HD","language":["Hindi"],"country":["IN"],"original_language":"te","genres":["Romance","Family"],"imdb_id":"tt8072400"},{"id":"483670","type":"movie","title":"Redrum","poster":"https://image.tmdb.org/t/p/w342/pxHVUm1IKRkoffKCuO9Xk90tONL.jpg","year":"2018","result":"HD","language":["Hindi"],"country":[],"original_language":"hi","genres":["Thriller"],"imdb_id":"tt4682128"},{"id":"795746","type":"movie","title":"LUCID","poster":"https://image.tmdb.org/t/p/w342/a8Zr3qJck0QQAKLPM8d6QpfMdtK.jpg","year":"2018","result":"HD","language":["Hindi"],"country":[],"original_language":"en","genres":["Science Fiction"],"imdb_id":"tt8721012"},{"id":"703297","type":"movie","title":"Baby Frankenstein","poster":"https://image.tmdb.org/t/p/w342/suUsjsbWKAOLGhBSJQxrkAYcH9O.jpg","year":"2018","result":"HD","language":["Hindi"],"country":["US"],"original_language":"en","genres":["Horror","Comedy"],"imdb_id":"tt4949388"},{"id":"636372","type":"movie","title":"Oxalis","poster":"https://image.tmdb.org/t/p/w342/xMWaMPYzNEnq2cRLrbos2HWsYVt.jpg","year":"2018","result":"HD","language":["Hindi"],"country":[],"original_language":"en","genres":["Science Fiction"],"imdb_id":"tt4941032"},{"id":"586552","type":"movie","title":"Farzand","poster":"https://image.tmdb.org/t/p/w342/7ImVIuDZbTpueg0yxG9WvzKPEwF.jpg","year":"2018","result":"HD","language":["Hindi"],"country":["IN"],"original_language":"mr","genres":["History","Action"],"imdb_id":"tt8396238"},{"id":"572931","type":"movie","title":"Mulshi Pattern","poster":"https://image.tmdb.org/t/p/w342/dStDErSlgw5oYolA8t0F8o1aZi4.jpg","year":"2018","result":"HD","language":["Hindi"],"country":[],"original_language":"mr","genres":["Crime"],"imdb_id":"tt9310280"},{"id":"557972","type":"movie","title":"Take Point","poster":"https://image.tmdb.org/t/p/w342/fl9VBbIGHUoBY6Ixzt9lEGjhxzs.jpg","year":"2018","result":"HD","language":["Hindi"],"country":["KR"],"original_language":"ko","genres":["Action","Thriller"],"imdb_id":"tt7156436"},{"id":"548928","type":"movie","title":"The Marine 6: Close Quarters","poster":"https://image.tmdb.org/t/p/w342/ApPQa5MVbHkVXNKrXHpHSXd1puu.jpg","year":"2018","result":"HD","language":["Hindi"],"country":["US","GB"],"original_language":"en","genres":["Action"],"imdb_id":"tt7668724"},{"id":"547026","type":"movie","title":"FryDay","poster":"https://image.tmdb.org/t/p/w342/wQ3Vt9lthFqPsCAlt1MmwfoXHYl.jpg","year":"2018","result":"HD","language":["Hindi"],"country":["IN"],"original_language":"hi","genres":["Comedy"],"imdb_id":"tt7526836"},{"id":"541757","type":"movie","title":"Dakuaan Da Munda","poster":"https://image.tmdb.org/t/p/w342/f8hS7PeaDefxFAUdBh6r75rYQN4.jpg","year":"2018","result":"HD","language":["Hindi"],"country":[],"original_language":"pa","genres":["Action","Drama"],"imdb_id":"tt8409498"},{"id":"535389","type":"movie","title":"The Great Battle","poster":"https://image.tmdb.org/t/p/w342/gv5ByLHZfn7MUKpjJovRTr5URGg.jpg","year":"2018","result":"HD","language":["E-Subtitles"],"country":["KR"],"original_language":"ko","genres":["War","History","Action"],"imdb_id":"tt6931414"},{"id":"533238","type":"movie","title":"Kolamavu Kokila","poster":"https://image.tmdb.org/t/p/w342/bnbZ4tscBieDg7f14aUJZekqlZS.jpg","year":"2018","result":"HD","language":["Hindi"],"country":["IN"],"original_language":"ta","genres":["Comedy","Thriller"],"imdb_id":"tt7986222"},{"id":"530254","type":"movie","title":"The Witch: Part 1. The Subversion","poster":"https://image.tmdb.org/t/p/w342/4i2wo2ja5g2PmUxWa1a2eYIboZf.jpg","year":"2018","result":"HD","language":["Hindi"],"country":["HK","KR"],"original_language":"ko","genres":["Action","Mystery","Science Fiction"],"imdb_id":"tt8574252"},{"id":"524736","type":"movie","title":"The Chanting: Revisited","poster":"https://image.tmdb.org/t/p/w342/pn3wmdsCTDLukJK1lDF68aJ2wVL.jpg","year":"2018","result":"HD","language":["Hindi"],"country":["ID"],"original_language":"id","genres":["Horror","Comedy"],"imdb_id":"tt8512746"},{"id":"522495","type":"movie","title":"B Tech","poster":"https://image.tmdb.org/t/p/w342/oCK2gixgOBjibqUIPATba2XXDKV.jpg","year":"2018","result":"HD","language":["Hindi"],"country":["IN"],"original_language":"ml","genres":["Comedy","Romance"],"imdb_id":"tt7478160"},{"id":"504056","type":"movie","title":"Big Brother","poster":"https://image.tmdb.org/t/p/w342/z6Y6uQn2fORr7o43EggQrTsp08o.jpg","year":"2018","result":"HD","language":["Hindi"],"country":["CN","HK"],"original_language":"zh","genres":["Action","Drama","Comedy"],"imdb_id":"tt7336572"},{"id":"503346","type":"movie","title":"Occupation","poster":"https://image.tmdb.org/t/p/w342/hr7MFQAmP30IJZP2FXKhPKbe8IW.jpg","year":"2018","result":"HD","language":["Hindi"],"country":["AU"],"original_language":"en","genres":["Action","Science Fiction","Drama"],"imdb_id":"tt6774786"},{"id":"500664","type":"movie","title":"Upgrade","poster":"https://image.tmdb.org/t/p/w342/woLGROUdPWdBnLVFKYdGD3kFkPY.jpg","year":"2018","result":"HD","language":["Hindi"],"country":["AU","US"],"original_language":"en","genres":["Action","Thriller","Science Fiction"],"imdb_id":"tt6499752"},{"id":"496524","type":"movie","title":"Simmba","poster":"https://image.tmdb.org/t/p/w342/ulQO4XJ1xlWdl4vX8Lr3SbWRfZw.jpg","year":"2018","result":"HD","language":["Hindi"],"country":["IN"],"original_language":"hi","genres":["Action","Comedy","Drama"],"imdb_id":"tt7212726"},{"id":"487558","type":"movie","title":"BlacKkKlansman","poster":"https://image.tmdb.org/t/p/w342/8jxqAvSDoneSKRczaK8v9X5gqBp.jpg","year":"2018","result":"HD","language":["Hindi"],"country":["US"],"original_language":"en","genres":["Crime","Comedy","Drama","History"],"imdb_id":"tt7349662"},{"id":"461126","type":"movie","title":"Rangasthalam","poster":"https://image.tmdb.org/t/p/w342/yiEzDgBBFC25Zd6z0r7sMngn5vr.jpg","year":"2018","result":"HD","language":["Hindi"],"country":["IN"],"original_language":"te","genres":["Action","Drama"],"imdb_id":"tt7392212"},{"id":"447743","type":"movie","title":"Inuyashiki","poster":"https://image.tmdb.org/t/p/w342/lyqkQ6y7d4YGVQrRjtmGTRMVcDY.jpg","year":"2018","result":"HD","language":["Hindi"],"country":["JP"],"original_language":"ja","genres":["Action","Adventure","Science Fiction","Fantasy"],"imdb_id":"tt6340500"},{"id":"437557","type":"movie","title":"Blockers","poster":"https://image.tmdb.org/t/p/w342/uvlUQXg0AlpGzKukO11K7QtW3Yu.jpg","year":"2018","result":"HD","language":["Hindi"],"country":["US"],"original_language":"en","genres":["Comedy"],"imdb_id":"tt2531344"},{"id":"425505","type":"movie","title":"Kin","poster":"https://image.tmdb.org/t/p/w342/oPE5GXHaTlu5eRcd4USuOX3A1mf.jpg","year":"2018","result":"HD","language":["Hindi"],"country":["US"],"original_language":"en","genres":["Science Fiction","Action","Adventure","Thriller"],"imdb_id":"tt6017942"},{"id":"385332","type":"movie","title":"Terminal","poster":"https://image.tmdb.org/t/p/w342/xi7pA3lL6Wb78p6Y6PgWoHDMjrM.jpg","year":"2018","result":"HD","language":["Hindi"],"country":["US","GB","HK","IE","HU"],"original_language":"en","genres":["Crime","Drama","Thriller","Action","Comedy","Mystery"],"imdb_id":"tt4463816"},{"id":"346910","type":"movie","title":"The Predator","poster":"https://image.tmdb.org/t/p/w342/a3eWGF6YPF7No5Rbtjc8QpDvz7l.jpg","year":"2018","result":"HD","language":["Hindi"],"country":["US"],"original_language":"en","genres":["Science Fiction","Action","Thriller"],"imdb_id":"tt3829266"},{"id":"340601","type":"movie","title":"Delirium","poster":"https://image.tmdb.org/t/p/w342/j2jIkjrASnjtwCmCNDwh9LDWvq9.jpg","year":"2018","result":"HD","language":["Hindi"],"country":["GB","US"],"original_language":"en","genres":["Horror","Thriller"],"imdb_id":"tt2069797"},{"id":"83140","type":"tv","title":"Mama Fairy and the Woodcutter","poster":"https://image.tmdb.org/t/p/w342/b5oKVV5veLu1ZzpPRlzMqA48I49.jpg","year":"2018","result":"HD","language":["Hindi"],"country":["KR"],"original_language":"ko","genres":["Comedy","Drama"],"imdb_id":"tt8523030","latest_uploaded_season":1,"total_uploaded_episodes":16},{"id":"82237","type":"tv","title":"The Beauty Inside","poster":"https://image.tmdb.org/t/p/w342/u3UGsVYD0nxsucvN7NHLzXP0FHu.jpg","year":"2018","result":"HD","language":["Hindi"],"country":["KR"],"original_language":"ko","genres":["Drama","Comedy","Sci-Fi & Fantasy"],"imdb_id":"tt8801708","latest_uploaded_season":1,"total_uploaded_episodes":16},{"id":"81745","type":"tv","title":"Hide and Seek","poster":"https://image.tmdb.org/t/p/w342/b9gtm0gCYlysKhax6z5tz4nx3y4.jpg","year":"2018","result":"HD","language":["Hindi"],"country":["KR"],"original_language":"ko","genres":["Drama"],"imdb_id":"tt8769302","latest_uploaded_season":1,"total_uploaded_episodes":24},{"id":"80964","type":"tv","title":"Time","poster":"https://image.tmdb.org/t/p/w342/wioiG18yMZ8IIhl1PVi7LkkTWZq.jpg","year":"2018","result":"HD","language":["Hindi"],"country":["KR"],"original_language":"ko","genres":["Drama"],"imdb_id":"tt8487682","latest_uploaded_season":1,"total_uploaded_episodes":32},{"id":"80737","type":"tv","title":"My ID is Gangnam Beauty","poster":"https://image.tmdb.org/t/p/w342/8lj40cE1DhW9jBe07fOI18MDQDK.jpg","year":"2018","result":"HD","language":["Hindi"],"country":["KR"],"original_language":"ko","genres":["Comedy","Drama"],"imdb_id":"tt8585954","latest_uploaded_season":1,"total_uploaded_episodes":16},{"id":"77284","type":"tv","title":"Tempted","poster":"https://image.tmdb.org/t/p/w342/asRKD4SlynwMgvl9XXasNoktZoP.jpg","year":"2018","result":"HD","language":["Hindi"],"country":["KR"],"original_language":"ko","genres":["Drama"],"imdb_id":"tt7923816","latest_uploaded_season":1,"total_uploaded_episodes":32},{"id":"353616","type":"movie","title":"Pitch Perfect 3","poster":"https://image.tmdb.org/t/p/w342/v4tbRRX0OSOHcgz2869rEjcBwOJ.jpg","year":"2017","result":"HD","language":["Hindi"],"country":["US"],"original_language":"en","genres":["Music","Comedy"],"imdb_id":"tt4765284"},{"id":"2288","type":"tv","title":"Prison Break","poster":"https://image.tmdb.org/t/p/w342/wnmNPaLvhnMeOqnWlhNkYCZxtda.jpg","year":"2017","result":"HD","language":["Hindi"],"country":["US"],"original_language":"en","genres":["Action & Adventure","Crime","Drama"],"imdb_id":"tt0455275","latest_uploaded_season":5,"total_uploaded_episodes":88},{"id":"75387","type":"tv","title":"A Love So Beautiful","poster":"https://image.tmdb.org/t/p/w342/8bDIVyoxqOkYbBhzhrjY2F9Wep2.jpg","year":"2017","result":"HD","language":["Hindi"],"country":["CN"],"original_language":"zh","genres":["Comedy","Drama"],"imdb_id":"tt8434720","latest_uploaded_season":1,"total_uploaded_episodes":24},{"id":"71347","type":"tv","title":"My Sassy Girl","poster":"https://image.tmdb.org/t/p/w342/llSHPKnZWaFvvTKqslvUVeyrK4O.jpg","year":"2017","result":"HD","language":["Hindi"],"country":["KR"],"original_language":"ko","genres":["Comedy","Drama"],"imdb_id":"tt6175760","latest_uploaded_season":1,"total_uploaded_episodes":16},{"id":"72487","type":"tv","title":"The King's Woman","poster":"https://image.tmdb.org/t/p/w342/2w4iIlTZWKz10giIjMtgaGIQiZ8.jpg","year":"2017","result":"HD","language":["Hindi"],"country":["CN"],"original_language":"zh","genres":["Drama"],"imdb_id":"tt7516210","latest_uploaded_season":1,"total_uploaded_episodes":48},{"id":"71446","type":"tv","title":"Money Heist","poster":"https://image.tmdb.org/t/p/w342/reEMJA1uzscCbkpeRJeTT2bjqUp.jpg","year":"2017","result":"HD","language":["Hindi"],"country":["ES"],"original_language":"es","genres":["Crime","Drama"],"imdb_id":"tt6468322","latest_uploaded_season":5,"total_uploaded_episodes":48},{"id":"426285","type":"movie","title":"Fullmetal Alchemist","poster":"https://image.tmdb.org/t/p/w342/kWJtS0XFHxH2ADkWX8P7WISDnX3.jpg","year":"2017","result":"HD","language":["Hindi"],"country":["JP"],"original_language":"ja","genres":["Fantasy","Action","Science Fiction","Adventure"],"imdb_id":"tt5607028"},{"id":"70045","type":"tv","title":"The Starry Night, The Starry Sea","poster":"https://image.tmdb.org/t/p/w342/wOCgmU9mW7cfI6fJFgqh4DbhZ2B.jpg","year":"2017","result":"HD","language":["Hindi"],"country":["CN"],"original_language":"zh","genres":["Sci-Fi & Fantasy","Drama"],"imdb_id":"tt5594768","latest_uploaded_season":1,"total_uploaded_episodes":29},{"id":"73921","type":"tv","title":"Borg Mom","poster":"https://image.tmdb.org/t/p/w342/q4YahNUyCcHL9HzvY4lbtsyAmbo.jpg","year":"2017","result":"HD","language":["Hindi"],"country":["KR"],"original_language":"ko","genres":["Comedy"],"imdb_id":"tt7340770","latest_uploaded_season":1,"total_uploaded_episodes":24},{"id":"73669","type":"tv","title":"The Optimists","poster":"https://image.tmdb.org/t/p/w342/de1FeU9LXRKRC37IEIvFoNDmhwD.jpg","year":"2017","result":"HD","language":["Hindi"],"country":["RU"],"original_language":"ru","genres":["Drama","War & Politics"],"imdb_id":"tt5905344","latest_uploaded_season":1,"total_uploaded_episodes":26},{"id":"68250","type":"tv","title":"Tomorrow with You","poster":"https://image.tmdb.org/t/p/w342/d1m1RVnxnHJifBe6ytykc25UPAd.jpg","year":"2017","result":"HD","language":["Hindi"],"country":["KR"],"original_language":"ko","genres":["Drama"],"imdb_id":"tt5994346","latest_uploaded_season":1,"total_uploaded_episodes":16}]}