{"page":30,"total_pages":66,"total_items":3299,"items":[{"id":"974250","type":"movie","title":"Greedy People","poster":"https://image.tmdb.org/t/p/w342/aIUZiciO0nMh8MrhmsTaMWZvEWK.jpg","year":"2024","result":"HD","language":["Hindi"],"country":["US"],"original_language":"en","genres":["Comedy","Mystery","Crime"],"imdb_id":"tt20201748","backdrop":"https://image.tmdb.org/t/p/original/8UyO7ivSeU2VVblZEsFUBxOd2wa.jpg","watch":"<iframe src=\"https://bysebuho.com/e/wcu0qnq36fb2/greedy-people-2024-720p-bluray-hindi-english\" frameborder=\"0\" marginwidth=\"0\" marginheight=\"0\" scrolling=\"no\" width=\"640\" height=\"360\" allowfullscreen></iframe>"},{"id":"1171640","type":"movie","title":"GTMAX","poster":"https://image.tmdb.org/t/p/w342/exXm4o4ebjGr7besyFjuRfKDoVf.jpg","year":"2024","result":"HD","language":["Hindi"],"country":["BE","FR"],"original_language":"fr","genres":["Action","Crime"],"imdb_id":"tt29260436","backdrop":"https://image.tmdb.org/t/p/original/liuBLPXvisMRo5w2JEKHXceWq5u.jpg","watch":"<iframe src=\"https://bysebuho.com/e/ffjvmpy22sw9/gtmax-2024-720p-web-dl-hin-eng-fre\" frameborder=\"0\" marginwidth=\"0\" marginheight=\"0\" scrolling=\"no\" width=\"640\" height=\"360\" allowfullscreen></iframe>"},{"id":"5492","type":"movie","title":"Gunner","poster":"https://image.tmdb.org/t/p/w342/cS2TXN1YlrCvkZmMxaevC1ZKtEz.jpg","year":"2024","result":"HD","language":["Hindi"],"country":["US"],"original_language":"en","genres":["Action","Thriller","Crime"],"imdb_id":"tt12598606","backdrop":"https://image.tmdb.org/t/p/original/bxwKC4qAbceMgHU1xCCTBK1eYdn.jpg","watch":"<iframe src=\"https://bysebuho.com/e/8lx9hiyibuxh/gunner-2024-720p-web-dl-hindi-english\" frameborder=\"0\" marginwidth=\"0\" marginheight=\"0\" scrolling=\"no\" width=\"640\" height=\"360\" allowfullscreen></iframe>"},{"id":"1181214","type":"movie","title":"Guy Manley: Super Spy","poster":"https://image.tmdb.org/t/p/w342/sQIElGaXYAnQZKt5FzGSLl4P4Kh.jpg","year":"2024","result":"HD","language":["Hindi"],"country":["SE"],"original_language":"en","genres":["Action","Comedy","Science Fiction","Thriller"],"imdb_id":"tt29005580","backdrop":"https://image.tmdb.org/t/p/original/sPZcvygiIWuq8douju9PQcibfrq.jpg","watch":"<iframe src=\"https://bysebuho.com/e/ipevgwbf2mad/guy-manley-super-spy-2024-web-dl-720p-hindi-english\" frameborder=\"0\" marginwidth=\"0\" marginheight=\"0\" scrolling=\"no\" width=\"640\" height=\"360\" allowfullscreen></iframe>"},{"id":"1087822","type":"movie","title":"Hellboy: The Crooked Man","poster":"https://image.tmdb.org/t/p/w342/iz2GabtToVB05gLTVSH7ZvFtsMM.jpg","year":"2024","result":"HD","language":["Hindi"],"country":["US","DE","BG"],"original_language":"en","genres":["Fantasy","Horror","Action"],"imdb_id":"tt26757462","backdrop":"https://image.tmdb.org/t/p/original/78CquSA0GN0m7NIYnNECx91KFkJ.jpg","watch":"<iframe src=\"https://bysebuho.com/e/d34dzd2084ji/hellboy-the-crooked-man-2024-720p-web-dl-org-auds-hin-eng\" frameborder=\"0\" marginwidth=\"0\" marginheight=\"0\" scrolling=\"no\" width=\"640\" height=\"360\" allowfullscreen></iframe>"},{"id":"1138194","type":"movie","title":"Heretic","poster":"https://image.tmdb.org/t/p/w342/fr96XzlzsONrQrGfdLMiwtQjott.jpg","year":"2024","result":"HD","language":["Hindi"],"country":["US"],"original_language":"en","genres":["Thriller","Horror"],"imdb_id":"tt28015403","backdrop":"https://image.tmdb.org/t/p/original/ag66gJCiZ06q1GSJuQlhGLi3Udx.jpg","watch":"<iframe src=\"https://bysebuho.com/e/lvgx3ikhumij/heretic-2024-720p-bluray-hin-eng\" frameborder=\"0\" marginwidth=\"0\" marginheight=\"0\" scrolling=\"no\" width=\"640\" height=\"360\" allowfullscreen></iframe>"},{"id":"949709","type":"movie","title":"High Forces","poster":"https://image.tmdb.org/t/p/w342/b8xNJ39aOtEk3I7MFt8XJuN2bGS.jpg","year":"2024","result":"HD","language":["Hindi"],"country":["CN"],"original_language":"zh","genres":["Action","Crime"],"imdb_id":"tt17501870","backdrop":"https://image.tmdb.org/t/p/original/8lqfrOBQ2EcY7znD3LxTYcvlh25.jpg","watch":"<iframe src=\"https://bysebuho.com/e/z242j5gexy77/high-forces-2024-bluray-720p-hin-chi\" frameborder=\"0\" marginwidth=\"0\" marginheight=\"0\" scrolling=\"no\" width=\"640\" height=\"360\" allowfullscreen></iframe>"},{"id":"1290287","type":"movie","title":"Hot Frosty","poster":"https://image.tmdb.org/t/p/w342/waW6R5WJQSxq65gwBkvnKlseU6n.jpg","year":"2024","result":"HD","language":["Hindi"],"country":["US","CA"],"original_language":"en","genres":["Romance","Comedy"],"imdb_id":"tt32359447","backdrop":"https://image.tmdb.org/t/p/original/6neVLKBU4DaWAwpWFhfCpV6yuqN.jpg","watch":"<iframe src=\"https://bysebuho.com/e/p22szqwkiv9z/hot-frosty-2024-webrip-720p-hindi-english\" frameborder=\"0\" marginwidth=\"0\" marginheight=\"0\" scrolling=\"no\" width=\"640\" height=\"360\" allowfullscreen></iframe>"},{"id":"858017","type":"movie","title":"I Saw the TV Glow","poster":"https://image.tmdb.org/t/p/w342/hS4GYkYpN1rfl4GIxyc02sCyfAj.jpg","year":"2024","result":"HD","language":["Hindi"],"country":["US"],"original_language":"en","genres":["Horror","Drama"],"imdb_id":"tt15574270","backdrop":"https://image.tmdb.org/t/p/original/jKulL2hdp5S7dVbpoItAtdCyzXI.jpg","watch":"<iframe src=\"https://bysebuho.com/e/egv3eaon13u3/i-saw-the-tv-glow-2024-720p-bluray-hindi-5-1-english\" frameborder=\"0\" marginwidth=\"0\" marginheight=\"0\" scrolling=\"no\" width=\"640\" height=\"360\" allowfullscreen></iframe>"},{"id":"1214509","type":"movie","title":"In a Violent Nature","poster":"https://image.tmdb.org/t/p/w342/hPfWHgq07nXbeldwEGxWB4JqwtE.jpg","year":"2024","result":"HD","language":["Hindi"],"country":["CA","US"],"original_language":"en","genres":["Drama","Horror","Thriller"],"imdb_id":"tt30321146","backdrop":"https://image.tmdb.org/t/p/original/z31pODVM3uUB4bvirzxHdxrJIzb.jpg","watch":"<iframe src=\"https://bysebuho.com/e/zjq4efsxj93l/in-a-violent-nature-2024-720p-web-dl-english\" frameborder=\"0\" marginwidth=\"0\" marginheight=\"0\" scrolling=\"no\" width=\"640\" height=\"360\" allowfullscreen></iframe>"},{"id":"539972","type":"movie","title":"Kraven the Hunter","poster":"https://image.tmdb.org/t/p/w342/1GvBhRxY6MELDfxFrete6BNhBB5.jpg","year":"2024","result":"HD","language":["Hindi"],"country":["US"],"original_language":"en","genres":["Action","Adventure","Thriller"],"imdb_id":"tt8790086","backdrop":"https://image.tmdb.org/t/p/original/bGGjyPqtNc8hhGkPo8W8D8t90bW.jpg","watch":"<iframe src=\"https://bysebuho.com/e/vhbypxie2mrt/kravan-the-hunter-2024-720p-web-dl-hin-eng\" frameborder=\"0\" marginwidth=\"0\" marginheight=\"0\" scrolling=\"no\" width=\"640\" height=\"360\" allowfullscreen></iframe>"},{"id":"1011985","type":"movie","title":"Kung Fu Panda 4","poster":"https://image.tmdb.org/t/p/w342/kDp1vUBnMpe8ak4rjgl3cLELqjU.jpg","year":"2024","result":"HD","language":["Hindi"],"country":["US"],"original_language":"en","genres":["Action","Adventure","Animation","Comedy","Family","Fantasy"],"imdb_id":"tt21692408","backdrop":"https://image.tmdb.org/t/p/original/3ffPx9jqg0yj9y1KWeagT7D20CB.jpg","watch":"<iframe src=\"https://bysebuho.com/e/z1um8g5jet25/kung-fu-panda-4-2024-720p-web-dl-hindi-english\" frameborder=\"0\" marginwidth=\"0\" marginheight=\"0\" scrolling=\"no\" width=\"640\" height=\"360\" allowfullscreen></iframe>"},{"id":"1387198","type":"movie","title":"Love in 39 Degrees","poster":"https://image.tmdb.org/t/p/w342/b8nL536SEMBRcoHs5fipgO7991m.jpg","year":"2024","result":"HD","language":["Hindi"],"country":["TR"],"original_language":"tr","genres":["Romance","Drama","Comedy"],"imdb_id":"tt34605805","backdrop":"https://image.tmdb.org/t/p/original/heDGQR4sq9tNqTrlYahuxASqFly.jpg","watch":"<iframe src=\"https://bysebuho.com/e/yh3kpvsx3zxr/love-in-39-degrees-2024-720p-web-dl-hin-eng\" frameborder=\"0\" marginwidth=\"0\" marginheight=\"0\" scrolling=\"no\" width=\"640\" height=\"360\" allowfullscreen></iframe>"},{"id":"1304168","type":"movie","title":"Love Kills","poster":"https://image.tmdb.org/t/p/w342/tNDQmXduXUXKq07mVrCTM2tBaRZ.jpg","year":"2024","result":"HD","language":["Hindi"],"country":["US"],"original_language":"en","genres":["Drama","Romance"],"imdb_id":"tt27833165","backdrop":"https://image.tmdb.org/t/p/original/yym1XuPgzo73AO9p7U4uFkRSLmS.jpg","watch":"<iframe src=\"https://bysebuho.com/e/2ml3dnb91krt/love-kills-2024-unrated-720p-web-dl-hin-eng\" frameborder=\"0\" marginwidth=\"0\" marginheight=\"0\" scrolling=\"no\" width=\"640\" height=\"360\" allowfullscreen></iframe>"},{"id":"947891","type":"movie","title":"My Old Ass","poster":"https://image.tmdb.org/t/p/w342/yUs4Sw9AyTg2sA1qWBkNpD2mGSj.jpg","year":"2024","result":"HD","language":["Hindi"],"country":["US"],"original_language":"en","genres":["Comedy","Drama"],"imdb_id":"tt18559464","backdrop":"https://image.tmdb.org/t/p/original/iPHsjvbFyGbeCEDC7u8Ib8U1zS6.jpg","watch":"<iframe src=\"https://bysebuho.com/e/9oymuugz9xg0/my-old-ass-2024-720p-amzn\" frameborder=\"0\" marginwidth=\"0\" marginheight=\"0\" scrolling=\"no\" width=\"640\" height=\"360\" allowfullscreen></iframe>"},{"id":"1180702","type":"movie","title":"Nice Girls","poster":"https://image.tmdb.org/t/p/w342/zqgE8TVxZm7v0iH3Yzl1dPAvK6Y.jpg","year":"2024","result":"HD","language":["Hindi"],"country":["FR"],"original_language":"fr","genres":["Comedy","Crime","Action"],"imdb_id":"tt29288566","backdrop":"https://image.tmdb.org/t/p/original/pGKd9zwU1wNUTSXfnCl3T5mCOcr.jpg","watch":"<iframe src=\"https://bysebuho.com/e/midzdy1jcmsf/nice-girls-2024-720p-web-dl-hindi-english-french\" frameborder=\"0\" marginwidth=\"0\" marginheight=\"0\" scrolling=\"no\" width=\"640\" height=\"360\" allowfullscreen></iframe>"},{"id":"1028196","type":"movie","title":"Nickel Boys","poster":"https://image.tmdb.org/t/p/w342/lu2vmmtStmTNMmSZl2LgrrQpLZo.jpg","year":"2024","result":"HD","language":["Hindi"],"country":["US"],"original_language":"en","genres":["Drama","History"],"imdb_id":"tt23055660","backdrop":"https://image.tmdb.org/t/p/original/kmLssINCNdXnIDjWkBsk6LUNSbe.jpg","watch":"<iframe src=\"https://bysebuho.com/e/4zeynemd4bwy/nickel-boys-2024-720p-web-dl-hindi-english\" frameborder=\"0\" marginwidth=\"0\" marginheight=\"0\" scrolling=\"no\" width=\"640\" height=\"360\" allowfullscreen></iframe>"},{"id":"426063","type":"movie","title":"Nosferatu","poster":"https://image.tmdb.org/t/p/w342/5qGIxdEO841C0tdY8vOdLoRVrr0.jpg","year":"2024","result":"HD","language":["Hindi"],"country":["US"],"original_language":"en","genres":["Horror","Fantasy"],"imdb_id":"tt5040012","backdrop":"https://image.tmdb.org/t/p/original/gprjiZWY43vxSKngMha1wfb5TGG.jpg","watch":"<iframe src=\"https://bysebuho.com/e/wwglnmzdmm41/nosrefatu-2024-720p-web-dl-hin-eng\" frameborder=\"0\" marginwidth=\"0\" marginheight=\"0\" scrolling=\"no\" width=\"640\" height=\"360\" allowfullscreen></iframe>"},{"id":"1222248","type":"movie","title":"Number 24","poster":"https://image.tmdb.org/t/p/w342/pJeWUCCkW92X0LGs6mFx7GMQoPZ.jpg","year":"2024","result":"HD","language":["Hindi"],"country":["NO"],"original_language":"no","genres":["War","History","Drama"],"imdb_id":"tt23782584","backdrop":"https://image.tmdb.org/t/p/original/4bgcL1wAGHgNKqXMmVn4N4TW3S1.jpg","watch":"<iframe src=\"https://bysebuho.com/e/e10fy6gicgiu/nr24-2024-720p-web-dl-hindi-norwegian\" frameborder=\"0\" marginwidth=\"0\" marginheight=\"0\" scrolling=\"no\" width=\"640\" height=\"360\" allowfullscreen></iframe>"},{"id":"1084222","type":"movie","title":"Operation Blood Hunt","poster":"https://image.tmdb.org/t/p/w342/u36L4VEFTRIw11eK3xw8zjT0blT.jpg","year":"2024","result":"HD","language":["Hindi"],"country":["TH","US"],"original_language":"en","genres":["Action","Adventure","Horror"],"imdb_id":"tt23553640","backdrop":"https://image.tmdb.org/t/p/original/xp6lAdlYH5DfzxTL6h4W5lTV29G.jpg","watch":"<iframe src=\"https://bysebuho.com/e/sn4tt4kbpi61/operation-blood-hunt-2024-web-dl-720p-hin-eng\" frameborder=\"0\" marginwidth=\"0\" marginheight=\"0\" scrolling=\"no\" width=\"640\" height=\"360\" allowfullscreen></iframe>"},{"id":"1234811","type":"movie","title":"Our Little Secret","poster":"https://image.tmdb.org/t/p/w342/gkydRYX3VTqMIjJGDT7kXJ6SrfZ.jpg","year":"2024","result":"HD","language":["Hindi"],"country":["US"],"original_language":"en","genres":["Romance","Comedy","Drama"],"imdb_id":"tt31022050","backdrop":"https://image.tmdb.org/t/p/original/aJkOBOdbzUc788VDGJp3nEAlC3I.jpg","watch":"<iframe src=\"https://bysebuho.com/e/6srvprrjmw34/our-little-secret-2024-720p-web-dl-hin-eng\" frameborder=\"0\" marginwidth=\"0\" marginheight=\"0\" scrolling=\"no\" width=\"640\" height=\"360\" allowfullscreen></iframe>"},{"id":"516729","type":"movie","title":"Paddington in Peru","poster":"https://image.tmdb.org/t/p/w342/1ffZAucqfvQu36x1C49XfOdjuOG.jpg","year":"2024","result":"HD","language":["Hindi"],"country":["GB","JP"],"original_language":"en","genres":["Adventure","Comedy","Family"],"imdb_id":"tt5822536","backdrop":"https://image.tmdb.org/t/p/original/7N7CtZftqEvgojR3QloukU0oWPg.jpg","watch":"<iframe src=\"https://bysebuho.com/e/kerj704ws8xg/paddington-in-peru-2024-720p-bluray-hin-eng\" frameborder=\"0\" marginwidth=\"0\" marginheight=\"0\" scrolling=\"no\" width=\"640\" height=\"360\" allowfullscreen></iframe>"},{"id":"876911","type":"movie","title":"Parallel","poster":"https://image.tmdb.org/t/p/w342/4RQ2xOgRjw00ge7f2srg3bBAwZp.jpg","year":"2024","result":"HD","language":["Hindi"],"country":["US"],"original_language":"en","genres":["Science Fiction","Thriller","Drama"],"imdb_id":"tt14637386","backdrop":"https://image.tmdb.org/t/p/original/zky1xbkgDwCMiNOLFoPRyjHMo2w.jpg","watch":"<iframe src=\"https://bysebuho.com/e/vd9t93z3rs9o/parallel-2024-720p-bluray-hin-eng\" frameborder=\"0\" marginwidth=\"0\" marginheight=\"0\" scrolling=\"no\" width=\"640\" height=\"360\" allowfullscreen></iframe>"},{"id":"1109255","type":"movie","title":"Parthenope","poster":"https://image.tmdb.org/t/p/w342/k3BL39ca5pliALDTzUdC9ZIB9gk.jpg","year":"2024","result":"HD","language":["Hindi"],"country":["FR","IT"],"original_language":"it","genres":["Drama"],"imdb_id":"tt23853982","backdrop":"https://image.tmdb.org/t/p/original/fBUaeRfD2mu6T9vNZ1IR3yhccdP.jpg","watch":"<iframe src=\"https://bysebuho.com/e/ae0k21tb8ers/parthenope-2024-720p-web-dl-hindi-english\" frameborder=\"0\" marginwidth=\"0\" marginheight=\"0\" scrolling=\"no\" width=\"640\" height=\"360\" allowfullscreen></iframe>"},{"id":"1069387","type":"movie","title":"Pedro Páramo","poster":"https://image.tmdb.org/t/p/w342/gugzjPIalz5hy2RbVxqXCpXWanj.jpg","year":"2024","result":"HD","language":["Hindi"],"country":["MX"],"original_language":"es","genres":["Drama","Fantasy","Western"],"imdb_id":"tt27717667","backdrop":"https://image.tmdb.org/t/p/original/h6hwzKZKaDZ4ngmObjDmEWSAmWV.jpg","watch":"<iframe src=\"https://bysebuho.com/e/a6s0v6x27w62/pedro-paramo-2024-720p-web-dl-hin-eng-spa\" frameborder=\"0\" marginwidth=\"0\" marginheight=\"0\" scrolling=\"no\" width=\"640\" height=\"360\" allowfullscreen></iframe>"},{"id":"1236419","type":"movie","title":"Piece by Piece","poster":"https://image.tmdb.org/t/p/w342/fmOPcP8WRvm8cok4Hz3REwD7rlJ.jpg","year":"2024","result":"HD","language":["Hindi"],"country":["US"],"original_language":"en","genres":["Animation","Music","Documentary","Comedy"],"imdb_id":"tt31064841","backdrop":"https://image.tmdb.org/t/p/original/oqWTbBixgF8XwqzGeFWMzkNwqAw.jpg","watch":"<iframe src=\"https://bysebuho.com/e/u8iyu5d8ocr1/piece-by-piece-2024-720p-bluray-hin-eng\" frameborder=\"0\" marginwidth=\"0\" marginheight=\"0\" scrolling=\"no\" width=\"640\" height=\"360\" allowfullscreen></iframe>"},{"id":"1222064","type":"movie","title":"River of Blood","poster":"https://image.tmdb.org/t/p/w342/kgCfN7zuC2k9VaqeDdquUwroC8u.jpg","year":"2024","result":"HD","language":["Hindi"],"country":["DK","GB","TH"],"original_language":"en","genres":["Horror","Thriller"],"imdb_id":"tt29708137","backdrop":"https://image.tmdb.org/t/p/original/zCSLLLe8o0CJarDKk2IJQsLXqkl.jpg","watch":"<iframe src=\"https://bysebuho.com/e/g0dxy9odvk14/river-of-blood-2024-720p-web-dl-hin-eng\" frameborder=\"0\" marginwidth=\"0\" marginheight=\"0\" scrolling=\"no\" width=\"640\" height=\"360\" allowfullscreen></iframe>"},{"id":"1389147","type":"movie","title":"SDI: Secret Department of Intervention","poster":"https://image.tmdb.org/t/p/w342/owX06DajHa0TIqYt5z57x4nIGWw.jpg","year":"2024","result":"HD","language":["Hindi"],"country":[],"original_language":"fr","genres":["Action"],"imdb_id":"tt13360220","backdrop":"https://image.tmdb.org/t/p/original/l4JOAN5cr0LgFshhgGJXd5nlsgL.jpg","watch":"<iframe src=\"https://bysebuho.com/e/zdhdpflbk9w4/sdi-secret-department-of-intervention-2024-720p-web-dl-dual-audio-hindi-french\" frameborder=\"0\" marginwidth=\"0\" marginheight=\"0\" scrolling=\"no\" width=\"640\" height=\"360\" allowfullscreen></iframe>"},{"id":"1220635","type":"movie","title":"Season of Love","poster":"https://image.tmdb.org/t/p/w342/mYus8GNVi8BYIubE5bsPkrz6u13.jpg","year":"2024","result":"HD","language":["Hindi"],"country":["TR"],"original_language":"tr","genres":["Romance"],"imdb_id":"tt30050756","backdrop":"https://image.tmdb.org/t/p/original/leV0uuoYrvS402UfrzfJ6APQJmP.jpg","watch":"<iframe src=\"https://bysebuho.com/e/gj060ojjqx40/season-of-love-aka-ask-mevsimi-2024-720p-web-dl-hin-eng\" frameborder=\"0\" marginwidth=\"0\" marginheight=\"0\" scrolling=\"no\" width=\"640\" height=\"360\" allowfullscreen></iframe>"},{"id":"1211472","type":"movie","title":"September 5","poster":"https://image.tmdb.org/t/p/w342/3kcQOLwYKGPwyjiynFsvP8vHvRn.jpg","year":"2024","result":"HD","language":["Hindi"],"country":["DE","US"],"original_language":"en","genres":["Thriller","Drama","History"],"imdb_id":"tt28082769","backdrop":"https://image.tmdb.org/t/p/original/nEH7XUCeWsEuJtGgWUVUl6MEQW0.jpg","watch":"<iframe src=\"https://bysebuho.com/e/d7m8wms53x8a/september-5-2024-720p-bluray-dual-audio-hindi-english\" frameborder=\"0\" marginwidth=\"0\" marginheight=\"0\" scrolling=\"no\" width=\"640\" height=\"360\" allowfullscreen></iframe>"},{"id":"1283707","type":"movie","title":"Shadow Land","poster":"https://image.tmdb.org/t/p/w342/n6tk8oqhUki6Zp4PIuQqr1aTSXq.jpg","year":"2024","result":"HD","language":["Hindi"],"country":["US"],"original_language":"en","genres":["Thriller","Action"],"imdb_id":"tt31956123","backdrop":"https://image.tmdb.org/t/p/original/yBzuam7Kx0jKaqiut3SBz0AwedP.jpg","watch":"<iframe src=\"https://bysebuho.com/e/z6g5rv3qs01d/shadow-land-2024-720p-web-dl-hindi-english\" frameborder=\"0\" marginwidth=\"0\" marginheight=\"0\" scrolling=\"no\" width=\"640\" height=\"360\" allowfullscreen></iframe>"},{"id":"1037113","type":"movie","title":"Snack Shack","poster":"https://image.tmdb.org/t/p/w342/wCXd5tpUSc12LVPd2oN9OKU1EVQ.jpg","year":"2024","result":"HD","language":["Hindi"],"country":["US"],"original_language":"en","genres":["Comedy"],"imdb_id":"tt22004344","backdrop":"https://image.tmdb.org/t/p/original/UxPjfVl50OGlJ6Ww8DXEDFzx7g.jpg","watch":"<iframe src=\"https://bysebuho.com/e/zlr4zcymw0hk/snack-shack-2024-720p-web-dl-hindi-5-1-english\" frameborder=\"0\" marginwidth=\"0\" marginheight=\"0\" scrolling=\"no\" width=\"640\" height=\"360\" allowfullscreen></iframe>"},{"id":"1269192","type":"movie","title":"Snake Skin Beauty","poster":"https://image.tmdb.org/t/p/w342/lXgLM1XtAkCx5SLClGJTP3sAJ2n.jpg","year":"2024","result":"HD","language":["Hindi"],"country":["CN"],"original_language":"zh","genres":["Horror","Action","Fantasy"],"imdb_id":"tt32014347","backdrop":"https://image.tmdb.org/t/p/original/mnkefLjNnRW59NZuEaysRZ6WPVf.jpg","watch":"<iframe src=\"https://bysebuho.com/e/yw8s9vyf0515/snake-skin-beauty-2024-720p-web-dl-hin-chi\" frameborder=\"0\" marginwidth=\"0\" marginheight=\"0\" scrolling=\"no\" width=\"640\" height=\"360\" allowfullscreen></iframe>"},{"id":"939243","type":"movie","title":"Sonic the Hedgehog 3","poster":"https://image.tmdb.org/t/p/w342/d8Ryb8AunYAuycVKDp5HpdWPKgC.jpg","year":"2024","result":"HD","language":["Hindi"],"country":["US","JP"],"original_language":"en","genres":["Action","Science Fiction","Comedy","Family"],"imdb_id":"tt18259086","backdrop":"https://image.tmdb.org/t/p/original/zOpe0eHsq0A2NvNyBbtT6sj53qV.jpg","watch":"<iframe src=\"https://bysebuho.com/e/ay2s9avptiqp/sonic-the-hedgehog-3-2024-web-dl-720p-hindi-english\" frameborder=\"0\" marginwidth=\"0\" marginheight=\"0\" scrolling=\"no\" width=\"640\" height=\"360\" allowfullscreen></iframe>"},{"id":"1064028","type":"movie","title":"Subservience","poster":"https://image.tmdb.org/t/p/w342/gBenxR01Uy0Ev9RTIw6dVBPoyQU.jpg","year":"2024","result":"HD","language":["Hindi"],"country":["US"],"original_language":"en","genres":["Science Fiction","Horror","Thriller"],"imdb_id":"tt24871974","backdrop":"https://image.tmdb.org/t/p/original/co7oxvpWxgd6FZU24DnljDDHYQA.jpg","watch":"<iframe src=\"https://bysebuho.com/e/4vz4wjuswq80/subservience-2024-bluray-720p-hin-eng\" frameborder=\"0\" marginwidth=\"0\" marginheight=\"0\" scrolling=\"no\" width=\"640\" height=\"360\" allowfullscreen></iframe>"},{"id":"1196470","type":"movie","title":"Survive","poster":"https://image.tmdb.org/t/p/w342/7fR3KxswtY8OHHZuOUB9td58CRX.jpg","year":"2024","result":"HD","language":["Hindi"],"country":["FR"],"original_language":"fr","genres":["Science Fiction","Thriller","Adventure","Action"],"imdb_id":"tt27032708","backdrop":"https://image.tmdb.org/t/p/original/2xnLwNvea2TSH0M0oc9iEq2KEVp.jpg","watch":"<iframe src=\"https://bysebuho.com/e/lil0hti7mibq/survive-2024-720p-web-dl-web-dl-hin-eng\" frameborder=\"0\" marginwidth=\"0\" marginheight=\"0\" scrolling=\"no\" width=\"640\" height=\"360\" allowfullscreen></iframe>"},{"id":"1094974","type":"movie","title":"Take Cover","poster":"https://image.tmdb.org/t/p/w342/xNLiMNyFzKTL9PVIEulG55Hei8j.jpg","year":"2024","result":"HD","language":["Hindi"],"country":["US"],"original_language":"en","genres":["Action","Thriller"],"imdb_id":"tt28129054","backdrop":"https://image.tmdb.org/t/p/original/1aOPPkXASkd2By3EKIw66Ilx5qF.jpg","watch":"<iframe src=\"https://bysebuho.com/e/r5amrmsglpa6/take-cover-2024-720p-web-dl-hindi-english\" frameborder=\"0\" marginwidth=\"0\" marginheight=\"0\" scrolling=\"no\" width=\"640\" height=\"360\" allowfullscreen></iframe>"},{"id":"1034541","type":"movie","title":"Terrifier 3","poster":"https://image.tmdb.org/t/p/w342/ju10W5gl3PPK3b7TjEmVOZap51I.jpg","year":"2024","result":"HD","language":["Hindi"],"country":["US"],"original_language":"en","genres":["Horror"],"imdb_id":"tt27911000","backdrop":"https://image.tmdb.org/t/p/original/bHfGHipZ32Oec94FDJO4mWs3aZ5.jpg","watch":"<iframe src=\"https://bysebuho.com/e/5w6aino71897/terrifier-3-2024-720p-10bit-bluray-hin-eng\" frameborder=\"0\" marginwidth=\"0\" marginheight=\"0\" scrolling=\"no\" width=\"640\" height=\"360\" allowfullscreen></iframe>"},{"id":"1206617","type":"movie","title":"The Best Christmas Pageant Ever","poster":"https://image.tmdb.org/t/p/w342/6XjvhydAlXbQodoWbIf77H0Dd9R.jpg","year":"2024","result":"HD","language":["Hindi"],"country":["US"],"original_language":"en","genres":["Comedy","Drama","Family"],"imdb_id":"tt2347285","backdrop":"https://image.tmdb.org/t/p/original/1AIwhOIMktmgesIqNcwUsQWYLl5.jpg","watch":"<iframe src=\"https://bysebuho.com/e/qlxo1a52pfju/the-best-christmas-pageant-ever-2024-720p-web-dl-hin-eng\" frameborder=\"0\" marginwidth=\"0\" marginheight=\"0\" scrolling=\"no\" width=\"640\" height=\"360\" allowfullscreen></iframe>"},{"id":"549509","type":"movie","title":"The Brutalist","poster":"https://image.tmdb.org/t/p/w342/vP7Yd6couiAaw9jgMd5cjMRj3hQ.jpg","year":"2024","result":"HD","language":["Hindi"],"country":["GB","US"],"original_language":"en","genres":["Drama"],"imdb_id":"tt8999762","backdrop":"https://image.tmdb.org/t/p/original/hmZnqijPaaACjenDkrbWcCmcADI.jpg","watch":"<iframe src=\"https://bysebuho.com/e/yy5tl884sms9/the-brutalist-2024-720p-hevc-bluray-hindi-2-0-english\" frameborder=\"0\" marginwidth=\"0\" marginheight=\"0\" scrolling=\"no\" width=\"640\" height=\"360\" allowfullscreen></iframe>"},{"id":"957452","type":"movie","title":"The Crow","poster":"https://image.tmdb.org/t/p/w342/g8TbOXrNMuqq7AaKqdvqS2oG4ob.jpg","year":"2024","result":"HD","language":["Hindi"],"country":["FR","DE","GB","US"],"original_language":"en","genres":["Action","Fantasy","Horror"],"imdb_id":"tt1340094","backdrop":"https://image.tmdb.org/t/p/original/503LUrI9juBk1rktOPzxyMUTDEu.jpg","watch":"<iframe src=\"https://bysebuho.com/e/ofb6u85tmo7j/the-crow-2024-720p-bluray-hin-eng\" frameborder=\"0\" marginwidth=\"0\" marginheight=\"0\" scrolling=\"no\" width=\"640\" height=\"360\" allowfullscreen></iframe>"},{"id":"610219","type":"movie","title":"The Fire Inside","poster":"https://image.tmdb.org/t/p/w342/dMorkoCdZJ1xmKv0VAXcpUax6Ar.jpg","year":"2024","result":"HD","language":["Hindi"],"country":["US"],"original_language":"en","genres":["Drama","History"],"imdb_id":"tt6133444","backdrop":"https://image.tmdb.org/t/p/original/GtWV2PAAFZYYHAy788RI6xOMJ8.jpg","watch":"<iframe src=\"https://bysebuho.com/e/5oon3d18v04k/the-fire-inside-2024-720p-web-dl-hindi-5-1-english\" frameborder=\"0\" marginwidth=\"0\" marginheight=\"0\" scrolling=\"no\" width=\"640\" height=\"360\" allowfullscreen></iframe>"},{"id":"1186532","type":"movie","title":"The Forge","poster":"https://image.tmdb.org/t/p/w342/oranxontIQRmhuyQlkoAwxpeBYz.jpg","year":"2024","result":"HD","language":["Hindi"],"country":["US"],"original_language":"en","genres":["Drama","Family"],"imdb_id":"tt26731216","backdrop":"https://image.tmdb.org/t/p/original/18X5mXS1SpQy5rygEcpbmzUdkVP.jpg","watch":"<iframe src=\"https://bysebuho.com/e/nhu41fbzbh2a/the-forge-2024-720p-bluray-hin-eng\" frameborder=\"0\" marginwidth=\"0\" marginheight=\"0\" scrolling=\"no\" width=\"640\" height=\"360\" allowfullscreen></iframe>"},{"id":"1279596","type":"movie","title":"The Little Mermaid","poster":"https://image.tmdb.org/t/p/w342/thRKCI7ex7He9rflOcO6JZojxk1.jpg","year":"2024","result":"HD","language":["Hindi"],"country":["KN","US"],"original_language":"en","genres":["Horror","Fantasy"],"imdb_id":"tt27722894","backdrop":"https://image.tmdb.org/t/p/original/seSMx5SETkv4gXMnqSNi5FrnivC.jpg","watch":"<iframe src=\"https://bysebuho.com/e/dq0pz3754l9l/the-little-mermaid-2024-720p-web-dl-hin-eng\" frameborder=\"0\" marginwidth=\"0\" marginheight=\"0\" scrolling=\"no\" width=\"640\" height=\"360\" allowfullscreen></iframe>"},{"id":"1327530","type":"movie","title":"The Lockdown","poster":"https://image.tmdb.org/t/p/w342/78ZjjWtG2AxHMo9buTJbzXsbTJq.jpg","year":"2024","result":"HD","language":["Hindi"],"country":["US"],"original_language":"en","genres":["Action"],"imdb_id":"tt10080130","backdrop":"https://image.tmdb.org/t/p/original/qjZUL1ajr94Vax9KQJ3joD3C3qH.jpg","watch":"<iframe src=\"https://bysebuho.com/e/zp7s5dl6j3zo/the-lockdown-2024-720p-web-dl-hin-eng\" frameborder=\"0\" marginwidth=\"0\" marginheight=\"0\" scrolling=\"no\" width=\"640\" height=\"360\" allowfullscreen></iframe>"},{"id":"1372665","type":"movie","title":"The Lost Children","poster":"https://image.tmdb.org/t/p/w342/5Te2bKuSyVkqt0m2GdSueU4dfCZ.jpg","year":"2024","result":"HD","language":["Hindi"],"country":["CO","GB","US"],"original_language":"es","genres":["Documentary"],"imdb_id":"tt34058121","backdrop":"https://image.tmdb.org/t/p/original/z0v2QdZq4I61xt8mBlxKRyoOGqm.jpg","watch":"<iframe src=\"https://bysebuho.com/e/5p2jol1ivd5q/the-lost-children-2024-720p-webdl-hindi-english-spanish\" frameborder=\"0\" marginwidth=\"0\" marginheight=\"0\" scrolling=\"no\" width=\"640\" height=\"360\" allowfullscreen></iframe>"},{"id":"1082195","type":"movie","title":"The Order","poster":"https://image.tmdb.org/t/p/w342/r3BPhDb45sy87kNV41Q1TwCL6BS.jpg","year":"2024","result":"HD","language":["Hindi"],"country":["GB","US","CA"],"original_language":"en","genres":["Crime","Drama","Thriller"],"imdb_id":"tt26625693","backdrop":"https://image.tmdb.org/t/p/original/aMbKYfaexixvsBZKc5whYO7yibR.jpg","watch":"<iframe src=\"https://bysebuho.com/e/3t2bi72r2lmn/the-order-2024-720p-web-dl-hin-eng\" frameborder=\"0\" marginwidth=\"0\" marginheight=\"0\" scrolling=\"no\" width=\"640\" height=\"360\" allowfullscreen></iframe>"},{"id":"1128650","type":"movie","title":"The Prosecutor","poster":"https://image.tmdb.org/t/p/w342/n3ZnFqp988MWfIkT8OHofEJfjlt.jpg","year":"2024","result":"HD","language":["Hindi"],"country":["CN","HK"],"original_language":"cn","genres":["Action","Drama","Crime","Thriller"],"imdb_id":"tt30024043","backdrop":"https://image.tmdb.org/t/p/original/4frrYwamVG0eXhdMTy3cpNNcCBp.jpg","watch":"<iframe src=\"https://bysebuho.com/e/nxahoatfn9by/the-prosecutor-2024-dual-audio-hindi-chinese\" frameborder=\"0\" marginwidth=\"0\" marginheight=\"0\" scrolling=\"no\" width=\"640\" height=\"360\" allowfullscreen></iframe>"},{"id":"1278263","type":"movie","title":"The Seed of the Sacred Fig","poster":"https://image.tmdb.org/t/p/w342/ifOazNzv2cNJ5CQjMV7cPXG2Lmy.jpg","year":"2024","result":"HD","language":["Hindi"],"country":["FR","DE"],"original_language":"fr","genres":["Drama","Thriller","Crime"],"imdb_id":"tt32178949","backdrop":"https://image.tmdb.org/t/p/original/zqZzYVE4DWv92xrYSCEELPcLnUP.jpg","watch":"<iframe src=\"https://bysebuho.com/e/dxw2i6gfiihj/the-seed-of-the-sacred-fig-2024-dual-audio-hindi-amzn\" frameborder=\"0\" marginwidth=\"0\" marginheight=\"0\" scrolling=\"no\" width=\"640\" height=\"360\" allowfullscreen></iframe>"},{"id":"1061699","type":"movie","title":"The Six Triple Eight","poster":"https://image.tmdb.org/t/p/w342/7tvAnzZj9e9AjdoHaN9jshm2Cjw.jpg","year":"2024","result":"HD","language":["Hindi"],"country":["US"],"original_language":"en","genres":["Drama","War","History"],"imdb_id":"tt24458622","backdrop":"https://image.tmdb.org/t/p/original/4FnbeuCnsN3MT6omPrivl2ttJ8o.jpg","watch":"<iframe src=\"https://bysebuho.com/e/wtg191fvovhm/the-six-triple-eight-2024-720p-nf-web-dl-ddp5-1\" frameborder=\"0\" marginwidth=\"0\" marginheight=\"0\" scrolling=\"no\" width=\"640\" height=\"360\" allowfullscreen></iframe>"}]}