{"page":12,"total_pages":66,"total_items":3299,"items":[{"id":"1507649","type":"movie","title":"Andaaz 2","poster":"https://image.tmdb.org/t/p/w342/4aev7jUk0ITeUovbirv5EFdgKAR.jpg","year":"2025","result":"HD","language":["Hindi"],"country":["IN"],"original_language":"hi","genres":["Romance","Drama"],"imdb_id":"tt30224735","backdrop":"https://image.tmdb.org/t/p/original/vEwsR923L4hC5ehUbGjSHL9VL3R.jpg","watch":"<iframe src=\"https://bysebuho.com/e/axi3nfx4togc/andaaz-2-2025-720p-hdtc-hindi-line-x264-daniewatch-is\" frameborder=\"0\" marginwidth=\"0\" marginheight=\"0\" scrolling=\"no\" width=\"640\" height=\"360\" allowfullscreen></iframe>"},{"id":"1507617","type":"movie","title":"Solo Boy","poster":"https://image.tmdb.org/t/p/w342/5WQcGQJnQrpgksHts0oEhjqHxfQ.jpg","year":"2025","result":"HD","language":["Hindi"],"country":["IN"],"original_language":"te","genres":["Drama","Romance","Family"],"imdb_id":"tt31242102","backdrop":"https://image.tmdb.org/t/p/original/qsGjCZJY4G7lzx9qwQyu6rLdQjV.jpg","watch":"<iframe src=\"https://bysebuho.com/e/h3a1ih1glm1k/solo-boy-2025-720p-web-hdrip-hindi-aac2-0-x264-vegamovies-is\" frameborder=\"0\" marginwidth=\"0\" marginheight=\"0\" scrolling=\"no\" width=\"640\" height=\"360\" allowfullscreen></iframe>"},{"id":"1506821","type":"movie","title":"Well Done C.A. Sahab!","poster":"https://image.tmdb.org/t/p/w342/AeeEbI604LBWI21Hkeask5JgYRm.jpg","year":"2025","result":"HD","language":["Hindi"],"country":["IN"],"original_language":"hi","genres":["Drama","Comedy"],"imdb_id":"tt35327667","backdrop":"https://image.tmdb.org/t/p/original/7zHjmdboB40NrxaGvTKZYDNdCOc.jpg","watch":"<iframe src=\"https://bysebuho.com/e/h3iqtz5rs9u4/well-done-ca-sahab-2025-720p-waves-web-dl-aac2-0-h-264-daniewatch-is\" frameborder=\"0\" marginwidth=\"0\" marginheight=\"0\" scrolling=\"no\" width=\"640\" height=\"360\" allowfullscreen></iframe>"},{"id":"1506578","type":"movie","title":"Thank You Dear","poster":"https://image.tmdb.org/t/p/w342/kgFwTGoEAUJEwSQTJ2cMgLflPta.jpg","year":"2025","result":"HD","language":["Hindi"],"country":["IN"],"original_language":"te","genres":["Thriller","Romance"],"imdb_id":"tt37376961","backdrop":"https://image.tmdb.org/t/p/original/bcXT0JIsxsHkCwa9ikytkzuKQnV.jpg","watch":"<iframe src=\"https://bysebuho.com/e/83g5jhve0unk/thank-you-dear-2025-720p-web-dl-hindi-ddp5-1-h-264-vegamovies-is\" frameborder=\"0\" marginwidth=\"0\" marginheight=\"0\" scrolling=\"no\" width=\"640\" height=\"360\" allowfullscreen></iframe>"},{"id":"1505116","type":"movie","title":"Nafratein","poster":"https://image.tmdb.org/t/p/w342/sAZS4QN11yrexVoTVa8aQ039J7A.jpg","year":"2025","result":"HD","language":["Hindi"],"country":["IN"],"original_language":"hi","genres":["Drama","Action","Romance"],"imdb_id":"tt37184259","backdrop":"","watch":"<iframe src=\"https://bysebuho.com/e/patnmhugqkks/nafratein-2025-hindi-hdtc-720p-avc-he-aac-2-0-daniewatch-is\" frameborder=\"0\" marginwidth=\"0\" marginheight=\"0\" scrolling=\"no\" width=\"640\" height=\"360\" allowfullscreen></iframe>"},{"id":"1504735","type":"movie","title":"Squid Game in Conversation","poster":"https://image.tmdb.org/t/p/w342/vMNcd8up1wvgBJnjNkOkWpZLHPC.jpg","year":"2025","result":"HD","language":["Hindi"],"country":["KR"],"original_language":"ko","genres":["Documentary"],"imdb_id":"tt37455270","backdrop":"https://image.tmdb.org/t/p/original/hLpuo585mwOWKVco2RPZjgu8RnA.jpg","watch":"<iframe src=\"https://bysebuho.com/e/fkx7zb2zzw5q/squid-game-in-conversation-2025-720p-web-dl-hindi-english-korean-esubs-daniewatch-is\" frameborder=\"0\" marginwidth=\"0\" marginheight=\"0\" scrolling=\"no\" width=\"640\" height=\"360\" allowfullscreen></iframe>"},{"id":"1504369","type":"movie","title":"Maa Jaye","poster":"https://image.tmdb.org/t/p/w342/zw2snDOakQLbvEg0sVlDs3sdJij.jpg","year":"2025","result":"HD","language":["Hindi"],"country":["IN"],"original_language":"pa","genres":["Drama"],"imdb_id":"tt33056940","backdrop":"","watch":"<iframe src=\"https://bysebuho.com/e/6cmba7lg0s1v/maa-jaye-2025-720p-web-hdrip-punjabi-ddp5-1-esub-vegamovies-is\" frameborder=\"0\" marginwidth=\"0\" marginheight=\"0\" scrolling=\"no\" width=\"640\" height=\"360\" allowfullscreen></iframe>"},{"id":"1500691","type":"movie","title":"Fantasy Football Ruined Our Lives","poster":"https://image.tmdb.org/t/p/w342/d3T9jjdLjnhMzuFvmWImlVKiIrv.jpg","year":"2025","result":"HD","language":["Hindi"],"country":["IT"],"original_language":"it","genres":["Comedy"],"imdb_id":"tt37038661","backdrop":"https://image.tmdb.org/t/p/original/dkpAbMdLZ6OgHZBXM6NG7fMp9mJ.jpg","watch":"<iframe src=\"https://bysebuho.com/e/m5e5kixv35yt/Fantasy.Football.Ruined.Our.Lives.2025.720p.WEB-DL.HIN-ENG.x264.ESub-DANIEWATCH.mkv\" width=\"640\" height=\"360\" frameborder=\"0\" allowfullscreen></iframe>"},{"id":"1499180","type":"movie","title":"Bomb","poster":"https://image.tmdb.org/t/p/w342/jCS8gu2QiZDUqq3MWVe164ss966.jpg","year":"2025","result":"HD","language":["Hindi"],"country":["IN"],"original_language":"ta","genres":["Drama","Comedy"],"imdb_id":"tt28717622","backdrop":"https://image.tmdb.org/t/p/original/ttgbCZzSBrvpIaEFkj6OARNRyHh.jpg","watch":"<iframe src=\"https://bysebuho.com/e/jl8cgale2i1c/Bomb_2025_720p_AMZN_WEB-DL_Dual_DANIEWATCH.mkv\" width=\"640\" height=\"360\" frameborder=\"0\" allowfullscreen></iframe>"},{"id":"1499099","type":"movie","title":"Karamsutra","poster":"https://image.tmdb.org/t/p/w342/akxdNCJQ3wh0bRLRl2p7VaICRXe.jpg","year":"2025","result":"HD","language":["Hindi"],"country":[],"original_language":"pa","genres":["Thriller"],"imdb_id":"tt37285355","backdrop":"https://image.tmdb.org/t/p/original/vxwxnFEWg1FZfg66uy6aTycxo31.jpg","watch":"<iframe src=\"https://bysebuho.com/e/91wtz008eqqt/karamsutra-2025-720p-web-dl-hindi-2-0-punjabi-2-0-esub-x264-vegamovies-is\" frameborder=\"0\" marginwidth=\"0\" marginheight=\"0\" scrolling=\"no\" width=\"640\" height=\"360\" allowfullscreen></iframe>"},{"id":"1499082","type":"movie","title":"Nishaanchi","poster":"https://image.tmdb.org/t/p/w342/aDI8pTr7QDs1QnDKCKsAoEampZj.jpg","year":"2025","result":"HD","language":["Hindi"],"country":["IN"],"original_language":"hi","genres":["Crime","Drama"],"imdb_id":"tt34794166","backdrop":"https://image.tmdb.org/t/p/original/asjK0Ot5ocLt7ZErj9wwA17BPsr.jpg","watch":"<iframe src=\"https://bysebuho.com/e/bgsnqqknznj1/Nishaanchi_2025_Hindi_Amazon_WEB-DL_720p_-_DANIEWATCH.mkv\" width=\"640\" height=\"360\" frameborder=\"0\" allowfullscreen></iframe>"},{"id":"1497036","type":"movie","title":"Dr. Seuss's The Sneetches","poster":"https://image.tmdb.org/t/p/w342/5jqpfOY6q8ltnCFEfUPY3c0bpR5.jpg","year":"2025","result":"HD","language":["Hindi"],"country":["IE"],"original_language":"en","genres":["Animation","Family"],"imdb_id":"tt37677952","backdrop":"https://image.tmdb.org/t/p/original/iv2Z44Q52E8KSPiY1ZAPdFVyFal.jpg","watch":"<iframe src=\"https://bysebuho.com/e/vmokp99n0i44/Dr_Seusss_The_Sneetches_2025_WebRip_720p_Hindi_English_AAC_5.1_x264_MSubs_-_DANIEWATCH.mkv\" width=\"640\" height=\"360\" frameborder=\"0\" allowfullscreen></iframe>"},{"id":"1494406","type":"movie","title":"Kaisi Ye Paheli","poster":"https://image.tmdb.org/t/p/w342/3Z9bXM0ZDsQgoFkeK9KI2cFaGJm.jpg","year":"2025","result":"HD","language":["Hindi"],"country":["IN"],"original_language":"hi","genres":["Mystery","Thriller"],"imdb_id":"tt31101929","backdrop":"https://image.tmdb.org/t/p/original/IaI6DjHP0w4iqud9GtRB8jK51x.jpg","watch":"<iframe src=\"https://bysebuho.com/e/yrp22hm8v0xa/Kaisi_Ye_Paheli_2025_Hindi_HDTC_720p_x264_AAC_HC-ESub-_DANIEWATCH.mkv\" frameborder=\"0\" marginwidth=\"0\" marginheight=\"0\" scrolling=\"no\" width=\"640\" height=\"360\" allowfullscreen></iframe>"},{"id":"1494159","type":"movie","title":"Maadeva","poster":"https://image.tmdb.org/t/p/w342/kdEWBpXscXN6MNUFi6NJhZaSiR5.jpg","year":"2025","result":"HD","language":["Hindi"],"country":["IN"],"original_language":"kn","genres":["Action","Thriller"],"imdb_id":"tt28789314","backdrop":"https://image.tmdb.org/t/p/original/mFt9CKVUhoT6V84tSsA0EQk4HEB.jpg","watch":"<iframe src=\"https://bysebuho.com/e/8bv52zmep3dl/maadeva-2025-720p-amzn-web-dl-hindi-kannada-ddp5-1-h-264-vegamovies-is\" frameborder=\"0\" marginwidth=\"0\" marginheight=\"0\" scrolling=\"no\" width=\"640\" height=\"360\" allowfullscreen></iframe>"},{"id":"1490329","type":"movie","title":"Shubhchintak","poster":"https://image.tmdb.org/t/p/w342/yggCq5PcPU8KWmVlawKzTyrsXLV.jpg","year":"2025","result":"HD","language":["Hindi"],"country":["IN"],"original_language":"gu","genres":["Comedy","Drama","Thriller"],"imdb_id":"tt35977123","backdrop":"https://image.tmdb.org/t/p/original/quYtNRV0CkSc60SXsE3oUWLJf78.jpg","watch":"<iframe src=\"https://bysebuho.com/e/y63ytylvmuw9/shubhchintak-2025-720p-web-dl-hindi-2-0-dubbed-x264-daniewatch-is\" frameborder=\"0\" marginwidth=\"0\" marginheight=\"0\" scrolling=\"no\" width=\"640\" height=\"360\" allowfullscreen></iframe>"},{"id":"1489510","type":"movie","title":"Aaromaley","poster":"https://image.tmdb.org/t/p/w342/80YOW8UVr1ublMX2Q638MCdS2Q4.jpg","year":"2025","result":"HD","language":["Hindi"],"country":["IN"],"original_language":"ta","genres":["Comedy","Romance","Drama"],"imdb_id":"tt36587142","backdrop":"https://image.tmdb.org/t/p/original/sBkt74K37VWbsAyuNe6Rk8PBvLm.jpg","watch":"<iframe src=\"https://bysebuho.com/e/xq1czaz8jgw6/Aaromaley_2025_720p_JHS_WEB-DL_DUAL_DDP5_1_H_264-DANIEWATCH.mkv\" frameborder=\"0\" marginwidth=\"0\" marginheight=\"0\" scrolling=\"no\" width=\"640\" height=\"360\" allowfullscreen></iframe>"},{"id":"1488449","type":"movie","title":"Ikk Kudi","poster":"https://image.tmdb.org/t/p/w342/sHuAznqwfhqxbk0SYb4ISPMdzFH.jpg","year":"2025","result":"HD","language":["Hindi"],"country":["IN"],"original_language":"pa","genres":["Comedy","Drama"],"imdb_id":"tt35063604","backdrop":"https://image.tmdb.org/t/p/original/vqeeEzV7N6OAKo3yV5nOGHfy0Ea.jpg","watch":"<iframe src=\"https://bysebuho.com/e/nshqtxekutnk/Ikk_Kudi_2025_Punjabi_HDTC_720p_x264_AAC_HC-ESub-_DANIEWATCH_is.mkv\" frameborder=\"0\" marginwidth=\"0\" marginheight=\"0\" scrolling=\"no\" width=\"640\" height=\"360\" allowfullscreen></iframe>"},{"id":"1488441","type":"movie","title":"Haan Main Pagal Haan","poster":"https://image.tmdb.org/t/p/w342/jBqVrgglVVheW5eAffKBdQd19f6.jpg","year":"2025","result":"HD","language":["Hindi"],"country":["IN"],"original_language":"pa","genres":["Mystery","Drama"],"imdb_id":"tt36415633","backdrop":"https://image.tmdb.org/t/p/original/5E3NudGzTaKlQ8TVoPpzsMcHAd4.jpg","watch":"<iframe src=\"https://bysebuho.com/e/2hmovvoc05h9/Haan_Main_Pagal_Haan_2025_720p_WEB-HDRip_Punjabi_AAC2_0_x264_DANIEWATCH.mkv\" width=\"640\" height=\"360\" frameborder=\"0\" allowfullscreen></iframe>"},{"id":"1487289","type":"movie","title":"Jombieland","poster":"https://image.tmdb.org/t/p/w342/h78roUiZylCIzTrmeBN6Pnhv8cI.jpg","year":"2025","result":"HD","language":["Hindi"],"country":["IN"],"original_language":"pa","genres":["Action","Comedy","Horror"],"imdb_id":"tt36375452","backdrop":"https://image.tmdb.org/t/p/original/in8mIsLRum0vAnJDR4eM9UudmCP.jpg","watch":"<iframe src=\"https://bysebuho.com/e/43bc0510l23j/Jombieland_2025_720p_WEB-DL_Punjabi_x264-DANIEWATCH_is\" frameborder=\"0\" marginwidth=\"0\" marginheight=\"0\" scrolling=\"no\" width=\"640\" height=\"360\" allowfullscreen></iframe>"},{"id":"1487106","type":"movie","title":"Raunak","poster":"https://image.tmdb.org/t/p/w342/xupYWGFIZ4NM4LVWxYyT9yr8J6V.jpg","year":"2025","result":"HD","language":["Hindi"],"country":["IN"],"original_language":"pa","genres":["Drama","Family","Romance"],"imdb_id":"tt36412691","backdrop":"https://image.tmdb.org/t/p/original/5D7b3oRrZImCIwGa4C6xFFbyPX5.jpg","watch":"<iframe src=\"https://bysebuho.com/e/6poj1ptzoawr/Raunak__2025__Dual_Audio__Hindi_ORG-Punjabi__KableOne_720p_-_DANIEWATCH.mkv\" width=\"640\" height=\"360\" frameborder=\"0\" allowfullscreen></iframe>"},{"id":"1486799","type":"movie","title":"Sarbala Ji","poster":"https://image.tmdb.org/t/p/w342/eCERukldal4nrbupGdOzviAv5cQ.jpg","year":"2025","result":"HD","language":["Hindi"],"country":["IN"],"original_language":"pa","genres":["Action","Drama"],"imdb_id":"tt32872825","backdrop":"https://image.tmdb.org/t/p/original/f3gBu8BmKjIdMgfIGGh3xoIHNGH.jpg","watch":"<iframe src=\"https://bysebuho.com/e/k6nt8pn1ys6q/Sarbala_Ji_2025_720p_WEB-DL_Punjabi_x264_AAC_5_1_ESub-DANIEWATCH.mkv\" width=\"640\" height=\"360\" frameborder=\"0\" allowfullscreen></iframe>"},{"id":"1484640","type":"movie","title":"Swim to Me","poster":"https://image.tmdb.org/t/p/w342/5pkYUOyvxjAYlUpq4GDTp04gxMa.jpg","year":"2025","result":"HD","language":["Hindi"],"country":["CL"],"original_language":"es","genres":["Drama","Crime"],"imdb_id":"tt34682204","backdrop":"https://image.tmdb.org/t/p/original/oVph5mMhp0UxVYeSpIfUfll0kcF.jpg","watch":"<iframe src=\"https://bysebuho.com/e/kg4vyql3lyzt/Swim_to_Me_2025_720p_NF_WEB-DL_Vegamovies_hot.mkv\" width=\"640\" height=\"360\" frameborder=\"0\" allowfullscreen></iframe>"},{"id":"1482176","type":"movie","title":"Lovedale","poster":"https://image.tmdb.org/t/p/w342/qI9SP3Ao1LoKSmFEoppBCfcNSuv.jpg","year":"2025","result":"HD","language":["Hindi"],"country":[],"original_language":"te","genres":["Drama"],"imdb_id":"tt35257690","backdrop":"https://image.tmdb.org/t/p/original/yW8IKTqNL1HZ75ONp8etovpBU4i.jpg","watch":"<iframe src=\"https://bysebuho.com/e/2t5e8o68lay9/lovedale-2025-dual-audio-hindi-telugu-amzn-720p-daniewatch-is\" frameborder=\"0\" marginwidth=\"0\" marginheight=\"0\" scrolling=\"no\" width=\"640\" height=\"360\" allowfullscreen></iframe>"},{"id":"1482085","type":"movie","title":"Romeo S3","poster":"https://image.tmdb.org/t/p/w342/f3sgIwJY6xgeXKZeIXIbDtGEwXJ.jpg","year":"2025","result":"HD","language":["Hindi"],"country":[],"original_language":"hi","genres":["Action","Thriller"],"imdb_id":"tt36812950","backdrop":"https://image.tmdb.org/t/p/original/xJ3qnUNB7vtldnByHHBtG44sX18.jpg","watch":"<iframe src=\"https://bysebuho.com/e/90mtif1r7on4/romeo-s3-2025-720p-amzn-web-dl-ddp5-1-h-264-daniewatch-is\" frameborder=\"0\" marginwidth=\"0\" marginheight=\"0\" scrolling=\"no\" width=\"640\" height=\"360\" allowfullscreen></iframe>"},{"id":"1481965","type":"movie","title":"Dakuaan Da Munda 3","poster":"https://image.tmdb.org/t/p/w342/xhuzfeyG4qml1c2KDKeaZhbxO1u.jpg","year":"2025","result":"HD","language":["Hindi"],"country":["IN"],"original_language":"pa","genres":["Action"],"imdb_id":"tt36389438","backdrop":"https://image.tmdb.org/t/p/original/yOVyxJ330QDwHPRb6ow1J8YWnr8.jpg","watch":"<iframe src=\"https://bysebuho.com/e/ufam9zc6erl9/Dakuaan_Da_Munda_3_2025_Punjabi_HD_Zee5_720p_-_DANIEWATCH.mkv\" width=\"640\" height=\"360\" frameborder=\"0\" allowfullscreen></iframe>"},{"id":"1479860","type":"movie","title":"Blind Spot","poster":"https://image.tmdb.org/t/p/w342/n9SaFZccB7pZdEf5HzmaUZEhPCT.jpg","year":"2025","result":"HD","language":["Hindi"],"country":["IN"],"original_language":"te","genres":["Thriller","Crime"],"imdb_id":"tt36591293","backdrop":"https://image.tmdb.org/t/p/original/fkrhrS3BcOUhzdJeGo0NHBRXkA5.jpg","watch":"<iframe src=\"https://bysebuho.com/e/x35fag9k7t19/blind-spot-2025-720p-10bit-web-dl-hevc-x265-tam-mal-tel-kan-hin-esub-daniewatch-is\" frameborder=\"0\" marginwidth=\"0\" marginheight=\"0\" scrolling=\"no\" width=\"640\" height=\"360\" allowfullscreen></iframe>"},{"id":"1479090","type":"movie","title":"Edagaiye Apaghatakke Karana","poster":"https://image.tmdb.org/t/p/w342/cMQPSIZdFmdbLTI97eWsEkpSsZ5.jpg","year":"2025","result":"HD","language":["Hindi"],"country":["IN"],"original_language":"kn","genres":["Comedy","Thriller","Romance"],"imdb_id":"tt15333916","backdrop":"https://image.tmdb.org/t/p/original/7Y3F2VFgbEbOYgBQqaNIouhGeVv.jpg","watch":"<iframe src=\"https://bysebuho.com/e/3j6p2ej2gy4p/edagaiye-apaghatakke-karana-2025-720p-web-dl-hin-kan-x264-daniewatch-is\" frameborder=\"0\" marginwidth=\"0\" marginheight=\"0\" scrolling=\"no\" width=\"640\" height=\"360\" allowfullscreen></iframe>"},{"id":"1479030","type":"movie","title":"Stolen","poster":"https://image.tmdb.org/t/p/w342/8XR1tGffFOH4QYV2RYShh0fexYg.jpg","year":"2025","result":"HD","language":["Hindi"],"country":[],"original_language":"en","genres":["Crime","Mystery","Drama"],"imdb_id":"","backdrop":"https://image.tmdb.org/t/p/original/9fJCYHnDgscViRLLQBRAGvNvXkl.jpg","watch":"<iframe src=\"https://bysebuho.com/e/2cbtayhx8ma8/stolen-2025-hindi-720p-web-dl-dd5-1-esub-daniewatch-is\" frameborder=\"0\" marginwidth=\"0\" marginheight=\"0\" scrolling=\"no\" width=\"640\" height=\"360\" allowfullscreen></iframe>"},{"id":"1478644","type":"movie","title":"Shaunki Sardar","poster":"https://image.tmdb.org/t/p/w342/Bx2FNrdYMRSgzihsC0VcG4omqw.jpg","year":"2025","result":"HD","language":["Hindi"],"country":[],"original_language":"pa","genres":["Action","Crime","Drama"],"imdb_id":"tt32965688","backdrop":"https://image.tmdb.org/t/p/original/gPkPbBewBNKHif7tHW82qHMG5Ss.jpg","watch":"<iframe src=\"https://bysebuho.com/e/5jwackjmklhj/shaunki-sardar-2025-720p-web-hdrip-punjabi-ddp2-0-esub-daniewatch\" frameborder=\"0\" marginwidth=\"0\" marginheight=\"0\" scrolling=\"no\" width=\"640\" height=\"360\" allowfullscreen></iframe>"},{"id":"1477870","type":"movie","title":"Jora Kaiya Thattunga","poster":"https://image.tmdb.org/t/p/w342/kom0PpAofXsyGzsuL76XApU8Dtr.jpg","year":"2025","result":"HD","language":["Hindi"],"country":["IN"],"original_language":"ta","genres":["Thriller","Family","Drama"],"imdb_id":"tt32474216","backdrop":"https://image.tmdb.org/t/p/original/tFX0b8zZ93SbSBgkLcKbdOtgkJN.jpg","watch":"<iframe src=\"https://bysebuho.com/e/sjeljbs32bx6/jora-kaiya-thattunga-2025-720p-amzn-web-dl-hindi-ddp2-0-tamil-ddp5-1-h-264-vegamovies-is\" frameborder=\"0\" marginwidth=\"0\" marginheight=\"0\" scrolling=\"no\" width=\"640\" height=\"360\" allowfullscreen></iframe>"},{"id":"1473354","type":"movie","title":"Sarvam Maya","poster":"https://image.tmdb.org/t/p/w342/mgLY1aQayVX6dQ2DiylLAhjEG8w.jpg","year":"2025","result":"HD","language":["Hindi"],"country":["IN"],"original_language":"ml","genres":["Comedy","Family"],"imdb_id":"tt32362695","backdrop":"https://image.tmdb.org/t/p/original/6Zn4PaLwLHFJ2bw7s6B10fHiuAD.jpg","watch":"<iframe src=\"https://bysebuho.com/e/275cbz8m2z0u/sarvam-maya-2025-720p-jhs-web-dl-dual-ddp5-1-h-264-daniewatch-is\" frameborder=\"0\" marginwidth=\"0\" marginheight=\"0\" scrolling=\"no\" width=\"640\" height=\"360\" allowfullscreen></iframe>"},{"id":"1472031","type":"movie","title":"Chaurya Paatam","poster":"https://image.tmdb.org/t/p/w342/1YLMmspugk0Td4cNBynfqmhZXxf.jpg","year":"2025","result":"HD","language":["Hindi"],"country":[],"original_language":"te","genres":["Comedy","Drama"],"imdb_id":"tt31311161","backdrop":"https://image.tmdb.org/t/p/original/h4cq5eGcPN2j2YDTitHl4V9FaM4.jpg","watch":"<iframe src=\"https://bysebuho.com/e/x0bk7d4mdibq/chaurya-paatham-2025-dual-audio-hindi-telugu-amzn-720p-daniewatch-is\" frameborder=\"0\" marginwidth=\"0\" marginheight=\"0\" scrolling=\"no\" width=\"640\" height=\"360\" allowfullscreen></iframe>"},{"id":"1469409","type":"movie","title":"Guru Nanak Jahaz","poster":"https://image.tmdb.org/t/p/w342/aB3Rvx7S25HBog1TZuuGoqBYXoJ.jpg","year":"2025","result":"HD","language":["Hindi"],"country":["IN"],"original_language":"pa","genres":["Drama"],"imdb_id":"tt36722524","backdrop":"https://image.tmdb.org/t/p/original/cyLD6FSHYeWhkJq5DBaAlOzP1y5.jpg","watch":"<iframe src=\"https://bysebuho.com/e/lwybtg0n6nwc/Guru_Nanak_Jahaz_2025_720p_WEB-DL_Punjabi_x264_AAC_5_1_ESub-DANIEWATCH.mkv\" width=\"640\" height=\"360\" frameborder=\"0\" allowfullscreen></iframe>"},{"id":"1468971","type":"movie","title":"Yuddhakaanda Chapter 2","poster":"https://image.tmdb.org/t/p/w342/pTMxZ37mWmDimn24eTy9EiDNjAK.jpg","year":"2025","result":"HD","language":["Hindi"],"country":[],"original_language":"kn","genres":[],"imdb_id":"tt36071404","backdrop":"https://image.tmdb.org/t/p/original/cK0F6d6AGfR69oAwkTebKc0osRG.jpg","watch":"<iframe src=\"https://bysebuho.com/e/osmeesvba6tf/yuddhakaanda-chapter-2-2025-720p-amzn-web-dl-aac2-0-h-265-daniewatch-is\" frameborder=\"0\" marginwidth=\"0\" marginheight=\"0\" scrolling=\"no\" width=\"640\" height=\"360\" allowfullscreen></iframe>"},{"id":"1467823","type":"movie","title":"Mithada Maheman","poster":"https://image.tmdb.org/t/p/w342/ofrAJihhCn60NC50e0Idw5bJvT.jpg","year":"2025","result":"HD","language":["Hindi"],"country":["IN"],"original_language":"gu","genres":["Comedy","Drama"],"imdb_id":"tt36204257","backdrop":"https://image.tmdb.org/t/p/original/8jwqk22UpG8uIESOW55SkCkVHNr.jpg","watch":"<iframe src=\"https://bysebuho.com/e/x61tkdurxlo8/mithada-maheman-hindi-dubbed-2025-720p-sm-web-dl-aac2-0-h-264-vegamovies-is\" frameborder=\"0\" marginwidth=\"0\" marginheight=\"0\" scrolling=\"no\" width=\"640\" height=\"360\" allowfullscreen></iframe>"},{"id":"1467506","type":"movie","title":"Costao","poster":"https://image.tmdb.org/t/p/w342/kM8TFQtD0YttXEaDcLFYSGCnc1m.jpg","year":"2025","result":"HD","language":["Hindi"],"country":["IN"],"original_language":"hi","genres":["Drama"],"imdb_id":"tt13261550","backdrop":"https://image.tmdb.org/t/p/original/14QSPSgPwimDX67BBy8r7qQ0j8y.jpg","watch":"<iframe src=\"https://bysebuho.com/e/qd5aynmyawbr/costao-2025-hindi-zee5-web-dl-720p-daniewatch-is\" frameborder=\"0\" marginwidth=\"0\" marginheight=\"0\" scrolling=\"no\" width=\"640\" height=\"360\" allowfullscreen></iframe>"},{"id":"1466115","type":"movie","title":"Even If This Love Disappears Tonight","poster":"https://image.tmdb.org/t/p/w342/5eNN8KLDPUXDqIkTdCbmn1gx5P7.jpg","year":"2025","result":"HD","language":["Hindi"],"country":["KR"],"original_language":"ko","genres":["Romance","Drama"],"imdb_id":"tt39049192","backdrop":"https://image.tmdb.org/t/p/original/iL5eGI9ctHdUOV4yG6dyGKctSEX.jpg","watch":"<iframe src=\"https://bysebuho.com/e/bvfm85qhjain/even-if-this-love-disappears-tonight-2026-720p-nf-web-dl-dual-ddp5-1-h-264-vegamovies-is\" frameborder=\"0\" marginwidth=\"0\" marginheight=\"0\" scrolling=\"no\" width=\"640\" height=\"360\" allowfullscreen></iframe>"},{"id":"1465277","type":"movie","title":"The Demon Hunter","poster":"https://image.tmdb.org/t/p/w342/lLOmriVwsfJRA1gQhA7g9na5mdO.jpg","year":"2025","result":"HD","language":["Hindi"],"country":["CN"],"original_language":"zh","genres":["Action","Adventure","Fantasy"],"imdb_id":"tt36617638","backdrop":"https://image.tmdb.org/t/p/original/4hAm8HaMVcnEfYm47GmUAGhQtS2.jpg","watch":"<iframe src=\"https://bysebuho.com/e/77z3aw0tm1r8/the-demon-hunter-2025-dual-audio-hindi-org-chinese-720p-daniewatch-hot\" frameborder=\"0\" marginwidth=\"0\" marginheight=\"0\" scrolling=\"no\" width=\"640\" height=\"360\" allowfullscreen></iframe>"},{"id":"1462245","type":"movie","title":"Saaree","poster":"https://image.tmdb.org/t/p/w342/5Q94u10VJF75uyctLmqw5CL2S1d.jpg","year":"2025","result":"HD","language":["Hindi"],"country":["IN"],"original_language":"te","genres":["Crime","Thriller","Romance"],"imdb_id":"tt31587690","backdrop":"https://image.tmdb.org/t/p/original/zsFxeKaAcnGbRumUoMKqYlnUrU4.jpg","watch":"<iframe src=\"https://bysebuho.com/e/tjxe5c5jg5hd/saaree-2025-720p-dual-audio-hindi-org-malayalam-web-dl-x264-daniewatch-is\" frameborder=\"0\" marginwidth=\"0\" marginheight=\"0\" scrolling=\"no\" width=\"640\" height=\"360\" allowfullscreen></iframe>"},{"id":"1461114","type":"movie","title":"The Door","poster":"https://image.tmdb.org/t/p/w342/2fTLOS6y3v8SCbkFFRagmYXVZTm.jpg","year":"2025","result":"HD","language":["Hindi"],"country":[],"original_language":"ta","genres":["Horror","Thriller"],"imdb_id":"tt27989109","backdrop":"https://image.tmdb.org/t/p/original/3mzwKfsMrTnXy803IKcQZhg7K9L.jpg","watch":"<iframe src=\"https://bysebuho.com/e/jmvqjsvnsh9q/the-door-2025-720p-amzn-web-dl-hindi-dd2-0-tamil-dd5-1-x264-daniewatch-is\" frameborder=\"0\" marginwidth=\"0\" marginheight=\"0\" scrolling=\"no\" width=\"640\" height=\"360\" allowfullscreen></iframe>"},{"id":"1459683","type":"movie","title":"Vaathiyar Kuppam","poster":"https://image.tmdb.org/t/p/w342/aDgr57EvtCeTvMFgCWWoKeRjylc.jpg","year":"2025","result":"HD","language":["Hindi"],"country":[],"original_language":"ta","genres":["Drama"],"imdb_id":"","backdrop":"https://image.tmdb.org/t/p/original/Agqw7lYP8pD2OyB2Oy0OtPwsFpU.jpg","watch":"<iframe src=\"https://bysebuho.com/e/8t5q8cup9g5w/Vaathiyar_Ka_Don_-_Vaathiyar_Kuppam_2025_720p_UPLAY_WEB-DL_AAC2_0_H_264-DANIEWATCH.mkv\" width=\"640\" height=\"360\" frameborder=\"0\" allowfullscreen></iframe>"},{"id":"1459180","type":"movie","title":"Kaafir - The Movie","poster":"https://image.tmdb.org/t/p/w342/9YzSRKdLd9mRTXamjsVhncXlbCB.jpg","year":"2025","result":"HD","language":["Hindi"],"country":["IN"],"original_language":"hi","genres":["Drama","Thriller"],"imdb_id":"tt36451978","backdrop":"https://image.tmdb.org/t/p/original/wj0JMcU1Ck9trEKgqo4NekKqdQ5.jpg","watch":"<iframe src=\"https://bysebuho.com/e/uy3qju2crn9g/kaafir-2025-hindi-zee5-web-dl-720p-daniewatch-is\" frameborder=\"0\" marginwidth=\"0\" marginheight=\"0\" scrolling=\"no\" width=\"640\" height=\"360\" allowfullscreen></iframe>"},{"id":"1456539","type":"movie","title":"Manada Kadalu","poster":"https://image.tmdb.org/t/p/w342/x0xOpo7PhpO7rCEC0MtdYolxYK.jpg","year":"2025","result":"HD","language":["Hindi"],"country":[],"original_language":"kn","genres":["Romance","Drama"],"imdb_id":"tt34853311","backdrop":"https://image.tmdb.org/t/p/original/z9mRFwQ7fPqAMy45knBIPMDzcbO.jpg","watch":"<iframe src=\"https://bysebuho.com/e/j8jgasjexuwa/manada-kadalu-2025-web-dl-hin-mal-720p-aac-esub-daniewatch-is\" frameborder=\"0\" marginwidth=\"0\" marginheight=\"0\" scrolling=\"no\" width=\"640\" height=\"360\" allowfullscreen></iframe>"},{"id":"1456459","type":"movie","title":"Leg Piece","poster":"https://image.tmdb.org/t/p/w342/7Tnbmp7ARfKUQGYMJqkUk9B3c6G.jpg","year":"2025","result":"HD","language":["Hindi"],"country":[],"original_language":"ta","genres":["Comedy","Drama"],"imdb_id":"tt35769446","backdrop":"https://image.tmdb.org/t/p/original/uqQe6wBDpcEOHsNcOOrSJa0kn5J.jpg","watch":"<iframe src=\"https://bysebuho.com/e/jmvhkfps3bdk/leg-piece-2025-720p-uplay-web-dl-hindi-x264-vegamovies-hot\" frameborder=\"0\" marginwidth=\"0\" marginheight=\"0\" scrolling=\"no\" width=\"640\" height=\"360\" allowfullscreen></iframe>"},{"id":"1455239","type":"movie","title":"Jija Sala Jija","poster":"https://image.tmdb.org/t/p/w342/5qehtvUl1qKekFfTf2uBJy7wIGd.jpg","year":"2025","result":"HD","language":["Hindi"],"country":["IN"],"original_language":"gu","genres":["Comedy","Drama"],"imdb_id":"tt35887869","backdrop":"https://image.tmdb.org/t/p/original/fmmK8HVcEdsX2nANrMdKyZSFy9v.jpg","watch":"<iframe src=\"https://bysebuho.com/e/d8sqjurf3pgm/Jija.Sala.Jija.2025.720p.WEB-DL.Hindi-Gujarati.x264-DANIEWATCH.mkv\" width=\"640\" height=\"360\" frameborder=\"0\" allowfullscreen></iframe>"},{"id":"1454405","type":"movie","title":"Akaal: The Unconquered","poster":"https://image.tmdb.org/t/p/w342/pzf5rPLoE5DdYkcZlvYbrH554rE.jpg","year":"2025","result":"HD","language":["Hindi"],"country":["IN"],"original_language":"pa","genres":["Action","History","Drama"],"imdb_id":"tt35402446","backdrop":"","watch":"<iframe src=\"https://bysebuho.com/e/71t90oa2huor/akaal-the-unconquered-2025-hindi-hdrip-720p-avc-he-aac-2-0-daniewatch-is\" frameborder=\"0\" marginwidth=\"0\" marginheight=\"0\" scrolling=\"no\" width=\"640\" height=\"360\" allowfullscreen></iframe>"},{"id":"1453684","type":"movie","title":"Zakir Khan: Delulu Express","poster":"https://image.tmdb.org/t/p/w342/5wWUt6Fv1s54Bf1pr0eUsiEUORH.jpg","year":"2025","result":"HD","language":["Hindi"],"country":["IN"],"original_language":"hi","genres":["Comedy"],"imdb_id":"tt36372377","backdrop":"https://image.tmdb.org/t/p/original/4DwzCJkgTRh8ZzrKLlDumnOBY6w.jpg","watch":"<iframe src=\"https://bysebuho.com/e/e8ly4t0s92mp/zakir-khan-delulu-express-2025-amzn-web-dl-hindi-720p-esub-daniewatch-is\" frameborder=\"0\" marginwidth=\"0\" marginheight=\"0\" scrolling=\"no\" width=\"640\" height=\"360\" allowfullscreen></iframe>"},{"id":"1452776","type":"movie","title":"Baida","poster":"https://image.tmdb.org/t/p/w342/op8Edzg2xHeGiprxJDFUt1OdJfh.jpg","year":"2025","result":"HD","language":["Hindi"],"country":["IN"],"original_language":"hi","genres":["Adventure","Science Fiction","Thriller"],"imdb_id":"tt35217961","backdrop":"https://image.tmdb.org/t/p/original/gSmoqHhKrvYqgsmC4vLSVIW27cW.jpg","watch":"<iframe src=\"https://bysebuho.com/e/g0cd17nj5ooj/baida-2025-hindi-hd-amzn-web-dl-ddp5-1-x-264-720p-vegamovies-is\" frameborder=\"0\" marginwidth=\"0\" marginheight=\"0\" scrolling=\"no\" width=\"640\" height=\"360\" allowfullscreen></iframe>"},{"id":"1449539","type":"movie","title":"RIWAJ","poster":"https://image.tmdb.org/t/p/w342/me7RIXcNdZqaBpXW4swBKNIN12Z.jpg","year":"2025","result":"HD","language":["Hindi"],"country":[],"original_language":"en","genres":["Drama","Family"],"imdb_id":"tt27940347","backdrop":"https://image.tmdb.org/t/p/original/vFkZh28i2UkLFTSnvNbybe90HcX.jpg","watch":"<iframe src=\"https://bysebuho.com/e/y4ubxyfjqkre/Riwaj_2025_720p_WEB-HDRip_Hindi_DDP2_0_x264_ESub_DANIEWATCH_is.mkv\" frameborder=\"0\" marginwidth=\"0\" marginheight=\"0\" scrolling=\"no\" width=\"640\" height=\"360\" allowfullscreen></iframe>"},{"id":"1449364","type":"movie","title":"Subham","poster":"https://image.tmdb.org/t/p/w342/hl3jiH0YjLRUZXWY2xqHNNTi1Eg.jpg","year":"2025","result":"HD","language":["Hindi"],"country":["IN"],"original_language":"te","genres":["Horror","Comedy"],"imdb_id":"tt34376523","backdrop":"https://image.tmdb.org/t/p/original/qRItTUp4SY6zXzWGpqjfmgSDKa9.jpg","watch":"<iframe src=\"https://bysebuho.com/e/nbzey5v7zo01/subham-2025-720p-jhs-web-dl-aac2-0-x265-daniewatch-is\" frameborder=\"0\" marginwidth=\"0\" marginheight=\"0\" scrolling=\"no\" width=\"640\" height=\"360\" allowfullscreen></iframe>"}]}