{"page":38,"total_pages":67,"total_items":3303,"items":[{"id":"1363915","type":"movie","title":"Krispy Rishtey","poster":"https://image.tmdb.org/t/p/w342/ebibK5TuIO5XQFaU0swrURGS6nc.jpg","year":"2024","result":"HD","language":["Hindi"],"country":["IN"],"original_language":"hi","genres":["Romance","Drama"],"imdb_id":"tt33333953"},{"id":"1097000","type":"movie","title":"Lubber Pandhu","poster":"https://image.tmdb.org/t/p/w342/jNyLZjIgaYVkBli2JihHwABlAPY.jpg","year":"2024","result":"HD","language":["Hindi"],"country":["IN"],"original_language":"ta","genres":["Family","Drama","Comedy"],"imdb_id":"tt27007466"},{"id":"278332","type":"tv","title":"Maeri","poster":"https://image.tmdb.org/t/p/w342/yI5dWf81zPSMgC8w4BPrfDFliRL.jpg","year":"2024","result":"HD","language":["Hindi"],"country":["IN"],"original_language":"hi","genres":["Drama"],"imdb_id":"tt34792559","latest_uploaded_season":1,"total_uploaded_episodes":1},{"id":"1270473","type":"movie","title":"Marigold","poster":"https://m.media-amazon.com/images/M/MV5BOTMzOTE1YjAtNDIwZS00NTVhLTk1MjctZDQ2NWQzZTc0ZGJmXkEyXkFqcGc@._V1_FMjpg_UX1000_.jpg","year":"2024","result":"HD","language":["Hindi"],"country":[],"original_language":"kn","genres":[],"imdb_id":"tt15722720"},{"id":"896954","type":"movie","title":"Mazhai Pidikatha Manithan","poster":"https://image.tmdb.org/t/p/w342/udYR53s43JCHzqCLqDbIK5rGuGj.jpg","year":"2024","result":"HD","language":["Hindi"],"country":["IN"],"original_language":"ta","genres":["Action","Thriller"],"imdb_id":"tt27413174"},{"id":"1136423","type":"movie","title":"Meiyazhagan","poster":"https://image.tmdb.org/t/p/w342/ngDEH7YqVaMCAD4LpNxRl6ScJnw.jpg","year":"2024","result":"HD","language":["Hindi"],"country":["IN"],"original_language":"ta","genres":["Family","Drama"],"imdb_id":"tt26758372"},{"id":"278587","type":"tv","title":"Mohrey","poster":"https://image.tmdb.org/t/p/w342/dN10HVesglHe0dXpP9NE4sX14uo.jpg","year":"2024","result":"HD","language":["Hindi"],"country":["IN"],"original_language":"hi","genres":["Drama","Mystery"],"imdb_id":"tt34861364","latest_uploaded_season":1,"total_uploaded_episodes":1},{"id":"1228693","type":"movie","title":"Mura","poster":"https://image.tmdb.org/t/p/w342/7UOVrVNUK1fYqOVcapM0cJz1l8A.jpg","year":"2024","result":"HD","language":["Hindi"],"country":["IN"],"original_language":"ml","genres":["Action","Thriller"],"imdb_id":"tt33294237"},{"id":"1254518","type":"movie","title":"My Dear Donga","poster":"https://image.tmdb.org/t/p/w342/yCJWZSmUT6axBxJbUsZOXCJCAwx.jpg","year":"2024","result":"HD","language":["Hindi"],"country":["IN"],"original_language":"te","genres":["Comedy","Drama"],"imdb_id":"tt31592847"},{"id":"1243093","type":"movie","title":"Ni Main Sass Kuttni 2","poster":"https://image.tmdb.org/t/p/w342/nkInS6oDku7r7UzTSWjVoVcYboN.jpg","year":"2024","result":"HD","language":["Hindi"],"country":["IN"],"original_language":"pa","genres":["Comedy","Drama"],"imdb_id":"tt29456689"},{"id":"280019","type":"tv","title":"Party Till I Die","poster":"https://image.tmdb.org/t/p/w342/tLIJSsQHfjBupgdklrfZb3kFAUl.jpg","year":"2024","result":"HD","language":["Hindi"],"country":["IN"],"original_language":"hi","genres":["Drama","Mystery"],"imdb_id":"tt35071597","latest_uploaded_season":1,"total_uploaded_episodes":1},{"id":"1358582","type":"movie","title":"Poultry Farm Chelladurai","poster":"https://image.tmdb.org/t/p/w342/lsTZduXemG87iGj3djhF7IGooQX.jpg","year":"2024","result":"HD","language":["Hindi"],"country":["IN"],"original_language":"ta","genres":["Drama"],"imdb_id":"tt30764809"},{"id":"967353","type":"movie","title":"Qalb","poster":"https://image.tmdb.org/t/p/w342/a49keeFVFV8LN3H7spGrVWuofTn.jpg","year":"2024","result":"HD","language":["Hindi"],"country":["IN"],"original_language":"ml","genres":["Romance","Drama","Family"],"imdb_id":"tt11281192"},{"id":"1266678","type":"movie","title":"RAM: Rapid Action Mission","poster":"https://image.tmdb.org/t/p/w342/7DZ2rkrAq464Bvef2xw9FDu8UHW.jpg","year":"2024","result":"HD","language":["Hindi"],"country":["IN"],"original_language":"en","genres":["Drama"],"imdb_id":"tt30850798"},{"id":"1238258","type":"movie","title":"Romeo","poster":"https://image.tmdb.org/t/p/w342/tvonnJOEIhE5oH3Gfy9kZTHTxOn.jpg","year":"2024","result":"HD","language":["Hindi"],"country":["IN"],"original_language":"ta","genres":["Romance","Comedy","Drama"],"imdb_id":"tt28678362"},{"id":"1233208","type":"movie","title":"Santosh","poster":"https://image.tmdb.org/t/p/w342/fMx9y9DyjhDyKxjSiDvYKcpRnnk.jpg","year":"2024","result":"HD","language":["Hindi"],"country":["IN","GB","DE","FR"],"original_language":"fr","genres":["Thriller","Crime","Drama"],"imdb_id":"tt30444418"},{"id":"1264800","type":"movie","title":"Savi","poster":"https://image.tmdb.org/t/p/w342/adI8MKbKMViJe4KACtRhKufxNiv.jpg","year":"2024","result":"HD","language":["Hindi"],"country":["IN"],"original_language":"hi","genres":["Action","Thriller"],"imdb_id":"tt32308617"},{"id":"1285827","type":"movie","title":"Shinda Shinda No Papa","poster":"https://image.tmdb.org/t/p/w342/ouYSseDo6JPIXQnjdVFSnQ1l3E6.jpg","year":"2024","result":"HD","language":["Hindi"],"country":["IN"],"original_language":"pa","genres":["Drama"],"imdb_id":"tt30777542"},{"id":"984387","type":"movie","title":"Simbaa","poster":"https://image.tmdb.org/t/p/w342/kJ70mwxcNguqoWbgqb8Ai3ey8Dr.jpg","year":"2024","result":"HD","language":["Hindi"],"country":[],"original_language":"te","genres":["Mystery"],"imdb_id":"tt15576884"},{"id":"1014214","type":"movie","title":"Singham Again","poster":"https://image.tmdb.org/t/p/w342/2JbNkHg8m7LaBy61LyrnnlenaxY.jpg","year":"2024","result":"HD","language":["Hindi"],"country":["IN"],"original_language":"hi","genres":["Action","Drama","Thriller","Crime"],"imdb_id":"tt11976134"},{"id":"1372611","type":"movie","title":"Sir","poster":"https://image.tmdb.org/t/p/w342/pt1jvwxgZMIVbaJaKUpq4N7MrzS.jpg","year":"2024","result":"HD","language":["Hindi"],"country":[],"original_language":"ta","genres":[],"imdb_id":"tt26903465"},{"id":"279922","type":"tv","title":"SSS Sex,Secret Aur Saaya","poster":"https://image.tmdb.org/t/p/w342/mVA6Wzca6tmjYnoBhylRWXcwiXG.jpg","year":"2024","result":"HD","language":["Hindi"],"country":["IN"],"original_language":"hi","genres":["Mystery","Drama"],"imdb_id":"","latest_uploaded_season":1,"total_uploaded_episodes":1},{"id":"279596","type":"tv","title":"Swipe Crime","poster":"https://image.tmdb.org/t/p/w342/3jJw0Aop5mr4Ov47bjIuaFrlUsX.jpg","year":"2024","result":"HD","language":["Hindi"],"country":["IN"],"original_language":"hi","genres":["Drama"],"imdb_id":"tt34874259","latest_uploaded_season":1,"total_uploaded_episodes":1},{"id":"910784","type":"movie","title":"Thangalaan","poster":"https://image.tmdb.org/t/p/w342/dAci50FwevkdWIUzQWpdz7kSKHe.jpg","year":"2024","result":"HD","language":["Hindi"],"country":["IN"],"original_language":"ta","genres":["Adventure","Action","Fantasy","History"],"imdb_id":"tt23018924"},{"id":"1053348","type":"movie","title":"The Buckingham Murders","poster":"https://image.tmdb.org/t/p/w342/opWu2Qf1g5OfAWP4HdmH4ildwuV.jpg","year":"2024","result":"HD","language":["Hindi"],"country":["IN","GB"],"original_language":"en","genres":["Crime","Mystery","Thriller"],"imdb_id":"tt15245240"},{"id":"1371763","type":"movie","title":"The Miranda Brothers","poster":"https://image.tmdb.org/t/p/w342/47X5YCibNfNj6puDJZwmEHZyMZV.jpg","year":"2024","result":"HD","language":["Hindi"],"country":["IN"],"original_language":"hi","genres":["Drama"],"imdb_id":"tt33246678"},{"id":"1213906","type":"movie","title":"The Sabarmati Report","poster":"https://image.tmdb.org/t/p/w342/ahOWjoqGkpxpmJVPmEBkSyvLPfi.jpg","year":"2024","result":"HD","language":["Hindi"],"country":["IN"],"original_language":"hi","genres":["Drama","Thriller","Crime"],"imdb_id":"tt30889755"},{"id":"276609","type":"tv","title":"Thukra Ke Mera Pyaar","poster":"https://image.tmdb.org/t/p/w342/pcShyioNKqqvgnCSAdni0hQpESu.jpg","year":"2024","result":"HD","language":["Hindi"],"country":["IN"],"original_language":"hi","genres":["Drama"],"imdb_id":"tt34498121","latest_uploaded_season":1,"total_uploaded_episodes":1},{"id":"1213712","type":"movie","title":"Vicky Vidya Ka Woh Wala Video","poster":"https://image.tmdb.org/t/p/w342/77gbFuFUfXx3OWv6pGhOAfHMBpg.jpg","year":"2024","result":"HD","language":["Hindi"],"country":["IN"],"original_language":"hi","genres":["Comedy"],"imdb_id":"tt29330913"},{"id":"1179389","type":"movie","title":"Vivekanandan Viralanu","poster":"https://image.tmdb.org/t/p/w342/A7NDEc22p7mysitCzXVrlVxMHja.jpg","year":"2024","result":"HD","language":["Hindi"],"country":["IN"],"original_language":"ml","genres":["Drama"],"imdb_id":"tt28090020"},{"id":"1252467","type":"movie","title":"Yo Yo Honey Singh: Famous","poster":"https://image.tmdb.org/t/p/w342/t4LAe1fwWmLEO8MH8U56uICxxU.jpg","year":"2024","result":"HD","language":["Hindi"],"country":["IN"],"original_language":"hi","genres":["Documentary","Drama","Music"],"imdb_id":"tt27139868"},{"id":"797223","type":"movie","title":"Yudhra","poster":"https://image.tmdb.org/t/p/w342/cwmVHD41mGDQyPyCAsR8x6aMGc2.jpg","year":"2024","result":"HD","language":["Hindi"],"country":["IN"],"original_language":"hi","genres":["Action","Thriller"],"imdb_id":"tt14056466"},{"id":"1525025","type":"movie","title":"A Stranger by the Hill","poster":"https://image.tmdb.org/t/p/w342/1DK8gt7H99ctCPKt57lyoDG5dpe.jpg","year":"2024","result":"HD","language":["Hindi"],"country":["IN"],"original_language":"hi","genres":["Thriller"],"imdb_id":"tt32606791"},{"id":"1335741","type":"movie","title":"Adharma Kadhaigal","poster":"https://image.tmdb.org/t/p/w342/7fWjMAffZhe2b8ecDkFwbQpkuKw.jpg","year":"2024","result":"HD","language":["Hindi"],"country":["IN"],"original_language":"ta","genres":["Thriller","Drama"],"imdb_id":"tt33075455"},{"id":"1306961","type":"movie","title":"Aho Vikramaarka!","poster":"https://image.tmdb.org/t/p/w342/8BO1QGOsRGdYJ2ASzKbpXyUd2ua.jpg","year":"2024","result":"HD","language":["Hindi"],"country":["IN"],"original_language":"te","genres":["Action"],"imdb_id":"tt21938826"},{"id":"1338721","type":"movie","title":"Ardaas Sarbat De Bhale Di","poster":"https://image.tmdb.org/t/p/w342/ns9fR4y3mY9kHPyWyJmxlboq3Bi.jpg","year":"2024","result":"HD","language":["Hindi"],"country":["IN"],"original_language":"pa","genres":["Drama","Family"],"imdb_id":"tt16867396"},{"id":"1401487","type":"movie","title":"Babu","poster":"https://image.tmdb.org/t/p/w342/cjsf4H3N1pUsBwkQb8m8iN8XOHx.jpg","year":"2024","result":"HD","language":["Hindi"],"country":[],"original_language":"mr","genres":["Action"],"imdb_id":"tt15554382"},{"id":"1083241","type":"movie","title":"Baby John","poster":"https://image.tmdb.org/t/p/w342/5Oqsh17dq0cIRFPynPNy5elmyxW.jpg","year":"2024","result":"HD","language":["Hindi"],"country":["IN"],"original_language":"hi","genres":["Action","Drama","Thriller","Crime"],"imdb_id":"tt27757805"},{"id":"1399790","type":"movie","title":"Bachhala Malli","poster":"https://image.tmdb.org/t/p/w342/tLLtI62EYtuflXw3IjnyLaUZ2tG.jpg","year":"2024","result":"HD","language":["Hindi"],"country":["IN"],"original_language":"te","genres":["Action","Drama"],"imdb_id":"tt27611340"},{"id":"1355445","type":"movie","title":"Balu Gani Talkies","poster":"https://image.tmdb.org/t/p/w342/gYzUDI29vEegFWPpqn6s4OfuflS.jpg","year":"2024","result":"HD","language":["Hindi"],"country":[],"original_language":"te","genres":["Thriller"],"imdb_id":"tt27479184"},{"id":"1395930","type":"movie","title":"Bapu Ni Manda Mera","poster":"https://image.tmdb.org/t/p/w342/3OkzguYJxCaDmLkONJZWS3GQFq8.jpg","year":"2024","result":"HD","language":["Hindi"],"country":[],"original_language":"pa","genres":[],"imdb_id":"tt34139284"},{"id":"627304","type":"movie","title":"Barroz: Guardian of Treasures","poster":"https://image.tmdb.org/t/p/w342/uv0MQn1EYH9qK7bO8jZG0Cu8R4P.jpg","year":"2024","result":"HD","language":["Hindi"],"country":["IN"],"original_language":"ml","genres":["Action","Adventure","Fantasy","Thriller"],"imdb_id":"tt10345546"},{"id":"962108","type":"movie","title":"Bhaje Vaayu Vegam","poster":"https://image.tmdb.org/t/p/w342/7KU5wBjO2ByCFdF9x23sKImMYVD.jpg","year":"2024","result":"HD","language":["Hindi"],"country":["IN"],"original_language":"te","genres":["Action","Drama"],"imdb_id":"tt32118013"},{"id":"1238603","type":"movie","title":"Bhamakalapam 2","poster":"https://image.tmdb.org/t/p/w342/9RLR4ox1yastJ1x74m8koUZBInt.jpg","year":"2024","result":"HD","language":["Hindi"],"country":["IN"],"original_language":"te","genres":["Thriller","Crime","Comedy"],"imdb_id":"tt28755712"},{"id":"1068344","type":"movie","title":"Bheema","poster":"https://image.tmdb.org/t/p/w342/nv8rsLyTQldLdFdcglMLFkCeZEz.jpg","year":"2024","result":"HD","language":["Hindi"],"country":["IN"],"original_language":"kn","genres":["Action"],"imdb_id":"tt26733322"},{"id":"1341476","type":"movie","title":"Binny and Family","poster":"https://image.tmdb.org/t/p/w342/lXmsRFM9Ih6yLu0jsxarTyAfWH3.jpg","year":"2024","result":"HD","language":["Hindi"],"country":["IN","GB"],"original_language":"hi","genres":["Comedy","Drama","Family"],"imdb_id":"tt20452454"},{"id":"1054770","type":"movie","title":"Boomer Uncle","poster":"https://image.tmdb.org/t/p/w342/8oTGnxlMzU1QprZnTybTZqoAQs7.jpg","year":"2024","result":"HD","language":["Hindi"],"country":["IN"],"original_language":"ta","genres":["Horror","Comedy"],"imdb_id":"tt23857200"},{"id":"1242191","type":"movie","title":"Chaari 111","poster":"https://image.tmdb.org/t/p/w342/xM5jJxwAr01MFqV8nMbVUCgZZfG.jpg","year":"2024","result":"HD","language":["Hindi"],"country":["IN"],"original_language":"te","genres":["Action","Comedy"],"imdb_id":"tt29996716"},{"id":"1381436","type":"movie","title":"Chanchal Haseena","poster":"https://image.tmdb.org/t/p/w342/gmNomUR5bCI7fQ6rvQo8OKv6CW1.jpg","year":"2024","result":"HD","language":["Hindi"],"country":[],"original_language":"hi","genres":["Romance"],"imdb_id":"tt33266114"},{"id":"979250","type":"movie","title":"Demonte Colony 2","poster":"https://image.tmdb.org/t/p/w342/lZmH9hea8fstTK49fplSQS0NWUd.jpg","year":"2024","result":"HD","language":["Hindi"],"country":["IN"],"original_language":"ta","genres":["Horror","Thriller"],"imdb_id":"tt25151410"}]}