{"page":19,"total_pages":66,"total_items":3299,"items":[{"id":"1103756","type":"movie","title":"Aghathiyaa","poster":"https://image.tmdb.org/t/p/w342/gCXjEAJRaZZi5bMowWJQxK0827c.jpg","year":"2025","result":"HD","language":["Hindi"],"country":["IN"],"original_language":"ta","genres":["Fantasy","Horror","Adventure"],"imdb_id":"tt27217053","backdrop":"https://image.tmdb.org/t/p/original/pRDEt9VgEyTGE5BAvp1uCGV09Sr.jpg","watch":"<iframe src=\"https://bysebuho.com/e/ht9l8lmqpemd/aghathiyaa-2025-hindi-tamil-uncut-south-movie-720p-10bit-hevc-esub-daniewatch-is\" frameborder=\"0\" marginwidth=\"0\" marginheight=\"0\" scrolling=\"no\" width=\"640\" height=\"360\" allowfullscreen></iframe>"},{"id":"1100988","type":"movie","title":"28 Years Later","poster":"https://image.tmdb.org/t/p/w342/n5FygjEppOvac6yEaowi26nTyw3.jpg","year":"2025","result":"HD","language":["Hindi"],"country":["GB","US"],"original_language":"en","genres":["Horror","Thriller","Science Fiction"],"imdb_id":"tt10548174","backdrop":"https://image.tmdb.org/t/p/original/6WqqEjiycNvDLjbEClM1zCwIbDD.jpg","watch":"<iframe src=\"https://bysebuho.com/e/7ag90q3l2vp7/28-yours-later-2025-720p-10bit-web-dl-hin-eng-esub-daniewatch-is-2025\" frameborder=\"0\" marginwidth=\"0\" marginheight=\"0\" scrolling=\"no\" width=\"640\" height=\"360\" allowfullscreen></iframe>"},{"id":"1093237","type":"movie","title":"Hurry Up Tomorrow","poster":"https://image.tmdb.org/t/p/w342/9W44XSMYbjXdlXcQhD104zPhhhJ.jpg","year":"2025","result":"HD","language":["Hindi"],"country":["US"],"original_language":"en","genres":["Music","Thriller","Drama"],"imdb_id":"tt26927452","backdrop":"https://image.tmdb.org/t/p/original/iqQSRP52a8q7CNViVyXz6nC5CJP.jpg","watch":"<iframe src=\"https://bysebuho.com/e/87s7hyx92hv5/Hurry_Up_Tomorrow_2025_720p_10bit_BluRay_HIN-ENG_x265_ESub-DANIEWATCH.mkv\" width=\"640\" height=\"360\" frameborder=\"0\" allowfullscreen></iframe>"},{"id":"1090991","type":"movie","title":"Thanal","poster":"https://image.tmdb.org/t/p/w342/5CVSHJZBlTG5xF7UqrWTHquBLtX.jpg","year":"2025","result":"HD","language":["Hindi"],"country":["IN"],"original_language":"ta","genres":["Action","Crime","Thriller"],"imdb_id":"tt11923962","backdrop":"https://image.tmdb.org/t/p/original/naNEpMPkUaFoA87Qbj7waH2eZCc.jpg","watch":"<iframe src=\"https://bysebuho.com/e/9lsvbaf4scvd/Thanal_2025_720p_WEB-DL_Hindi-Tamil_DD2_0_x264-_DANIEWATCH.mkv\" width=\"640\" height=\"360\" frameborder=\"0\" allowfullscreen></iframe>"},{"id":"1088166","type":"movie","title":"Relay","poster":"https://image.tmdb.org/t/p/w342/mpwccO2L8LUVtVTJTdgUVgoQqAo.jpg","year":"2025","result":"HD","language":["Hindi"],"country":["US","GB"],"original_language":"en","genres":["Action","Drama","Thriller"],"imdb_id":"tt11539996","backdrop":"https://image.tmdb.org/t/p/original/9knXxeYDmxgYi7cmoQzCisP3b6w.jpg","watch":"<iframe src=\"https://bysebuho.com/e/4shyen6n9imt/Relay__2024__BluRay_720p_x264_Hindi___Eng_ESub_DANIEWATCH.mkv\" frameborder=\"0\" marginwidth=\"0\" marginheight=\"0\" scrolling=\"no\" width=\"640\" height=\"360\" allowfullscreen></iframe>"},{"id":"1087192","type":"movie","title":"How to Train Your Dragon","poster":"https://image.tmdb.org/t/p/w342/53dsJ3oEnBhTBVMigWJ9tkA5bzJ.jpg","year":"2025","result":"HD","language":["Hindi"],"country":["US"],"original_language":"en","genres":["Fantasy","Family","Action","Adventure"],"imdb_id":"tt26743210","backdrop":"https://image.tmdb.org/t/p/original/79PNOxNXSe5e0bhEj11QJPlsdCN.jpg","watch":"<iframe src=\"https://bysebuho.com/e/s7j9gornn5zs/how-to-train-your-dragon-2025-imax-720p-10bit-bluray-hin-eng-msub-daniewatch-is\" frameborder=\"0\" marginwidth=\"0\" marginheight=\"0\" scrolling=\"no\" width=\"640\" height=\"360\" allowfullscreen></iframe>"},{"id":"1084242","type":"movie","title":"Zootopia 2","poster":"https://image.tmdb.org/t/p/w342/oJ7g2CifqpStmoYQyaLQgEU32qO.jpg","year":"2025","result":"HD","language":["Hindi"],"country":["US","CA"],"original_language":"en","genres":["Animation","Family","Mystery","Adventure","Comedy"],"imdb_id":"tt26443597","backdrop":"https://image.tmdb.org/t/p/original/lgotja3xMoJZbynwHfcQcJAEMWH.jpg","watch":"<iframe src=\"https://bysebuho.com/e/8g776myhw4mb/zootopia-2-2025\" frameborder=\"0\" marginwidth=\"0\" marginheight=\"0\" scrolling=\"no\" width=\"640\" height=\"360\" allowfullscreen></iframe>"},{"id":"1084031","type":"movie","title":"Chhorii 2","poster":"https://image.tmdb.org/t/p/w342/mCgKANxZJW645pXdmJdBb4ysRPk.jpg","year":"2025","result":"HD","language":["Hindi"],"country":["IN"],"original_language":"hi","genres":["Horror","Drama"],"imdb_id":"tt16436848","backdrop":"https://image.tmdb.org/t/p/original/v3Vk2hIvQ6jYnFp0H4WbGKWKA3l.jpg","watch":"<iframe src=\"https://bysebuho.com/e/lsn579rtkfbr/chhorii-2-2025-hindi-web-dl-720p-dd5-1-192kbps-esub-daniewatch-is\" frameborder=\"0\" marginwidth=\"0\" marginheight=\"0\" scrolling=\"no\" width=\"640\" height=\"360\" allowfullscreen></iframe>"},{"id":"1083968","type":"movie","title":"Locked","poster":"https://image.tmdb.org/t/p/w342/hhkiqXpfpufwxVrdSftzeKIANl3.jpg","year":"2025","result":"HD","language":["Hindi"],"country":["US","CA","CZ"],"original_language":"en","genres":["Horror","Thriller"],"imdb_id":"tt26671996","backdrop":"https://image.tmdb.org/t/p/original/r4X2xRrWleVgx0kahP27xRmm3ia.jpg","watch":"<iframe src=\"https://bysebuho.com/e/5wq1tdbydmf7/Locked.2025.BluRay.720p.x264.Hin._.Eng.ESub.DanieWatch.mkv\" width=\"640\" height=\"360\" frameborder=\"0\" allowfullscreen></iframe>"},{"id":"1083637","type":"movie","title":"Kantara - A Legend: Chapter 1","poster":"https://image.tmdb.org/t/p/w342/ehQPboTPaIMkMUOoNOh8e7pZ5Rp.jpg","year":"2025","result":"HD","language":["Hindi"],"country":["IN"],"original_language":"kn","genres":["Action","Drama","Fantasy"],"imdb_id":"tt26439764","backdrop":"https://image.tmdb.org/t/p/original/w57nxiBIODAYHLRs1xmrCY9zEFe.jpg","watch":"<iframe src=\"https://bysebuho.com/e/26wfv4i8whma/kantara-a-legend\" frameborder=\"0\" marginwidth=\"0\" marginheight=\"0\" scrolling=\"no\" width=\"640\" height=\"360\" allowfullscreen></iframe>"},{"id":"1083433","type":"movie","title":"I Know What You Did Last Summer","poster":"https://image.tmdb.org/t/p/w342/A06yXys3hrCWu8xiNoHCFLTG5SH.jpg","year":"2025","result":"HD","language":["Hindi"],"country":["US","AU"],"original_language":"en","genres":["Horror","Thriller","Mystery"],"imdb_id":"tt4045450","backdrop":"https://image.tmdb.org/t/p/original/gVPjIcYo1gTaACF43OMsralrcUS.jpg","watch":"<iframe src=\"https://bysebuho.com/e/59xjws2umer2/I.Know.What.You.Did.Last.Summer.2025.720p.AMZN.WEB-DL.DDP5.1.H.264-DanieWatch.mkv\" width=\"640\" height=\"360\" frameborder=\"0\" allowfullscreen></iframe>"},{"id":"1080365","type":"movie","title":"They Call Him OG","poster":"https://image.tmdb.org/t/p/w342/oWOJ4VMyF92IEcTmrQO0xFDqeyk.jpg","year":"2025","result":"HD","language":["Hindi"],"country":["IN"],"original_language":"te","genres":["Action","Thriller"],"imdb_id":"tt24060892","backdrop":"https://image.tmdb.org/t/p/original/lBJR69jrQ8I84irRexFfO70v0EA.jpg","watch":"<iframe src=\"https://bysebuho.com/e/qz8hz0c9y0gy/They_Call_Him_OG_2025_720p_NF_WEB-DL_DUAL_AAC5_1_x264-DANIEWATCH.mkv\" width=\"640\" height=\"360\" frameborder=\"0\" allowfullscreen></iframe>"},{"id":"1078605","type":"movie","title":"Weapons","poster":"https://image.tmdb.org/t/p/w342/cpf7vsRZ0MYRQcnLWteD5jK9ymT.jpg","year":"2025","result":"HD","language":["Hindi"],"country":["US"],"original_language":"en","genres":["Horror","Mystery"],"imdb_id":"tt26581740","backdrop":"https://image.tmdb.org/t/p/original/9mKhhHBfIAWy9TNVHAXqMEFokes.jpg","watch":"<iframe src=\"https://bysebuho.com/e/83byuk0r8y4u/weapons-2025-ts-english-hindi-lq-dub-720p-no-ads-daniewatch-is\" frameborder=\"0\" marginwidth=\"0\" marginheight=\"0\" scrolling=\"no\" width=\"640\" height=\"360\" allowfullscreen></iframe>"},{"id":"1078600","type":"movie","title":"Marked Men: Rule + Shaw","poster":"https://image.tmdb.org/t/p/w342/gZQU8BtCH2IbMZq6QETiU4HXQSR.jpg","year":"2025","result":"HD","language":["Hindi"],"country":["US"],"original_language":"en","genres":["Romance","Drama"],"imdb_id":"tt26452781","backdrop":"https://image.tmdb.org/t/p/original/9qYD7pAOEdYBoQblv5VAMMSVAC8.jpg","watch":"<iframe src=\"https://bysebuho.com/e/4olbj7diosbm/marked-men-2025-dual-audio-hindi-org-english\" frameborder=\"0\" marginwidth=\"0\" marginheight=\"0\" scrolling=\"no\" width=\"640\" height=\"360\" allowfullscreen></iframe>"},{"id":"1074619","type":"movie","title":"Suryapet Junction","poster":"https://image.tmdb.org/t/p/w342/sjswv9mQvvETJdtRHKakEIPav8Y.jpg","year":"2025","result":"HD","language":["Hindi"],"country":["IN"],"original_language":"te","genres":["Action","Drama"],"imdb_id":"tt26095500","backdrop":"https://image.tmdb.org/t/p/original/ox6a0NuqUunb0LgaxbkpUFly5P1.jpg","watch":"<iframe src=\"https://bysebuho.com/e/a60zi6np3zrb/suryapet-junction-2025-hindi-telugu-uncut-south-movie-720p-esub-vegamovies-is\" frameborder=\"0\" marginwidth=\"0\" marginheight=\"0\" scrolling=\"no\" width=\"640\" height=\"360\" allowfullscreen></iframe>"},{"id":"1071585","type":"movie","title":"M3GAN 2.0","poster":"https://image.tmdb.org/t/p/w342/oekamLQrwlJjRNmfaBE4llIvkir.jpg","year":"2025","result":"HD","language":["Hindi"],"country":["US"],"original_language":"en","genres":["Action","Science Fiction","Thriller"],"imdb_id":"tt26342662","backdrop":"https://image.tmdb.org/t/p/original/cT9ZfwoPDk8JbgkessmQgxAWiaM.jpg","watch":"<iframe src=\"https://bysebuho.com/e/585e54qnfvox/m3g4n-2-0-2025-720p-web-dl-hin-eng-esub-daniewatch-is\" frameborder=\"0\" marginwidth=\"0\" marginheight=\"0\" scrolling=\"no\" width=\"640\" height=\"360\" allowfullscreen></iframe>"},{"id":"1070186","type":"movie","title":"Eko","poster":"https://image.tmdb.org/t/p/w342/tXdFEmtqLm8tewIErDJgnbTS9qs.jpg","year":"2025","result":"HD","language":["Hindi"],"country":["IN"],"original_language":"ml","genres":["Drama","Mystery"],"imdb_id":"tt36616410","backdrop":"https://image.tmdb.org/t/p/original/1NegG8bZRn3Fc1wluAbMeR19rym.jpg","watch":"<iframe src=\"https://bysebuho.com/e/gp5dvc86fmb7/eko-2025-720p-nf-web-dl-dual-ddp5-1-h-264-daniewatch\" frameborder=\"0\" marginwidth=\"0\" marginheight=\"0\" scrolling=\"no\" width=\"640\" height=\"360\" allowfullscreen></iframe>"},{"id":"1069905","type":"movie","title":"Jay Kelly","poster":"https://image.tmdb.org/t/p/w342/lEXYpY9X17pGC7xYYy17Guv0L3J.jpg","year":"2025","result":"HD","language":["Hindi"],"country":["US","GB"],"original_language":"en","genres":["Drama","Comedy"],"imdb_id":"tt30446847","backdrop":"https://image.tmdb.org/t/p/original/wR9D9hQvCVBux16NauY4b7letdU.jpg","watch":"<iframe src=\"https://bysebuho.com/e/1b7rdz9mt3jz/Jay_Kelly_2025_720p_10Bit_HEVC_NF_WEB-DL_HIN-ENG_x265-_DANIEWATCH.mkv\" frameborder=\"0\" marginwidth=\"0\" marginheight=\"0\" scrolling=\"no\" width=\"640\" height=\"360\" allowfullscreen></iframe>"},{"id":"1065426","type":"movie","title":"Metro... In Dino","poster":"https://image.tmdb.org/t/p/w342/AlmzM8CNm2fRJQW2iA9Ittwv0ig.jpg","year":"2025","result":"HD","language":["Hindi"],"country":["IN"],"original_language":"hi","genres":["Drama","Romance","Comedy"],"imdb_id":"tt24225606","backdrop":"https://image.tmdb.org/t/p/original/8ycWZizMNfYlQE5CdLSbOboNDko.jpg","watch":"<iframe src=\"https://bysebuho.com/e/lsmquhxy8a35/Metro.In.Dino.2025.720p.NF.WEB-DL.AAC5.1.H.264-DanieWatch.mkv\" width=\"640\" height=\"360\" frameborder=\"0\" allowfullscreen></iframe>"},{"id":"1062722","type":"movie","title":"Frankenstein","poster":"https://image.tmdb.org/t/p/w342/g4JtvGlQO7DByTI6frUobqvSL3R.jpg","year":"2025","result":"HD","language":["Hindi"],"country":["US","CA"],"original_language":"en","genres":["Drama","Fantasy","Horror"],"imdb_id":"tt1312221","backdrop":"https://image.tmdb.org/t/p/original/ceyakefyCRAgyeFhefa2bz6d9QO.jpg","watch":"<iframe src=\"https://bysebuho.com/e/cfbdtxtn67ln/Frankenstein_2025_720p_NF_WEB-DL_HiN-ENG_x264-DANIEWATCH\" frameborder=\"0\" marginwidth=\"0\" marginheight=\"0\" scrolling=\"no\" width=\"640\" height=\"360\" allowfullscreen></iframe>"},{"id":"1062715","type":"movie","title":"Sabdham","poster":"https://image.tmdb.org/t/p/w342/A9iUVHhwIIg2UaOF08x6FNVNTCH.jpg","year":"2025","result":"HD","language":["Hindi"],"country":["IN"],"original_language":"ta","genres":["Thriller","Horror"],"imdb_id":"tt24330430","backdrop":"https://image.tmdb.org/t/p/original/bmiHPwjorxfnGBeTnUUpo4qIcqN.jpg","watch":"<iframe src=\"https://bysebuho.com/e/3upjmxg3hfw9/Sabdham.2025.WEBRip.Hindi._.Ta.Te.720p.x264.AVC.HE-AAC.DANIEWATCH.mkv\" width=\"640\" height=\"360\" frameborder=\"0\" allowfullscreen></iframe>"},{"id":"1062033","type":"movie","title":"Kaliyugam","poster":"https://image.tmdb.org/t/p/w342/hRKMtcIFzJyi59PtULiKQT4vPoA.jpg","year":"2025","result":"HD","language":["Hindi"],"country":["IN"],"original_language":"ta","genres":["Thriller","Science Fiction"],"imdb_id":"tt36855758","backdrop":"https://image.tmdb.org/t/p/original/cL0c8lwZFmmkDB3Zar2oi7HnP3Z.jpg","watch":"<iframe src=\"https://bysebuho.com/e/9p1wx09puz6m/kaliyugam-2064-2025-720p-amzn-webrip-hindi-tamil\" frameborder=\"0\" marginwidth=\"0\" marginheight=\"0\" scrolling=\"no\" width=\"640\" height=\"360\" allowfullscreen></iframe>"},{"id":"1061474","type":"movie","title":"Superman","poster":"https://image.tmdb.org/t/p/w342/wPLysNDLffQLOVebZQCbXJEv6E6.jpg","year":"2025","result":"HD","language":["Hindi"],"country":["US"],"original_language":"en","genres":["Science Fiction","Adventure","Action"],"imdb_id":"tt5950044","backdrop":"https://image.tmdb.org/t/p/original/eU7IfdWq8KQy0oNd4kKXS0QUR08.jpg","watch":"<iframe src=\"https://bysebuho.com/e/xlmzh7cghm4k/Superman.2025.720p.WEB-DL.HIN-ENG.x264.ESub-DANIEWATCH.mkv\" width=\"640\" height=\"360\" frameborder=\"0\" allowfullscreen></iframe>"},{"id":"1060046","type":"movie","title":"HIT: The Third Case","poster":"https://image.tmdb.org/t/p/w342/wT9tGyFol4RBwkjESXUWeBdnLJn.jpg","year":"2025","result":"HD","language":["Hindi"],"country":["IN"],"original_language":"te","genres":["Crime","Thriller","Action"],"imdb_id":"tt23804696","backdrop":"https://image.tmdb.org/t/p/original/xzpXvyetmrdR3NSRN9uy0xO3lR1.jpg","watch":"<iframe src=\"https://bysebuho.com/e/i40qvzr7i4d3/hit-the-third-case-2025-hindi-telugu-dual-audio-uncut-south-movie-hevc-720p-esub-10bit-x265-daniewatch-is\" frameborder=\"0\" marginwidth=\"0\" marginheight=\"0\" scrolling=\"no\" width=\"640\" height=\"360\" allowfullscreen></iframe>"},{"id":"1054626","type":"movie","title":"The Bhootnii","poster":"https://image.tmdb.org/t/p/w342/7hY958sJ5xfXSBS3hiBtMxpOqRK.jpg","year":"2025","result":"HD","language":["Hindi"],"country":["IN"],"original_language":"hi","genres":["Comedy","Horror","Romance"],"imdb_id":"tt27162102","backdrop":"https://image.tmdb.org/t/p/original/qnc4tKS5NrQ61myUoo9vaZl9uuT.jpg","watch":"<iframe src=\"https://bysebuho.com/e/k8bg3rb0f14l/the-bhootnii-2025-hindi-zee5-web-dl-720p-10bit-x265-esub-daniewatch-is\" frameborder=\"0\" marginwidth=\"0\" marginheight=\"0\" scrolling=\"no\" width=\"640\" height=\"360\" allowfullscreen></iframe>"},{"id":"1049942","type":"movie","title":"Bambi: The Reckoning","poster":"https://image.tmdb.org/t/p/w342/8oBbWxWDJrrDtNkmd0OzZpPFFUR.jpg","year":"2025","result":"HD","language":["Hindi"],"country":["GB"],"original_language":"en","genres":["Horror","Thriller"],"imdb_id":"tt23621682","backdrop":"https://image.tmdb.org/t/p/original/tG5ZSx57zkijfK975aENinlOdIy.jpg","watch":"<iframe src=\"https://bysebuho.com/e/kdj6ku2m17pm/Bambi_The_Reckoning__2025__WEB-DL_720p_x264_Hin___Eng_DD_5_1_-_192Kbps_ESub_DANIEWATCH.mkv\" width=\"640\" height=\"360\" frameborder=\"0\" allowfullscreen></iframe>"},{"id":"1045021","type":"movie","title":"Thug Life","poster":"https://image.tmdb.org/t/p/w342/DmBbUtbA3T9sdVXDgIJ8bsIDw0.jpg","year":"2025","result":"HD","language":["Hindi"],"country":["IN"],"original_language":"ta","genres":["Action","Crime","Drama"],"imdb_id":"tt23398540","backdrop":"https://image.tmdb.org/t/p/original/of9YQ9XE2aUVbiorECRnFCu5iIn.jpg","watch":"<iframe src=\"https://bysebuho.com/e/ssslkk7azpk6/thug-life-2025-720p-nf-web-dl-hinditamil-aac5-1-h-264-daniewatch-is\" frameborder=\"0\" marginwidth=\"0\" marginheight=\"0\" scrolling=\"no\" width=\"640\" height=\"360\" allowfullscreen></iframe>"},{"id":"1044944","type":"movie","title":"JSK - Janaki V vs State of Kerala","poster":"https://image.tmdb.org/t/p/w342/s5aKJoOSv3D8snq3Y2N3APeK5vz.jpg","year":"2025","result":"HD","language":["Hindi"],"country":["IN"],"original_language":"ml","genres":["Drama","Thriller"],"imdb_id":"tt23458804","backdrop":"https://image.tmdb.org/t/p/original/fKscSOfO1X95gBIDbE9of6yx9EW.jpg","watch":"<iframe src=\"https://bysebuho.com/e/3hn2r6wx8omt/j-s-k-janaki-v-v-s-state-of-kerala-2025-720p-zee5-web-dl-ddp5-1-h-264-daniewatch-is\" frameborder=\"0\" marginwidth=\"0\" marginheight=\"0\" scrolling=\"no\" width=\"640\" height=\"360\" allowfullscreen></iframe>"},{"id":"1043887","type":"movie","title":"Badass Ravi Kumar","poster":"https://image.tmdb.org/t/p/w342/kqdb3ffSsyRlRjddG0XPpssy5ok.jpg","year":"2025","result":"HD","language":["Hindi"],"country":["IN"],"original_language":"hi","genres":["Action","Music","Comedy"],"imdb_id":"tt23220552","backdrop":"https://image.tmdb.org/t/p/original/uw8XD7pck9LChp1QbNuTzMY7YuT.jpg","watch":"<iframe src=\"https://bysebuho.com/e/3cpus598ocot/badass-ravikumar-2025-720p-jhs-web-dl-hindi-dd5-1-x264-vegamovies-is\" frameborder=\"0\" marginwidth=\"0\" marginheight=\"0\" scrolling=\"no\" width=\"640\" height=\"360\" allowfullscreen></iframe>"},{"id":"1042834","type":"movie","title":"Eden","poster":"https://image.tmdb.org/t/p/w342/jbFEESMVbpJU8IjZBjiWGJdEsxR.jpg","year":"2025","result":"HD","language":["Hindi"],"country":["US"],"original_language":"en","genres":["Thriller","Drama"],"imdb_id":"tt23149780","backdrop":"https://image.tmdb.org/t/p/original/rz8NcfTRczvn94vpnmMx42zt6EC.jpg","watch":"<iframe src=\"https://bysebuho.com/e/0zhbe5w6elwf/Eden.2025.720p.AMZN.WEB-DL.HIN-ENG.x264.DANIEWATCH.mkv\" width=\"640\" height=\"360\" frameborder=\"0\" allowfullscreen></iframe>"},{"id":"1038392","type":"movie","title":"The Conjuring: Last Rites","poster":"https://image.tmdb.org/t/p/w342/byWgphT74ClOVa8EOGzYDkl8DVL.jpg","year":"2025","result":"HD","language":["Hindi"],"country":["US"],"original_language":"en","genres":["Horror"],"imdb_id":"tt22898462","backdrop":"https://image.tmdb.org/t/p/original/tcBX2dtkNozZ0uDLVaxXrE6rqyN.jpg","watch":"<iframe src=\"https://bysebuho.com/e/zrgetkqjz7nc/The.Conjuring.Last.Rites.2025.720p.WEB-DL.HIN-ENG.x264.ESub-DANIEWATCH.mkv\" width=\"640\" height=\"360\" frameborder=\"0\" allowfullscreen></iframe>"},{"id":"1035259","type":"movie","title":"The Naked Gun","poster":"https://image.tmdb.org/t/p/w342/rmwQ8GsdQ1M3LtemNWLErle2nBU.jpg","year":"2025","result":"HD","language":["Hindi"],"country":["US"],"original_language":"en","genres":["Action","Comedy","Crime"],"imdb_id":"tt3402138","backdrop":"https://image.tmdb.org/t/p/original/kzeBfhXMRWiykBsqoL3UbfaM0S.jpg","watch":"<iframe src=\"https://bysebuho.com/e/alx0cy9q0vzn/The.Naked.Gun.2025.720p.WEB-DL.HIN-ENG.x264.ESub-DANIEWATCH.mkv\" width=\"640\" height=\"360\" frameborder=\"0\" allowfullscreen></iframe>"},{"id":"1022787","type":"movie","title":"Elio","poster":"https://image.tmdb.org/t/p/w342/7z8jDiTZZco9moIKpTUImFtTy7o.jpg","year":"2025","result":"HD","language":["Hindi"],"country":["US"],"original_language":"en","genres":["Animation","Family","Science Fiction","Adventure","Comedy"],"imdb_id":"tt4900148","backdrop":"https://image.tmdb.org/t/p/original/ukPu5xYOBAnh5H46uK4aQOirW2b.jpg","watch":"<iframe src=\"https://bysebuho.com/e/imxgzakol6q3/Elio.2025.BluRay.720p.x264.Hin._.Eng.DD5.1.-.192Kbps.ESub.DANIEWATCH.is.mkv\" width=\"640\" height=\"360\" frameborder=\"0\" allowfullscreen></iframe>"},{"id":"1022074","type":"movie","title":"Maareesan","poster":"https://image.tmdb.org/t/p/w342/c7JGfFgMnNuyF2Q4FSu7Kgip3mK.jpg","year":"2025","result":"HD","language":["Hindi"],"country":["IN"],"original_language":"ta","genres":["Thriller","Drama","Action"],"imdb_id":"tt29383191","backdrop":"https://image.tmdb.org/t/p/original/6FIdQDwTqFPueSW3RT2dPNvRxkG.jpg","watch":"<iframe src=\"https://bysebuho.com/e/m4adt6r8055v/Maareesan.2025.720p.WEB-DL.Hindi.5.1-Tamil.5.1.ESub.x264-DANIEWATCH.mkv\" width=\"640\" height=\"360\" frameborder=\"0\" allowfullscreen></iframe>"},{"id":"1015981","type":"movie","title":"Jolly LLB 3","poster":"https://image.tmdb.org/t/p/w342/bwRoU9p5GvjxgPfmIgsfcJ4ydng.jpg","year":"2025","result":"HD","language":["Hindi"],"country":["IN"],"original_language":"hi","genres":["Drama","Comedy"],"imdb_id":"tt27996020","backdrop":"https://image.tmdb.org/t/p/original/gC1kJpDPtaogbq7N543si20jC0w.jpg","watch":"<iframe src=\"https://bysebuho.com/e/544vm819ors7/Jolly_LLB_3_2025_720p_NF_WEB-DL_DDP5_1_x264-DANIEWATCH\" frameborder=\"0\" marginwidth=\"0\" marginheight=\"0\" scrolling=\"no\" width=\"640\" height=\"360\" allowfullscreen></iframe>"},{"id":"1012180","type":"movie","title":"Identity","poster":"https://image.tmdb.org/t/p/w342/hrusjWrcRuClY6PNooSZiKL6gqv.jpg","year":"2025","result":"HD","language":["Hindi"],"country":["IN"],"original_language":"ml","genres":["Action","Thriller","Mystery"],"imdb_id":"tt27436132","backdrop":"https://image.tmdb.org/t/p/original/d8fgJIUyvJa0NGkZ7VQBlgJADIK.jpg","watch":"<iframe src=\"https://bysebuho.com/e/wy0bq0jf6lts/identity-2025-hindi-malayalam-dual-audio-uncut-south-movie-hevc-720p-esub-10bit-x265-daniewatch-is\" frameborder=\"0\" marginwidth=\"0\" marginheight=\"0\" scrolling=\"no\" width=\"640\" height=\"360\" allowfullscreen></iframe>"},{"id":"1010756","type":"movie","title":"The Strangers: Chapter 2","poster":"https://image.tmdb.org/t/p/w342/aEk9jLbiKTVssdATbrF879NvyyJ.jpg","year":"2025","result":"HD","language":["Hindi"],"country":["GB","US"],"original_language":"en","genres":["Horror","Thriller"],"imdb_id":"tt28671344","backdrop":"https://image.tmdb.org/t/p/original/AkzGC9vQbKMHGebetpjBF4bU4VS.jpg","watch":"<iframe src=\"https://bysebuho.com/e/rojkh26kd56d/the-strangers-chapter-2-2025-720p-10bit-bluray-hin-eng-x265-esub-daniewatch-hot-2026\" frameborder=\"0\" marginwidth=\"0\" marginheight=\"0\" scrolling=\"no\" width=\"640\" height=\"360\" allowfullscreen></iframe>"},{"id":"1007734","type":"movie","title":"Nobody 2","poster":"https://image.tmdb.org/t/p/w342/iyxwxDZCpIm0vIORaHpmgJv2BGF.jpg","year":"2025","result":"HD","language":["Hindi"],"country":["US"],"original_language":"en","genres":["Action","Thriller"],"imdb_id":"tt28996126","backdrop":"https://image.tmdb.org/t/p/original/82C04rTiXYZ7c8XZv91Nu53w82Y.jpg","watch":"<iframe src=\"https://bysebuho.com/e/gvsb01z8gfol/Nobody.2.2025.720p.WEB-DL.Hindi.English.ESubs.DANIEWATCH.mkv\" width=\"640\" height=\"360\" frameborder=\"0\" allowfullscreen></iframe>"},{"id":"1006780","type":"movie","title":"Daksha: The Deadly Conspiracy","poster":"https://image.tmdb.org/t/p/w342/z3hsuvJJdokjTlm28wcELuFDjdC.jpg","year":"2025","result":"HD","language":["Hindi"],"country":["IN"],"original_language":"te","genres":["Crime","Thriller","Drama"],"imdb_id":"tt36242375","backdrop":"https://image.tmdb.org/t/p/original/zYptDguTRA0bUkhbPcZN1dCrHX0.jpg","watch":"<iframe src=\"https://bysebuho.com/e/e0ojdsgheckz/Daksha_The_Deadly_Conspiracy_2025_720p_WEB-DL_HIN-TEL_x264_AAC_5_1_ESub-DANIEWATCH.mkv\" width=\"640\" height=\"360\" frameborder=\"0\" allowfullscreen></iframe>"},{"id":"1005156","type":"movie","title":"Nikita Roy","poster":"https://image.tmdb.org/t/p/w342/aFJQSWies9Qw2NwBORneBCgFlG3.jpg","year":"2025","result":"HD","language":["Hindi"],"country":["IN"],"original_language":"hi","genres":["Mystery","Horror"],"imdb_id":"tt18939362","backdrop":"https://image.tmdb.org/t/p/original/d7Z7M83ZbYYN8qb1zltztAT0Tq1.jpg","watch":"<iframe src=\"https://bysebuho.com/e/3n9xa8q0f9a5/nikita-roy-2025-720p-web-dl-hindi-ddp5-1-h-264-daniewatch-is\" frameborder=\"0\" marginwidth=\"0\" marginheight=\"0\" scrolling=\"no\" width=\"640\" height=\"360\" allowfullscreen></iframe>"},{"id":"1001414","type":"movie","title":"Fear Street: Prom Queen","poster":"https://image.tmdb.org/t/p/w342/gevScWYkF8l5i9NjFSXo8HfPNyy.jpg","year":"2025","result":"HD","language":["Hindi"],"country":["US"],"original_language":"en","genres":["Horror","Mystery"],"imdb_id":"tt31433402","backdrop":"https://image.tmdb.org/t/p/original/qspghhpOyaBGgZDJoCbV2o9WNMU.jpg","watch":"<iframe src=\"https://bysebuho.com/e/9g1bcj56xf7s/Fear.Street.Prom.Queen.2025.720p.WEB-DL.HIN-ENG.x264.ESub-DANIEWATCH.mkv\" width=\"640\" height=\"360\" frameborder=\"0\" allowfullscreen></iframe>"},{"id":"1001270","type":"movie","title":"The Things You Kill","poster":"https://image.tmdb.org/t/p/w342/kR8CHANk8KwQLWarMIQsk2mthhW.jpg","year":"2025","result":"HD","language":["Hindi"],"country":["CA","FR","PL","TR","SG"],"original_language":"tr","genres":["Thriller","Drama"],"imdb_id":"tt32367116","backdrop":"https://image.tmdb.org/t/p/original/81aIon8MEVc22269MqR6tVkt9rx.jpg","watch":"<iframe src=\"https://bysebuho.com/e/xp8kebkd4m9z/the-things-you-kill-2025-720p-amzn-web-dl-hin-tur-x265-10bit-daniewatch-hot-2025\" frameborder=\"0\" marginwidth=\"0\" marginheight=\"0\" scrolling=\"no\" width=\"640\" height=\"360\" allowfullscreen></iframe>"},{"id":"1000990","type":"movie","title":"Mrs.","poster":"https://image.tmdb.org/t/p/original/yeT4UPyP4Y1QS1sMlGnAXtfAyS4.jpg","year":"2025","result":"HD","language":["Hindi"],"country":["FR","BE"],"original_language":"fr","genres":["Drama"],"imdb_id":"","backdrop":"","watch":"<iframe src=\"https://bysebuho.com/e/n4y4pyqlwkn5/mrs-2025-bollywood-hindi-movie-720p-10bit-hevc-x265-esub-daniewatch-is\" frameborder=\"0\" marginwidth=\"0\" marginheight=\"0\" scrolling=\"no\" width=\"640\" height=\"360\" allowfullscreen></iframe>"},{"id":"1000520","type":"movie","title":"Midnight Sun","poster":"https://image.tmdb.org/t/p/w342/yn66Fjc25hf0GnFN0CFbBxnAYhD.jpg","year":"2025","result":"HD","language":["Hindi"],"country":["KR"],"original_language":"ko","genres":["Music","Drama","Romance"],"imdb_id":"tt26736926","backdrop":"https://image.tmdb.org/t/p/original/42Ey9q1qrr68exw6QeCQrzFHyyB.jpg","watch":"<iframe src=\"https://bysebuho.com/e/rjnj8j4l6h7z/Midnight_SUN_2025_720p_WEB-DL_HIN-KOR_x264_ESub-DANIEWATCH.mkv\" width=\"640\" height=\"360\" frameborder=\"0\" allowfullscreen></iframe>"},{"id":"1000438","type":"movie","title":"Emergency","poster":"https://image.tmdb.org/t/p/w342/yp5eg70g6LaZoBiApOv9oerzvvX.jpg","year":"2025","result":"HD","language":["English"],"country":["IN"],"original_language":"hi","genres":["Drama","History","War"],"imdb_id":"tt21279420","backdrop":"https://image.tmdb.org/t/p/original/gOAQCgRvwWgu9FyYySxHQG9Wf84.jpg","watch":"<iframe src=\"https://bysebuho.com/e/jpqsrzdwxxno/emergency-2025-720p-web-dl-hin-dd5-1-x265-10bit-esub-daniewatch-is\" frameborder=\"0\" marginwidth=\"0\" marginheight=\"0\" scrolling=\"no\" width=\"640\" height=\"360\" allowfullscreen></iframe>"},{"id":"997113","type":"movie","title":"Hedda","poster":"https://image.tmdb.org/t/p/w342/ecflk7AZf0ij205yDswjlvdxlCO.jpg","year":"2025","result":"HD","language":["Hindi"],"country":["US"],"original_language":"en","genres":["Drama","Thriller","Romance"],"imdb_id":"tt27953589","backdrop":"https://image.tmdb.org/t/p/original/cKZcDKawR79igCgDMSXlpkn8hLR.jpg","watch":"<iframe src=\"https://bysebuho.com/e/fltdtewsfhkh/Hedda_2025_720p_AMZN_WEB-DL_x264-DanieWatch_hot.mkv\" width=\"640\" height=\"360\" frameborder=\"0\" allowfullscreen></iframe>"},{"id":"991494","type":"movie","title":"The SpongeBob Movie: Search for SquarePants","poster":"https://image.tmdb.org/t/p/w342/pDWYW9v8fmJdA7N0I1MOdQA3ETq.jpg","year":"2025","result":"HD","language":["Hindi"],"country":["US"],"original_language":"en","genres":["Animation","Family","Comedy","Adventure","Fantasy"],"imdb_id":"tt23572848","backdrop":"https://image.tmdb.org/t/p/original/kVSUUWiXoNwq2wVCZ4Mcqkniqvr.jpg","watch":"<iframe src=\"https://bysebuho.com/e/iqrkjbdr15nl/the-spongebob-movie-search-for-square-pants-2025-720p-10bit-web-dl-hin-eng-x265-esub-daniewatch-hot\" frameborder=\"0\" marginwidth=\"0\" marginheight=\"0\" scrolling=\"no\" width=\"640\" height=\"360\" allowfullscreen></iframe>"},{"id":"986097","type":"movie","title":"HIM","poster":"https://image.tmdb.org/t/p/w342/qPJzcYR2f1O1uynYBCVPPJuOiAH.jpg","year":"2025","result":"HD","language":["Hindi"],"country":["US","JP"],"original_language":"en","genres":["Horror","Mystery"],"imdb_id":"tt20990442","backdrop":"https://image.tmdb.org/t/p/original/jzzpCJWkVZZwAxzzLmtYN0MBWFd.jpg","watch":"<iframe src=\"https://bysebuho.com/e/835knga62sac/HIM_2025_720p_WEB-DL_HIN-ENG_x264_ESub-_DANIEWATCH.mkv\" width=\"640\" height=\"360\" frameborder=\"0\" allowfullscreen></iframe>"},{"id":"986056","type":"movie","title":"Thunderbolts*","poster":"https://image.tmdb.org/t/p/w342/hqcexYHbiTBfDIdDWxrxPtVndBX.jpg","year":"2025","result":"HD","language":["Hindi"],"country":["US"],"original_language":"en","genres":["Action","Science Fiction","Adventure"],"imdb_id":"tt20969586","backdrop":"https://image.tmdb.org/t/p/original/jYCyTdPfgT01IOJWDnnetr9RDX6.jpg","watch":"<iframe src=\"https://bysebuho.com/e/qgdllydbnhhf/thunderbolts-2025-720p-10bit-bluray-hin-eng-x265-esub-daniewatch-is\" frameborder=\"0\" marginwidth=\"0\" marginheight=\"0\" scrolling=\"no\" width=\"640\" height=\"360\" allowfullscreen></iframe>"},{"id":"985667","type":"movie","title":"Gajaana","poster":"https://image.tmdb.org/t/p/w342/4T15krfH63uSTk9wI4yIN7YcqkZ.jpg","year":"2025","result":"HD","language":["Hindi"],"country":[],"original_language":"ta","genres":["Comedy","Adventure","Fantasy","Thriller"],"imdb_id":"tt31924094","backdrop":"https://image.tmdb.org/t/p/original/7AVjjrzoW2J6aAe8sDH5LD0YZtG.jpg","watch":"<iframe src=\"https://bysebuho.com/e/2ept7pbl3ddk/gajaana-2025-720p-hindi-web-dl-5-1-esub-x264-daniewatch-is\" frameborder=\"0\" marginwidth=\"0\" marginheight=\"0\" scrolling=\"no\" width=\"640\" height=\"360\" allowfullscreen></iframe>"}]}