{"page":60,"total_pages":67,"total_items":3303,"items":[{"id":"300673","type":"movie","title":"The Finest Hours","poster":"https://image.tmdb.org/t/p/w342/6UG91TJ4DKI6FGdqXZfDBeRZHX8.jpg","year":"2016","result":"HD","language":["Hindi"],"country":["US"],"original_language":"en","genres":["Action","Drama","History","Thriller"],"imdb_id":"tt2025690"},{"id":"95488","type":"tv","title":"Locust","poster":"https://image.tmdb.org/t/p/w342/aFLyXgEDev89ykpHcwQfI6KXKjs.jpg","year":"2016","result":"HD","language":["Hindi"],"country":["RU"],"original_language":"ru","genres":["Drama","Crime"],"imdb_id":"","latest_uploaded_season":1,"total_uploaded_episodes":4},{"id":"62699","type":"tv","title":"The Young Pope","poster":"https://image.tmdb.org/t/p/w342/pH3u38DXGoeGUU86ZwJrFGBEPiQ.jpg","year":"2016","result":"HD","language":["Hindi"],"country":["IT"],"original_language":"it","genres":["Drama"],"imdb_id":"tt3655448","latest_uploaded_season":1,"total_uploaded_episodes":10},{"id":"419446","type":"movie","title":"Tiger, Blood in the Mouth","poster":"https://image.tmdb.org/t/p/w342/tMtWyyyJRHlh32d0VnXSIFImpsr.jpg","year":"2016","result":"HD","language":["Hindi"],"country":["AR","IT"],"original_language":"es","genres":["Drama"],"imdb_id":"tt4791322"},{"id":"410432","type":"movie","title":"Aandavan Kattalai","poster":"https://image.tmdb.org/t/p/w342/rtythafvdg795tzwR4jeBMmonkL.jpg","year":"2016","result":"HD","language":["Hindi"],"country":["IN"],"original_language":"ta","genres":["Action","Drama","Romance"],"imdb_id":"tt6076366"},{"id":"433819","type":"movie","title":"Beyond Redemption","poster":"https://image.tmdb.org/t/p/w342/bms90luw8wFh11IddXdKjiK2Ky2.jpg","year":"2016","result":"HD","language":["Hindi"],"country":["CA"],"original_language":"en","genres":["Action"],"imdb_id":"tt4059112"},{"id":"418691","type":"movie","title":"Shadows of the Dead","poster":"https://image.tmdb.org/t/p/w342/lwdUaNK2gAZbm2ZYUrwlwreZjBA.jpg","year":"2016","result":"HD","language":["Hindi"],"country":["US"],"original_language":"en","genres":["Horror"],"imdb_id":"tt6149120"},{"id":"417636","type":"movie","title":"Bambukat","poster":"https://image.tmdb.org/t/p/w342/klK3kCAaPHzSUUyc4pma6XKU8sm.jpg","year":"2016","result":"HD","language":["Hindi"],"country":["IN"],"original_language":"pa","genres":["Drama","Comedy"],"imdb_id":"tt5929890"},{"id":"416777","type":"movie","title":"Viking Legacy","poster":"https://image.tmdb.org/t/p/w342/lMPPPBTgsDLPRtKz56KehsFEHO7.jpg","year":"2016","result":"HD","language":["Hindi"],"country":["GB"],"original_language":"en","genres":["Action","Adventure"],"imdb_id":"tt5555554"},{"id":"411442","type":"movie","title":"Time Raiders","poster":"https://image.tmdb.org/t/p/w342/qtbJL3pWPJIO8KGqZpRLEn4jmQp.jpg","year":"2016","result":"HD","language":["Hindi"],"country":["CN","HK"],"original_language":"zh","genres":["Action","Adventure","Fantasy"],"imdb_id":"tt5354664"},{"id":"400649","type":"movie","title":"Attack of the Killer Donuts","poster":"https://image.tmdb.org/t/p/w342/jYvWEvt9k2Zn2g5kCjicu51E6Pt.jpg","year":"2016","result":"HD","language":["Hindi"],"country":["US"],"original_language":"en","genres":["Comedy","Horror"],"imdb_id":"tt4480398"},{"id":"396535","type":"movie","title":"Train to Busan","poster":"https://image.tmdb.org/t/p/w342/vNVFt6dtcqnI7hqa6LFBUibuFiw.jpg","year":"2016","result":"HD","language":["Hindi"],"country":["KR"],"original_language":"ko","genres":["Horror","Thriller","Action","Adventure"],"imdb_id":"tt5700672"},{"id":"394078","type":"movie","title":"Santa Banta Pvt Ltd","poster":"https://image.tmdb.org/t/p/w342/qjzYPHUUlNQ5taFTnBN1iUHm3bE.jpg","year":"2016","result":"HD","language":["Hindi"],"country":["IN"],"original_language":"hi","genres":["Action","Comedy"],"imdb_id":"tt2909396"},{"id":"391757","type":"movie","title":"Never Back Down: No Surrender","poster":"https://image.tmdb.org/t/p/w342/pHVswTDHAvq9Npi0XCZ0qVMSiM2.jpg","year":"2016","result":"HD","language":["Hindi"],"country":["US"],"original_language":"en","genres":["Drama","Action"],"imdb_id":"tt4790268"},{"id":"385238","type":"movie","title":"Vettah","poster":"https://image.tmdb.org/t/p/w342/pcuA4E3M4RO7227XMDfV0EfhA5X.jpg","year":"2016","result":"HD","language":["Hindi"],"country":["IN"],"original_language":"ml","genres":["Mystery","Thriller"],"imdb_id":"tt5324456"},{"id":"372058","type":"movie","title":"Your Name.","poster":"https://image.tmdb.org/t/p/w342/q719jXXEzOoYaps6babgKnONONX.jpg","year":"2016","result":"HD","language":["Hindi"],"country":["JP"],"original_language":"ja","genres":["Animation","Romance","Drama"],"imdb_id":"tt5311514"},{"id":"366080","type":"movie","title":"Kabali","poster":"https://image.tmdb.org/t/p/w342/va0M1xhP3sUUERWfHeSKGVhtJHW.jpg","year":"2016","result":"HD","language":["Hindi"],"country":["IN"],"original_language":"ta","genres":["Action","Crime","Drama"],"imdb_id":"tt5071886"},{"id":"313297","type":"movie","title":"Kubo and the Two Strings","poster":"https://image.tmdb.org/t/p/w342/la6QA9tk4Foq8OBH2Dyh5dTcw6H.jpg","year":"2016","result":"HD","language":["Hindi"],"country":["US","GB"],"original_language":"en","genres":["Animation","Adventure","Family"],"imdb_id":"tt4302938"},{"id":"301804","type":"movie","title":"Before I Wake","poster":"https://image.tmdb.org/t/p/w342/sI9neTbF3ECdpf2MpC88EMGJH13.jpg","year":"2016","result":"HD","language":["Hindi"],"country":["US"],"original_language":"en","genres":["Drama","Fantasy","Horror","Thriller"],"imdb_id":"tt3174376"},{"id":"271110","type":"movie","title":"Captain America: Civil War","poster":"https://image.tmdb.org/t/p/w342/rAGiXaUfPzY7CDEyNKUofk3Kw2e.jpg","year":"2016","result":"HD","language":["Hindi"],"country":["US"],"original_language":"en","genres":["Adventure","Action","Science Fiction"],"imdb_id":"tt3498820"},{"id":"213681","type":"movie","title":"Masterminds","poster":"https://image.tmdb.org/t/p/w342/4CXgye1p8Vr7taDG389QhhHDUZ4.jpg","year":"2016","result":"HD","language":["Hindi"],"country":["US"],"original_language":"en","genres":["Action","Comedy","Crime"],"imdb_id":"tt2461150"},{"id":"168098","type":"movie","title":"Cell","poster":"https://image.tmdb.org/t/p/w342/c5N6Pw3P6TqQnGcqiVkhO9u85KB.jpg","year":"2016","result":"HD","language":["Hindi"],"country":["US"],"original_language":"en","genres":["Horror","Science Fiction","Thriller"],"imdb_id":"tt0775440"},{"id":"146198","type":"movie","title":"Triple 9","poster":"https://image.tmdb.org/t/p/w342/q2kIq9yzEkOVhl1aeo0alJHtdfz.jpg","year":"2016","result":"HD","language":["Hindi"],"country":["US"],"original_language":"en","genres":["Action","Crime","Adventure","Thriller"],"imdb_id":"tt1712261"},{"id":"67915","type":"tv","title":"Goblin","poster":"https://image.tmdb.org/t/p/w342/sPkxHNw5BFvuCFGWw825TS7n6X3.jpg","year":"2016","result":"HD","language":["Hindi"],"country":["KR"],"original_language":"ko","genres":["Drama","Sci-Fi & Fantasy","Comedy"],"imdb_id":"tt5994364","latest_uploaded_season":1,"total_uploaded_episodes":16},{"id":"67391","type":"tv","title":"The K2","poster":"https://image.tmdb.org/t/p/w342/egziV2hfeNcDTQwZCGgtbKfUEpD.jpg","year":"2016","result":"HD","language":["Hindi"],"country":["KR"],"original_language":"ko","genres":["Action & Adventure","Drama","Crime"],"imdb_id":"tt5966882","latest_uploaded_season":1,"total_uploaded_episodes":16},{"id":"67014","type":"tv","title":"Hello, My Twenties!","poster":"https://image.tmdb.org/t/p/w342/4MdSbKFGAzgFhF407e9fcZreqvm.jpg","year":"2016","result":"HD","language":["Hindi"],"country":["KR"],"original_language":"ko","genres":["Comedy","Drama"],"imdb_id":"tt5858892","latest_uploaded_season":1,"total_uploaded_episodes":12},{"id":"66082","type":"tv","title":"Another Miss Oh","poster":"https://image.tmdb.org/t/p/w342/8lTp5kfcd61qFWwHhjwTE8a09OQ.jpg","year":"2016","result":"HD","language":["Hindi"],"country":["KR"],"original_language":"ko","genres":["Comedy","Drama"],"imdb_id":"tt5679572","latest_uploaded_season":1,"total_uploaded_episodes":18},{"id":"65942","type":"tv","title":"Re:ZERO -Starting Life in Another World-","poster":"https://image.tmdb.org/t/p/w342/aRwmcX36r1ZpR5Xq5mmFcpUDQ8J.jpg","year":"2016","result":"HD","language":["Hindi"],"country":["JP"],"original_language":"ja","genres":["Animation","Action & Adventure","Sci-Fi & Fantasy","Mystery"],"imdb_id":"tt5607616","latest_uploaded_season":3,"total_uploaded_episodes":54},{"id":"65143","type":"tv","title":"Descendants of the Sun","poster":"https://image.tmdb.org/t/p/w342/s1zXuYyMMrgpet6BBrMqGlHnvc8.jpg","year":"2016","result":"HD","language":["Hindi"],"country":["KR"],"original_language":"ko","genres":["Drama","Action & Adventure"],"imdb_id":"tt4925000","latest_uploaded_season":1,"total_uploaded_episodes":16},{"id":"64448","type":"tv","title":"Madame Antoine: The Love Therapist","poster":"https://image.tmdb.org/t/p/w342/vArW0WiXx0Rdf5pzVxuISR2led6.jpg","year":"2016","result":"HD","language":["Hindi"],"country":["KR"],"original_language":"ko","genres":["Comedy","Romance","Drama"],"imdb_id":"tt5332172","latest_uploaded_season":1,"total_uploaded_episodes":16},{"id":"254470","type":"movie","title":"Pitch Perfect 2","poster":"https://image.tmdb.org/t/p/w342/oFBQUufCV4c8WZoNhtGM17p884H.jpg","year":"2015","result":"HD","language":["Hindi"],"country":["US"],"original_language":"en","genres":["Comedy","Music"],"imdb_id":"tt2848292"},{"id":"62838","type":"tv","title":"My Love Eun Dong","poster":"https://image.tmdb.org/t/p/w342/1g7DQDoPgguyJC41NMweMtQsHly.jpg","year":"2015","result":"HD","language":["Hindi"],"country":["KR"],"original_language":"ko","genres":["Drama","Romance"],"imdb_id":"tt4791426","latest_uploaded_season":1,"total_uploaded_episodes":16},{"id":"61890","type":"tv","title":"Hyde, Jekyll, Me","poster":"https://image.tmdb.org/t/p/w342/pSus8FBfnEAGkrVNDkAW4L1qB5Y.jpg","year":"2015","result":"HD","language":["Hindi"],"country":["KR"],"original_language":"ko","genres":["Comedy","Drama"],"imdb_id":"tt4357294","latest_uploaded_season":1,"total_uploaded_episodes":20},{"id":"366654","type":"movie","title":"The Magician","poster":"https://image.tmdb.org/t/p/w342/mlvCpomcyFB4OyYjUIAvJgZhtHV.jpg","year":"2015","result":"HD","language":["Hindi"],"country":["KR"],"original_language":"ko","genres":["Drama","Romance","Fantasy"],"imdb_id":"tt4471636"},{"id":"62925","type":"tv","title":"The Time We Were Not in Love","poster":"https://image.tmdb.org/t/p/w342/kcmzZ5MI0f4NGaYOcHfHBQaIlio.jpg","year":"2015","result":"HD","language":["Hindi"],"country":["KR"],"original_language":"ko","genres":["Drama","Romance"],"imdb_id":"tt4817002","latest_uploaded_season":1,"total_uploaded_episodes":16},{"id":"340912","type":"movie","title":"Enemies In-Law","poster":"https://image.tmdb.org/t/p/w342/xe2q5puzmFogp2i3fVla9Xcloc1.jpg","year":"2015","result":"HD","language":["Hindi"],"country":["KR"],"original_language":"ko","genres":["Romance","Comedy"],"imdb_id":"tt5449088"},{"id":"350650","type":"movie","title":"Doraemon: Nobita and the Space Heroes","poster":"https://image.tmdb.org/t/p/w342/pYVJgcuCU9swa7GEujygsRdkSQd.jpg","year":"2015","result":"HD","language":["Hindi"],"country":["JP"],"original_language":"ja","genres":["Comedy","Animation","Family","Adventure","Science Fiction","Fantasy"],"imdb_id":"tt4788602"},{"id":"63106","type":"tv","title":"The Scholar Who Walks the Night","poster":"https://image.tmdb.org/t/p/w342/aTTgLKamVYRFbD9CTr4ZzErlNzQ.jpg","year":"2015","result":"HD","language":["Hindi"],"country":["KR"],"original_language":"ko","genres":["Drama","Mystery"],"imdb_id":"tt4846958","latest_uploaded_season":1,"total_uploaded_episodes":40},{"id":"361539","type":"movie","title":"Deep Trap","poster":"https://image.tmdb.org/t/p/w342/3kmLrAWu0qgBRoNviC52DKEkHcl.jpg","year":"2015","result":"HD","language":["Hindi"],"country":["KR"],"original_language":"ko","genres":["Thriller","Drama","Crime","Horror"],"imdb_id":"tt4922028"},{"id":"216015","type":"movie","title":"Fifty Shades of Grey","poster":"https://image.tmdb.org/t/p/w342/63kGofUkt1Mx0SIL4XI4Z5AoSgt.jpg","year":"2015","result":"HD","language":["Hindi"],"country":["US"],"original_language":"en","genres":["Drama","Romance","Thriller"],"imdb_id":"tt2322441"},{"id":"357096","type":"movie","title":"I Spit on Your Grave III: Vengeance Is Mine","poster":"https://image.tmdb.org/t/p/w342/qosIFCddpZjoMdsrkcQWB4UGm3o.jpg","year":"2015","result":"HD","language":["Hindi"],"country":["US"],"original_language":"en","genres":["Horror"],"imdb_id":"tt4530884"},{"id":"241251","type":"movie","title":"The Boy Next Door","poster":"https://image.tmdb.org/t/p/w342/gicmSeLG6Uh7BF1r1mxZHUQ8r26.jpg","year":"2015","result":"HD","language":["Hindi"],"country":["US"],"original_language":"en","genres":["Thriller"],"imdb_id":"tt3181822"},{"id":"343701","type":"movie","title":"Bunny the Killer Thing","poster":"https://image.tmdb.org/t/p/w342/pShIldQSNMulPnvp6dlfSzMzW2w.jpg","year":"2015","result":"HD","language":["Hindi"],"country":["FI"],"original_language":"fi","genres":["Action","Comedy","Horror"],"imdb_id":"tt3375286"},{"id":"263472","type":"movie","title":"Knock Knock","poster":"https://image.tmdb.org/t/p/w342/cUC4rUb1Cs2KMaZ6RD4uYUEEwls.jpg","year":"2015","result":"HD","language":["Hindi"],"country":["CL","DE","US"],"original_language":"en","genres":["Horror","Thriller","Crime"],"imdb_id":"tt3605418"},{"id":"330414","type":"movie","title":"10 Endrathukulla","poster":"https://image.tmdb.org/t/p/w342/jZx7x4JUadJBa8AFZYsc5gN5k8E.jpg","year":"2015","result":"HD","language":["Hindi"],"country":["IN"],"original_language":"ta","genres":["Action","Romance"],"imdb_id":"tt5128266"},{"id":"332832","type":"movie","title":"Surya Vs Surya","poster":"https://image.tmdb.org/t/p/w342/uzVRWHPmZ8hM4NIgCZBKJ8KVCDI.jpg","year":"2015","result":"HD","language":["Hindi"],"country":["IN"],"original_language":"te","genres":["Romance","Drama"],"imdb_id":"tt4505168"},{"id":"351694","type":"movie","title":"Monkey King: Hero Is Back","poster":"https://image.tmdb.org/t/p/w342/xHme10Y5jVdH8KeSGgStndjatF5.jpg","year":"2015","result":"HD","language":["Hindi"],"country":["CN"],"original_language":"zh","genres":["Fantasy","Animation","Comedy"],"imdb_id":"tt4644382"},{"id":"341420","type":"movie","title":"Demonte Colony","poster":"https://image.tmdb.org/t/p/w342/4v0rLDCAV0CuZTAoeu8CDPBkksB.jpg","year":"2015","result":"HD","language":["Hindi"],"country":["IN"],"original_language":"ta","genres":["Horror"],"imdb_id":"tt4701688"},{"id":"1157408","type":"movie","title":"Ghost in the Shell: Arise - Border 5: Pyrophoric Cult","poster":"https://image.tmdb.org/t/p/w342/tPuRZltk87r9oP8pSNjJLMsHVMV.jpg","year":"2015","result":"HD","language":["Hindi"],"country":["JP"],"original_language":"ja","genres":["Action","Animation","Science Fiction","Crime"],"imdb_id":""},{"id":"338729","type":"movie","title":"The Beauty Inside","poster":"https://image.tmdb.org/t/p/w342/z5gpjqQwo0h8rMvBLedRXfHHDKb.jpg","year":"2015","result":"HD","language":["Hindi"],"country":["KR"],"original_language":"ko","genres":["Fantasy","Romance"],"imdb_id":"tt4273886"}]}