{"page":59,"total_pages":67,"total_items":3303,"items":[{"id":"74000","type":"tv","title":"20th Century Boy and Girl","poster":"https://image.tmdb.org/t/p/w342/4Wdz7OvRycgYbd9EHFYdVTcBNJ1.jpg","year":"2017","result":"HD","language":["Hindi"],"country":["KR"],"original_language":"ko","genres":["Comedy"],"imdb_id":"tt7208216","latest_uploaded_season":1,"total_uploaded_episodes":16},{"id":"462677","type":"movie","title":"Doraemon: Nobita's Great Adventure in the Antarctic Kachi Kochi","poster":"https://image.tmdb.org/t/p/w342/hcydn0Lr3DAixZFOaUmjoqoIFU6.jpg","year":"2017","result":"HD","language":["Hindi"],"country":["JP"],"original_language":"ja","genres":["Animation","Adventure","Fantasy","Family","Science Fiction","Comedy"],"imdb_id":"tt5912470"},{"id":"74887","type":"tv","title":"Money Flower","poster":"https://image.tmdb.org/t/p/w342/8Ep2HCbLX7wm1zGt9LJO5rFrNqk.jpg","year":"2017","result":"HD","language":["Hindi"],"country":["KR"],"original_language":"ko","genres":["Drama"],"imdb_id":"tt7521802","latest_uploaded_season":1,"total_uploaded_episodes":48},{"id":"341174","type":"movie","title":"Fifty Shades Darker","poster":"https://image.tmdb.org/t/p/w342/w3qa274gvca9t8pkUoG8nfQgTU3.jpg","year":"2017","result":"HD","language":["Hindi"],"country":["US"],"original_language":"en","genres":["Drama","Romance"],"imdb_id":"tt4465564"},{"id":"443109","type":"movie","title":"Oceans Rising","poster":"https://image.tmdb.org/t/p/w342/3PzeV1qxvSQnu5BdG5tbTmEszDz.jpg","year":"2017","result":"HD","language":["Hindi"],"country":["US"],"original_language":"en","genres":["Action","Science Fiction"],"imdb_id":"tt6215044"},{"id":"452551","type":"movie","title":"The Adventurers","poster":"https://image.tmdb.org/t/p/w342/iVKVucELauvZGsNUd37LgSusQWb.jpg","year":"2017","result":"HD","language":["Hindi"],"country":["CN","CZ","HK","US"],"original_language":"cn","genres":["Action","Crime","Adventure"],"imdb_id":"tt5866930"},{"id":"405815","type":"movie","title":"The Sex Trip","poster":"https://image.tmdb.org/t/p/w342/y0hqdbBvKcDIue4rQLOgzdGqwEA.jpg","year":"2017","result":"HD","language":["Hindi"],"country":["US"],"original_language":"en","genres":["Comedy","Fantasy"],"imdb_id":"tt4357714"},{"id":"469722","type":"movie","title":"Trauma","poster":"https://image.tmdb.org/t/p/w342/wbtU44cXUa57LV4rCIVuFBSBRql.jpg","year":"2017","result":"HD","language":["Hindi"],"country":["CL"],"original_language":"es","genres":["Horror","Thriller","Drama"],"imdb_id":"tt6705640"},{"id":"370663","type":"movie","title":"Below Her Mouth","poster":"https://image.tmdb.org/t/p/w342/tPhBftWySbanfEialbsUzOuccgN.jpg","year":"2017","result":"HD","language":["Hindi"],"country":["CA"],"original_language":"en","genres":["Drama","Romance"],"imdb_id":"tt5073620"},{"id":"335984","type":"movie","title":"Blade Runner 2049","poster":"https://image.tmdb.org/t/p/w342/gajva2L0rPYkEWjzgFlBXCAVBE5.jpg","year":"2017","result":"HD","language":["Hindi"],"country":["CA","GB","US"],"original_language":"en","genres":["Science Fiction","Drama"],"imdb_id":"tt1856101"},{"id":"324852","type":"movie","title":"Despicable Me 3","poster":"https://image.tmdb.org/t/p/w342/6t3YWl7hrr88lCEFlGVqW5yV99R.jpg","year":"2017","result":"HD","language":["Hindi"],"country":["US"],"original_language":"en","genres":["Action","Animation","Comedy","Family","Adventure"],"imdb_id":"tt3469046"},{"id":"453296","type":"movie","title":"The Wrong Babysitter","poster":"https://image.tmdb.org/t/p/w342/doteEUlowLBDOBqA9VBKH1VetJJ.jpg","year":"2017","result":"HD","language":["Hindi"],"country":["US"],"original_language":"en","genres":["TV Movie","Thriller"],"imdb_id":"tt6145232"},{"id":"447305","type":"movie","title":"Too Close","poster":"https://image.tmdb.org/t/p/w342/vufcnEUl0eLICrTda04yq0j6GmO.jpg","year":"2017","result":"HD","language":["Hindi"],"country":["DE"],"original_language":"de","genres":["TV Movie","Drama"],"imdb_id":"tt5964258"},{"id":"496311","type":"movie","title":"Viking Siege","poster":"https://image.tmdb.org/t/p/w342/gc9OwXheYzQbUTG3oe9WHCXrzSm.jpg","year":"2017","result":"HD","language":["Hindi"],"country":["GB"],"original_language":"en","genres":["Action","Adventure"],"imdb_id":"tt5555824"},{"id":"486579","type":"movie","title":"Night Bus","poster":"https://image.tmdb.org/t/p/w342/xz8DoqGevecvAVcbHNa5XiRcj6F.jpg","year":"2017","result":"HD","language":["Hindi"],"country":["ID"],"original_language":"id","genres":["Drama","Thriller","Action","Crime"],"imdb_id":"tt6574480"},{"id":"483839","type":"movie","title":"Vunnadhi Okate Zindagi","poster":"https://image.tmdb.org/t/p/w342/dqY8EprlgK1u4P3rncbNXFJ01Lr.jpg","year":"2017","result":"HD","language":["Hindi"],"country":["IN"],"original_language":"te","genres":["Romance","Drama"],"imdb_id":"tt7322816"},{"id":"472722","type":"movie","title":"Party Boat","poster":"https://image.tmdb.org/t/p/w342/kWk9NJvlEqIcl98wK3nQDYTFmys.jpg","year":"2017","result":"HD","language":["Hindi"],"country":["US"],"original_language":"en","genres":["Comedy"],"imdb_id":"tt6944936"},{"id":"457837","type":"movie","title":"Brotherhood of Blades II: The Infernal Battlefield","poster":"https://image.tmdb.org/t/p/w342/ooC6al3vhhECG998ZivkAZUdgst.jpg","year":"2017","result":"HD","language":["Hindi"],"country":["CN"],"original_language":"zh","genres":["Romance","Action","Drama","History"],"imdb_id":"tt7055592"},{"id":"452068","type":"movie","title":"Drone","poster":"https://image.tmdb.org/t/p/w342/o1Zp7DBOkxDhGCg6fXhuaFaFwsN.jpg","year":"2017","result":"HD","language":["Hindi"],"country":["CA"],"original_language":"en","genres":["Thriller"],"imdb_id":"tt5352846"},{"id":"437109","type":"movie","title":"The Villainess","poster":"https://image.tmdb.org/t/p/w342/tJlOV2SU6qTxR540H9VtoCAOVm.jpg","year":"2017","result":"HD","language":["Hindi"],"country":["KR"],"original_language":"ko","genres":["Action","Thriller"],"imdb_id":"tt6777338"},{"id":"382614","type":"movie","title":"The Book of Henry","poster":"https://image.tmdb.org/t/p/w342/suLFg4UjvM5BoDipg2Wu3gZ802T.jpg","year":"2017","result":"HD","language":["Hindi"],"country":["US"],"original_language":"en","genres":["Drama","Thriller","Mystery"],"imdb_id":"tt4572792"},{"id":"346364","type":"movie","title":"It","poster":"https://image.tmdb.org/t/p/w342/9E2y5Q7WlCVNEhP5GiVTjhEhx1o.jpg","year":"2017","result":"HD","language":["Hindi"],"country":["US"],"original_language":"en","genres":["Horror","Thriller","Drama"],"imdb_id":"tt1396484"},{"id":"334521","type":"movie","title":"Free Fire","poster":"https://image.tmdb.org/t/p/w342/olpgs0OPE8sdBGcuuWhKYzxAwN4.jpg","year":"2017","result":"HD","language":["Hindi"],"country":["GB"],"original_language":"en","genres":["Action","Crime","Mystery"],"imdb_id":"tt4158096"},{"id":"74785","type":"tv","title":"Two Cops","poster":"https://image.tmdb.org/t/p/w342/eOxQhCu8tSXDhbfkTlny3dgLjnA.jpg","year":"2017","result":"HD","language":["Hindi"],"country":["KR"],"original_language":"ko","genres":["Comedy","Mystery"],"imdb_id":"tt7525432","latest_uploaded_season":1,"total_uploaded_episodes":16},{"id":"74064","type":"tv","title":"Go Back Couple","poster":"https://image.tmdb.org/t/p/w342/2OzDKStSL3oGKQMlASeqvCFZsHz.jpg","year":"2017","result":"HD","language":["Hindi"],"country":["KR"],"original_language":"ko","genres":["Comedy","Sci-Fi & Fantasy"],"imdb_id":"tt7418578","latest_uploaded_season":1,"total_uploaded_episodes":12},{"id":"73223","type":"tv","title":"Black Clover","poster":"https://image.tmdb.org/t/p/w342/kaMisKeOoTBPxPkbC3OW7Wgt6ON.jpg","year":"2017","result":"HD","language":["Hindi"],"country":["JP"],"original_language":"ja","genres":["Animation","Action & Adventure","Sci-Fi & Fantasy"],"imdb_id":"tt7441658","latest_uploaded_season":1,"total_uploaded_episodes":51},{"id":"71693","type":"tv","title":"Blood Drive","poster":"https://image.tmdb.org/t/p/w342/qB9PBQMyKrp8diKGxVpfayKZbgd.jpg","year":"2017","result":"HD","language":["Hindi"],"country":["US"],"original_language":"en","genres":["Drama","Sci-Fi & Fantasy"],"imdb_id":"tt4898282","latest_uploaded_season":1,"total_uploaded_episodes":13},{"id":"71349","type":"tv","title":"Suspicious Partner","poster":"https://image.tmdb.org/t/p/w342/e5ytMZlkGlVWtxSoLypobMaqZEO.jpg","year":"2017","result":"HD","language":["Hindi"],"country":["KR"],"original_language":"ko","genres":["Comedy","Crime","Drama"],"imdb_id":"tt6720154","latest_uploaded_season":1,"total_uploaded_episodes":40},{"id":"70813","type":"tv","title":"Fight for My Way","poster":"https://image.tmdb.org/t/p/w342/55w33JzFKBkz1evjBjqeF0enDd1.jpg","year":"2017","result":"HD","language":["Hindi"],"country":["KR"],"original_language":"ko","genres":["Comedy","Drama"],"imdb_id":"tt6824234","latest_uploaded_season":1,"total_uploaded_episodes":16},{"id":"70195","type":"tv","title":"Radiant Office","poster":"https://image.tmdb.org/t/p/w342/5cpANNfhpYNfPxvUNmQyvtMVTkQ.jpg","year":"2017","result":"HD","language":["Hindi"],"country":["KR"],"original_language":"ko","genres":["Comedy","Drama"],"imdb_id":"tt6464184","latest_uploaded_season":1,"total_uploaded_episodes":16},{"id":"68891","type":"tv","title":"Missing Nine","poster":"https://image.tmdb.org/t/p/w342/e64mWY8t1WoTaab2LRQi59QN6b.jpg","year":"2017","result":"HD","language":["Hindi"],"country":["KR"],"original_language":"ko","genres":["Comedy","Drama","Mystery"],"imdb_id":"tt6237588","latest_uploaded_season":1,"total_uploaded_episodes":16},{"id":"68814","type":"tv","title":"Strong Woman Do Bong-Soon","poster":"https://image.tmdb.org/t/p/w342/sPdS6oUdXfBNGKROE5RY5s5laqx.jpg","year":"2017","result":"HD","language":["Hindi"],"country":["KR"],"original_language":"ko","genres":["Comedy","Action & Adventure","Drama"],"imdb_id":"tt6263222","latest_uploaded_season":1,"total_uploaded_episodes":16},{"id":"402446","type":"movie","title":"Edge of Winter","poster":"https://image.tmdb.org/t/p/w342/mgvdyOJV1Xv6XzhENFphtyW9XVV.jpg","year":"2016","result":"HD","language":["Hindi"],"country":["US","CA"],"original_language":"en","genres":["Drama","Thriller"],"imdb_id":"tt4526546"},{"id":"323675","type":"movie","title":"Ride Along 2","poster":"https://image.tmdb.org/t/p/w342/qKvVUHdiwqkXdlRsW4fHO7SAZef.jpg","year":"2016","result":"HD","language":["Hindi"],"country":["US"],"original_language":"en","genres":["Action","Comedy"],"imdb_id":"tt2869728"},{"id":"61550","type":"tv","title":"Marvel's Agent Carter","poster":"https://image.tmdb.org/t/p/w342/fe79VYyLp5ZBstpJ4oukpuUT3B.jpg","year":"2016","result":"HD","language":["Hindi"],"country":["US"],"original_language":"en","genres":["Drama","Sci-Fi & Fantasy"],"imdb_id":"tt3475734","latest_uploaded_season":2,"total_uploaded_episodes":18},{"id":"69051","type":"tv","title":"Best Lover","poster":"https://image.tmdb.org/t/p/w342/yn0MIfncUAtJoOOFpgmLKTJxNWC.jpg","year":"2016","result":"HD","language":["Hindi"],"country":["CN"],"original_language":"zh","genres":["Drama"],"imdb_id":"tt9874364","latest_uploaded_season":1,"total_uploaded_episodes":12},{"id":"66349","type":"tv","title":"My Amazing Boyfriend","poster":"https://image.tmdb.org/t/p/w342/wt4Ly5TYLpdwWshE5UJabfMSEhm.jpg","year":"2016","result":"HD","language":["Hindi"],"country":["CN"],"original_language":"zh","genres":["Sci-Fi & Fantasy","Comedy"],"imdb_id":"tt6227258","latest_uploaded_season":1,"total_uploaded_episodes":28},{"id":"66431","type":"tv","title":"Beautiful Gong Shim","poster":"https://image.tmdb.org/t/p/w342/peO3vXCws2bD7xz2rWxgJ1CHYC1.jpg","year":"2016","result":"HD","language":["Hindi"],"country":["KR"],"original_language":"ko","genres":["Comedy","Drama"],"imdb_id":"tt5705896","latest_uploaded_season":1,"total_uploaded_episodes":20},{"id":"343611","type":"movie","title":"Jack Reacher: Never Go Back","poster":"https://image.tmdb.org/t/p/w342/cOg3UT2NYWHZxp41vpxAnVCOC4M.jpg","year":"2016","result":"HD","language":["Hindi"],"country":["CN","US"],"original_language":"en","genres":["Action","Thriller","Drama","Crime"],"imdb_id":"tt3393786"},{"id":"422576","type":"movie","title":"Will You Be There","poster":"https://image.tmdb.org/t/p/w342/mFyWyuZ7H0cqxwGH8H3DgQbsbEj.jpg","year":"2016","result":"HD","language":["Hindi"],"country":["KR"],"original_language":"ko","genres":["Drama","Fantasy"],"imdb_id":"tt6434022"},{"id":"66393","type":"tv","title":"Bring It On, Ghost","poster":"https://image.tmdb.org/t/p/w342/6tPDqJOnOPDwYv2CN7OPE29UoS.jpg","year":"2016","result":"HD","language":["Hindi"],"country":["KR"],"original_language":"ko","genres":["Drama","Mystery","Sci-Fi & Fantasy"],"imdb_id":"tt5768840","latest_uploaded_season":1,"total_uploaded_episodes":16},{"id":"69010","type":"tv","title":"Nakee","poster":"https://image.tmdb.org/t/p/w342/niuXZ0sE0wGKxSsvNnrUduNKzPn.jpg","year":"2016","result":"HD","language":["Hindi"],"country":["TH"],"original_language":"th","genres":["Drama","Action & Adventure","Sci-Fi & Fantasy"],"imdb_id":"","latest_uploaded_season":1,"total_uploaded_episodes":11},{"id":"65187","type":"tv","title":"One More Happy Ending","poster":"https://image.tmdb.org/t/p/w342/i4ZrXTE2z48MCzBtRuBbFHb5jTi.jpg","year":"2016","result":"HD","language":["Hindi"],"country":["KR"],"original_language":"ko","genres":["Comedy","Drama","Family"],"imdb_id":"tt5445338","latest_uploaded_season":1,"total_uploaded_episodes":32},{"id":"67272","type":"tv","title":"Shopaholic Louis","poster":"https://image.tmdb.org/t/p/w342/dxXgYXjBPr19ylM0f8kuY3bn8fM.jpg","year":"2016","result":"HD","language":["Hindi"],"country":["KR"],"original_language":"ko","genres":["Comedy","Drama"],"imdb_id":"tt5994306","latest_uploaded_season":1,"total_uploaded_episodes":16},{"id":"68349","type":"tv","title":"Weightlifting Fairy Kim Bok-joo","poster":"https://image.tmdb.org/t/p/w342/iLF6Jz6nL8uD8jKo6EvQ3XutDcR.jpg","year":"2016","result":"HD","language":["Hindi"],"country":["KR"],"original_language":"ko","genres":["Comedy","Drama"],"imdb_id":"tt6157148","latest_uploaded_season":1,"total_uploaded_episodes":16},{"id":"66271","type":"tv","title":"Lucky Romance","poster":"https://image.tmdb.org/t/p/w342/hH8nO4YuXMlNBJBYJ6iEmzwQqwD.jpg","year":"2016","result":"HD","language":["Hindi"],"country":["KR"],"original_language":"ko","genres":["Comedy"],"imdb_id":"tt5646500","latest_uploaded_season":1,"total_uploaded_episodes":16},{"id":"318781","type":"movie","title":"Colonia","poster":"https://image.tmdb.org/t/p/w342/p7oGFkMGaQR27R1olN9RoMzg4vS.jpg","year":"2016","result":"HD","language":["Hindi"],"country":["DE","LU","GB","FR"],"original_language":"de","genres":["Drama","History"],"imdb_id":"tt4005402"},{"id":"308529","type":"movie","title":"Kickboxer: Vengeance","poster":"https://image.tmdb.org/t/p/w342/9suFyXDE1MhZ8I8tuhmTd0fJ7G8.jpg","year":"2016","result":"HD","language":["Hindi"],"country":["US"],"original_language":"en","genres":["Action","Drama"],"imdb_id":"tt3082898"},{"id":"399173","type":"movie","title":"The Assignment","poster":"https://image.tmdb.org/t/p/w342/3wx83iGCATiIAyrZHI6AeeNfiAT.jpg","year":"2016","result":"HD","language":["Hindi"],"country":["US","FR"],"original_language":"en","genres":["Action","Crime","Thriller"],"imdb_id":"tt5034474"},{"id":"308453","type":"movie","title":"The Bronze","poster":"https://image.tmdb.org/t/p/w342/Ah2nD3Kml59svErVsz6DUsxlJ8.jpg","year":"2016","result":"HD","language":["Hindi"],"country":["US"],"original_language":"en","genres":["Drama","Comedy"],"imdb_id":"tt3859304"}]}