{"page":24,"total_pages":67,"total_items":3303,"items":[{"id":"301120","type":"tv","title":"Personal Trainer","poster":"https://image.tmdb.org/t/p/w342/jgQ8dkVJQkrbKYy4Qj2jIVl4lHk.jpg","year":"2025","result":"HD","language":["Hindi"],"country":["IN"],"original_language":"hi","genres":[],"imdb_id":"tt35629486","latest_uploaded_season":1,"total_uploaded_episodes":6},{"id":"301070","type":"tv","title":"Police Police","poster":"https://image.tmdb.org/t/p/w342/6R2yp5gnbyDBHoMChjTG5Uli5fC.jpg","year":"2025","result":"HD","language":["Hindi"],"country":["IN"],"original_language":"ta","genres":["Comedy","Drama"],"imdb_id":"tt37803840","latest_uploaded_season":1,"total_uploaded_episodes":8},{"id":"301001","type":"tv","title":"Mrs Playmen","poster":"https://image.tmdb.org/t/p/w342/aLwRvsuKhMjrCrAUUuw61cSuiOi.jpg","year":"2025","result":"HD","language":["Hindi"],"country":["IT"],"original_language":"it","genres":["Drama"],"imdb_id":"tt31078757","latest_uploaded_season":1,"total_uploaded_episodes":7},{"id":"300999","type":"tv","title":"True Haunting","poster":"https://image.tmdb.org/t/p/w342/8XK4kBkP7QVIPnl6dFfdPSCICs6.jpg","year":"2025","result":"HD","language":["Hindi"],"country":["US"],"original_language":"en","genres":["Documentary","Mystery"],"imdb_id":"tt38362312","latest_uploaded_season":1,"total_uploaded_episodes":5},{"id":"300894","type":"tv","title":"Kurukshetra","poster":"https://image.tmdb.org/t/p/w342/amNFukSD0hpj5omLkikfaNw42sp.jpg","year":"2025","result":"HD","language":["Hindi"],"country":["IN"],"original_language":"hi","genres":["Action & Adventure","Drama","Animation"],"imdb_id":"tt38235589","latest_uploaded_season":1,"total_uploaded_episodes":18},{"id":"300741","type":"tv","title":"The Game: You Never Play Alone","poster":"https://image.tmdb.org/t/p/w342/c7WlnmjQvcKIoaUtOzzb951Hc5E.jpg","year":"2025","result":"HD","language":["Hindi"],"country":["IN"],"original_language":"ta","genres":["Crime","Mystery"],"imdb_id":"tt38126232","latest_uploaded_season":1,"total_uploaded_episodes":7},{"id":"300594","type":"tv","title":"Is It Cake? Halloween","poster":"https://image.tmdb.org/t/p/w342/msfCGuLiZwLV8O5JZ3EoY6aeiim.jpg","year":"2025","result":"HD","language":["Hindi"],"country":["US"],"original_language":"en","genres":["Reality"],"imdb_id":"tt37610484","latest_uploaded_season":1,"total_uploaded_episodes":4},{"id":"300101","type":"tv","title":"Rishton Ka Chakravyuh","poster":"https://image.tmdb.org/t/p/w342/8dUfqpNLZXGUun3LJqPas6mDsXC.jpg","year":"2025","result":"HD","language":["Hindi"],"country":["US"],"original_language":"en","genres":[],"imdb_id":"","latest_uploaded_season":1,"total_uploaded_episodes":6},{"id":"299778","type":"tv","title":"Tatsuki Fujimoto 17-26","poster":"https://image.tmdb.org/t/p/w342/rVBxMx1IrBdxbxbBuOWK8kiurMB.jpg","year":"2025","result":"HD","language":["Hindi"],"country":["JP"],"original_language":"ja","genres":["Animation","Drama","Comedy","Sci-Fi & Fantasy"],"imdb_id":"tt38491451","latest_uploaded_season":1,"total_uploaded_episodes":8},{"id":"299713","type":"tv","title":"Simon Cowell: The Next Act","poster":"https://image.tmdb.org/t/p/w342/fHDbFaPAj0H1UuXUb7MVueHqrpb.jpg","year":"2025","result":"HD","language":["Hindi"],"country":["GB"],"original_language":"en","genres":["Reality"],"imdb_id":"tt37610565","latest_uploaded_season":1,"total_uploaded_episodes":6},{"id":"298699","type":"tv","title":"Dudes","poster":"https://image.tmdb.org/t/p/w342/mbKdopUfpIjLJOEUWoxrx3FVdh1.jpg","year":"2025","result":"HD","language":["Hindi"],"country":["DE"],"original_language":"de","genres":["Comedy"],"imdb_id":"tt33034757","latest_uploaded_season":1,"total_uploaded_episodes":8},{"id":"298234","type":"tv","title":"aka Charlie Sheen","poster":"https://image.tmdb.org/t/p/w342/pHAM8Fzek7xwTbqmaxPXAjCAjz1.jpg","year":"2025","result":"HD","language":["Hindi"],"country":["US"],"original_language":"en","genres":["Documentary"],"imdb_id":"tt37898320","latest_uploaded_season":1,"total_uploaded_episodes":2},{"id":"298187","type":"tv","title":"Sena - Guardians of the Nation","poster":"https://image.tmdb.org/t/p/w342/gCVzLTyHzgLDmZejInUtq4FeirN.jpg","year":"2025","result":"HD","language":["Hindi"],"country":["IN"],"original_language":"hi","genres":["Action & Adventure","Drama","War & Politics"],"imdb_id":"tt37813837","latest_uploaded_season":1,"total_uploaded_episodes":5},{"id":"298052","type":"tv","title":"Court Kacheri","poster":"https://image.tmdb.org/t/p/w342/vF8EPLO71t2eVdR3l7UgpMHrP3K.jpg","year":"2025","result":"HD","language":["Hindi"],"country":["IN"],"original_language":"hi","genres":["Comedy","Drama"],"imdb_id":"tt27518736","latest_uploaded_season":1,"total_uploaded_episodes":5},{"id":"297791","type":"tv","title":"Love Con Revenge","poster":"https://image.tmdb.org/t/p/w342/55nrhtg03edW32acGz0UEjWpKuO.jpg","year":"2025","result":"HD","language":["Hindi"],"country":["GB"],"original_language":"en","genres":["Crime","Documentary"],"imdb_id":"tt37694034","latest_uploaded_season":1,"total_uploaded_episodes":6},{"id":"297310","type":"tv","title":"Mayasabha","poster":"https://image.tmdb.org/t/p/w342/ddhOEoAqefgzcxlx5hIvkFpF9cw.jpg","year":"2025","result":"HD","language":["Hindi"],"country":["IN"],"original_language":"te","genres":["War & Politics","Drama"],"imdb_id":"tt15671624","latest_uploaded_season":1,"total_uploaded_episodes":9},{"id":"297206","type":"tv","title":"Bakaiti","poster":"https://image.tmdb.org/t/p/w342/hINeNo3c3ycZPlSh8MXqofZLMBw.jpg","year":"2025","result":"HD","language":["Hindi"],"country":["IN"],"original_language":"hi","genres":["Comedy","Family","Drama"],"imdb_id":"tt37594662","latest_uploaded_season":1,"total_uploaded_episodes":7},{"id":"297181","type":"tv","title":"Pyaar Yaa Paap","poster":"https://image.tmdb.org/t/p/w342/pj9XCImj3jq74MhLpI2kwflGqgl.jpg","year":"2025","result":"HD","language":["Hindi"],"country":["IN"],"original_language":"hi","genres":["Drama"],"imdb_id":"tt37779795","latest_uploaded_season":1,"total_uploaded_episodes":5},{"id":"296549","type":"tv","title":"Fit for TV: The Reality of the Biggest Loser","poster":"https://image.tmdb.org/t/p/w342/bxf5rfk5f0qYf3aH7vgh5zwh5Y7.jpg","year":"2025","result":"HD","language":["Hindi"],"country":["US"],"original_language":"en","genres":["Documentary"],"imdb_id":"tt37666468","latest_uploaded_season":1,"total_uploaded_episodes":3},{"id":"296547","type":"tv","title":"Rose Garden","poster":"https://image.tmdb.org/t/p/w342/7usDnfowGZn9tXQddl6SQb5eZ2d.jpg","year":"2025","result":"HD","language":["Hindi"],"country":["US"],"original_language":"en","genres":[],"imdb_id":"tt37618499","latest_uploaded_season":1,"total_uploaded_episodes":1},{"id":"296253","type":"tv","title":"Sattamum Needhiyum","poster":"https://image.tmdb.org/t/p/w342/ocYBlbuQvCFgNFyNrkxXcOgI7hD.jpg","year":"2025","result":"HD","language":["Hindi"],"country":["IN"],"original_language":"ta","genres":["Crime","Drama"],"imdb_id":"tt37539312","latest_uploaded_season":1,"total_uploaded_episodes":7},{"id":"296243","type":"tv","title":"Unburied","poster":"https://image.tmdb.org/t/p/w342/nL8b75uzqtQliip7R3smUXI8wAd.jpg","year":"2025","result":"HD","language":["Hindi"],"country":["MX"],"original_language":"es","genres":["Mystery","Drama"],"imdb_id":"tt33038523","latest_uploaded_season":1,"total_uploaded_episodes":7},{"id":"295719","type":"tv","title":"Mitti – Ek Nayi Pehchaan","poster":"https://image.tmdb.org/t/p/w342/443pEkTNjSY4Y8PjIzJfxSslRYw.jpg","year":"2025","result":"HD","language":["Hindi"],"country":["IN"],"original_language":"hi","genres":["Drama","Family"],"imdb_id":"tt35671329","latest_uploaded_season":1,"total_uploaded_episodes":8},{"id":"295241","type":"tv","title":"AIR","poster":"https://image.tmdb.org/t/p/w342/uU4zmRjkPXb25qrC8tfs1xFwBCG.jpg","year":"2025","result":"HD","language":["Hindi"],"country":["IN"],"original_language":"te","genres":["Drama","Comedy"],"imdb_id":"tt37356230","latest_uploaded_season":1,"total_uploaded_episodes":7},{"id":"294765","type":"tv","title":"Badass Begum","poster":"https://i.ibb.co/LXyCLw0M/Gemini-Generated-Image-8v0dev8v0dev8v0d.avif","year":"2025","result":"HD","language":["Hindi"],"country":["US"],"original_language":"en","genres":[],"imdb_id":"","latest_uploaded_season":1,"total_uploaded_episodes":1},{"id":"294454","type":"tv","title":"Her Feast","poster":"https://image.tmdb.org/t/p/w342/o9NMTYfdb3iMYpVNlVsS3deNj3d.jpg","year":"2025","result":"HD","language":["Hindi"],"country":["CN"],"original_language":"zh","genres":["Drama"],"imdb_id":"","latest_uploaded_season":1,"total_uploaded_episodes":28},{"id":"294409","type":"tv","title":"Mistry","poster":"https://image.tmdb.org/t/p/w342/7f6E0EcFcWNWgsUXrKo379iSo4S.jpg","year":"2025","result":"HD","language":["Hindi"],"country":["IN"],"original_language":"hi","genres":["Comedy","Mystery"],"imdb_id":"tt37048622","latest_uploaded_season":1,"total_uploaded_episodes":8},{"id":"294349","type":"tv","title":"Absolute 100","poster":"https://image.tmdb.org/t/p/w342/kzAXtcLadIMhoDT7D7CSjqfRDHr.jpg","year":"2025","result":"HD","language":["Hindi"],"country":["RS"],"original_language":"sr","genres":["Crime","Drama"],"imdb_id":"tt21387378","latest_uploaded_season":1,"total_uploaded_episodes":6},{"id":"294240","type":"tv","title":"First Copy","poster":"https://image.tmdb.org/t/p/w342/n0IlJt6HYjtivIF8vrW9MR0VUqy.jpg","year":"2025","result":"HD","language":["Hindi"],"country":["IN"],"original_language":"hi","genres":["Drama"],"imdb_id":"tt32104971","latest_uploaded_season":2,"total_uploaded_episodes":20},{"id":"294194","type":"tv","title":"Salakaar","poster":"https://image.tmdb.org/t/p/w342/n24ETnrCNuKX4O5CnQhy0lmZLYn.jpg","year":"2025","result":"HD","language":["Hindi"],"country":["IN"],"original_language":"hi","genres":["Action & Adventure"],"imdb_id":"tt35077054","latest_uploaded_season":1,"total_uploaded_episodes":5},{"id":"294178","type":"tv","title":"Good Wife","poster":"https://image.tmdb.org/t/p/w342/7Z6yxgUaiIsOcIrVeuAbDvwIYej.jpg","year":"2025","result":"HD","language":["Hindi"],"country":["IN"],"original_language":"ta","genres":["Family","Mystery","Crime"],"imdb_id":"tt33702419","latest_uploaded_season":1,"total_uploaded_episodes":6},{"id":"293836","type":"tv","title":"Judwaa Jaal","poster":"https://image.tmdb.org/t/p/w342/uGSENX7JLAhGXH8Zv26XXSwkFvI.jpg","year":"2025","result":"HD","language":["Hindi"],"country":["IN"],"original_language":"hi","genres":["Crime","Drama","Mystery"],"imdb_id":"tt37283288","latest_uploaded_season":1,"total_uploaded_episodes":6},{"id":"293767","type":"tv","title":"Andhar Maya","poster":"https://image.tmdb.org/t/p/w342/63wRmnXmXeEPBWZch4FLg4Urkuc.jpg","year":"2025","result":"HD","language":["Hindi"],"country":["IN"],"original_language":"mr","genres":["Drama"],"imdb_id":"tt36985214","latest_uploaded_season":1,"total_uploaded_episodes":1},{"id":"293690","type":"tv","title":"Gamerlog","poster":"https://image.tmdb.org/t/p/w342/j6i7S4E6ryjmNlPI2yyv5Wtjca9.jpg","year":"2025","result":"HD","language":["Hindi"],"country":["IN"],"original_language":"hi","genres":["Comedy","Drama","Family"],"imdb_id":"tt37184276","latest_uploaded_season":1,"total_uploaded_episodes":1},{"id":"293613","type":"tv","title":"Physical: Asia","poster":"https://image.tmdb.org/t/p/w342/osa3I6CuabnCEpNgFOvFMLLS7yP.jpg","year":"2025","result":"HD","language":["Hindi"],"country":["KR"],"original_language":"ko","genres":["Reality"],"imdb_id":"tt35664835","latest_uploaded_season":1,"total_uploaded_episodes":12},{"id":"293267","type":"tv","title":"Lafangey - Sapne, Dosti, Duniya","poster":"https://image.tmdb.org/t/p/w342/n8EtpcujR0USbTaIzPPaEK2R1CH.jpg","year":"2025","result":"HD","language":["Hindi"],"country":["IN"],"original_language":"hi","genres":["Comedy","Drama"],"imdb_id":"tt32614074","latest_uploaded_season":1,"total_uploaded_episodes":1},{"id":"293254","type":"tv","title":"Chhal Kapat - The Deception","poster":"https://image.tmdb.org/t/p/w342/dIVZCdFpkgH6NIIMFHKP2ym7WLG.jpg","year":"2025","result":"HD","language":["Hindi"],"country":["IN"],"original_language":"hi","genres":["Drama"],"imdb_id":"tt37048418","latest_uploaded_season":1,"total_uploaded_episodes":1},{"id":"293160","type":"tv","title":"Devika & Danny","poster":"https://image.tmdb.org/t/p/w342/aZelNQtcuqS5Q9hav2EwZhMB8LD.jpg","year":"2025","result":"HD","language":["Hindi"],"country":["IN"],"original_language":"te","genres":["Comedy"],"imdb_id":"tt36912840","latest_uploaded_season":1,"total_uploaded_episodes":1},{"id":"292625","type":"tv","title":"Single Papa","poster":"https://image.tmdb.org/t/p/w342/kSj4h1uVAKGn9yVjJTC1tQGcnoZ.jpg","year":"2025","result":"HD","language":["Hindi"],"country":["IN"],"original_language":"hi","genres":["Comedy","Drama"],"imdb_id":"tt37062070","latest_uploaded_season":1,"total_uploaded_episodes":6},{"id":"292392","type":"tv","title":"Kankhajura","poster":"https://image.tmdb.org/t/p/w342/iUeaGrvXb3ZzxdIHq4grKOLTl5s.jpg","year":"2025","result":"HD","language":["Hindi"],"country":["IN"],"original_language":"hi","genres":["Drama","Crime"],"imdb_id":"tt30820007","latest_uploaded_season":1,"total_uploaded_episodes":1},{"id":"292127","type":"tv","title":"Knock Knock…Kaun Hai?","poster":"https://image.tmdb.org/t/p/w342/iKo0zu7PPN73oaVdr1mfdHg3tan.jpg","year":"2025","result":"HD","language":["Hindi"],"country":["IN"],"original_language":"hi","genres":["Mystery","Drama"],"imdb_id":"tt37049584","latest_uploaded_season":1,"total_uploaded_episodes":1},{"id":"290802","type":"tv","title":"Pyar Paisa Profit","poster":"https://image.tmdb.org/t/p/w342/xj8s2epLDDJvEB9kBnTscdm6V0v.jpg","year":"2025","result":"HD","language":["Hindi"],"country":["IN"],"original_language":"hi","genres":["Drama"],"imdb_id":"tt35671711","latest_uploaded_season":1,"total_uploaded_episodes":1},{"id":"290214","type":"tv","title":"Criminal Justice: A Family Matter","poster":"https://image.tmdb.org/t/p/w342/9puBY2DdW3xOynWK5cqH3M2ZwJG.jpg","year":"2025","result":"HD","language":["Hindi"],"country":["IN"],"original_language":"hi","genres":["Crime","Mystery","Drama"],"imdb_id":"tt36813889","latest_uploaded_season":1,"total_uploaded_episodes":8},{"id":"290160","type":"tv","title":"Marry My Husband: Japan","poster":"https://image.tmdb.org/t/p/w342/mxBKb1DEqzhUUHh9EI1H7ZVErRD.jpg","year":"2025","result":"HD","language":["Hindi"],"country":["JP"],"original_language":"ja","genres":["Drama","Comedy","Sci-Fi & Fantasy"],"imdb_id":"tt36838547","latest_uploaded_season":1,"total_uploaded_episodes":10},{"id":"290148","type":"tv","title":"Formula E: DRIVER","poster":"https://image.tmdb.org/t/p/w342/s4FE3H2L91JaXh95EgGzfIVwNl6.jpg","year":"2025","result":"HD","language":["Hindi"],"country":["GB"],"original_language":"en","genres":["Documentary"],"imdb_id":"tt36674331","latest_uploaded_season":1,"total_uploaded_episodes":4},{"id":"290138","type":"tv","title":"Gram Chikitsalay","poster":"https://image.tmdb.org/t/p/w342/8skEAMrP1U7iQuHt3ce8V48dp5w.jpg","year":"2025","result":"HD","language":["Hindi"],"country":["IN"],"original_language":"hi","genres":["Comedy","Drama"],"imdb_id":"tt34773311","latest_uploaded_season":1,"total_uploaded_episodes":5},{"id":"289656","type":"tv","title":"Kodai Diaries","poster":"https://image.tmdb.org/t/p/w342/sG90D0atz26PcWVFcUYSbL2mUtu.jpg","year":"2025","result":"HD","language":["Hindi"],"country":["IN"],"original_language":"hi","genres":["Crime"],"imdb_id":"","latest_uploaded_season":1,"total_uploaded_episodes":1},{"id":"289429","type":"tv","title":"Hai Junoon!","poster":"https://image.tmdb.org/t/p/w342/xwVZ2pYgzAkkbWeBYSNs0431aub.jpg","year":"2025","result":"HD","language":["Hindi"],"country":["IN"],"original_language":"hi","genres":["Drama"],"imdb_id":"","latest_uploaded_season":1,"total_uploaded_episodes":0},{"id":"289222","type":"tv","title":"Kull: The Legacy of the Raisingghs","poster":"https://image.tmdb.org/t/p/w342/9Hyt7uiMMARtySYz7PCJCuua3uk.jpg","year":"2025","result":"HD","language":["Hindi"],"country":["IN"],"original_language":"hi","genres":["Drama"],"imdb_id":"tt32235809","latest_uploaded_season":1,"total_uploaded_episodes":8},{"id":"287568","type":"tv","title":"Kill Dill - The Heartbreak Club","poster":"https://image.tmdb.org/t/p/w342/aWi6wW7R5x12dq6TyzNueR7WemE.jpg","year":"2025","result":"HD","language":["Hindi"],"country":["IN"],"original_language":"hi","genres":["Drama","Mystery"],"imdb_id":"tt35671670","latest_uploaded_season":1,"total_uploaded_episodes":10}]}