{"page":49,"total_pages":67,"total_items":3303,"items":[{"id":"1172012","type":"movie","title":"Death Stranding","poster":"https://image.tmdb.org/t/p/w342/fH8RLXpAT1V32DebOdPCv45rbuZ.jpg","year":"2023","result":"HD","language":["Hindi"],"country":["CN","HK"],"original_language":"zh","genres":["Drama","Action","Thriller"],"imdb_id":"tt29571399"},{"id":"1170678","type":"movie","title":"Subhedar","poster":"https://image.tmdb.org/t/p/w342/vnM26ChrGes8dlT106LK9g3kaQu.jpg","year":"2023","result":"HD","language":["Hindi"],"country":["IN"],"original_language":"mr","genres":["Drama","History"],"imdb_id":"tt25396050"},{"id":"1154990","type":"movie","title":"Web","poster":"https://image.tmdb.org/t/p/w342/lU1Brm86Ez7JM16HEpH74Sxvtbd.jpg","year":"2023","result":"HD","language":["Hindi"],"country":["IN"],"original_language":"ta","genres":["Thriller"],"imdb_id":"tt15561204"},{"id":"1150622","type":"movie","title":"Extra Ordinary Man","poster":"https://image.tmdb.org/t/p/w342/bOym2XLkyDcYVvX5sZ6YYm19xXT.jpg","year":"2023","result":"HD","language":["Hindi"],"country":["IN"],"original_language":"te","genres":["Action","Drama"],"imdb_id":"tt23846664"},{"id":"1121899","type":"movie","title":"Hard Copy","poster":"https://image.tmdb.org/t/p/w342/rmeFSzjQKlFQ5Arwh7UGu23odAM.jpg","year":"2023","result":"HD","language":["Hindi"],"country":["GB"],"original_language":"en","genres":["Thriller"],"imdb_id":"tt24802774"},{"id":"1113565","type":"movie","title":"Yaaran Da Rutbaa","poster":"https://image.tmdb.org/t/p/w342/w2P0BCRDun0E31zenFnEteozpSZ.jpg","year":"2023","result":"HD","language":["Hindi"],"country":[],"original_language":"en","genres":["Action","Drama"],"imdb_id":"tt27127629"},{"id":"1112175","type":"movie","title":"Never Say Never","poster":"https://image.tmdb.org/t/p/w342/xj8JmcJhqShEm5pdBCpOevAjFzE.jpg","year":"2023","result":"HD","language":["Hindi"],"country":["CN"],"original_language":"zh","genres":["Drama","Action"],"imdb_id":"tt20865116"},{"id":"1098110","type":"movie","title":"Blood & Gold","poster":"https://image.tmdb.org/t/p/w342/oLRQP5cEjiT1DxeIHUYEV96Ijum.jpg","year":"2023","result":"HD","language":["Hindi"],"country":["DE"],"original_language":"de","genres":["Action","Drama","War"],"imdb_id":"tt18073328"},{"id":"1096417","type":"movie","title":"Sathi Gani Rendu Ekaralu","poster":"https://image.tmdb.org/t/p/w342/nTfvnH68dnKhTJ2vqd0F1wYG8sm.jpg","year":"2023","result":"HD","language":["Hindi"],"country":["IN"],"original_language":"te","genres":["Comedy","Drama"],"imdb_id":"tt27048587"},{"id":"1093485","type":"movie","title":"The White Storm 3: Heaven or Hell","poster":"https://image.tmdb.org/t/p/w342/xtsEksiUjysMYv4gxdRQcbu2v6V.jpg","year":"2023","result":"HD","language":["Hindi"],"country":["CN","HK"],"original_language":"cn","genres":["Action","Crime","Thriller"],"imdb_id":"tt26929966"},{"id":"1062807","type":"movie","title":"SPY x FAMILY CODE: White","poster":"https://image.tmdb.org/t/p/w342/xlIQf4y9eB14iYzNN142tROIWON.jpg","year":"2023","result":"HD","language":["Hindi"],"country":["JP"],"original_language":"ja","genres":["Animation","Comedy","Adventure","Action"],"imdb_id":"tt26684398"},{"id":"1045394","type":"movie","title":"Butta Bomma","poster":"https://image.tmdb.org/t/p/w342/9h3yEeMgdISHwU3gJOUC3oWrqUV.jpg","year":"2023","result":"HD","language":["Hindi"],"country":["IN"],"original_language":"te","genres":["Drama","Romance"],"imdb_id":"tt23490324"},{"id":"999056","type":"movie","title":"I Did It My Way","poster":"https://image.tmdb.org/t/p/w342/tisEbLoPUUFbhiVY4yFaEDnYfW0.jpg","year":"2023","result":"HD","language":["Hindi"],"country":["CN","HK"],"original_language":"cn","genres":["Action","Crime","Drama"],"imdb_id":"tt21330770"},{"id":"967726","type":"movie","title":"The Road","poster":"https://image.tmdb.org/t/p/w342/A9prlw2TJNZtXaee5Whuk02fZw.jpg","year":"2023","result":"HD","language":["Hindi"],"country":["IN"],"original_language":"ta","genres":["Thriller","Drama"],"imdb_id":"tt27678795"},{"id":"964980","type":"movie","title":"Air","poster":"https://image.tmdb.org/t/p/w342/76AKQPdH3M8cvsFR9K8JsOzVlY5.jpg","year":"2023","result":"HD","language":["Hindi"],"country":["US"],"original_language":"en","genres":["Drama","History"],"imdb_id":"tt16419074"},{"id":"955555","type":"movie","title":"The Roundup 3: No Way Out","poster":"https://image.tmdb.org/t/p/w342/lW6IHrtaATxDKYVYoQGU5sh0OVm.jpg","year":"2023","result":"HD","language":["Hindi"],"country":["KR"],"original_language":"ko","genres":["Action","Crime","Comedy","Thriller"],"imdb_id":"tt21364552"},{"id":"942411","type":"movie","title":"Mrs.","poster":"https://image.tmdb.org/t/p/w342/e2coys6g8PRqiP0sHEA2T6uLkEf.jpg","year":"2023","result":"HD","language":["Hindi"],"country":["IN"],"original_language":"hi","genres":["Drama"],"imdb_id":"tt27032419"},{"id":"936243","type":"movie","title":"Rebound","poster":"https://image.tmdb.org/t/p/w342/cioCtpRThVQB5UDnwDSGIljIu3j.jpg","year":"2023","result":"HD","language":["Hindi"],"country":["KR"],"original_language":"ko","genres":["Drama"],"imdb_id":"tt27002199"},{"id":"926900","type":"movie","title":"Thalainagaram 2","poster":"https://image.tmdb.org/t/p/w342/kU4HJWiS6qqPtzTtigTRRnTQGaZ.jpg","year":"2023","result":"HD","language":["Hindi"],"country":["IN"],"original_language":"ta","genres":["Action","Crime","Drama"],"imdb_id":"tt15478046"},{"id":"899524","type":"movie","title":"Golda","poster":"https://image.tmdb.org/t/p/w342/fqOOLq12rOMCTcWzxaJ5VUROxp3.jpg","year":"2023","result":"HD","language":["Hindi"],"country":["GB","US"],"original_language":"en","genres":["Drama","History","War"],"imdb_id":"tt14454876"},{"id":"875556","type":"movie","title":"Aneethi","poster":"https://image.tmdb.org/t/p/w342/mBb8HNk1Iz7jeZxqhaFPEWXbLxs.jpg","year":"2023","result":"HD","language":["Hindi"],"country":["IN"],"original_language":"ta","genres":["Thriller","Drama"],"imdb_id":"tt15327052"},{"id":"872585","type":"movie","title":"Oppenheimer","poster":"https://image.tmdb.org/t/p/w342/8Gxv8gSFCU0XGDykEGv7zR1n2ua.jpg","year":"2023","result":"HD","language":["Hindi"],"country":["GB","US"],"original_language":"en","genres":["Drama","History"],"imdb_id":"tt15398776"},{"id":"812225","type":"movie","title":"Black Clover: Sword of the Wizard King","poster":"https://image.tmdb.org/t/p/w342/9YEGawvjaRgnyW6QVcUhFJPFDco.jpg","year":"2023","result":"HD","language":["Hindi"],"country":["JP"],"original_language":"ja","genres":["Animation","Fantasy","Action","Adventure"],"imdb_id":"tt22868844"},{"id":"758323","type":"movie","title":"The Pope's Exorcist","poster":"https://image.tmdb.org/t/p/w342/jFC4LS5qTAT3PinzdEzINfu1CV9.jpg","year":"2023","result":"HD","language":["Hindi"],"country":["US"],"original_language":"en","genres":["Horror","Thriller"],"imdb_id":"tt13375076"},{"id":"713704","type":"movie","title":"Evil Dead Rise","poster":"https://image.tmdb.org/t/p/w342/5ik4ATKmNtmJU6AYD0bLm56BCVM.jpg","year":"2023","result":"HD","language":["Hindi"],"country":["IE","NZ","US"],"original_language":"en","genres":["Horror","Thriller"],"imdb_id":"tt13345606"},{"id":"241065","type":"tv","title":"Got a Crush on You","poster":"https://image.tmdb.org/t/p/w342/s53AleCEotfCfAR36MXDLmtQ9pt.jpg","year":"2023","result":"HD","language":["Hindi"],"country":["CN"],"original_language":"zh","genres":["Drama"],"imdb_id":"tt30333827","latest_uploaded_season":1,"total_uploaded_episodes":26},{"id":"240715","type":"tv","title":"Snap and Spark","poster":"https://image.tmdb.org/t/p/w342/w2vK0lTyUkyOl8tPrTkaxi69kKv.jpg","year":"2023","result":"HD","language":["Hindi"],"country":["KR"],"original_language":"ko","genres":["Drama"],"imdb_id":"tt30454687","latest_uploaded_season":1,"total_uploaded_episodes":8},{"id":"240231","type":"tv","title":"I May Love You","poster":"https://image.tmdb.org/t/p/w342/rJeDxVpQFXc88MC8U4nucSSbNsb.jpg","year":"2023","result":"HD","language":["Hindi"],"country":["CN"],"original_language":"zh","genres":["Drama"],"imdb_id":"","latest_uploaded_season":1,"total_uploaded_episodes":24},{"id":"237918","type":"tv","title":"Derailment","poster":"https://image.tmdb.org/t/p/w342/eVnw1ATwtaTjcbZjUe61JK6OuzH.jpg","year":"2023","result":"HD","language":["Hindi"],"country":["CN"],"original_language":"zh","genres":["Drama","Sci-Fi & Fantasy"],"imdb_id":"tt29367004","latest_uploaded_season":1,"total_uploaded_episodes":30},{"id":"233571","type":"tv","title":"Sunshine by My Side","poster":"https://image.tmdb.org/t/p/w342/bDcGmCuqliWyRYFMeAbq7m1B3HO.jpg","year":"2023","result":"HD","language":["Hindi"],"country":["CN"],"original_language":"zh","genres":["Drama","Comedy"],"imdb_id":"tt28115920","latest_uploaded_season":1,"total_uploaded_episodes":36},{"id":"233194","type":"tv","title":"Only for Love","poster":"https://image.tmdb.org/t/p/w342/aSDZcX0FIJJRMNiL7n9J39LyK46.jpg","year":"2023","result":"HD","language":["Hindi"],"country":["CN"],"original_language":"zh","genres":["Drama","Comedy"],"imdb_id":"tt29366100","latest_uploaded_season":1,"total_uploaded_episodes":36},{"id":"232441","type":"tv","title":"You Are Desire","poster":"https://image.tmdb.org/t/p/w342/93J5YpXVuu67zMbBBWJl7hUtuSp.jpg","year":"2023","result":"HD","language":["Hindi"],"country":["CN"],"original_language":"zh","genres":["Drama"],"imdb_id":"tt28639316","latest_uploaded_season":1,"total_uploaded_episodes":30},{"id":"228520","type":"tv","title":"My Marvellous Fable","poster":"https://image.tmdb.org/t/p/w342/4KfIWmhkrhpomhbEFDpbDFEtDhj.jpg","year":"2023","result":"HD","language":["Hindi"],"country":["CN"],"original_language":"zh","genres":["Drama","Sci-Fi & Fantasy"],"imdb_id":"tt18263306","latest_uploaded_season":1,"total_uploaded_episodes":24},{"id":"226331","type":"tv","title":"The Villain of Romance","poster":"https://image.tmdb.org/t/p/w342/j5tHg0pW6u7VGVZ85udS2sazKpz.jpg","year":"2023","result":"HD","language":["Hindi"],"country":["KR"],"original_language":"ko","genres":["Drama","Comedy"],"imdb_id":"tt27917165","latest_uploaded_season":1,"total_uploaded_episodes":20},{"id":"226066","type":"tv","title":"Sweet and Cold","poster":"https://image.tmdb.org/t/p/w342/45YZhsTJp99hY7lR7jlzSxiGG7Y.jpg","year":"2023","result":"HD","language":["Hindi"],"country":["CN"],"original_language":"zh","genres":["Drama"],"imdb_id":"tt27678448","latest_uploaded_season":1,"total_uploaded_episodes":31},{"id":"224552","type":"tv","title":"Love of Replica","poster":"https://image.tmdb.org/t/p/w342/9B9Ap6NbGlikEA8B01WfilAsXT9.jpg","year":"2023","result":"HD","language":["Hindi"],"country":["CN"],"original_language":"zh","genres":["Drama","Mystery","Sci-Fi & Fantasy"],"imdb_id":"tt28543811","latest_uploaded_season":1,"total_uploaded_episodes":16},{"id":"221301","type":"tv","title":"Pokémon Concierge","poster":"https://image.tmdb.org/t/p/w342/2k53AsWsLrMtcbFyH0nVOqQjj2x.jpg","year":"2023","result":"HD","language":["Hindi"],"country":["JP"],"original_language":"ja","genres":["Animation","Family"],"imdb_id":"tt26916286","latest_uploaded_season":1,"total_uploaded_episodes":8},{"id":"220542","type":"tv","title":"The Apothecary Diaries","poster":"https://image.tmdb.org/t/p/w342/e3ojpANrFnmJCyeBNTinYwyBCIN.jpg","year":"2023","result":"HD","language":["Hindi"],"country":["JP"],"original_language":"ja","genres":["Animation","Drama","Mystery"],"imdb_id":"tt26743760","latest_uploaded_season":1,"total_uploaded_episodes":48},{"id":"219713","type":"tv","title":"Love Me Like I Do","poster":"https://image.tmdb.org/t/p/w342/n59SWxZeFrPwcYjK3krMHuEfFjh.jpg","year":"2023","result":"HD","language":["Hindi"],"country":["CN"],"original_language":"zh","genres":["Drama","Comedy"],"imdb_id":"tt26747306","latest_uploaded_season":1,"total_uploaded_episodes":18},{"id":"219160","type":"tv","title":"23:23","poster":"https://image.tmdb.org/t/p/w342/3qTThjT0EmW1eRdnUOF7qC5zji8.jpg","year":"2023","result":"HD","language":["Hindi"],"country":["TH"],"original_language":"th","genres":["Drama","Mystery","Sci-Fi & Fantasy"],"imdb_id":"","latest_uploaded_season":1,"total_uploaded_episodes":18},{"id":"218539","type":"tv","title":"My Demon","poster":"https://image.tmdb.org/t/p/w342/xBnscv5BrJREKVSvh0le61y4KDk.jpg","year":"2023","result":"HD","language":["Hindi"],"country":["KR"],"original_language":"ko","genres":["Drama","Comedy"],"imdb_id":"tt29569035","latest_uploaded_season":1,"total_uploaded_episodes":16},{"id":"218238","type":"tv","title":"My Lethal Man","poster":"https://image.tmdb.org/t/p/w342/ykKbuBoY3pf1lvjpfhWfrS1NTxY.jpg","year":"2023","result":"HD","language":["Hindi"],"country":["CN"],"original_language":"zh","genres":["Drama","Mystery"],"imdb_id":"tt26287941","latest_uploaded_season":1,"total_uploaded_episodes":24},{"id":"218230","type":"tv","title":"Death's Game","poster":"https://image.tmdb.org/t/p/w342/ecM5MY9g2mF6x5SrB2QWOYkcH98.jpg","year":"2023","result":"HD","language":["E-Subtitles"],"country":["KR"],"original_language":"ko","genres":["Drama","Sci-Fi & Fantasy"],"imdb_id":"tt26225038","latest_uploaded_season":1,"total_uploaded_episodes":8},{"id":"216445","type":"tv","title":"Fireworks of My Heart","poster":"https://image.tmdb.org/t/p/w342/ecF1kGP2tlCpoWXVsaeYP3W6dZb.jpg","year":"2023","result":"HD","language":["Hindi"],"country":["CN"],"original_language":"zh","genres":["Action & Adventure","Drama"],"imdb_id":"tt24532414","latest_uploaded_season":1,"total_uploaded_episodes":40},{"id":"214478","type":"tv","title":"Road Home","poster":"https://image.tmdb.org/t/p/w342/5NmLByu3hHyV5xQIxr4ARxBMkVI.jpg","year":"2023","result":"HD","language":["Hindi"],"country":["CN"],"original_language":"zh","genres":["Drama"],"imdb_id":"tt27137489","latest_uploaded_season":1,"total_uploaded_episodes":30},{"id":"213331","type":"tv","title":"Berserk of Gluttony","poster":"https://image.tmdb.org/t/p/w342/wQMcq5YUjMfoIEqLRzrNQVt4ROl.jpg","year":"2023","result":"HD","language":["Hindi"],"country":["JP"],"original_language":"ja","genres":["Animation","Sci-Fi & Fantasy"],"imdb_id":"tt28685497","latest_uploaded_season":1,"total_uploaded_episodes":12},{"id":"212204","type":"tv","title":"Twinkling Watermelon","poster":"https://image.tmdb.org/t/p/w342/shuGzwtsLoODpa5unPq6aS3Gejm.jpg","year":"2023","result":"HD","language":["Hindi"],"country":["KR"],"original_language":"ko","genres":["Sci-Fi & Fantasy","Drama"],"imdb_id":"tt27446493","latest_uploaded_season":1,"total_uploaded_episodes":16},{"id":"210879","type":"tv","title":"Rurouni Kenshin","poster":"https://image.tmdb.org/t/p/w342/zT77Y6iQGmYGBqbhQi0ySD60o9i.jpg","year":"2023","result":"HD","language":["Hindi"],"country":["JP"],"original_language":"ja","genres":["Animation","Action & Adventure"],"imdb_id":"tt22249034","latest_uploaded_season":1,"total_uploaded_episodes":47},{"id":"210781","type":"tv","title":"My Lovely Liar","poster":"https://image.tmdb.org/t/p/w342/msYlN0cIpuTKlWYnEStdoBuHmvX.jpg","year":"2023","result":"HD","language":["Hindi"],"country":["KR"],"original_language":"ko","genres":["Mystery","Comedy","Drama","Sci-Fi & Fantasy"],"imdb_id":"tt27203727","latest_uploaded_season":1,"total_uploaded_episodes":16},{"id":"210580","type":"tv","title":"Nothing But You","poster":"https://image.tmdb.org/t/p/w342/qdT8Pn6e4IogDI6LK1ymjVoeJ0c.jpg","year":"2023","result":"HD","language":["Hindi"],"country":["CN"],"original_language":"zh","genres":["Drama"],"imdb_id":"tt27206885","latest_uploaded_season":1,"total_uploaded_episodes":38}]}