{"page":65,"total_pages":67,"total_items":3303,"items":[{"id":"808","type":"movie","title":"Shrek","poster":"https://image.tmdb.org/t/p/w342/iB64vpL3dIObOtMZgX3RqdVdQDc.jpg","year":"2001","result":"HD","language":["Hindi"],"country":["US"],"original_language":"en","genres":["Animation","Comedy","Fantasy","Adventure","Family"],"imdb_id":"tt0126029"},{"id":"11397","type":"movie","title":"Not Another Teen Movie","poster":"https://image.tmdb.org/t/p/w342/9ZaGxvj1mqdKVLpSloq4mzS7SK6.jpg","year":"2001","result":"HD","language":["Hindi"],"country":["US"],"original_language":"en","genres":["Comedy"],"imdb_id":"tt0277371"},{"id":"4248","type":"movie","title":"Scary Movie 2","poster":"https://image.tmdb.org/t/p/w342/7Eb1JWK0Cb0rbfsYjwfc9g0PbQH.jpg","year":"2001","result":"HD","language":["Hindi"],"country":["US"],"original_language":"en","genres":["Comedy"],"imdb_id":"tt0257106"},{"id":"80847","type":"movie","title":"Women of the Night","poster":"https://image.tmdb.org/t/p/w342/2NpJtHSK5EOhS9L8Bu0xGJXbPc7.jpg","year":"2001","result":"HD","language":["Hindi"],"country":["US"],"original_language":"en","genres":["Thriller","Romance"],"imdb_id":"tt0177997"},{"id":"1018","type":"movie","title":"Mulholland Drive","poster":"https://image.tmdb.org/t/p/w342/x7A59t6ySylr1L7aubOQEA480vM.jpg","year":"2001","result":"HD","language":["ENGLISH"],"country":["FR","US"],"original_language":"en","genres":["Thriller","Drama","Mystery"],"imdb_id":"tt0166924"},{"id":"4435","type":"movie","title":"Aśoka","poster":"https://image.tmdb.org/t/p/w342/ckFDMqLjhsYo2kH3X5auV1NnjPM.jpg","year":"2001","result":"HD","language":["Hindi"],"country":["IN"],"original_language":"hi","genres":["Action","Adventure","Drama","History","Romance","War"],"imdb_id":"tt0249371"},{"id":"9378","type":"movie","title":"Thir13en Ghosts","poster":"https://image.tmdb.org/t/p/w342/6yrrddjIjx0ElCRZp5pTZeqrj3k.jpg","year":"2001","result":"HD","language":["Hindi"],"country":["US"],"original_language":"en","genres":["Horror","Thriller"],"imdb_id":"tt0245674"},{"id":"129","type":"movie","title":"Spirited Away","poster":"https://image.tmdb.org/t/p/w342/39wmItIWsg5sZMyRUHLkWBcuVCM.jpg","year":"2001","result":"HD","language":["Hindi"],"country":["JP"],"original_language":"ja","genres":["Animation","Family","Fantasy"],"imdb_id":"tt0245429"},{"id":"120","type":"movie","title":"The Lord of the Rings: The Fellowship of the Ring","poster":"https://image.tmdb.org/t/p/w342/6oom5QYQ2yQTMJIbnvbkBL9cHo6.jpg","year":"2001","result":"HD","language":["Hindi"],"country":["NZ","US"],"original_language":"en","genres":["Adventure","Fantasy","Action"],"imdb_id":"tt0120737"},{"id":"31352","type":"movie","title":"Doraemon: Nobita and the Legend of the Sun King","poster":"https://image.tmdb.org/t/p/w342/aBPaU4bnqrnKrKe0gi6nC9qvlLj.jpg","year":"2000","result":"HD","language":["Hindi"],"country":["JP"],"original_language":"ja","genres":["Animation","Adventure","Fantasy","Science Fiction","Family"],"imdb_id":"tt1147513"},{"id":"19576","type":"movie","title":"One Piece: The Movie","poster":"https://image.tmdb.org/t/p/w342/6QOrTYafoqzXPWLnR2K8129jTHH.jpg","year":"2000","result":"HD","language":["Hindi"],"country":["JP"],"original_language":"ja","genres":["Action","Animation","Adventure","Comedy","Fantasy"],"imdb_id":"tt0814243"},{"id":"6282","type":"movie","title":"Coyote Ugly","poster":"https://image.tmdb.org/t/p/w342/xYM0laKrEqjiRSQNvqRrXPXN3iL.jpg","year":"2000","result":"HD","language":["Hindi"],"country":["US"],"original_language":"en","genres":["Comedy","Drama","Music","Romance"],"imdb_id":"tt0200550"},{"id":"5458","type":"movie","title":"Cruel Intentions 2","poster":"https://image.tmdb.org/t/p/w342/soO0nrnh9lEdTgGFBT0IIvejwcK.jpg","year":"2000","result":"HD","language":["Hindi"],"country":["US"],"original_language":"en","genres":["Drama"],"imdb_id":"tt0196267"},{"id":"64883","type":"movie","title":"Faust: Love of the Damned","poster":"https://image.tmdb.org/t/p/w342/qewddAmFcD2XoGc4w1YwNdw8YXy.jpg","year":"2000","result":"HD","language":["Hindi"],"country":["ES"],"original_language":"en","genres":["Horror","Fantasy","Action"],"imdb_id":"tt0223268"},{"id":"10867","type":"movie","title":"Malena","poster":"https://image.tmdb.org/t/p/w342/3OyQTl0IGkbnjDxd3MhztfPE34g.jpg","year":"2000","result":"HD","language":["Hindi"],"country":["IT","US"],"original_language":"it","genres":["Drama"],"imdb_id":"tt0213847"},{"id":"11398","type":"movie","title":"The Art of War","poster":"https://image.tmdb.org/t/p/w342/9fbStI2ht3gMgsVRusqoBDWeK9c.jpg","year":"2000","result":"HD","language":["Hindi"],"country":["US"],"original_language":"en","genres":["Action","Thriller","Crime"],"imdb_id":"tt0160009"},{"id":"2105","type":"movie","title":"American Pie","poster":"https://image.tmdb.org/t/p/w342/5P68by2Thn8wHAziyWGEw2O7hco.jpg","year":"1999","result":"HD","language":["English"],"country":["US"],"original_language":"en","genres":["Comedy","Romance"],"imdb_id":"tt0163651"},{"id":"796","type":"movie","title":"Cruel Intentions","poster":"https://image.tmdb.org/t/p/w342/76cCsRtQ5MJBAqoigojXsLXLJwh.jpg","year":"1999","result":"HD","language":["Hindi"],"country":["US"],"original_language":"en","genres":["Drama","Romance"],"imdb_id":"tt0139134"},{"id":"497","type":"movie","title":"The Green Mile","poster":"https://image.tmdb.org/t/p/w342/8VG8fDNiy50H4FedGwdSVUPoaJe.jpg","year":"1999","result":"HD","language":["Hindi"],"country":["US"],"original_language":"en","genres":["Fantasy","Drama","Crime"],"imdb_id":"tt0120689"},{"id":"105444","type":"movie","title":"Doraemon: Nobita's Great Adventure in the South Seas","poster":"https://image.tmdb.org/t/p/w342/4gGIYi40x3G6UPm1IMGqdseK0Ro.jpg","year":"1998","result":"HD","language":["Hindi"],"country":["JP"],"original_language":"ja","genres":["Animation","Family","Adventure","Comedy","Fantasy","Science Fiction"],"imdb_id":"tt1147519"},{"id":"67395","type":"movie","title":"L.E.T.H.A.L. Ladies: Return to Savage Beach","poster":"https://image.tmdb.org/t/p/w342/9z3hdYnDdfWGKD55kdDmshDojeP.jpg","year":"1998","result":"HD","language":["Hindi"],"country":["US"],"original_language":"en","genres":["Action","Thriller"],"imdb_id":"tt0127759"},{"id":"18167","type":"movie","title":"Another 9 1/2 Weeks","poster":"https://image.tmdb.org/t/p/w342/lbQjiB1KTCX1Tmrby7CV7tP5Yq5.jpg","year":"1997","result":"HD","language":["Hindi"],"country":["FR","GB","US"],"original_language":"en","genres":["Drama","Romance"],"imdb_id":"tt0119576"},{"id":"21915","type":"movie","title":"Booty Call","poster":"https://image.tmdb.org/t/p/w342/1pQpHVm3AXIwbBUnwGEQ0q95E0L.jpg","year":"1997","result":"HD","language":["Hindi"],"country":["US"],"original_language":"en","genres":["Comedy"],"imdb_id":"tt0118750"},{"id":"327358","type":"movie","title":"Kiss of Death","poster":"https://image.tmdb.org/t/p/w342/35Y9TVqqYkB4hHzZw00Okp7fF9S.jpg","year":"1997","result":"HD","language":["Hindi"],"country":["US"],"original_language":"en","genres":["Thriller"],"imdb_id":"tt0403203"},{"id":"637","type":"movie","title":"Life Is Beautiful","poster":"https://image.tmdb.org/t/p/w342/mfnkSeeVOBVheuyn2lo4tfmOPQb.jpg","year":"1997","result":"HD","language":["Hindi"],"country":["IT"],"original_language":"it","genres":["Comedy","Drama"],"imdb_id":"tt0118799"},{"id":"106164","type":"movie","title":"Doraemon: Nobita and the Galaxy Super-express","poster":"https://image.tmdb.org/t/p/w342/moqO24uCB0k6q4qPyAwb7O0xeWM.jpg","year":"1996","result":"HD","language":["Hindi"],"country":["JP"],"original_language":"ja","genres":["Animation","Science Fiction","Action","Family","Adventure","Fantasy"],"imdb_id":"tt1147522"},{"id":"279576","type":"movie","title":"Body of Influence 2","poster":"https://image.tmdb.org/t/p/w342/wiWaTOWmVrr9XmK0uNAvnKtmXQu.jpg","year":"1996","result":"HD","language":["Hindi"],"country":["US"],"original_language":"en","genres":["Thriller"],"imdb_id":"tt0115723"},{"id":"191561","type":"movie","title":"Yu Pui Tsuen III","poster":"https://image.tmdb.org/t/p/w342/5QpANxhTL0xpQ7JAIttQasZdF9u.jpg","year":"1996","result":"HD","language":["Hindi"],"country":["HK"],"original_language":"zh","genres":["Drama"],"imdb_id":"tt0118208"},{"id":"162069","type":"movie","title":"Doraemon: Nobita's Diary on the Creation of the World","poster":"https://image.tmdb.org/t/p/w342/qemtaCXwo9sP6bYO8Hqc0o96JIy.jpg","year":"1995","result":"HD","language":["Hindi"],"country":["JP"],"original_language":"ja","genres":["Animation","Science Fiction","Fantasy","Adventure","Family","Comedy"],"imdb_id":"tt1147512"},{"id":"18392","type":"movie","title":"Embrace of the Vampire","poster":"https://image.tmdb.org/t/p/w342/3amk8h3a4xVdt3f5LG8Mo7TrAn0.jpg","year":"1995","result":"HD","language":["Hindi"],"country":["US"],"original_language":"en","genres":["Horror","Fantasy","Romance","Drama"],"imdb_id":"tt0109723"},{"id":"37333","type":"movie","title":"Lake Consequence","poster":"https://image.tmdb.org/t/p/w342/mU6CwKO7QwxRlutmUSIS4hjJJUa.jpg","year":"1995","result":"HD","language":["Hindi"],"country":["US"],"original_language":"en","genres":["Drama","Romance"],"imdb_id":"tt0107357"},{"id":"10802","type":"movie","title":"Showgirls","poster":"https://image.tmdb.org/t/p/w342/o4HT3Ap5c99W4FYpdXUtTvxGgPc.jpg","year":"1995","result":"HD","language":["Hindi"],"country":["US","FR"],"original_language":"en","genres":["Drama"],"imdb_id":"tt0114436"},{"id":"28529","type":"movie","title":"Sorceress","poster":"https://image.tmdb.org/t/p/w342/4yTPpffXf0WA33rgweZ1Y7PUe0L.jpg","year":"1995","result":"HD","language":["Hindi"],"country":["US"],"original_language":"en","genres":["Fantasy","Horror","Thriller"],"imdb_id":"tt0111244"},{"id":"58965","type":"movie","title":"Huntress: Spirit of the Night","poster":"https://image.tmdb.org/t/p/w342/hZgz3Pu3rrcFUTqFuF0dB4b60aL.jpg","year":"1995","result":"HD","language":["Hindi"],"country":["RO","US"],"original_language":"en","genres":["Horror"],"imdb_id":"tt0113361"},{"id":"19404","type":"movie","title":"Dilwale Dulhania Le Jayenge","poster":"https://image.tmdb.org/t/p/w342/2CAL2433ZeIihfX1Hb2139CX0pW.jpg","year":"1995","result":"HD","language":["Hindi"],"country":["IN"],"original_language":"hi","genres":["Comedy","Drama","Romance"],"imdb_id":"tt0112870"},{"id":"161715","type":"movie","title":"Doraemon: Nobita's Three Visionary Swordsmen","poster":"https://image.tmdb.org/t/p/w342/oCQtdezF7Ap5wm8ICiB3Pzx6wM4.jpg","year":"1994","result":"HD","language":["Hindi"],"country":["JP"],"original_language":"ja","genres":["Animation","Family","Adventure","Comedy","Fantasy","Science Fiction"],"imdb_id":"tt1147524"},{"id":"95084","type":"movie","title":"Body of Influence","poster":"https://image.tmdb.org/t/p/w342/b6rMLugMP6WAHNqdTNBcLoxyNhp.jpg","year":"1994","result":"HD","language":["Hindi"],"country":["US"],"original_language":"en","genres":["Thriller","Romance"],"imdb_id":"tt0106454"},{"id":"49983","type":"movie","title":"Enemy Gold","poster":"https://image.tmdb.org/t/p/w342/bW3wf5KncLoMolW55k1Uvrrrs9d.jpg","year":"1994","result":"HD","language":["Hindi"],"country":["US"],"original_language":"en","genres":["Action","Thriller"],"imdb_id":"tt0106819"},{"id":"67398","type":"movie","title":"The Dallas Connection","poster":"https://image.tmdb.org/t/p/w342/yHrd3gMBi5VgZZEpxixtQpbNZEh.jpg","year":"1994","result":"HD","language":["Hindi"],"country":["US"],"original_language":"en","genres":["Action"],"imdb_id":"tt0112782"},{"id":"252264","type":"movie","title":"Eyes of the Serpent","poster":"https://image.tmdb.org/t/p/w342/cihCl224y7dqlZ5dl1IUVVkUYaX.jpg","year":"1994","result":"HD","language":["Hindi"],"country":["US"],"original_language":"en","genres":["Fantasy"],"imdb_id":"tt0109764"},{"id":"216358","type":"movie","title":"Secret Games 3","poster":"https://image.tmdb.org/t/p/w342/8GGyyLkp7Z0c5CWlDfwdQZWE2h6.jpg","year":"1994","result":"HD","language":["Hindi"],"country":["US"],"original_language":"en","genres":["Thriller","Drama"],"imdb_id":"tt0111104"},{"id":"278","type":"movie","title":"The Shawshank Redemption","poster":"https://image.tmdb.org/t/p/w342/9cqNxx0GxF0bflZmeSMuL5tnGzr.jpg","year":"1994","result":"HD","language":["Hindi"],"country":["US"],"original_language":"en","genres":["Drama","Crime"],"imdb_id":"tt0111161"},{"id":"13","type":"movie","title":"Forrest Gump","poster":"https://image.tmdb.org/t/p/w342/saHP97rTPS5eLmrLQEcANmKrsFl.jpg","year":"1994","result":"HD","language":["Hindi"],"country":["US"],"original_language":"en","genres":["Comedy","Drama","Romance"],"imdb_id":"tt0109830"},{"id":"29795","type":"movie","title":"Beach Babes from Beyond","poster":"https://image.tmdb.org/t/p/w342/v5TXbzoPvjsU1JAM8mS7E0gMJro.jpg","year":"1993","result":"HD","language":["Hindi"],"country":["US"],"original_language":"en","genres":["Science Fiction","Comedy"],"imdb_id":"tt0106366"},{"id":"45029","type":"movie","title":"Fit to Kill","poster":"https://image.tmdb.org/t/p/w342/tdaqSdk4FCrRAuslGjCDhwWPhik.jpg","year":"1993","result":"HD","language":["Hindi"],"country":["US"],"original_language":"en","genres":["Action","Romance","Thriller"],"imdb_id":"tt0106922"},{"id":"4478","type":"movie","title":"Indecent Proposal","poster":"https://image.tmdb.org/t/p/w342/a39WoiTJEG5kNLIrr3kOMwg3LFg.jpg","year":"1993","result":"HD","language":["Hindi"],"country":["US"],"original_language":"en","genres":["Romance","Drama"],"imdb_id":"tt0107211"},{"id":"27224","type":"movie","title":"Lost in Yonkers","poster":"https://image.tmdb.org/t/p/w342/9COy4RAhPzOw1ICecKMYQCexTgm.jpg","year":"1993","result":"HD","language":["Hindi"],"country":["US"],"original_language":"en","genres":["Drama","Comedy"],"imdb_id":"tt0107443"},{"id":"424","type":"movie","title":"Schindler's List","poster":"https://image.tmdb.org/t/p/w342/sF1U4EUQS8YHUYjNl3pMGNIQyr0.jpg","year":"1993","result":"HD","language":["Hindi"],"country":["US"],"original_language":"en","genres":["Drama","History","War"],"imdb_id":"tt0108052"},{"id":"10497","type":"movie","title":"Bitter Moon","poster":"https://image.tmdb.org/t/p/w342/bW7E4cLWh0elRRbp2VCrtXrY1if.jpg","year":"1992","result":"HD","language":["Hindi"],"country":["FR","GB"],"original_language":"en","genres":["Thriller","Drama","Romance"],"imdb_id":"tt0104779"},{"id":"39479","type":"movie","title":"Love Crimes","poster":"https://image.tmdb.org/t/p/w342/l2zE5VYf3SlC66GTpR80bwcWDn4.jpg","year":"1992","result":"HD","language":["Hindi"],"country":["GB","US"],"original_language":"en","genres":["Romance","Thriller"],"imdb_id":"tt0102340"}]}