{"page":37,"total_pages":67,"total_items":3303,"items":[{"id":"1226578","type":"movie","title":"Longlegs","poster":"https://image.tmdb.org/t/p/w342/1EwNyiiNFd863H4e8nWEzutnZD7.jpg","year":"2024","result":"HD","language":["Hindi"],"country":["CA","US"],"original_language":"en","genres":["Crime","Horror","Mystery"],"imdb_id":"tt23468450"},{"id":"1026436","type":"movie","title":"Miller's Girl","poster":"https://image.tmdb.org/t/p/w342/ieU0zUj7WhE0GrgpgofRH0sNjbI.jpg","year":"2024","result":"HD","language":["Hindi"],"country":["US"],"original_language":"en","genres":["Thriller","Drama","Romance"],"imdb_id":"tt8310486"},{"id":"1002088","type":"movie","title":"Mission: Cross","poster":"https://image.tmdb.org/t/p/w342/aE9WqOApdRYsowsGE0118dyA4c9.jpg","year":"2024","result":"HD","language":["Hindi"],"country":["KR"],"original_language":"ko","genres":["Action","Comedy"],"imdb_id":"tt30515931"},{"id":"1295415","type":"movie","title":"Mutant","poster":"https://image.tmdb.org/t/p/w342/dil7ytWMsH5P1KZqYlXq3FN6Qur.jpg","year":"2024","result":"HD","language":["Hindi"],"country":["CN"],"original_language":"zh","genres":["Science Fiction","Romance","War"],"imdb_id":"tt32386443"},{"id":"1281826","type":"movie","title":"One Fast Move","poster":"https://image.tmdb.org/t/p/w342/hdBUjfbdr1ymS0kycAT7qguOmWA.jpg","year":"2024","result":"HD","language":["Hindi"],"country":["US"],"original_language":"en","genres":["Action","Drama","Romance"],"imdb_id":"tt21096576"},{"id":"646097","type":"movie","title":"Rebel Ridge","poster":"https://image.tmdb.org/t/p/w342/xEt2GSz9z5rSVpIHMiGdtf0czyf.jpg","year":"2024","result":"HD","language":["Hindi"],"country":["US"],"original_language":"en","genres":["Crime","Action","Thriller","Drama"],"imdb_id":"tt11301886"},{"id":"1239121","type":"movie","title":"Secret Lives of Orangutans","poster":"https://image.tmdb.org/t/p/w342/eGgIaLPJZkLk7jKjONL2FQ11Tu.jpg","year":"2024","result":"HD","language":["Hindi"],"country":["GB"],"original_language":"en","genres":["Documentary"],"imdb_id":"tt33038092"},{"id":"1019411","type":"movie","title":"Space Cadet","poster":"https://image.tmdb.org/t/p/w342/7QUOIldN6ShKj1LdLhO26a8QXND.jpg","year":"2024","result":"HD","language":["Hindi"],"country":["US"],"original_language":"en","genres":["Comedy"],"imdb_id":"tt21469794"},{"id":"1114513","type":"movie","title":"Speak No Evil","poster":"https://image.tmdb.org/t/p/w342/dA4N6uWOnEMgbxXwFX7qX7adzs8.jpg","year":"2024","result":"HD","language":["Hindi"],"country":["US"],"original_language":"en","genres":["Horror","Thriller"],"imdb_id":"tt27534307"},{"id":"978090","type":"movie","title":"Striking The Palace","poster":"https://image.tmdb.org/t/p/w342/nIVt1Jr37o5U9opboyBjs6zZ9mB.jpg","year":"2024","result":"HD","language":["Hindi"],"country":["FR"],"original_language":"fr","genres":["Comedy"],"imdb_id":"tt27722491"},{"id":"1039773","type":"movie","title":"The American Society of Magical Negroes","poster":"https://image.tmdb.org/t/p/w342/czV7JRPPPGk9bqUsnJuJUYn34mM.jpg","year":"2024","result":"HD","language":["Hindi"],"country":["US"],"original_language":"en","genres":["Fantasy","Comedy"],"imdb_id":"tt30007864"},{"id":"1329336","type":"movie","title":"The Bad Guys: Haunted Heist","poster":"https://image.tmdb.org/t/p/w342/oEJC05CqPugMxC4rFu9r6r6vg6m.jpg","year":"2024","result":"HD","language":["Hindi"],"country":["US"],"original_language":"en","genres":["Animation","Comedy"],"imdb_id":"tt33130902"},{"id":"1008409","type":"movie","title":"The Bikeriders","poster":"https://image.tmdb.org/t/p/w342/ApMuukdDAOR2rgaFDZIcjfigi64.jpg","year":"2024","result":"HD","language":["Hindi"],"country":["US"],"original_language":"en","genres":["Crime","Drama"],"imdb_id":"tt21454134"},{"id":"930600","type":"movie","title":"The Deliverance","poster":"https://image.tmdb.org/t/p/w342/og1FteMFRInoQnlZeWqEn8XpXHh.jpg","year":"2024","result":"HD","language":["Hindi"],"country":["US"],"original_language":"en","genres":["Horror","Thriller"],"imdb_id":"tt4196566"},{"id":"1359153","type":"movie","title":"The Diary","poster":"https://image.tmdb.org/t/p/w342/8yx3EK6omL8mD8mcmHR7nmiboex.jpg","year":"2024","result":"HD","language":["Hindi"],"country":["US","MX"],"original_language":"es","genres":["Thriller","Drama"],"imdb_id":"tt28576307"},{"id":"970347","type":"movie","title":"The Killer","poster":"https://image.tmdb.org/t/p/w342/6PCnxKZZIVRanWb710pNpYVkCSw.jpg","year":"2024","result":"HD","language":["Hindi"],"country":["CA","US"],"original_language":"en","genres":["Action","Thriller","Crime"],"imdb_id":"tt1121948"},{"id":"1360610","type":"movie","title":"The Menendez Brothers","poster":"https://image.tmdb.org/t/p/w342/zQ32RXVzrNq93TgfKMP4Q3rkzDe.jpg","year":"2024","result":"HD","language":["Hindi"],"country":["US"],"original_language":"en","genres":["Documentary"],"imdb_id":"tt33481094"},{"id":"1125510","type":"movie","title":"The Platform 2","poster":"https://image.tmdb.org/t/p/w342/tvIpBg12IIA5Dr9Sjn38ygS1vQp.jpg","year":"2024","result":"HD","language":["Hindi"],"country":["ES"],"original_language":"es","genres":["Science Fiction","Horror","Thriller"],"imdb_id":"tt27729779"},{"id":"1210794","type":"movie","title":"Trouble","poster":"https://image.tmdb.org/t/p/w342/ildbg7ho14EHbt1fZWAkgqIyPqy.jpg","year":"2024","result":"HD","language":["Hindi"],"country":["SE"],"original_language":"sv","genres":["Action","Comedy","Crime"],"imdb_id":"tt30217143"},{"id":"1115009","type":"movie","title":"Unsung Hero","poster":"https://image.tmdb.org/t/p/w342/mtkAdP8l8Hx9bIF2JChLdpy3VQL.jpg","year":"2024","result":"HD","language":["Hindi"],"country":["US"],"original_language":"en","genres":["Drama","Music","Family"],"imdb_id":"tt23638614"},{"id":"835113","type":"movie","title":"Woman of the Hour","poster":"https://image.tmdb.org/t/p/w342/nc9ZqrJFbcUdlMg9lxXXtJb24jU.jpg","year":"2024","result":"HD","language":["Hindi"],"country":["US"],"original_language":"en","genres":["Crime","Drama","Thriller"],"imdb_id":"tt7737800"},{"id":"890138","type":"movie","title":"A.R.M - Ajayante Randam Moshanam","poster":"https://image.tmdb.org/t/p/w342/OClpEeRlHK3DrFO7QtWXtpDIOK.jpg","year":"2024","result":"HD","language":["Hindi"],"country":["IN"],"original_language":"ml","genres":["Action","Adventure","Drama"],"imdb_id":"tt11531182"},{"id":"1238167","type":"movie","title":"Agni","poster":"https://image.tmdb.org/t/p/w342/zx3UOe5rZ7uH5lMs3JxEMU0nNXB.jpg","year":"2024","result":"HD","language":["Hindi"],"country":["IN"],"original_language":"hi","genres":["Action","Adventure"],"imdb_id":"tt27930683"},{"id":"274276","type":"tv","title":"Aindham Vedham","poster":"https://image.tmdb.org/t/p/w342/i6zuyH4zuEHxezNPwSRgOADkQ1F.jpg","year":"2024","result":"HD","language":["Hindi"],"country":["IN"],"original_language":"ta","genres":["Mystery"],"imdb_id":"tt33983792","latest_uploaded_season":1,"total_uploaded_episodes":1},{"id":"1325057","type":"movie","title":"Alanaati Ramachandrudu","poster":"https://image.tmdb.org/t/p/w342/a9JjaHnmSMf6bBIFq2p3OoT0bfx.jpg","year":"2024","result":"HD","language":["Hindi"],"country":["IN"],"original_language":"te","genres":["Romance","Family","Drama"],"imdb_id":"tt31939390"},{"id":"777292","type":"movie","title":"Bagheera","poster":"https://image.tmdb.org/t/p/w342/ziXyy0zgmwf4oTunSsUHDyOZBeC.jpg","year":"2024","result":"HD","language":["Hindi"],"country":["IN"],"original_language":"kn","genres":["Action","Adventure"],"imdb_id":"tt15380608"},{"id":"933290","type":"movie","title":"Bardovi","poster":"https://image.tmdb.org/t/p/w342/ezko33W72peI6ek6LYYo43DFwb0.jpg","year":"2024","result":"HD","language":["Hindi"],"country":["IN"],"original_language":"hi","genres":["Horror","Drama","Thriller"],"imdb_id":"tt18079046"},{"id":"1403696","type":"movie","title":"Benaam Rishta","poster":"https://image.tmdb.org/t/p/w342/6UyBEm7Ma28EQYrTPtaRjfeyRu7.jpg","year":"2024","result":"HD","language":["Hindi"],"country":["IN"],"original_language":"hi","genres":["Drama"],"imdb_id":"tt34991464"},{"id":"1268119","type":"movie","title":"Bengal 1947","poster":"https://image.tmdb.org/t/p/w342/hZh9LyZgr0Ro01kNjthaM7l0GjE.jpg","year":"2024","result":"HD","language":["Hindi"],"country":[],"original_language":"hi","genres":[],"imdb_id":"tt31702328"},{"id":"980599","type":"movie","title":"Bhool Bhulaiyaa 3","poster":"https://image.tmdb.org/t/p/w342/3AfHD1HoaQpQwKH8kxRdBKVmzeU.jpg","year":"2024","result":"HD","language":["Hindi"],"country":["IN"],"original_language":"hi","genres":["Horror","Comedy"],"imdb_id":"tt26932223"},{"id":"1177224","type":"movie","title":"Bougainvillea","poster":"https://image.tmdb.org/t/p/w342/lH5bWsODh1QU6aia1ZpaC79kq2j.jpg","year":"2024","result":"HD","language":["Hindi"],"country":["IN"],"original_language":"ml","genres":["Mystery","Thriller"],"imdb_id":"tt32592802"},{"id":"1230162","type":"movie","title":"Case of Kondana","poster":"https://image.tmdb.org/t/p/w342/zasfTaHaDzdqpUQxy0Y5tl6Mz8H.jpg","year":"2024","result":"HD","language":["Hindi"],"country":[],"original_language":"kn","genres":["Crime","Thriller"],"imdb_id":"tt30429449"},{"id":"1305602","type":"movie","title":"Chilli Chicken","poster":"https://image.tmdb.org/t/p/w342/5Aa0A7pN7IuKqen0nYuD7pIKzqf.jpg","year":"2024","result":"HD","language":["Hindi"],"country":[],"original_language":"kn","genres":["Drama","Comedy"],"imdb_id":"tt28054637"},{"id":"1377388","type":"movie","title":"Criminal or Devil","poster":"https://image.tmdb.org/t/p/w342/5xRZbs7pSDZOHjrySBa8aXmmyiT.jpg","year":"2024","result":"HD","language":["Hindi"],"country":[],"original_language":"te","genres":["Thriller","Drama"],"imdb_id":"tt32424592"},{"id":"96312","type":"tv","title":"Cubicles","poster":"https://image.tmdb.org/t/p/w342/vfjIBMXJK8rmvJ3SrAInlhM7v5e.jpg","year":"2024","result":"HD","language":["Hindi"],"country":["IN"],"original_language":"hi","genres":["Comedy","Drama"],"imdb_id":"tt11379698","latest_uploaded_season":4,"total_uploaded_episodes":8},{"id":"1224231","type":"movie","title":"Dashmi","poster":"https://image.tmdb.org/t/p/w342/jMyD3RjhzEKVgGaG860Y4AAP1QJ.jpg","year":"2024","result":"HD","language":["Hindi"],"country":["IN"],"original_language":"hi","genres":["Drama","Thriller"],"imdb_id":"tt29298252"},{"id":"1069910","type":"movie","title":"Despatch","poster":"https://image.tmdb.org/t/p/w342/chn341XKezmUfGO2hdin5grCZU5.jpg","year":"2024","result":"HD","language":["Hindi"],"country":["IN"],"original_language":"hi","genres":["Drama","Thriller"],"imdb_id":"tt15260176"},{"id":"1167205","type":"movie","title":"Devil","poster":"https://image.tmdb.org/t/p/w342/mKiVRs9qfHoFGHSVqLTohd8lEQm.jpg","year":"2024","result":"HD","language":["Hindi"],"country":["IN"],"original_language":"ta","genres":["Horror","Thriller"],"imdb_id":"tt24689612"},{"id":"1323046","type":"movie","title":"Dharmaveer 2","poster":"https://image.tmdb.org/t/p/w342/m4SHtLoSfatigDMZxpsX8E7NuVH.jpg","year":"2024","result":"HD","language":["Hindi"],"country":["IN"],"original_language":"mr","genres":["Drama"],"imdb_id":"tt28631109"},{"id":"1148172","type":"movie","title":"Do Patti","poster":"https://image.tmdb.org/t/p/w342/wbXSE68cDwqUPsHJcpdu7I5kSLK.jpg","year":"2024","result":"HD","language":["Hindi"],"country":["IN"],"original_language":"hi","genres":["Thriller","Drama"],"imdb_id":"tt28075881"},{"id":"274367","type":"tv","title":"Fisaddi","poster":"https://image.tmdb.org/t/p/w342/7rp4P7W3l7nspeCvCvaNwR0zo1o.jpg","year":"2024","result":"HD","language":["Hindi"],"country":["IN"],"original_language":"hi","genres":["Drama"],"imdb_id":"tt33984553","latest_uploaded_season":1,"total_uploaded_episodes":1},{"id":"886385","type":"movie","title":"Gaami","poster":"https://image.tmdb.org/t/p/w342/nruKcKWmuP7ce7sBGBNViHJaZrZ.jpg","year":"2024","result":"HD","language":["Hindi"],"country":["IN"],"original_language":"te","genres":["Adventure","Thriller","Science Fiction","Fantasy"],"imdb_id":"tt27657791"},{"id":"1222140","type":"movie","title":"Golam","poster":"https://image.tmdb.org/t/p/w342/Aa30QzjokChiDOtuV27cfOSSVOA.jpg","year":"2024","result":"HD","language":["Hindi"],"country":["IN"],"original_language":"ml","genres":["Crime","Thriller"],"imdb_id":"tt29272469"},{"id":"1355588","type":"movie","title":"Hide N Seek","poster":"https://image.tmdb.org/t/p/w342/cYSekNhfPK3bMnkgBQAmMSBlMsm.jpg","year":"2024","result":"HD","language":["Hindi"],"country":["IN"],"original_language":"te","genres":["Action","Crime","Thriller"],"imdb_id":"tt33088719"},{"id":"1263031","type":"movie","title":"I Want to Talk","poster":"https://image.tmdb.org/t/p/w342/rqzv36dIy15ZdJvud02mYKKCRyT.jpg","year":"2024","result":"HD","language":["Hindi"],"country":["IN"],"original_language":"hi","genres":["Drama","Family"],"imdb_id":"tt27866861"},{"id":"1184889","type":"movie","title":"Jigra","poster":"https://image.tmdb.org/t/p/w342/mhnT27mgtiMNowOhAlMWSqBoSyb.jpg","year":"2024","result":"HD","language":["Hindi"],"country":["IN"],"original_language":"hi","genres":["Action","Drama","Thriller"],"imdb_id":"tt26733317"},{"id":"1352962","type":"movie","title":"Kalinga","poster":"https://image.tmdb.org/t/p/w342/y62MzCi3Auwb1T4aGDPNE2gLyIE.jpg","year":"2024","result":"HD","language":["Hindi"],"country":["IN"],"original_language":"te","genres":["Horror"],"imdb_id":"tt32880190"},{"id":"279370","type":"tv","title":"Karate Girls","poster":"https://image.tmdb.org/t/p/w342/4QjBZkRkGPqmvMjGh95hsBJJRVB.jpg","year":"2024","result":"HD","language":["Hindi"],"country":["IN"],"original_language":"hi","genres":["Drama"],"imdb_id":"tt34958392","latest_uploaded_season":1,"total_uploaded_episodes":1},{"id":"280566","type":"tv","title":"Khoj - Parchaiyo Ke Uss Paar","poster":"https://image.tmdb.org/t/p/w342/f0xvvdioF4OHBgeFU0F3Yje1bEG.jpg","year":"2024","result":"HD","language":["Hindi"],"country":["IN"],"original_language":"hi","genres":["Drama","Mystery"],"imdb_id":"tt35049431","latest_uploaded_season":1,"total_uploaded_episodes":1},{"id":"1059268","type":"movie","title":"Khwaabon Ka Jhamela","poster":"https://image.tmdb.org/t/p/w342/hbty5wMoyo90C3XZdmXi5lOlxpF.jpg","year":"2024","result":"HD","language":["Hindi"],"country":["IN","GB"],"original_language":"hi","genres":["Drama","Romance","Comedy"],"imdb_id":"tt21159080"}]}