{"page":7,"total_pages":67,"total_items":3303,"items":[{"id":"316279","type":"tv","title":"Kasargod Embassy","poster":"https://image.tmdb.org/t/p/w342/tnvYlPIstVb4elCzSPUW5f7tILH.jpg","year":"2026","result":"HD","language":["Hindi"],"country":["IN"],"original_language":"ml","genres":["Crime"],"imdb_id":"tt40431801","latest_uploaded_season":1,"total_uploaded_episodes":7},{"id":"316272","type":"tv","title":"Sankalp","poster":"https://image.tmdb.org/t/p/w342/pEDJjtxj1PPd10PvJLo9w9RlQx6.jpg","year":"2026","result":"HD","language":["Hindi"],"country":["IN"],"original_language":"hi","genres":["Drama"],"imdb_id":"tt28091048","latest_uploaded_season":1,"total_uploaded_episodes":10},{"id":"315159","type":"tv","title":"Dynasty: The Murdochs","poster":"https://image.tmdb.org/t/p/w342/j5wfKP6lxz6A2IBca5rqSXru5v0.jpg","year":"2026","result":"HD","language":["Hindi"],"country":["US"],"original_language":"en","genres":["Documentary"],"imdb_id":"tt40233617","latest_uploaded_season":1,"total_uploaded_episodes":4},{"id":"315036","type":"tv","title":"Sangamarmar","poster":"https://image.tmdb.org/t/p/w342/tQRFVM5MJsnNBUQgRP31aWwy1Qx.jpg","year":"2026","result":"HD","language":["Hindi"],"country":["IN"],"original_language":"hi","genres":["Drama","Family"],"imdb_id":"tt39992549","latest_uploaded_season":1,"total_uploaded_episodes":9},{"id":"315008","type":"tv","title":"Psycho Saiyaan","poster":"https://image.tmdb.org/t/p/w342/xW8UKl010jOVFmqYhcYDl7neTue.jpg","year":"2026","result":"HD","language":["Hindi"],"country":["IN"],"original_language":"hi","genres":["Drama"],"imdb_id":"tt39971916","latest_uploaded_season":1,"total_uploaded_episodes":6},{"id":"314297","type":"tv","title":"Blue Therapy","poster":"https://image.tmdb.org/t/p/w342/H8K1osuUf7OsMbtSVPvXJlcnWS.jpg","year":"2026","result":"HD","language":["Hindi"],"country":["GB"],"original_language":"en","genres":["Reality"],"imdb_id":"tt35836615","latest_uploaded_season":1,"total_uploaded_episodes":8},{"id":"313956","type":"tv","title":"Dil Dhokha Aur Desire","poster":"https://image.tmdb.org/t/p/w342/rKpQmijH1afO8QdeeR3efiFiN7a.jpg","year":"2026","result":"HD","language":["Hindi"],"country":["IN"],"original_language":"hi","genres":["Drama"],"imdb_id":"tt39779938","latest_uploaded_season":1,"total_uploaded_episodes":1},{"id":"313716","type":"tv","title":"Amar Vishwas","poster":"https://image.tmdb.org/t/p/w342/eai2N6BgHlQdL5oSeo94UX45CBN.jpg","year":"2026","result":"HD","language":["Hindi"],"country":["IN"],"original_language":"hi","genres":["Crime","Drama","Mystery"],"imdb_id":"tt39601175","latest_uploaded_season":1,"total_uploaded_episodes":10},{"id":"313342","type":"tv","title":"Shabad - Reet aur Riwaaz","poster":"https://image.tmdb.org/t/p/w342/jmcdPIYu0oCi6hFkEcmc3GlI3k3.jpg","year":"2026","result":"HD","language":["Hindi"],"country":["IN"],"original_language":"hi","genres":["Comedy","Drama","Family"],"imdb_id":"tt39460434","latest_uploaded_season":1,"total_uploaded_episodes":6},{"id":"313298","type":"tv","title":"The Dinosaurs","poster":"https://image.tmdb.org/t/p/w342/x37IK9WWhuzi7tgyMT4ff3kiT5X.jpg","year":"2026","result":"HD","language":["Hindi"],"country":["GB","US"],"original_language":"en","genres":["Documentary","Animation"],"imdb_id":"tt32493765","latest_uploaded_season":1,"total_uploaded_episodes":4},{"id":"313100","type":"tv","title":"Hello Bachhon","poster":"https://image.tmdb.org/t/p/w342/sBprJ6cIkWWKl4ABWgxNDKxe9kL.jpg","year":"2026","result":"HD","language":["Hindi"],"country":["IN"],"original_language":"hi","genres":["Drama"],"imdb_id":"tt39657434","latest_uploaded_season":1,"total_uploaded_episodes":5},{"id":"312423","type":"tv","title":"Reality Check: Inside America's Next Top Model","poster":"https://image.tmdb.org/t/p/w342/lxlsvsgvEYlf2wrSV9qUipHRAuk.jpg","year":"2026","result":"HD","language":["Hindi"],"country":["US"],"original_language":"en","genres":["Reality","Documentary"],"imdb_id":"tt39398591","latest_uploaded_season":1,"total_uploaded_episodes":3},{"id":"312046","type":"tv","title":"Glitter & Gold: Ice Dancing","poster":"https://image.tmdb.org/t/p/w342/irrdulKrIPIjUwpZMwdtoo80CLW.jpg","year":"2026","result":"HD","language":["Hindi"],"country":["US"],"original_language":"en","genres":["Documentary","Reality"],"imdb_id":"tt39314120","latest_uploaded_season":1,"total_uploaded_episodes":3},{"id":"312005","type":"tv","title":"Devkhel","poster":"https://image.tmdb.org/t/p/w342/fGOlVDJSF7hhw2sIQiZksXFhYJJ.jpg","year":"2026","result":"HD","language":["Hindi"],"country":["IN"],"original_language":"mr","genres":["Mystery","Crime"],"imdb_id":"tt39299519","latest_uploaded_season":1,"total_uploaded_episodes":1},{"id":"311632","type":"tv","title":"Space Gen: Chandrayaan","poster":"https://image.tmdb.org/t/p/w342/d6WIr1vycFCCdYewgRf8dpWxQQE.jpg","year":"2026","result":"HD","language":["Hindi"],"country":["IN"],"original_language":"hi","genres":["Drama","Sci-Fi & Fantasy"],"imdb_id":"tt39313294","latest_uploaded_season":1,"total_uploaded_episodes":5},{"id":"310800","type":"tv","title":"Siren's Kiss","poster":"https://image.tmdb.org/t/p/w342/8r8YU97YfSf6QtMKfePmTqhFTeQ.jpg","year":"2026","result":"HD","language":["Hindi"],"country":["KR"],"original_language":"ko","genres":["Drama","Crime","Mystery"],"imdb_id":"tt39303992","latest_uploaded_season":1,"total_uploaded_episodes":12},{"id":"310556","type":"tv","title":"Prayagraj Ki Love Story","poster":"https://image.tmdb.org/t/p/w342/ivRuROxApwA0fPRE5KsKsHI3wMQ.jpg","year":"2026","result":"HD","language":["Hindi"],"country":["IN"],"original_language":"hi","genres":["Drama"],"imdb_id":"tt39320590","latest_uploaded_season":1,"total_uploaded_episodes":1},{"id":"308482","type":"tv","title":"Taskaree: The Smuggler's Web","poster":"https://image.tmdb.org/t/p/w342/4ZTtFT94oCwC09yt8vQ1mEFwEeV.jpg","year":"2026","result":"HD","language":["Hindi"],"country":["IN"],"original_language":"hi","genres":["Crime","Mystery","Drama"],"imdb_id":"tt35335046","latest_uploaded_season":1,"total_uploaded_episodes":7},{"id":"307900","type":"tv","title":"Secret Stories: Roslin","poster":"https://image.tmdb.org/t/p/w342/pgVtjCdC5aBADQswOGx7BnTbjgH.jpg","year":"2026","result":"HD","language":["Hindi"],"country":["IN"],"original_language":"ml","genres":["Mystery","Drama"],"imdb_id":"tt32105473","latest_uploaded_season":1,"total_uploaded_episodes":6},{"id":"307534","type":"tv","title":"Free Bert","poster":"https://image.tmdb.org/t/p/w342/18jsL1sUIDL3ice67KoNkq22K6m.jpg","year":"2026","result":"HD","language":["Hindi"],"country":["US"],"original_language":"en","genres":["Comedy"],"imdb_id":"tt37449205","latest_uploaded_season":1,"total_uploaded_episodes":6},{"id":"303405","type":"tv","title":"Sins of Kujo","poster":"https://image.tmdb.org/t/p/w342/jgmYNLdKLNBN5p2vPKuqlpLfeDS.jpg","year":"2026","result":"HD","language":["Hindi"],"country":["JP"],"original_language":"ja","genres":["Crime","Drama"],"imdb_id":"tt38742795","latest_uploaded_season":1,"total_uploaded_episodes":10},{"id":"301734","type":"tv","title":"Muthu Alias Kaattaan","poster":"https://image.tmdb.org/t/p/w342/nOxTfnDo0tOKWKBsoTmJHYjOrme.jpg","year":"2026","result":"HD","language":["Hindi"],"country":["IN"],"original_language":"ta","genres":["Drama","Crime","Action & Adventure"],"imdb_id":"tt39151086","latest_uploaded_season":1,"total_uploaded_episodes":10},{"id":"300054","type":"tv","title":"BAKI-DOU: The Invincible Samurai","poster":"https://image.tmdb.org/t/p/w342/frtzbwANetYd0M4zdrZ5gx0E89q.jpg","year":"2026","result":"HD","language":["Hindi"],"country":["JP"],"original_language":"ja","genres":["Animation","Action & Adventure"],"imdb_id":"tt38201910","latest_uploaded_season":1,"total_uploaded_episodes":13},{"id":"292474","type":"tv","title":"Radioactive Emergency","poster":"https://image.tmdb.org/t/p/w342/kshpdkPOdkZZS65PYecXJVYjwUe.jpg","year":"2026","result":"HD","language":["Hindi"],"country":["BR"],"original_language":"pt","genres":["Drama","Mystery","Action & Adventure"],"imdb_id":"tt37041021","latest_uploaded_season":1,"total_uploaded_episodes":5},{"id":"291506","type":"tv","title":"Big Mistakes","poster":"https://image.tmdb.org/t/p/w342/mgXTCQ86lV3oudr2KXXO5zGEqIb.jpg","year":"2026","result":"HD","language":["Hindi"],"country":["US"],"original_language":"en","genres":["Comedy","Crime"],"imdb_id":"tt36957934","latest_uploaded_season":1,"total_uploaded_episodes":8},{"id":"287978","type":"tv","title":"Flunked","poster":"https://image.tmdb.org/t/p/w342/zsKWS6BwdKbS9nrE38V0500TKoX.jpg","year":"2026","result":"HD","language":["Hindi"],"country":["FR"],"original_language":"fr","genres":["Comedy","Crime"],"imdb_id":"tt37031059","latest_uploaded_season":1,"total_uploaded_episodes":8},{"id":"285739","type":"tv","title":"Vladimir","poster":"https://image.tmdb.org/t/p/w342/j02VBIGVIk2OTwTUZ1YzyzcONAy.jpg","year":"2026","result":"HD","language":["Hindi"],"country":["US"],"original_language":"en","genres":["Drama"],"imdb_id":"tt35997699","latest_uploaded_season":1,"total_uploaded_episodes":8},{"id":"283673","type":"tv","title":"That Night","poster":"https://image.tmdb.org/t/p/w342/xOB3odcE8pbTPK0FHzfwgRTneoS.jpg","year":"2026","result":"HD","language":["Hindi"],"country":["ES"],"original_language":"es","genres":["Crime","Drama","Mystery"],"imdb_id":"tt35674865","latest_uploaded_season":1,"total_uploaded_episodes":6},{"id":"281401","type":"tv","title":"Finding Her Edge","poster":"https://image.tmdb.org/t/p/w342/7t6iXlbfoBSfVyINLRHms5kqfze.jpg","year":"2026","result":"HD","language":["Hindi"],"country":["CA"],"original_language":"en","genres":["Drama"],"imdb_id":"tt35495058","latest_uploaded_season":1,"total_uploaded_episodes":8},{"id":"281016","type":"tv","title":"Boyfriend on Demand","poster":"https://image.tmdb.org/t/p/w342/8vBWQjdCnK7xSGuNbK1gBK1iIQL.jpg","year":"2026","result":"HD","language":["Hindi"],"country":["KR"],"original_language":"ko","genres":["Comedy","Sci-Fi & Fantasy","Drama"],"imdb_id":"tt35848827","latest_uploaded_season":1,"total_uploaded_episodes":10},{"id":"280948","type":"tv","title":"Spring Fever","poster":"https://image.tmdb.org/t/p/w342/50e9qtv8rKmcayAQSgB9P9XELpQ.jpg","year":"2026","result":"HD","language":["Hindi"],"country":["KR"],"original_language":"ko","genres":["Comedy","Drama"],"imdb_id":"tt39137681","latest_uploaded_season":1,"total_uploaded_episodes":12},{"id":"276083","type":"tv","title":"Crap Happens","poster":"https://image.tmdb.org/t/p/w342/9AG5nhecHFpFShhhaHEUEnjNrgW.jpg","year":"2026","result":"HD","language":["Hindi"],"country":["DE"],"original_language":"de","genres":["Comedy"],"imdb_id":"tt34458461","latest_uploaded_season":1,"total_uploaded_episodes":9},{"id":"274776","type":"tv","title":"Unfamiliar","poster":"https://image.tmdb.org/t/p/w342/hdEQWvSbDQsbdseeYjUS0NgrfT2.jpg","year":"2026","result":"HD","language":["Hindi"],"country":["DE"],"original_language":"de","genres":["Action & Adventure","Drama","Crime"],"imdb_id":"tt37024136","latest_uploaded_season":1,"total_uploaded_episodes":6},{"id":"273977","type":"tv","title":"The Art of Sarah","poster":"https://image.tmdb.org/t/p/w342/nP2PRGSmLdbZtQtoXPPppcDAsNw.jpg","year":"2026","result":"HD","language":["Hindi"],"country":["KR"],"original_language":"ko","genres":["Crime","Mystery","Drama"],"imdb_id":"tt35149250","latest_uploaded_season":1,"total_uploaded_episodes":8},{"id":"270420","type":"tv","title":"No Tail to Tell","poster":"https://image.tmdb.org/t/p/w342/bSX49M4tjDsnC8dOVQxt1sLgH6z.jpg","year":"2026","result":"HD","language":["E-Subtitles"],"country":["KR"],"original_language":"ko","genres":["Sci-Fi & Fantasy","Comedy","Drama"],"imdb_id":"tt33429144","latest_uploaded_season":1,"total_uploaded_episodes":12},{"id":"269160","type":"tv","title":"Cash Queens","poster":"https://image.tmdb.org/t/p/w342/hu9DpdDLU7W0nqmsAJPmWKDeRjT.jpg","year":"2026","result":"HD","language":["Hindi"],"country":["FR"],"original_language":"fr","genres":["Comedy","Action & Adventure","Drama"],"imdb_id":"tt34139155","latest_uploaded_season":1,"total_uploaded_episodes":8},{"id":"262848","type":"tv","title":"Unchosen","poster":"https://image.tmdb.org/t/p/w342/oVl01a7R8rfmWrolWtrlPXYQqzj.jpg","year":"2026","result":"HD","language":["Hindi"],"country":["GB"],"original_language":"en","genres":["Drama"],"imdb_id":"tt31631142","latest_uploaded_season":1,"total_uploaded_episodes":6},{"id":"262273","type":"tv","title":"Being Gordon Ramsay","poster":"https://image.tmdb.org/t/p/w342/2n4dI6F0vRZJHSMep9vv9CS7FoE.jpg","year":"2026","result":"HD","language":["Hindi"],"country":["GB"],"original_language":"en","genres":["Documentary"],"imdb_id":"tt33241079","latest_uploaded_season":1,"total_uploaded_episodes":6},{"id":"259731","type":"tv","title":"HIS & HERS","poster":"https://image.tmdb.org/t/p/w342/cDSXLVQLkCSBIpBx3UW04TsfZ5c.jpg","year":"2026","result":"HD","language":["Hindi"],"country":["US"],"original_language":"en","genres":["Drama","Crime","Mystery"],"imdb_id":"tt33035373","latest_uploaded_season":1,"total_uploaded_episodes":6},{"id":"259265","type":"tv","title":"Something Very Bad Is Going to Happen","poster":"https://image.tmdb.org/t/p/w342/tuj37DlqEqib8sTO4h3nHJeTAJ2.jpg","year":"2026","result":"HD","language":["Hindi"],"country":["US"],"original_language":"en","genres":["Drama","Mystery","Sci-Fi & Fantasy"],"imdb_id":"tt32937780","latest_uploaded_season":1,"total_uploaded_episodes":8},{"id":"257519","type":"tv","title":"Bait","poster":"https://image.tmdb.org/t/p/w342/gX9zWmUnrjCZEPpultvvFtSUb93.jpg","year":"2026","result":"HD","language":["Hindi"],"country":["US"],"original_language":"en","genres":["Drama","Comedy","Sci-Fi & Fantasy"],"imdb_id":"tt32252887","latest_uploaded_season":1,"total_uploaded_episodes":6},{"id":"255661","type":"tv","title":"Young Sherlock","poster":"https://image.tmdb.org/t/p/w342/h3s0Cd2JppeWA4UjTuSRauL52P7.jpg","year":"2026","result":"HD","language":["Hindi"],"country":["GB","US"],"original_language":"en","genres":["Action & Adventure","Mystery"],"imdb_id":"tt8599532","latest_uploaded_season":1,"total_uploaded_episodes":8},{"id":"254071","type":"tv","title":"Steal","poster":"https://image.tmdb.org/t/p/w342/6KmlaPhsohh3Ki9XJUq0jiUYbf3.jpg","year":"2026","result":"HD","language":["Hindi"],"country":["GB"],"original_language":"en","genres":["Drama","Crime","Mystery"],"imdb_id":"tt32499731","latest_uploaded_season":1,"total_uploaded_episodes":6},{"id":"250505","type":"tv","title":"Agatha Christie's Seven Dials","poster":"https://image.tmdb.org/t/p/w342/3uRQi9HDEAGSadoKee1UHoFCaU9.jpg","year":"2026","result":"HD","language":["Hindi"],"country":["GB"],"original_language":"en","genres":["Mystery","Crime","Drama"],"imdb_id":"tt31974288","latest_uploaded_season":1,"total_uploaded_episodes":3},{"id":"249771","type":"tv","title":"Maa Ka Sum","poster":"https://image.tmdb.org/t/p/w342/aU1mdmehINpJ5nuHUq1dNyJMpYy.jpg","year":"2026","result":"HD","language":["Hindi"],"country":["IN"],"original_language":"hi","genres":["Comedy","Drama"],"imdb_id":"tt31863147","latest_uploaded_season":1,"total_uploaded_episodes":8},{"id":"249766","type":"tv","title":"Daldal","poster":"https://image.tmdb.org/t/p/w342/wvAwkKeIs7bkb6EJAYRzpANhfxM.jpg","year":"2026","result":"HD","language":["Hindi"],"country":["IN"],"original_language":"hi","genres":["Drama","Mystery"],"imdb_id":"tt31844233","latest_uploaded_season":1,"total_uploaded_episodes":7},{"id":"249765","type":"tv","title":"Matka King","poster":"https://image.tmdb.org/t/p/w342/cAWIMbCmzVBi86kEOHKjHZCKGyo.jpg","year":"2026","result":"HD","language":["Hindi"],"country":["IN"],"original_language":"hi","genres":["Drama","Crime"],"imdb_id":"tt16997004","latest_uploaded_season":1,"total_uploaded_episodes":8},{"id":"249760","type":"tv","title":"Bandwaale","poster":"https://image.tmdb.org/t/p/w342/h1heLNN77Jmjin06ihQdMKTGGIt.jpg","year":"2026","result":"HD","language":["Hindi"],"country":["IN"],"original_language":"hi","genres":["Drama","Comedy"],"imdb_id":"tt28106758","latest_uploaded_season":1,"total_uploaded_episodes":8},{"id":"249597","type":"tv","title":"Detective Hole","poster":"https://image.tmdb.org/t/p/w342/j61dmzEq4aRWJZk5tPyjzpHj8T2.jpg","year":"2026","result":"HD","language":["Hindi"],"country":["NO","GB","US"],"original_language":"no","genres":["Mystery","Crime"],"imdb_id":"tt31810018","latest_uploaded_season":1,"total_uploaded_episodes":9},{"id":"244244","type":"tv","title":"Run Away","poster":"https://image.tmdb.org/t/p/w342/frKxKytEHIA2vXg4RAz14Sc0UmS.jpg","year":"2026","result":"HD","language":["Hindi"],"country":["GB","US"],"original_language":"en","genres":["Drama","Mystery"],"imdb_id":"tt9169516","latest_uploaded_season":1,"total_uploaded_episodes":8}]}