{"page":53,"total_pages":67,"total_items":3303,"items":[{"id":"139105","type":"tv","title":"Switch On","poster":"https://image.tmdb.org/t/p/w342/vEqmYDkEs0dY32kCd5DV6usC14m.jpg","year":"2021","result":"HD","language":["Hindi"],"country":["TH"],"original_language":"th","genres":["Mystery","Sci-Fi & Fantasy"],"imdb_id":"tt15964544","latest_uploaded_season":1,"total_uploaded_episodes":24},{"id":"139309","type":"tv","title":"Blanca","poster":"https://image.tmdb.org/t/p/w342/ygLft4UvzyeMUZegHNwcCKo7TgG.jpg","year":"2021","result":"HD","language":["Hindi"],"country":["IT"],"original_language":"it","genres":["Drama","Crime"],"imdb_id":"tt7950716","latest_uploaded_season":1,"total_uploaded_episodes":12},{"id":"120314","type":"tv","title":"Dark Hole","poster":"https://image.tmdb.org/t/p/w342/s6bVrvezseNz7j1svt89ESG9ZkS.jpg","year":"2021","result":"HD","language":["Hindi"],"country":["KR"],"original_language":"ko","genres":["Action & Adventure","Mystery","Sci-Fi & Fantasy"],"imdb_id":"tt13885376","latest_uploaded_season":1,"total_uploaded_episodes":12},{"id":"132317","type":"tv","title":"Lie to Love","poster":"https://image.tmdb.org/t/p/w342/sogyrB1s0xQVs9GDkIe8xa1MITK.jpg","year":"2021","result":"HD","language":["Hindi"],"country":["CN"],"original_language":"zh","genres":["Drama","Comedy","Mystery"],"imdb_id":"tt16299346","latest_uploaded_season":1,"total_uploaded_episodes":32},{"id":"130655","type":"tv","title":"High Class","poster":"https://image.tmdb.org/t/p/w342/y12jFvgntlxyit2KMd94LmCQO1d.jpg","year":"2021","result":"HD","language":["Hindi"],"country":["KR"],"original_language":"ko","genres":["Crime","Drama"],"imdb_id":"tt14596714","latest_uploaded_season":1,"total_uploaded_episodes":16},{"id":"99489","type":"tv","title":"The Penthouse","poster":"https://image.tmdb.org/t/p/w342/wybv1VgIOMhcHdU3ooikn2LuR1o.jpg","year":"2021","result":"HD","language":["Hindi"],"country":["KR"],"original_language":"ko","genres":["Drama","Mystery"],"imdb_id":"tt13067118","latest_uploaded_season":3,"total_uploaded_episodes":48},{"id":"797271","type":"movie","title":"Counterattack","poster":"https://image.tmdb.org/t/p/w342/ayoqy3twWdKvUvbolbfoJToxUfl.jpg","year":"2021","result":"HD","language":["Hindi"],"country":["CN"],"original_language":"zh","genres":["Action","Mystery","Thriller"],"imdb_id":"tt13784650"},{"id":"1375538","type":"movie","title":"Evil Dead is Back","poster":"https://m.media-amazon.com/images/M/MV5BZDExMDMwNWUtOTY3NS00NWI1LWJlY2YtODE4MGMzNGQ0MDJiXkEyXkFqcGc@._V1_.jpg","year":"2021","result":"HD","language":["Hindi"],"country":[],"original_language":"en","genres":[],"imdb_id":""},{"id":"881764","type":"movie","title":"Girls to Buy","poster":"https://image.tmdb.org/t/p/w342/oAdg6estkW0Ud9yBxEPPpHflszZ.jpg","year":"2021","result":"HD","language":["Hindi"],"country":["PL"],"original_language":"pl","genres":["Thriller","Drama","Crime","Action"],"imdb_id":"tt11871074"},{"id":"882251","type":"movie","title":"Silent Hours","poster":"https://image.tmdb.org/t/p/w342/re09M47jDGgoumSBrKtaOpIeLp7.jpg","year":"2021","result":"HD","language":["Hindi"],"country":[],"original_language":"en","genres":["Thriller","Mystery"],"imdb_id":"tt10360104"},{"id":"87020","type":"tv","title":"Hey Prabhu!","poster":"https://image.tmdb.org/t/p/w342/2RaKZP3rjeIT8HePte2bbLF39Mw.jpg","year":"2021","result":"HD","language":["Hindi"],"country":["IN"],"original_language":"hi","genres":["Comedy"],"imdb_id":"tt9024790","latest_uploaded_season":2,"total_uploaded_episodes":16},{"id":"95557","type":"tv","title":"INVINCIBLE","poster":"https://image.tmdb.org/t/p/w342/4tblBrslcKSifMVZ3TmtT2ukMor.jpg","year":"2021","result":"HD","language":["Hindi"],"country":["US"],"original_language":"en","genres":["Animation","Drama","Sci-Fi & Fantasy","Action & Adventure"],"imdb_id":"tt6741278","latest_uploaded_season":5,"total_uploaded_episodes":32},{"id":"64387","type":"tv","title":"The Girlfriend Experience","poster":"https://image.tmdb.org/t/p/w342/vkXG4uqXQVwfwmE6CUSPFvz6MLn.jpg","year":"2021","result":"HD","language":["Hindi"],"country":["US"],"original_language":"en","genres":["Drama"],"imdb_id":"tt3846642","latest_uploaded_season":3,"total_uploaded_episodes":37},{"id":"776909","type":"movie","title":"Sounds Like Love","poster":"https://image.tmdb.org/t/p/w342/tYUdh9HsTHLd2GJUtAyKg3InlXs.jpg","year":"2021","result":"HD","language":["Hindi"],"country":["ES"],"original_language":"es","genres":["Comedy","Romance"],"imdb_id":"tt11698662"},{"id":"799991","type":"movie","title":"A1 Express","poster":"https://image.tmdb.org/t/p/w342/2WHx9ryr1XigcqCudVJfA4IK0jC.jpg","year":"2021","result":"HD","language":["Hindi"],"country":["IN"],"original_language":"te","genres":["Drama","Family"],"imdb_id":"tt11214972"},{"id":"895206","type":"movie","title":"Ek Anjaan Rishtey Ka Guilt","poster":"https://image.tmdb.org/t/p/w342/hK0Ag3ujEYoOu35INk6JlRSqZjZ.jpg","year":"2021","result":"HD","language":["Hindi"],"country":[],"original_language":"hi","genres":[],"imdb_id":"tt32333879"},{"id":"818871","type":"movie","title":"Kho Kho","poster":"https://image.tmdb.org/t/p/w342/zyr51Gnzf2gKD84Uan8Q8SfTsWx.jpg","year":"2021","result":"HD","language":["Hindi"],"country":["IN"],"original_language":"ml","genres":["Drama"],"imdb_id":"tt12988104"},{"id":"869062","type":"movie","title":"Panchhi","poster":"https://image.tmdb.org/t/p/w342/qPVzGWt0J09wtOoocAiccYWUrwY.jpg","year":"2021","result":"HD","language":["PUNJABI"],"country":[],"original_language":"pa","genres":[],"imdb_id":"tt15307258"},{"id":"792334","type":"movie","title":"Sulthan","poster":"https://image.tmdb.org/t/p/w342/z9TqB7GcyM0tMOFlI5mZuqNq351.jpg","year":"2021","result":"HD","language":["Hindi"],"country":["IN"],"original_language":"ta","genres":["Action","Thriller","Romance"],"imdb_id":"tt11502940"},{"id":"628534","type":"movie","title":"The White Tiger","poster":"https://image.tmdb.org/t/p/w342/5JnmseS3DZ6ad2VMbrnbGCs8Rst.jpg","year":"2021","result":"HD","language":["Hindi"],"country":["SG","US","IN"],"original_language":"en","genres":["Drama"],"imdb_id":"tt6571548"},{"id":"1402","type":"tv","title":"The Walking Dead","poster":"https://image.tmdb.org/t/p/w342/ng3cMtxYKt1OSQYqFlnKWnVsqNO.jpg","year":"2021","result":"HD","language":["ENGLISH"],"country":["US"],"original_language":"en","genres":["Action & Adventure","Drama","Sci-Fi & Fantasy"],"imdb_id":"tt1520211","latest_uploaded_season":11,"total_uploaded_episodes":177},{"id":"911972","type":"movie","title":"Devil In Dune","poster":"https://image.tmdb.org/t/p/w342/nQLdzYYB71sUugtSR7e7YdjF6Vx.jpg","year":"2021","result":"HD","language":["Hindi"],"country":["CN"],"original_language":"zh","genres":["Science Fiction","Action","Horror"],"imdb_id":"tt23780438"},{"id":"438631","type":"movie","title":"Dune","poster":"https://image.tmdb.org/t/p/w342/gDzOcq0pfeCeqMBwKIJlSmQpjkZ.jpg","year":"2021","result":"HD","language":["Hindi"],"country":["US"],"original_language":"en","genres":["Science Fiction","Adventure"],"imdb_id":"tt1160419"},{"id":"942321","type":"movie","title":"The Gateway","poster":"https://image.tmdb.org/t/p/w342/eqLicrlG3FTXROqpV7Q9QBCTKYj.jpg","year":"2021","result":"HD","language":["Hindi"],"country":["US"],"original_language":"en","genres":["Horror"],"imdb_id":"tt15027550"},{"id":"878667","type":"movie","title":"Chal Mera Putt 3","poster":"https://image.tmdb.org/t/p/w342/vhlwENeB4bDPl1YeSiPLNfDAJnz.jpg","year":"2021","result":"HD","language":["Punjabi"],"country":["IN"],"original_language":"pa","genres":["Comedy","Drama"],"imdb_id":"tt14156154"},{"id":"875524","type":"movie","title":"Rudra Thandavam","poster":"https://image.tmdb.org/t/p/w342/laGleOgbZxESGGzbWD70xnDgRul.jpg","year":"2021","result":"HD","language":["Hindi"],"country":["IN"],"original_language":"ta","genres":["Action","Drama"],"imdb_id":"tt15292474"},{"id":"833414","type":"movie","title":"One Small Story","poster":"https://image.tmdb.org/t/p/w342/1BJDWroYQNRhUoc8YyixADIQytb.jpg","year":"2021","result":"HD","language":["Hindi"],"country":["IN"],"original_language":"te","genres":["Drama","Comedy"],"imdb_id":"tt14252742"},{"id":"814952","type":"movie","title":"Kuriyan Jawan Bapu Preshaan","poster":"https://image.tmdb.org/t/p/w342/g682EwEzJbl1nF3Rj0TvksEGx4e.jpg","year":"2021","result":"HD","language":["Hindi"],"country":[],"original_language":"en","genres":["Comedy","Drama"],"imdb_id":"tt14303124"},{"id":"810693","type":"movie","title":"Jujutsu Kaisen 0","poster":"https://image.tmdb.org/t/p/w342/23oJaeBh0FDk2mQ2P240PU9Xxfh.jpg","year":"2021","result":"HD","language":["Hindi"],"country":["JP"],"original_language":"ja","genres":["Animation","Action","Fantasy"],"imdb_id":"tt14331144"},{"id":"809294","type":"movie","title":"Munduvareda Adhyaya","poster":"https://image.tmdb.org/t/p/w342/suUpnw4UwRJUqpqn3nVSlkIvhbP.jpg","year":"2021","result":"HD","language":["Hindi"],"country":[],"original_language":"kn","genres":["Crime","Thriller"],"imdb_id":"tt10415472"},{"id":"802403","type":"movie","title":"Ajeeb Daastaans","poster":"https://image.tmdb.org/t/p/w342/5KHjF8H2bqvQdmvkmeAlFjKXkmB.jpg","year":"2021","result":"HD","language":["Hindi"],"country":["IN"],"original_language":"hi","genres":["Drama","Romance"],"imdb_id":"tt14091818"},{"id":"785507","type":"movie","title":"Rule of the Game: Human Hunting","poster":"https://image.tmdb.org/t/p/w342/mLVGHXHHoOV6fGdro0XwdiTPTJ3.jpg","year":"2021","result":"HD","language":["Hindi"],"country":["KR"],"original_language":"ko","genres":["Thriller"],"imdb_id":"tt32150254"},{"id":"763025","type":"movie","title":"Never Back Down: Revolt","poster":"https://image.tmdb.org/t/p/w342/icAG01wZyy1ZpS3UEnPReph3jMV.jpg","year":"2021","result":"HD","language":["Hindi"],"country":["US"],"original_language":"en","genres":["Action"],"imdb_id":"tt13470094"},{"id":"730840","type":"movie","title":"Trollhunters: Rise of the Titans","poster":"https://image.tmdb.org/t/p/w342/zvUNFeTz0Sssb210wSiIiHRjA4W.jpg","year":"2021","result":"HD","language":["Hindi"],"country":["US"],"original_language":"en","genres":["Animation","Fantasy","Family","Action","Adventure"],"imdb_id":"tt12851396"},{"id":"673692","type":"movie","title":"Doctor","poster":"https://image.tmdb.org/t/p/w342/ySPT0USsuDFG9pqHjI50GYOeQmj.jpg","year":"2021","result":"HD","language":["Hindi"],"country":["IN"],"original_language":"ta","genres":["Thriller","Comedy","Action"],"imdb_id":"tt11374902"},{"id":"656113","type":"movie","title":"Jagame Thandhiram","poster":"https://image.tmdb.org/t/p/w342/goLoLNagbnWpPQh4YQE9R2hSLqj.jpg","year":"2021","result":"HD","language":["Hindi"],"country":["IN"],"original_language":"ta","genres":["Crime","Drama"],"imdb_id":"tt10661848"},{"id":"632357","type":"movie","title":"The Unholy","poster":"https://image.tmdb.org/t/p/w342/bShgiEQoPnWdw4LBrYT5u18JF34.jpg","year":"2021","result":"HD","language":["Hindi"],"country":["US"],"original_language":"en","genres":["Horror","Mystery"],"imdb_id":"tt9419056"},{"id":"630392","type":"movie","title":"The Cursed","poster":"https://image.tmdb.org/t/p/w342/bewmBcjJxHeipS1PNu9Lfyvt3zY.jpg","year":"2021","result":"HD","language":["E-Subtitles"],"country":["FR","US"],"original_language":"en","genres":["Horror","Drama","Thriller"],"imdb_id":"tt9907782"},{"id":"628704","type":"movie","title":"Midnight","poster":"https://image.tmdb.org/t/p/w342/gXaS8OuavUsEjoW7P8qKrHTGPi1.jpg","year":"2021","result":"HD","language":["Hindi"],"country":["KR"],"original_language":"ko","genres":["Thriller","Crime"],"imdb_id":"tt14757872"},{"id":"615457","type":"movie","title":"Nobody","poster":"https://image.tmdb.org/t/p/w342/oBgWY00bEFeZ9N25wWVyuQddbAo.jpg","year":"2021","result":"HD","language":["Hindi"],"country":["US"],"original_language":"en","genres":["Action","Thriller"],"imdb_id":"tt7888964"},{"id":"586384","type":"movie","title":"Anybody Seen My Girl?","poster":"https://image.tmdb.org/t/p/w342/9IajQm1FifS6YmH5X8rQFHqqwAb.jpg","year":"2021","result":"HD","language":["Hindi"],"country":["RU"],"original_language":"ru","genres":["Romance","Drama"],"imdb_id":"tt13311126"},{"id":"545071","type":"movie","title":"99 Songs","poster":"https://image.tmdb.org/t/p/w342/dlM63J66dXoMyop9wWzk5QN80IV.jpg","year":"2021","result":"HD","language":["Hindi"],"country":["IN"],"original_language":"hi","genres":["Music","Drama","Romance"],"imdb_id":"tt7559180"},{"id":"535156","type":"movie","title":"Maanaadu","poster":"https://image.tmdb.org/t/p/w342/zO4mfRXYwuOYSy4YoXGVxh3oz1p.jpg","year":"2021","result":"HD","language":["Hindi"],"country":["IN"],"original_language":"ta","genres":["Thriller","Action","Science Fiction"],"imdb_id":"tt4983780"},{"id":"291212","type":"tv","title":"Murder Drones","poster":"https://image.tmdb.org/t/p/w342/ldUmo0NPUqEeTeJ6KdBkZudMtPu.jpg","year":"2021","result":"HD","language":["Hindi"],"country":["AU"],"original_language":"en","genres":["Animation","Action & Adventure","Sci-Fi & Fantasy"],"imdb_id":"tt15599734","latest_uploaded_season":1,"total_uploaded_episodes":8},{"id":"152674","type":"tv","title":"Dream Garden","poster":"https://image.tmdb.org/t/p/w342/aC0HSAfB9IKN62kIPzi6Sq8J2O9.jpg","year":"2021","result":"HD","language":["Hindi"],"country":["CN"],"original_language":"zh","genres":["Drama","Mystery"],"imdb_id":"tt14496552","latest_uploaded_season":1,"total_uploaded_episodes":16},{"id":"146405","type":"tv","title":"Part-time Mello","poster":"https://image.tmdb.org/t/p/w342/3JsIWFA1ho0Jrv9YkQpOBtJFaq2.jpg","year":"2021","result":"HD","language":["Hindi"],"country":[],"original_language":"ko","genres":[],"imdb_id":"","latest_uploaded_season":1,"total_uploaded_episodes":12},{"id":"133670","type":"tv","title":"Work Later, Drink Now","poster":"https://image.tmdb.org/t/p/w342/m6c69FvtN5kMCryjp1DyOssthij.jpg","year":"2021","result":"HD","language":["Hindi"],"country":["KR"],"original_language":"ko","genres":["Drama","Comedy"],"imdb_id":"tt15548198","latest_uploaded_season":1,"total_uploaded_episodes":12},{"id":"130107","type":"tv","title":"Forever and Ever","poster":"https://image.tmdb.org/t/p/w342/6csX8pU1p3Hj8DWknw1IJm0c18i.jpg","year":"2021","result":"HD","language":["Hindi"],"country":["CN"],"original_language":"zh","genres":["Drama"],"imdb_id":"tt16283458","latest_uploaded_season":1,"total_uploaded_episodes":30},{"id":"129418","type":"tv","title":"Brand New Cherry Flavor","poster":"https://image.tmdb.org/t/p/w342/cX4acZbi2l4v051NJZfonqY0E3X.jpg","year":"2021","result":"HD","language":["Hindi"],"country":["US"],"original_language":"en","genres":["Drama","Mystery","Sci-Fi & Fantasy"],"imdb_id":"tt11343600","latest_uploaded_season":1,"total_uploaded_episodes":8},{"id":"128926","type":"tv","title":"Unforgettable Love","poster":"https://image.tmdb.org/t/p/w342/dPDndH5bkpHZyQcmNZpoAQIugpi.jpg","year":"2021","result":"HD","language":["Hindi"],"country":["CN"],"original_language":"zh","genres":["Drama","Comedy","Family"],"imdb_id":"tt15037012","latest_uploaded_season":1,"total_uploaded_episodes":24}]}