{"page":54,"total_pages":67,"total_items":3303,"items":[{"id":"128002","type":"tv","title":"Light on Me","poster":"https://image.tmdb.org/t/p/w342/cDaMMSuaTrD5hrbbHvwyD2CPY4Z.jpg","year":"2021","result":"HD","language":["Hindi"],"country":["KR"],"original_language":"ko","genres":["Drama"],"imdb_id":"tt14837532","latest_uploaded_season":1,"total_uploaded_episodes":16},{"id":"127527","type":"tv","title":"Melancholia","poster":"https://image.tmdb.org/t/p/w342/cn3CIR5LaKubPmzOv5jsxcQQwkZ.jpg","year":"2021","result":"HD","language":["Hindi"],"country":["KR"],"original_language":"ko","genres":["Drama"],"imdb_id":"tt15146242","latest_uploaded_season":1,"total_uploaded_episodes":16},{"id":"127493","type":"tv","title":"You Are My Glory","poster":"https://image.tmdb.org/t/p/w342/n2j4J1OwOjAsjxSzavRf5AP76kR.jpg","year":"2021","result":"HD","language":["Hindi"],"country":["CN"],"original_language":"zh","genres":["Comedy","Drama"],"imdb_id":"tt14872986","latest_uploaded_season":1,"total_uploaded_episodes":32},{"id":"125984","type":"tv","title":"Moonlight","poster":"https://image.tmdb.org/t/p/w342/6ViVwJz1DsgH3XRJPOUxVivRdO0.jpg","year":"2021","result":"HD","language":["Hindi"],"country":["CN"],"original_language":"zh","genres":["Drama","Comedy"],"imdb_id":"tt14818618","latest_uploaded_season":1,"total_uploaded_episodes":36},{"id":"122182","type":"tv","title":"The Long Ballad","poster":"https://image.tmdb.org/t/p/w342/okG1wxwkfQjZ3txuTnLvNts28m.jpg","year":"2021","result":"HD","language":["Hindi"],"country":["CN"],"original_language":"zh","genres":["Action & Adventure","War & Politics"],"imdb_id":"tt14390970","latest_uploaded_season":1,"total_uploaded_episodes":49},{"id":"119466","type":"tv","title":"Youth of May","poster":"https://image.tmdb.org/t/p/w342/xf1JGvmWM1H5XoK8DvxXRAKjRkr.jpg","year":"2021","result":"HD","language":["Hindi"],"country":["KR"],"original_language":"ko","genres":["Drama"],"imdb_id":"tt14166666","latest_uploaded_season":1,"total_uploaded_episodes":12},{"id":"118932","type":"tv","title":"Be My Boyfriend","poster":"https://image.tmdb.org/t/p/w342/yQAocOGBuXSRPFJcZyjTshs1Jiv.jpg","year":"2021","result":"HD","language":["Hindi"],"country":["KR"],"original_language":"ko","genres":["Comedy","Drama"],"imdb_id":"tt14900148","latest_uploaded_season":1,"total_uploaded_episodes":15},{"id":"117987","type":"tv","title":"You Are My Hero","poster":"https://image.tmdb.org/t/p/w342/2PD3rQ218D4C0cgCNoQvJLAYDRf.jpg","year":"2021","result":"HD","language":["Hindi"],"country":["CN"],"original_language":"zh","genres":["Drama"],"imdb_id":"tt14196410","latest_uploaded_season":1,"total_uploaded_episodes":40},{"id":"117376","type":"tv","title":"Vincenzo","poster":"https://image.tmdb.org/t/p/w342/dvXJgEDQXhL9Ouot2WkBHpQiHGd.jpg","year":"2021","result":"HD","language":["Hindi"],"country":["KR"],"original_language":"ko","genres":["Action & Adventure","Comedy","Drama","Crime"],"imdb_id":"tt13433812","latest_uploaded_season":1,"total_uploaded_episodes":20},{"id":"116386","type":"tv","title":"Doom at Your Service","poster":"https://image.tmdb.org/t/p/w342/tgsWD4dJI5YFY8Kyk6vVjZoIKfO.jpg","year":"2021","result":"HD","language":["Hindi"],"country":["KR"],"original_language":"ko","genres":["Drama","Sci-Fi & Fantasy","Comedy"],"imdb_id":"tt13669128","latest_uploaded_season":1,"total_uploaded_episodes":16},{"id":"110545","type":"tv","title":"So Not Worth It","poster":"https://image.tmdb.org/t/p/w342/wiByXTq5vaDppWnYCLt6fzDuu7x.jpg","year":"2021","result":"HD","language":["Hindi"],"country":["KR"],"original_language":"ko","genres":["Drama","Comedy"],"imdb_id":"tt13186480","latest_uploaded_season":1,"total_uploaded_episodes":12},{"id":"110356","type":"tv","title":"My Name","poster":"https://image.tmdb.org/t/p/w342/l3Bn2jgYndSFvcPpddqMxQXiiCe.jpg","year":"2021","result":"HD","language":["Hindi"],"country":["KR"],"original_language":"ko","genres":["Crime","Drama","Mystery"],"imdb_id":"tt12940504","latest_uploaded_season":1,"total_uploaded_episodes":8},{"id":"108291","type":"tv","title":"Snowdrop","poster":"https://image.tmdb.org/t/p/w342/3AhTqNJVr1v7Jfplg8Y1YOzzdWE.jpg","year":"2021","result":"HD","language":["Hindi"],"country":["KR"],"original_language":"ko","genres":["Drama","War & Politics"],"imdb_id":"tt13304700","latest_uploaded_season":1,"total_uploaded_episodes":16},{"id":"105009","type":"tv","title":"Tokyo Revengers","poster":"https://image.tmdb.org/t/p/w342/arB3L9pZZBSzUPSC8BEv8c3X0bF.jpg","year":"2021","result":"HD","language":["Hindi"],"country":["JP"],"original_language":"ja","genres":["Drama","Animation","Action & Adventure","Crime"],"imdb_id":"tt13196080","latest_uploaded_season":1,"total_uploaded_episodes":50},{"id":"100962","type":"tv","title":"Love Scenery","poster":"https://image.tmdb.org/t/p/w342/9MQkYTrF5mWm1oxUzUNXFxJjziq.jpg","year":"2021","result":"HD","language":["Hindi"],"country":["CN"],"original_language":"zh","genres":["Comedy","Drama"],"imdb_id":"tt12026524","latest_uploaded_season":1,"total_uploaded_episodes":31},{"id":"97173","type":"tv","title":"Behind Her Eyes","poster":"https://image.tmdb.org/t/p/w342/sfd90NIf778KoBFmpdBTow4xTm7.jpg","year":"2021","result":"HD","language":["Hindi"],"country":["GB"],"original_language":"en","genres":["Mystery","Sci-Fi & Fantasy","Drama"],"imdb_id":"tt9698442","latest_uploaded_season":1,"total_uploaded_episodes":6},{"id":"66788","type":"tv","title":"13 Reasons Why","poster":"https://image.tmdb.org/t/p/w342/nel144y4dIOdFFid6twN5mAX9Yd.jpg","year":"2020","result":"HD","language":["Hindi"],"country":["US"],"original_language":"en","genres":["Drama","Mystery"],"imdb_id":"tt1837492","latest_uploaded_season":4,"total_uploaded_episodes":49},{"id":"1429","type":"tv","title":"Attack on Titan","poster":"https://image.tmdb.org/t/p/w342/hTP1DtLGFamjfu8WqjnuQdP1n4i.jpg","year":"2020","result":"HD","language":["Hindi"],"country":["JP"],"original_language":"ja","genres":["Animation","Sci-Fi & Fantasy","Action & Adventure"],"imdb_id":"tt2560140","latest_uploaded_season":4,"total_uploaded_episodes":87},{"id":"70523","type":"tv","title":"Dark","poster":"https://image.tmdb.org/t/p/w342/7CFCzWIZZcnxHke3yAQiGPWXHwF.jpg","year":"2020","result":"HD","language":["Hindi"],"country":["DE"],"original_language":"de","genres":["Crime","Drama","Sci-Fi & Fantasy","Mystery"],"imdb_id":"tt5753856","latest_uploaded_season":3,"total_uploaded_episodes":26},{"id":"91643","type":"tv","title":"Girls' Frontline","poster":"https://image.tmdb.org/t/p/w342/hG7qq8ed3c3CdbybiFRU97O6l5u.jpg","year":"2020","result":"HD","language":["Hindi"],"country":["CN"],"original_language":"zh","genres":["Animation","Comedy","Action & Adventure","Sci-Fi & Fantasy"],"imdb_id":"","latest_uploaded_season":3,"total_uploaded_episodes":36},{"id":"60863","type":"tv","title":"Haikyu!!","poster":"https://image.tmdb.org/t/p/w342/rBXEmHQaYoIAyOWRpu8v3cBGKcT.jpg","year":"2020","result":"HD","language":["Hindi"],"country":["JP"],"original_language":"ja","genres":["Animation","Comedy","Drama"],"imdb_id":"tt3398540","latest_uploaded_season":4,"total_uploaded_episodes":85},{"id":"70593","type":"tv","title":"Kingdom","poster":"https://image.tmdb.org/t/p/w342/AsICtiVtz4icMQQRwDvOzfaTzjK.jpg","year":"2020","result":"HD","language":["Hindi"],"country":["KR"],"original_language":"ko","genres":["Drama","Mystery"],"imdb_id":"tt6611916","latest_uploaded_season":2,"total_uploaded_episodes":12},{"id":"85273","type":"tv","title":"NOS4A2","poster":"https://image.tmdb.org/t/p/w342/gnosVTTRTCqooJuipwU6C0bgOGf.jpg","year":"2020","result":"HD","language":["Hindi"],"country":["US"],"original_language":"en","genres":["Sci-Fi & Fantasy","Drama"],"imdb_id":"tt5194792","latest_uploaded_season":2,"total_uploaded_episodes":20},{"id":"48866","type":"tv","title":"The 100","poster":"https://image.tmdb.org/t/p/w342/wcaDIAG1QdXQLRaj4vC1EFdBT2.jpg","year":"2020","result":"HD","language":["Hindi"],"country":["US"],"original_language":"en","genres":["Sci-Fi & Fantasy","Action & Adventure","Drama","Crime"],"imdb_id":"tt2661044","latest_uploaded_season":7,"total_uploaded_episodes":100},{"id":"100875","type":"tv","title":"Forget You Remember Love","poster":"https://image.tmdb.org/t/p/w342/xyGCFmaJhaZ0ZTGHqmXtihSSRsQ.jpg","year":"2020","result":"HD","language":["Hindi"],"country":["CN"],"original_language":"zh","genres":["Drama"],"imdb_id":"tt5678346","latest_uploaded_season":1,"total_uploaded_episodes":38},{"id":"110573","type":"tv","title":"Love in Time","poster":"https://image.tmdb.org/t/p/w342/76zeQjYfAVXJyEcburN9H4xK0aM.jpg","year":"2020","result":"HD","language":["Hindi"],"country":["CN"],"original_language":"zh","genres":["Comedy","Drama"],"imdb_id":"tt13105700","latest_uploaded_season":1,"total_uploaded_episodes":24},{"id":"108261","type":"tv","title":"Mr. Queen","poster":"https://image.tmdb.org/t/p/w342/ozuyMnOO5pekDklyPpUL1Htkuzy.jpg","year":"2020","result":"HD","language":["Hindi"],"country":["KR"],"original_language":"ko","genres":["Drama","Comedy","Sci-Fi & Fantasy"],"imdb_id":"tt13400006","latest_uploaded_season":1,"total_uploaded_episodes":20},{"id":"103809","type":"tv","title":"My Dear Lady","poster":"https://image.tmdb.org/t/p/w342/fupcFl4ElSFwwFBTf5CqNOn7EVy.jpg","year":"2020","result":"HD","language":["Hindi"],"country":["CN"],"original_language":"zh","genres":["Drama"],"imdb_id":"tt12357102","latest_uploaded_season":1,"total_uploaded_episodes":16},{"id":"108284","type":"tv","title":"Tale of the Nine Tailed","poster":"https://image.tmdb.org/t/p/w342/jXx9vLO9bwKxl81oVQnzEH7960V.jpg","year":"2020","result":"HD","language":["Hindi"],"country":["KR"],"original_language":"ko","genres":["Sci-Fi & Fantasy","Drama","Comedy","Mystery"],"imdb_id":"tt12879418","latest_uploaded_season":1,"total_uploaded_episodes":16},{"id":"109866","type":"tv","title":"Dating in the Kitchen","poster":"https://image.tmdb.org/t/p/w342/8hBqMTAAFkOjg2UJEWce70fKKj.jpg","year":"2020","result":"HD","language":["Hindi"],"country":["CN"],"original_language":"zh","genres":["Drama"],"imdb_id":"tt13085996","latest_uploaded_season":1,"total_uploaded_episodes":24},{"id":"111724","type":"tv","title":"Live On","poster":"https://image.tmdb.org/t/p/w342/dop9lujlpXaIGZImoTgUteHXt7a.jpg","year":"2020","result":"HD","language":["Hindi"],"country":["KR"],"original_language":"ko","genres":["Drama","Comedy"],"imdb_id":"tt13273946","latest_uploaded_season":1,"total_uploaded_episodes":8},{"id":"104798","type":"tv","title":"Lost Romance","poster":"https://image.tmdb.org/t/p/w342/oQSJy0R2qwMuQqX2MK1Uwoy3P0p.jpg","year":"2020","result":"HD","language":["Hindi"],"country":["TW"],"original_language":"zh","genres":["Drama","Comedy","Sci-Fi & Fantasy"],"imdb_id":"tt12495978","latest_uploaded_season":1,"total_uploaded_episodes":31},{"id":"118132","type":"tv","title":"Mister Flower","poster":"https://image.tmdb.org/t/p/w342/pe0pebP9dNmIawHAubhl0uNvEM0.jpg","year":"2020","result":"HD","language":["Hindi"],"country":["SG"],"original_language":"zh","genres":[],"imdb_id":"","latest_uploaded_season":1,"total_uploaded_episodes":20},{"id":"112568","type":"tv","title":"Please Don't Date Him","poster":"https://image.tmdb.org/t/p/w342/sP0ioyDyG1U5P2Bs2ZTc7FNlUIp.jpg","year":"2020","result":"HD","language":["Hindi"],"country":["KR"],"original_language":"ko","genres":["Comedy","Drama","Sci-Fi & Fantasy"],"imdb_id":"tt13394428","latest_uploaded_season":1,"total_uploaded_episodes":10},{"id":"99493","type":"tv","title":"Sweet Munchies","poster":"https://image.tmdb.org/t/p/w342/nPVxUVnGf6jTqoHik14YreBDPQj.jpg","year":"2020","result":"HD","language":["Hindi"],"country":["KR"],"original_language":"ko","genres":["Drama","Comedy"],"imdb_id":"tt12401208","latest_uploaded_season":1,"total_uploaded_episodes":12},{"id":"104431","type":"tv","title":"You Are My Destiny","poster":"https://image.tmdb.org/t/p/w342/a6wdKoGISGiTLkvaCXr2ujGkFJ3.jpg","year":"2020","result":"HD","language":["Hindi"],"country":["CN"],"original_language":"zh","genres":["Drama","Comedy"],"imdb_id":"tt12357958","latest_uploaded_season":1,"total_uploaded_episodes":36},{"id":"660982","type":"movie","title":"American Pie Presents: Girls' Rules","poster":"https://image.tmdb.org/t/p/w342/xqvX5A24dbIWaeYsMTxxKX5qOfz.jpg","year":"2020","result":"HD","language":["English"],"country":["US"],"original_language":"en","genres":["Comedy"],"imdb_id":"tt11771594"},{"id":"106697","type":"tv","title":"Lonely Enough to Love!","poster":"https://image.tmdb.org/t/p/w342/6qhKb5e9olZJ5XilDBkOdZpGXKq.jpg","year":"2020","result":"HD","language":["Hindi"],"country":["KR"],"original_language":"ko","genres":["Drama","Comedy"],"imdb_id":"","latest_uploaded_season":1,"total_uploaded_episodes":20},{"id":"101472","type":"tv","title":"Girlfriend","poster":"https://image.tmdb.org/t/p/w342/9WmZtqgS2uhTbD3HvgkA8Xetl7V.jpg","year":"2020","result":"HD","language":["Hindi"],"country":["CN"],"original_language":"zh","genres":["Drama","Family","Comedy"],"imdb_id":"tt12193174","latest_uploaded_season":1,"total_uploaded_episodes":36},{"id":"103596","type":"tv","title":"Leap Day","poster":"https://image.tmdb.org/t/p/w342/cLSLAtcFMLceRG7VkueNic6Csrn.jpg","year":"2020","result":"HD","language":["Hindi"],"country":["HK"],"original_language":"cn","genres":["Drama","Comedy","Sci-Fi & Fantasy"],"imdb_id":"tt15964514","latest_uploaded_season":1,"total_uploaded_episodes":10},{"id":"99112","type":"tv","title":"A Piece of Your Mind","poster":"https://image.tmdb.org/t/p/w342/u25Bd08J1kdsLXdHymXkFJsseV7.jpg","year":"2020","result":"HD","language":["Hindi"],"country":["KR"],"original_language":"ko","genres":["Drama"],"imdb_id":"tt11505790","latest_uploaded_season":1,"total_uploaded_episodes":12},{"id":"70626","type":"tv","title":"Stranger","poster":"https://image.tmdb.org/t/p/w342/blbbtx7DyvZ3JTGyc9MCArDL79b.jpg","year":"2020","result":"HD","language":["Hindi"],"country":["KR"],"original_language":"ko","genres":["Crime","Drama","Mystery"],"imdb_id":"tt6461346","latest_uploaded_season":2,"total_uploaded_episodes":32},{"id":"110839","type":"tv","title":"Sweet First Love","poster":"https://image.tmdb.org/t/p/w342/g5DcbMk9Tdcqb4XMB5HZdd0kINo.jpg","year":"2020","result":"HD","language":["Hindi"],"country":["CN"],"original_language":"zh","genres":["Drama","Comedy"],"imdb_id":"tt13181770","latest_uploaded_season":1,"total_uploaded_episodes":24},{"id":"103635","type":"tv","title":"The Romance of Tiger and Rose","poster":"https://image.tmdb.org/t/p/w342/mCsidkxf6ji8e71T07dYff3FjCF.jpg","year":"2020","result":"HD","language":["Hindi"],"country":["CN"],"original_language":"zh","genres":["Comedy","Drama"],"imdb_id":"tt12299432","latest_uploaded_season":1,"total_uploaded_episodes":24},{"id":"73031","type":"tv","title":"Tientsin Mystic","poster":"https://image.tmdb.org/t/p/w342/vsJVbT7uc08lGJ5iA7nJpH0H3kE.jpg","year":"2020","result":"HD","language":["Hindi"],"country":["CN"],"original_language":"zh","genres":["Drama","Action & Adventure","Mystery","Sci-Fi & Fantasy"],"imdb_id":"tt7431768","latest_uploaded_season":2,"total_uploaded_episodes":48},{"id":"642889","type":"movie","title":"Psycho","poster":"https://image.tmdb.org/t/p/w342/cTHrUUSqTNc1nyBzVGD4SbpqaIe.jpg","year":"2020","result":"HD","language":["Hindi"],"country":["IN"],"original_language":"ta","genres":["Thriller","Drama"],"imdb_id":"tt9109976"},{"id":"693900","type":"movie","title":"Bodyguard","poster":"https://image.tmdb.org/t/p/w342/rghVxKlNdHgY7r3aDVt3BR6rz5o.jpg","year":"2020","result":"HD","language":["Hindi"],"country":["KR"],"original_language":"ko","genres":["Action","Drama","Crime"],"imdb_id":"tt21362766"},{"id":"104646","type":"tv","title":"Pati Patni Aur Woh","poster":"https://image.tmdb.org/t/p/w342/pcMTwb9b8ZkdU2MvVRFNM89pSKq.jpg","year":"2020","result":"HD","language":["Hindi"],"country":["IN"],"original_language":"hi","genres":["Comedy","Drama"],"imdb_id":"tt12482544","latest_uploaded_season":1,"total_uploaded_episodes":10},{"id":"728754","type":"movie","title":"Stand by Me Doraemon 2","poster":"https://image.tmdb.org/t/p/w342/vBv8iOFPLnXmtELUjcFc7OKHsR4.jpg","year":"2020","result":"HD","language":["Hindi"],"country":["JP"],"original_language":"ja","genres":["Animation","Adventure","Comedy","Science Fiction","Drama","Family","Fantasy"],"imdb_id":"tt13428402"},{"id":"97488","type":"tv","title":"The Cursed","poster":"https://image.tmdb.org/t/p/w342/7ZkWOHIdSDskDhlVthEuX60vWK.jpg","year":"2020","result":"HD","language":["Hindi"],"country":["KR"],"original_language":"ko","genres":["Drama","Mystery","Sci-Fi & Fantasy"],"imdb_id":"tt11841276","latest_uploaded_season":1,"total_uploaded_episodes":12}]}