{"page":67,"total_pages":67,"total_items":3303,"items":[{"id":"1584340","type":"movie","title":"Ekam Singh: A Warrior","poster":"https://image.tmdb.org/t/p/w342/gUS0ejNw8wbUlWSgmCAtqbNp7D2.jpg","year":"","result":"HD","language":["Hindi"],"country":[],"original_language":"pa","genres":[],"imdb_id":"tt38948983"},{"id":"999136","type":"movie","title":"Do Not Enter","poster":"https://image.tmdb.org/t/p/w342/jb9e1Up9W9DQ3n8bwBJACOLHrHY.jpg","year":"","result":"HD","language":["Hindi"],"country":["US"],"original_language":"en","genres":["Horror"],"imdb_id":"tt3515878"},{"id":"784978","type":"movie","title":"Srimati Bhayankari","poster":"https://image.tmdb.org/t/p/w342/dB17LG1LC2CewLR1zzongZdJt3n.jpg","year":"","result":"HD","language":["Hindi"],"country":[],"original_language":"bn","genres":[],"imdb_id":""}]}