{"page":62,"total_pages":67,"total_items":3303,"items":[{"id":"251783","type":"movie","title":"Pleasure or Pain","poster":"https://image.tmdb.org/t/p/w342/hPsB2NZozctyxl9juWPZzdIpHxa.jpg","year":"2013","result":"HD","language":["Hindi"],"country":["US"],"original_language":"en","genres":["Drama","Thriller"],"imdb_id":"tt2091327"},{"id":"106646","type":"movie","title":"The Wolf of Wall Street","poster":"https://image.tmdb.org/t/p/w342/kW9LmvYHAaS9iA0tHmZVq8hQYoq.jpg","year":"2013","result":"HD","language":["Hindi"],"country":["US"],"original_language":"en","genres":["Crime","Drama","Comedy"],"imdb_id":"tt0993846"},{"id":"138697","type":"movie","title":"Don Jon","poster":"https://image.tmdb.org/t/p/w342/uh8bwvgGXeUKzdL4oSul9zxyTcd.jpg","year":"2013","result":"HD","language":["Hindi"],"country":["US"],"original_language":"en","genres":["Romance","Comedy","Drama"],"imdb_id":"tt2229499"},{"id":"93456","type":"movie","title":"Despicable Me 2","poster":"https://image.tmdb.org/t/p/w342/5Fh4NdoEnCjCK9wLjdJ9DJNFl2b.jpg","year":"2013","result":"HD","language":["Hindi"],"country":["US"],"original_language":"en","genres":["Animation","Comedy","Family"],"imdb_id":"tt1690953"},{"id":"245597","type":"movie","title":"Steal My Heart","poster":"https://image.tmdb.org/t/p/w342/8mYVIXA4S84mGISc3McjxYYeZj2.jpg","year":"2013","result":"HD","language":["Hindi"],"country":["KR"],"original_language":"ko","genres":["Comedy","Romance"],"imdb_id":"tt3694790"},{"id":"174645","type":"movie","title":"Java Heat","poster":"https://image.tmdb.org/t/p/w342/3jQZRqGnqTlwomPZyGziTSSIy6H.jpg","year":"2013","result":"HD","language":["Hindi"],"country":["US"],"original_language":"en","genres":["Action","Crime","Drama","Thriller"],"imdb_id":"tt2083231"},{"id":"289214","type":"movie","title":"Disaster Wars: Earthquake vs. Tsunami","poster":"https://image.tmdb.org/t/p/w342/aCtAi8znKbrTm2vTePXi76zYyDc.jpg","year":"2013","result":"HD","language":["Hindi"],"country":["US"],"original_language":"en","genres":["Thriller","Action","Drama","Science Fiction"],"imdb_id":"tt2571362"},{"id":"230846","type":"movie","title":"Fandry","poster":"https://image.tmdb.org/t/p/w342/zCeFTfyKDITgfYFg2gEyzubhOD9.jpg","year":"2013","result":"HD","language":["Hindi"],"country":["IN"],"original_language":"mr","genres":["Drama","Family"],"imdb_id":"tt2827320"},{"id":"218381","type":"movie","title":"Extraction","poster":"https://image.tmdb.org/t/p/w342/aAU27tuWBrIcOhxLyxd1QgFgXSi.jpg","year":"2013","result":"HD","language":["Hindi"],"country":["US"],"original_language":"en","genres":["Action"],"imdb_id":"tt2823574"},{"id":"212168","type":"movie","title":"Ghost in the Shell: Arise - Border 2: Ghost Whispers","poster":"https://image.tmdb.org/t/p/w342/eC8babU050Nwnss5CnAJyymGkB.jpg","year":"2013","result":"HD","language":["Hindi"],"country":["JP"],"original_language":"ja","genres":["Action","Animation","Science Fiction","Thriller"],"imdb_id":"tt3017864"},{"id":"196750","type":"movie","title":"Ghost in the Shell: Arise - Border 1: Ghost Pain","poster":"https://image.tmdb.org/t/p/w342/p0kHK9nJoLzpqa6tqOzPgPkdxYN.jpg","year":"2013","result":"HD","language":["Hindi"],"country":["JP"],"original_language":"ja","genres":["Action","Animation","Crime","Science Fiction"],"imdb_id":"tt2636124"},{"id":"169934","type":"movie","title":"Iron Man: Rise of Technovore","poster":"https://image.tmdb.org/t/p/w342/eHDez1uN5X2ZAq4niX7HvhyZIIO.jpg","year":"2013","result":"HD","language":["Hindi"],"country":["JP"],"original_language":"ja","genres":["Science Fiction","Animation","Action"],"imdb_id":"tt2654124"},{"id":"129139","type":"movie","title":"The To Do List","poster":"https://image.tmdb.org/t/p/w342/vSVYCcvDJljrESZo1jJyXPVvwfk.jpg","year":"2013","result":"HD","language":["Hindi"],"country":["US"],"original_language":"en","genres":["Comedy","Romance"],"imdb_id":"tt1758795"},{"id":"100542","type":"movie","title":"Vikingdom","poster":"https://image.tmdb.org/t/p/w342/mllJZUdy0LVD7MabX1bHlDDIqI6.jpg","year":"2013","result":"HD","language":["Hindi"],"country":["MY"],"original_language":"en","genres":["Adventure"],"imdb_id":"tt1785669"},{"id":"61148","type":"tv","title":"Empress Ki","poster":"https://image.tmdb.org/t/p/w342/cH9PMmBkhtVMlCdi8fgvMqekNKi.jpg","year":"2013","result":"HD","language":["Hindi"],"country":["KR"],"original_language":"ko","genres":["Drama","War & Politics"],"imdb_id":"tt3322566","latest_uploaded_season":1,"total_uploaded_episodes":51},{"id":"60957","type":"tv","title":"My Love from the Star","poster":"https://image.tmdb.org/t/p/w342/o5EYVYCVtDUdajP4rWfv6q0BTmm.jpg","year":"2013","result":"HD","language":["Hindi"],"country":["KR"],"original_language":"ko","genres":["Comedy","Drama"],"imdb_id":"tt3469052","latest_uploaded_season":1,"total_uploaded_episodes":21},{"id":"57158","type":"movie","title":"The Hobbit: The Desolation of Smaug","poster":"https://image.tmdb.org/t/p/w342/xQYiXsheRCDBA39DOrmaw1aSpbk.jpg","year":"2013","result":"HD","language":["Hindi"],"country":["NZ","US"],"original_language":"en","genres":["Fantasy","Adventure","Action"],"imdb_id":"tt1170358"},{"id":"108739","type":"movie","title":"Making Off","poster":"https://image.tmdb.org/t/p/w342/qHt2txXAA167PnFXgRJht5pGvQE.jpg","year":"2012","result":"HD","language":["Hindi"],"country":["FR"],"original_language":"fr","genres":["Horror","Crime","Comedy"],"imdb_id":"tt3561490"},{"id":"114150","type":"movie","title":"Pitch Perfect","poster":"https://image.tmdb.org/t/p/w342/gsFoJk9g8W3zgaipRrrURk7LbiF.jpg","year":"2012","result":"HD","language":["Hindi"],"country":["US"],"original_language":"en","genres":["Comedy","Music","Romance"],"imdb_id":"tt1981677"},{"id":"134597","type":"movie","title":"The Collection","poster":"https://image.tmdb.org/t/p/w342/qbhJiXi48fRQevHf56i2JmYqyJ7.jpg","year":"2012","result":"HD","language":["Hindi"],"country":["US"],"original_language":"en","genres":["Horror","Thriller"],"imdb_id":"tt1748227"},{"id":"57165","type":"movie","title":"Wrath of the Titans","poster":"https://image.tmdb.org/t/p/w342/b9n2R3xZWQ8MVZgndQoV34stS0h.jpg","year":"2012","result":"HD","language":["Hindi"],"country":["ES","US"],"original_language":"en","genres":["Fantasy","Adventure","Action"],"imdb_id":"tt1646987"},{"id":"1396","type":"tv","title":"Breaking Bad","poster":"https://image.tmdb.org/t/p/w342/ztkUQFLlC19CCMYHW9o1zWhJRNq.jpg","year":"2012","result":"HD","language":["Hindi"],"country":["US"],"original_language":"en","genres":["Drama","Crime"],"imdb_id":"tt0903747","latest_uploaded_season":5,"total_uploaded_episodes":62},{"id":"43152","type":"tv","title":"Rooftop Prince","poster":"https://image.tmdb.org/t/p/w342/2bHHzWAMPxIVv7e0FgTQDTYd1y5.jpg","year":"2012","result":"HD","language":["Hindi"],"country":["KR"],"original_language":"ko","genres":["Comedy","Drama","Sci-Fi & Fantasy"],"imdb_id":"tt2401162","latest_uploaded_season":1,"total_uploaded_episodes":20},{"id":"75780","type":"movie","title":"Jack Reacher","poster":"https://image.tmdb.org/t/p/w342/uQBbjrLVsUibWxNDGA4Czzo8lwz.jpg","year":"2012","result":"HD","language":["Hindi"],"country":["US"],"original_language":"en","genres":["Crime","Drama","Thriller","Action"],"imdb_id":"tt0790724"},{"id":"160642","type":"movie","title":"Doraemon: Nobita and the Island of Miracles – Animal Adventure","poster":"https://image.tmdb.org/t/p/w342/mUJGtID4UyO6nLE0Ztqq48y4Hdw.jpg","year":"2012","result":"HD","language":["Hindi"],"country":["JP"],"original_language":"ja","genres":["Family","Animation","Adventure","Fantasy","Comedy","Science Fiction"],"imdb_id":"tt2271315"},{"id":"84194","type":"movie","title":"Excision","poster":"https://image.tmdb.org/t/p/w342/3aLgB6FTQlNanER0RpckbKdwyh9.jpg","year":"2012","result":"HD","language":["Hindi"],"country":["US"],"original_language":"en","genres":["Drama","Horror","Comedy"],"imdb_id":"tt1984153"},{"id":"117942","type":"movie","title":"Girls Gone Dead","poster":"https://image.tmdb.org/t/p/w342/h4fkp6KuY55vocpkInbFeXOSrgT.jpg","year":"2012","result":"HD","language":["Hindi"],"country":["US"],"original_language":"en","genres":["Horror","Comedy"],"imdb_id":"tt1884318"},{"id":"73567","type":"movie","title":"Killer Joe","poster":"https://image.tmdb.org/t/p/w342/6Tt1TQeOI4TpXu1cBUgNGNGeznW.jpg","year":"2012","result":"HD","language":["Hindi"],"country":["US"],"original_language":"en","genres":["Crime","Thriller","Drama"],"imdb_id":"tt1726669"},{"id":"84305","type":"movie","title":"Lay the Favorite","poster":"https://image.tmdb.org/t/p/w342/n57AyhFm5Jhe2qu0yuShYlokPmQ.jpg","year":"2012","result":"HD","language":["Hindi"],"country":["FR","GB","US"],"original_language":"en","genres":["Drama","Comedy"],"imdb_id":"tt1132449"},{"id":"94603","type":"movie","title":"Strippers vs. Werewolves","poster":"https://image.tmdb.org/t/p/w342/OscWRpUcnqhgqxMJQCxVCwa5ss.jpg","year":"2012","result":"HD","language":["Hindi"],"country":["GB"],"original_language":"en","genres":["Comedy","Horror","Action","Crime","Fantasy"],"imdb_id":"tt1702009"},{"id":"89492","type":"movie","title":"This Is 40","poster":"https://image.tmdb.org/t/p/w342/mzUuOIFoVkRTHACRb58vm6mkbBN.jpg","year":"2012","result":"HD","language":["Hindi"],"country":["US"],"original_language":"en","genres":["Comedy"],"imdb_id":"tt1758830"},{"id":"122857","type":"movie","title":"Universal Soldier: Day of Reckoning","poster":"https://image.tmdb.org/t/p/w342/4pefZa0U5h0avmdvRwWB4xjMFl6.jpg","year":"2012","result":"HD","language":["Hindi"],"country":["US"],"original_language":"en","genres":["Action","Science Fiction","Thriller"],"imdb_id":"tt1659343"},{"id":"138735","type":"movie","title":"Little Thirteen","poster":"https://image.tmdb.org/t/p/w342/8soOp2XFbOyeFybl6pghZjXJXw0.jpg","year":"2012","result":"HD","language":["Hindi"],"country":["DE"],"original_language":"de","genres":["Drama"],"imdb_id":"tt2215267"},{"id":"76493","type":"movie","title":"The Dictator","poster":"https://image.tmdb.org/t/p/w342/n0W7kajF4GFMRk2c0wWwMQqTaDM.jpg","year":"2012","result":"HD","language":["Hindi"],"country":["US","ES","MA"],"original_language":"en","genres":["Comedy"],"imdb_id":"tt1645170"},{"id":"150584","type":"movie","title":"Clash of the Empires","poster":"https://image.tmdb.org/t/p/w342/wMovcNZDHV5KtEXni3pMWkxG0w9.jpg","year":"2012","result":"HD","language":["Hindi"],"country":["US"],"original_language":"en","genres":["Fantasy","Adventure","Action"],"imdb_id":"tt2456594"},{"id":"150213","type":"movie","title":"Pokémon the Movie: Kyurem vs. the Sword of Justice","poster":"https://image.tmdb.org/t/p/w342/7gQEAR8aaCQRtJi7wq26ST5hukn.jpg","year":"2012","result":"HD","language":["Hindi"],"country":["JP"],"original_language":"ja","genres":["Family","Animation","Action","Adventure","Fantasy","Science Fiction"],"imdb_id":"tt2549540"},{"id":"68721","type":"tv","title":"Wives with Knives","poster":"https://image.tmdb.org/t/p/w342/65Tl0yhwZrOUf55kRdLLdsg0aKC.jpg","year":"2012","result":"HD","language":["Hindi"],"country":[],"original_language":"en","genres":["Documentary","Crime"],"imdb_id":"tt2537956","latest_uploaded_season":1,"total_uploaded_episodes":1},{"id":"49051","type":"movie","title":"The Hobbit: An Unexpected Journey","poster":"https://image.tmdb.org/t/p/w342/yHA9Fc37VmpUA5UncTxxo3rTGVA.jpg","year":"2012","result":"HD","language":["Hindi"],"country":["NZ","US"],"original_language":"en","genres":["Adventure","Fantasy","Action"],"imdb_id":"tt0903624"},{"id":"46435","type":"tv","title":"Robotics;Notes","poster":"https://image.tmdb.org/t/p/w342/iRD5fwcKNqCuu7q6LqwCZP2iHpc.jpg","year":"2012","result":"HD","language":["Hindi"],"country":["JP"],"original_language":"ja","genres":["Animation","Drama","Mystery","Sci-Fi & Fantasy"],"imdb_id":"tt2293974","latest_uploaded_season":1,"total_uploaded_episodes":22},{"id":"43348","type":"tv","title":"Pablo Escobar: The Drug Lord","poster":"https://image.tmdb.org/t/p/w342/5u02bo70uzUFpEV9Pd0lFkLA9Es.jpg","year":"2012","result":"HD","language":["Hindi"],"country":["CO"],"original_language":"es","genres":["Crime","Drama"],"imdb_id":"tt2187850","latest_uploaded_season":1,"total_uploaded_episodes":113},{"id":"35359","type":"tv","title":"My Princess","poster":"https://image.tmdb.org/t/p/w342/le1U5CbfKkOpuk4IIL0jREydXRf.jpg","year":"2011","result":"HD","language":["Hindi"],"country":["KR"],"original_language":"ko","genres":["Comedy","Romance"],"imdb_id":"tt2375282","latest_uploaded_season":1,"total_uploaded_episodes":16},{"id":"51540","type":"movie","title":"Horrible Bosses","poster":"https://image.tmdb.org/t/p/w342/uQkUwgyFHAm0jGQERPG6Z9o9Zbj.jpg","year":"2011","result":"HD","language":["Hindi"],"country":["US"],"original_language":"en","genres":["Comedy","Crime"],"imdb_id":"tt1499658"},{"id":"137227","type":"movie","title":"Doraemon: Nobita and the New Steel Troops: Winged Angels","poster":"https://image.tmdb.org/t/p/w342/57ighjFjXpRwg7VeQ1GN6nf4OZH.jpg","year":"2011","result":"HD","language":["Hindi"],"country":["JP"],"original_language":"ja","genres":["Animation","Adventure","Family","Science Fiction","Fantasy","Comedy"],"imdb_id":"tt1851909"},{"id":"52449","type":"movie","title":"Bad Teacher","poster":"https://image.tmdb.org/t/p/w342/zpIY4qUSX91J9XpPgr0hFrk1eKr.jpg","year":"2011","result":"HD","language":["Hindi"],"country":["US"],"original_language":"en","genres":["Comedy"],"imdb_id":"tt1284575"},{"id":"65347","type":"movie","title":"Cold Fusion","poster":"https://image.tmdb.org/t/p/w342/j7KilE5raWHR58udQnCacFfr1t7.jpg","year":"2011","result":"HD","language":["Hindi"],"country":["US","BG"],"original_language":"en","genres":["Science Fiction","Action","TV Movie"],"imdb_id":"tt1678042"},{"id":"47327","type":"movie","title":"Drive Angry","poster":"https://image.tmdb.org/t/p/w342/nx2pChi41Xv4dsXsfSG3gnKcWaY.jpg","year":"2011","result":"HD","language":["Hindi"],"country":["US"],"original_language":"en","genres":["Fantasy","Thriller","Action","Crime"],"imdb_id":"tt1502404"},{"id":"50544","type":"movie","title":"Friends with Benefits","poster":"https://image.tmdb.org/t/p/w342/nKhhDFCdzxeJ3GUunQ570LDpUkz.jpg","year":"2011","result":"HD","language":["Hindi"],"country":["US"],"original_language":"en","genres":["Romance","Comedy"],"imdb_id":"tt1632708"},{"id":"37958","type":"movie","title":"Immortals","poster":"https://image.tmdb.org/t/p/w342/4SPPX5KIyaQ9O8n5rLvvUIiIhpF.jpg","year":"2011","result":"HD","language":["Hindi"],"country":["US"],"original_language":"en","genres":["Fantasy","Action","Drama"],"imdb_id":"tt1253864"},{"id":"71880","type":"movie","title":"Jack and Jill","poster":"https://image.tmdb.org/t/p/w342/kFeAxmZvu0TE4iuLRHQD6Cej8Wf.jpg","year":"2011","result":"HD","language":["Hindi"],"country":["US"],"original_language":"en","genres":["Comedy","Family"],"imdb_id":"tt0810913"},{"id":"535285","type":"movie","title":"Naked Run","poster":"https://image.tmdb.org/t/p/w342/axPZFjm4R5xiUd9riKMr8afmrcA.jpg","year":"2011","result":"HD","language":["Hindi"],"country":[],"original_language":"en","genres":["Comedy"],"imdb_id":"tt0852986"}]}