{"page":2,"total_pages":67,"total_items":3303,"items":[{"id":"131906","type":"tv","title":"Deeply","poster":"https://image.tmdb.org/t/p/w342/2SvB6QxuTY6otIyYYzedHKUA6vX.jpg","year":"2026","result":"HD","language":["Hindi"],"country":["TR"],"original_language":"tr","genres":["Drama"],"imdb_id":"tt14753620","latest_uploaded_season":3,"total_uploaded_episodes":20},{"id":"114922","type":"tv","title":"Citadel","poster":"https://image.tmdb.org/t/p/w342/5MHtxPEfmN4b0rHzfEZRcm6v9WI.jpg","year":"2026","result":"HD","language":["Hindi"],"country":["US"],"original_language":"en","genres":["Drama","Crime","Action & Adventure"],"imdb_id":"tt9794044","latest_uploaded_season":2,"total_uploaded_episodes":13},{"id":"235930","type":"tv","title":"Devil May Cry","poster":"https://image.tmdb.org/t/p/w342/mX9tqfpjqwreONJHhap7SnSSowe.jpg","year":"2026","result":"HD","language":["Hindi"],"country":["US"],"original_language":"en","genres":["Animation","Action & Adventure","Sci-Fi & Fantasy"],"imdb_id":"tt15716776","latest_uploaded_season":2,"total_uploaded_episodes":16},{"id":"262280","type":"tv","title":"Legends","poster":"https://image.tmdb.org/t/p/w342/dGienbU1xNZJcbY8i8ubJusjDwD.jpg","year":"2026","result":"HD","language":["Hindi"],"country":["GB"],"original_language":"en","genres":["Action & Adventure","Crime","Drama"],"imdb_id":"tt33265765","latest_uploaded_season":1,"total_uploaded_episodes":6},{"id":"316958","type":"tv","title":"Lukkhe","poster":"https://image.tmdb.org/t/p/w342/w8GLkht5ceCi7KQ3AMD77mzkxBc.jpg","year":"2026","result":"HD","language":["Hindi"],"country":["IN"],"original_language":"hi","genres":["Drama"],"imdb_id":"tt40859434","latest_uploaded_season":1,"total_uploaded_episodes":8},{"id":"249907","type":"tv","title":"Sentenced to Be a Hero","poster":"https://image.tmdb.org/t/p/w342/k8bh5mvHDx3czHSF56v9lRyulLC.jpg","year":"2026","result":"HD","language":["Hindi"],"country":["JP"],"original_language":"ja","genres":["Animation","Sci-Fi & Fantasy","Action & Adventure"],"imdb_id":"tt32536168","latest_uploaded_season":2,"total_uploaded_episodes":12},{"id":"127865","type":"tv","title":"The Chestnut Man","poster":"https://image.tmdb.org/t/p/w342/naCYfDx93zfXT6MwmvTwBOkIUy9.jpg","year":"2026","result":"HD","language":["Hindi"],"country":["DK"],"original_language":"da","genres":["Drama","Crime"],"imdb_id":"tt10834220","latest_uploaded_season":2,"total_uploaded_episodes":12},{"id":"1442975","type":"movie","title":"Bhartha Mahasayulaku Wignyapthi","poster":"https://image.tmdb.org/t/p/w342/3QoTnvsbIAAWVXpfHzQKeEQhUi7.jpg","year":"2026","result":"HD","language":["Hindi"],"country":["IN"],"original_language":"te","genres":["Family","Drama","Comedy"],"imdb_id":"tt36017918"},{"id":"1464795","type":"movie","title":"Daadi Ki Shaadi","poster":"https://image.tmdb.org/t/p/w342/hKbQjE5ZcZUpuzApEjyoVCUWwdx.jpg","year":"2026","result":"HD","language":["CAM RESULT"],"country":["IN"],"original_language":"hi","genres":["Comedy","Drama","Family"],"imdb_id":"tt37161355"},{"id":"1421977","type":"movie","title":"Fantasy Life","poster":"https://image.tmdb.org/t/p/w342/e0qtdCm7TJGRfMv0tmdP8DsOy3U.jpg","year":"2026","result":"HD","language":["Hindi"],"country":["US"],"original_language":"en","genres":["Comedy","Romance","Drama"],"imdb_id":"tt35519497"},{"id":"1235877","type":"movie","title":"Jana Nayagan","poster":"https://image.tmdb.org/t/p/w342/jt8pfSIdi47YpFMMWVRr8w5u2S0.jpg","year":"2026","result":"HD","language":["Hindi"],"country":["IN"],"original_language":"ta","genres":["Action","Drama","Science Fiction"],"imdb_id":"tt33379543"},{"id":"1445033","type":"movie","title":"Kaalidas 2","poster":"https://image.tmdb.org/t/p/w342/fq2eQegiFy6JxyM2S2ctm9RbB2G.jpg","year":"2026","result":"HD","language":["Hindi"],"country":["IN"],"original_language":"ta","genres":["Thriller","Drama","Action"],"imdb_id":"tt32873023"},{"id":"1673393","type":"movie","title":"Krishnavataram Part 1: The Heart (Hridayam)","poster":"https://image.tmdb.org/t/p/w342/7AxJYvPWLlNiGH52A9eenDxQzu8.jpg","year":"2026","result":"HD","language":["CAM RESULT"],"country":["IN"],"original_language":"hi","genres":["Adventure","Romance","Drama"],"imdb_id":"tt41804839"},{"id":"1368166","type":"movie","title":"The Housemaid","poster":"https://image.tmdb.org/t/p/w342/cWsBscZzwu5brg9YjNkGewRUvJX.jpg","year":"2026","result":"HD","language":["Hindi"],"country":["US"],"original_language":"en","genres":["Mystery","Thriller"],"imdb_id":"tt27543632"},{"id":"1582770","type":"movie","title":"Dhurandhar: The Revenge","poster":"https://image.tmdb.org/t/p/w342/ov8vrRLZGoXHpYjSY9Vpv1tHJX7.jpg","year":"2026","result":"HD","language":["Hindi"],"country":["IN"],"original_language":"hi","genres":["Action","Crime","Thriller"],"imdb_id":"tt39139925"},{"id":"316965","type":"tv","title":"EXAM","poster":"https://image.tmdb.org/t/p/w342/9jt62J8sfq8pFFovZhEQmxjUqhb.jpg","year":"2026","result":"HD","language":["Hindi"],"country":["IN"],"original_language":"ta","genres":["Crime","Drama"],"imdb_id":"tt38856253","latest_uploaded_season":1,"total_uploaded_episodes":7},{"id":"226707","type":"tv","title":"Inspector Avinash","poster":"https://image.tmdb.org/t/p/w342/cyX4lDfLOtejavCY5PbtRlk4C63.jpg","year":"2026","result":"HD","language":["Hindi"],"country":["IN"],"original_language":"hi","genres":["Action & Adventure","Mystery"],"imdb_id":"tt13847564","latest_uploaded_season":2,"total_uploaded_episodes":18},{"id":"259702","type":"tv","title":"The House of the Spirits","poster":"https://image.tmdb.org/t/p/w342/yb682O0KCZlS5qRydxOytO5A6co.jpg","year":"2026","result":"HD","language":["Hindi"],"country":["US"],"original_language":"en","genres":["Drama"],"imdb_id":"tt33022938","latest_uploaded_season":1,"total_uploaded_episodes":8},{"id":"1576369","type":"movie","title":"Bharathanatyam 2 Mohiniyattam","poster":"https://image.tmdb.org/t/p/w342/lsg0IxNQCUxKqs63YjturEuY0qQ.jpg","year":"2026","result":"HD","language":["Hindi"],"country":["IN"],"original_language":"ml","genres":["Comedy","Thriller"],"imdb_id":"tt37541677"},{"id":"71915","type":"tv","title":"Good Omens","poster":"https://image.tmdb.org/t/p/w342/nO68XVx5of8hlBwEOGOkPC8Mveu.jpg","year":"2026","result":"HD","language":["Hindi"],"country":["GB"],"original_language":"en","genres":["Comedy","Drama","Sci-Fi & Fantasy"],"imdb_id":"tt1869454","latest_uploaded_season":3,"total_uploaded_episodes":13},{"id":"1620034","type":"movie","title":"Marty, Life Is Short","poster":"https://image.tmdb.org/t/p/w342/z4QdUukg4FnbcwM6qeP6ZCoQZhf.jpg","year":"2026","result":"HD","language":["Hindi"],"country":["US","CA"],"original_language":"en","genres":["Documentary"],"imdb_id":"tt39382052"},{"id":"931285","type":"movie","title":"Mortal Kombat II","poster":"https://image.tmdb.org/t/p/w342/lIsMeDbwntNXSUVHmWMMRXEZOVc.jpg","year":"2026","result":"HD","language":["Hindi"],"country":["US"],"original_language":"en","genres":["Action","Fantasy","Adventure"],"imdb_id":"tt17490712"},{"id":"285807","type":"tv","title":"Nemesis","poster":"https://image.tmdb.org/t/p/w342/NY7ZwSMw5PjoJdK2CObqiTj7Bm.jpg","year":"2026","result":"HD","language":["Hindi"],"country":["US"],"original_language":"en","genres":["Drama","Crime"],"imdb_id":"tt36022742","latest_uploaded_season":1,"total_uploaded_episodes":8},{"id":"1317448","type":"movie","title":"No Place to Be Single","poster":"https://image.tmdb.org/t/p/w342/httlhu80GnOx3bCAXi4sYdbDny0.jpg","year":"2026","result":"HD","language":["Hindi"],"country":["IT"],"original_language":"it","genres":["Romance","Comedy"],"imdb_id":"tt34906817"},{"id":"273240","type":"tv","title":"Off Campus","poster":"https://image.tmdb.org/t/p/w342/tcPc5ZMBO4y2BtCJMe3o2nwZb2B.jpg","year":"2026","result":"HD","language":["Hindi"],"country":["US"],"original_language":"en","genres":["Drama"],"imdb_id":"tt33546863","latest_uploaded_season":1,"total_uploaded_episodes":8},{"id":"1637212","type":"movie","title":"Second Case of Seetharam","poster":"https://image.tmdb.org/t/p/w342/89Tuu93NTJVef2Y4iATRwlyAO37.jpg","year":"2026","result":"HD","language":["Hindi"],"country":["IN"],"original_language":"kn","genres":["Thriller","Crime"],"imdb_id":"tt39444607"},{"id":"258063","type":"tv","title":"Soul Mate","poster":"https://image.tmdb.org/t/p/w342/koWJdCFLPLI2VSWQhssoF91k5al.jpg","year":"2026","result":"HD","language":["Hindi"],"country":["JP"],"original_language":"ja","genres":["Drama"],"imdb_id":"tt32809226","latest_uploaded_season":1,"total_uploaded_episodes":8},{"id":"1678844","type":"movie","title":"The Bus: A French Football Mutiny","poster":"https://image.tmdb.org/t/p/w342/vLYxo8SDMLfroqT3fMVnbvddXRF.jpg","year":"2026","result":"HD","language":["Hindi"],"country":["FR"],"original_language":"en","genres":["Documentary"],"imdb_id":"tt37024319"},{"id":"1684240","type":"movie","title":"Untold UK: Jamie Vardy","poster":"https://image.tmdb.org/t/p/w342/d0pODTh6FOwn87iOeXGb7nKOdNT.jpg","year":"2026","result":"HD","language":["Hindi"],"country":["US","GB"],"original_language":"en","genres":["Documentary"],"imdb_id":"tt41777258"},{"id":"1336770","type":"movie","title":"Vaazha II","poster":"https://image.tmdb.org/t/p/w342/1yLZ7kExd0UGGbaZW4LxmYD4OIf.jpg","year":"2026","result":"HD","language":["Hindi"],"country":["IN"],"original_language":"ml","genres":["Comedy","Drama"],"imdb_id":"tt33245761"},{"id":"308014","type":"tv","title":"Berlin and the Lady with an Ermine","poster":"https://image.tmdb.org/t/p/w342/kru9Y5uRXdZFcUyeRlcv4bP4hOr.jpg","year":"2026","result":"HD","language":["Hindi"],"country":["ES"],"original_language":"es","genres":["Drama","Crime"],"imdb_id":"tt42178219","latest_uploaded_season":1,"total_uploaded_episodes":8},{"id":"111110","type":"tv","title":"ONE PIECE","poster":"https://image.tmdb.org/t/p/w342/blWCPEqDGLBuLB9u89CxP9ORQP4.jpg","year":"2026","result":"HD","language":["Hindi"],"country":["US"],"original_language":"en","genres":["Action & Adventure","Sci-Fi & Fantasy"],"imdb_id":"tt11737520","latest_uploaded_season":2,"total_uploaded_episodes":16},{"id":"1439930","type":"movie","title":"The Punisher: One Last Kill","poster":"https://image.tmdb.org/t/p/w342/gOggsBCSypNXq0yApYeXe7nnopT.jpg","year":"2026","result":"HD","language":["ENGLISH"],"country":["US"],"original_language":"en","genres":["Action","Drama","Crime"],"imdb_id":"tt36042156"},{"id":"202555","type":"tv","title":"Daredevil: Born Again","poster":"https://image.tmdb.org/t/p/w342/xDUoAsU8lQHOOoRkFiBuarmACDN.jpg","year":"2026","result":"HD","language":["Hindi"],"country":["US"],"original_language":"en","genres":["Drama","Action & Adventure","Crime"],"imdb_id":"tt18923754","latest_uploaded_season":2,"total_uploaded_episodes":17},{"id":"259259","type":"tv","title":"Worst Ex Ever","poster":"https://image.tmdb.org/t/p/w342/s7D1qWOGSFyicpToIfXL0HRMCT7.jpg","year":"2026","result":"HD","language":["Hindi"],"country":["US"],"original_language":"en","genres":["Crime","Documentary"],"imdb_id":"tt32932523","latest_uploaded_season":2,"total_uploaded_episodes":8},{"id":"1600771","type":"movie","title":"Aakhri Sawal","poster":"https://image.tmdb.org/t/p/w342/9CXBZH6sRJpFTMSaY3wj1jx98F4.jpg","year":"2026","result":"HD","language":["CAM RESULT"],"country":["IN"],"original_language":"hi","genres":["Drama","Thriller"],"imdb_id":"tt41110859"},{"id":"1621496","type":"movie","title":"Anecdotes of Ape Mountain","poster":"https://image.tmdb.org/t/p/w342/dhk4xNejRdGKr9b7XXAOX77MLkq.jpg","year":"2026","result":"HD","language":["Hindi"],"country":["CN"],"original_language":"zh","genres":["Action","Adventure","Fantasy"],"imdb_id":"tt40249388"},{"id":"1450257","type":"movie","title":"Clika","poster":"https://image.tmdb.org/t/p/w342/82Vh8PSzWtBi0CLWrnJdRhGYxEr.jpg","year":"2026","result":"HD","language":["Hindi"],"country":["US"],"original_language":"en","genres":["Music","Drama"],"imdb_id":"tt28334938"},{"id":"124364","type":"tv","title":"FROM","poster":"https://image.tmdb.org/t/p/w342/pRtJagIxpfODzzb0T0NAvZSzErC.jpg","year":"2026","result":"HD","language":["Hindi"],"country":["US"],"original_language":"en","genres":["Mystery","Drama","Sci-Fi & Fantasy"],"imdb_id":"tt9813792","latest_uploaded_season":4,"total_uploaded_episodes":40},{"id":"322565","type":"tv","title":"Hathras","poster":"https://image.tmdb.org/t/p/w342/njA8C3SX84vDyQt8uXogWltXJmS.jpg","year":"2026","result":"HD","language":["Hindi"],"country":["IN"],"original_language":"hi","genres":["Crime","Documentary"],"imdb_id":"tt42638829","latest_uploaded_season":1,"total_uploaded_episodes":1},{"id":"1694620","type":"movie","title":"Haye Ni Bebe Meriye","poster":"https://image.tmdb.org/t/p/w342/ymnx4qjPgi7pSpFaUou7ENRLqte.jpg","year":"2026","result":"HD","language":["Hindi"],"country":[],"original_language":"pa","genres":["Family","Comedy"],"imdb_id":""},{"id":"1405769","type":"movie","title":"I Can Only Imagine 2","poster":"https://image.tmdb.org/t/p/w342/qYBCs9nBmdNCLduw5BTlendq89z.jpg","year":"2026","result":"HD","language":["Hindi"],"country":["US"],"original_language":"en","genres":["Music","Drama"],"imdb_id":"tt34888646"},{"id":"1657678","type":"movie","title":"Indian Institute of Zombies","poster":"https://image.tmdb.org/t/p/w342/zSiNbahfCoezs5LQYNtJrvczngM.jpg","year":"2026","result":"HD","language":["CAM RESULT"],"country":["IN"],"original_language":"hi","genres":["Comedy","Horror"],"imdb_id":"tt41113860"},{"id":"1320660","type":"movie","title":"Pati Patni Aur Woh Do","poster":"https://image.tmdb.org/t/p/w342/x0RUPvba4JlCCkyyEZGlQFIFVuF.jpg","year":"2026","result":"HD","language":["CAM RESULT"],"country":["IN"],"original_language":"hi","genres":["Comedy"],"imdb_id":"tt33054858"},{"id":"1330021","type":"movie","title":"Remarkably Bright Creatures","poster":"https://image.tmdb.org/t/p/w342/9HcEqn3D4J6b2Z0jK54id9nA0fr.jpg","year":"2026","result":"HD","language":["Hindi"],"country":["US"],"original_language":"en","genres":["Drama","Mystery"],"imdb_id":"tt33100314"},{"id":"318262","type":"tv","title":"Should I Marry A Murderer?","poster":"https://image.tmdb.org/t/p/w342/wu8iopmnuCDZ45FMD3Gh7IgQaCI.jpg","year":"2026","result":"HD","language":["Hindi"],"country":["GB"],"original_language":"en","genres":["Documentary","Crime"],"imdb_id":"tt41082351","latest_uploaded_season":1,"total_uploaded_episodes":3},{"id":"76479","type":"tv","title":"The Boys","poster":"https://image.tmdb.org/t/p/w342/in1R2dDc421JxsoRWaIIAqVI2KE.jpg","year":"2026","result":"HD","language":["Hindi"],"country":["US"],"original_language":"en","genres":["Sci-Fi & Fantasy","Action & Adventure"],"imdb_id":"tt1190634","latest_uploaded_season":5,"total_uploaded_episodes":40},{"id":"1662317","type":"movie","title":"The Crash","poster":"https://image.tmdb.org/t/p/w342/veskdPx4YUTmkrFrTs6zRJ8VV4E.jpg","year":"2026","result":"HD","language":["Hindi"],"country":["GB"],"original_language":"en","genres":["Documentary","Crime"],"imdb_id":"tt40792117"},{"id":"247723","type":"tv","title":"The Hunting Party","poster":"https://image.tmdb.org/t/p/w342/mjJMOLr966Q78YUPu0pVA0ydBIP.jpg","year":"2026","result":"HD","language":["Hindi"],"country":["US"],"original_language":"en","genres":["Drama","Crime"],"imdb_id":"tt21906554","latest_uploaded_season":2,"total_uploaded_episodes":23},{"id":"322558","type":"tv","title":"Vimal Khanna","poster":"https://image.tmdb.org/t/p/w342/x46kt1DCCpDfwp5Xfr12uJtrPN1.jpg","year":"2026","result":"HD","language":["Hindi"],"country":["IN"],"original_language":"hi","genres":["Action & Adventure","Crime"],"imdb_id":"tt40617563","latest_uploaded_season":1,"total_uploaded_episodes":9}]}