{"page":46,"total_pages":67,"total_items":3303,"items":[{"id":"249972","type":"tv","title":"Blossom","poster":"https://image.tmdb.org/t/p/w342/38WomXthArq5cKRfkHkxYRo6DLe.jpg","year":"2024","result":"HD","language":["Hindi"],"country":["CN"],"original_language":"zh","genres":["Drama"],"imdb_id":"tt31938763","latest_uploaded_season":1,"total_uploaded_episodes":34},{"id":"249847","type":"tv","title":"Miss Target","poster":"https://image.tmdb.org/t/p/w342/tcKysgvfk1kS84wdxMlJBK6KQIX.jpg","year":"2024","result":"HD","language":["Hindi"],"country":["JP"],"original_language":"ja","genres":["Drama","Comedy"],"imdb_id":"tt32169410","latest_uploaded_season":1,"total_uploaded_episodes":9},{"id":"248817","type":"tv","title":"I'll Become a Villainess Who Goes Down in History","poster":"https://image.tmdb.org/t/p/w342/lTDWs3IjKwiBz00c8bzVmrgLa3A.jpg","year":"2024","result":"HD","language":["Hindi"],"country":["JP"],"original_language":"ja","genres":["Animation","Comedy"],"imdb_id":"tt32812118","latest_uploaded_season":1,"total_uploaded_episodes":13},{"id":"247453","type":"tv","title":"Everyone Loves Me","poster":"https://image.tmdb.org/t/p/w342/sgWR52ebu4rRCgJjYxCliCITh7H.jpg","year":"2024","result":"HD","language":["Hindi"],"country":["CN"],"original_language":"zh","genres":["Comedy","Drama"],"imdb_id":"tt28131856","latest_uploaded_season":1,"total_uploaded_episodes":24},{"id":"244324","type":"tv","title":"Dead and Buried","poster":"https://image.tmdb.org/t/p/w342/mNOtgyHuat5xZWLKl15JjBz8yqQ.jpg","year":"2024","result":"HD","language":["Hindi"],"country":["IE","GB"],"original_language":"en","genres":["Drama"],"imdb_id":"tt31499843","latest_uploaded_season":1,"total_uploaded_episodes":4},{"id":"242983","type":"tv","title":"#90’s - A Middle Class Biopic","poster":"https://image.tmdb.org/t/p/w342/fYKBBcpWMRhMPyeHmDZNLTFyMae.jpg","year":"2024","result":"HD","language":["Hindi"],"country":["IN"],"original_language":"te","genres":["Family","Comedy","Drama"],"imdb_id":"tt29764006","latest_uploaded_season":1,"total_uploaded_episodes":6},{"id":"242143","type":"tv","title":"You are Ms. Servant","poster":"https://image.tmdb.org/t/p/w342/eyFOI6GkIN9JI1qaGLpEkrRlXdc.jpg","year":"2024","result":"HD","language":["Hindi"],"country":["JP"],"original_language":"ja","genres":["Animation","Comedy"],"imdb_id":"tt30689669","latest_uploaded_season":1,"total_uploaded_episodes":12},{"id":"240437","type":"tv","title":"My Boss","poster":"https://image.tmdb.org/t/p/w342/27mXtbvk9lNpq5zC3dRzOX9Zb0c.jpg","year":"2024","result":"HD","language":["Hindi"],"country":["CN"],"original_language":"zh","genres":["Comedy","Drama"],"imdb_id":"tt29363736","latest_uploaded_season":1,"total_uploaded_episodes":36},{"id":"240411","type":"tv","title":"Dan Da Dan","poster":"https://image.tmdb.org/t/p/w342/6qfZAOEUFIrbUH3JvePclx1nXzz.jpg","year":"2024","result":"HD","language":["Hindi"],"country":["JP"],"original_language":"ja","genres":["Animation","Action & Adventure","Comedy","Sci-Fi & Fantasy"],"imdb_id":"tt30217403","latest_uploaded_season":1,"total_uploaded_episodes":24},{"id":"240125","type":"tv","title":"TRILLION GAME","poster":"https://image.tmdb.org/t/p/w342/pL4nFHx4lChRXLrJzRX0sAl8SfG.jpg","year":"2024","result":"HD","language":["Hindi"],"country":["JP"],"original_language":"ja","genres":["Animation","Drama"],"imdb_id":"tt33609048","latest_uploaded_season":1,"total_uploaded_episodes":26},{"id":"239779","type":"tv","title":"True Beauty","poster":"https://image.tmdb.org/t/p/w342/9gpc8kIhNEG7r0VTkyI9aVBxdO3.jpg","year":"2024","result":"HD","language":["Hindi"],"country":["KR"],"original_language":"ko","genres":["Animation","Comedy","Drama"],"imdb_id":"tt33054444","latest_uploaded_season":1,"total_uploaded_episodes":13},{"id":"237150","type":"tv","title":"As a Reincarnated Aristocrat, I'll Use My Appraisal Skill to Rise in the World","poster":"https://image.tmdb.org/t/p/w342/kYjQNi15IWz76nbqFBFPlVsO9lL.jpg","year":"2024","result":"HD","language":["Hindi"],"country":["JP"],"original_language":"ja","genres":["Animation","Sci-Fi & Fantasy"],"imdb_id":"tt31975847","latest_uploaded_season":1,"total_uploaded_episodes":24},{"id":"236356","type":"tv","title":"Family Matters","poster":"https://image.tmdb.org/t/p/w342/aQt92o4IOZis7rFRNpo15sflZde.jpg","year":"2024","result":"HD","language":["Hindi"],"country":["KR"],"original_language":"ko","genres":["Drama","Crime","Comedy","Mystery"],"imdb_id":"tt31510539","latest_uploaded_season":1,"total_uploaded_episodes":6},{"id":"235389","type":"tv","title":"Re:Monster","poster":"https://image.tmdb.org/t/p/w342/AmFrA0jX0p9twH1IKfxcGWVz2X3.jpg","year":"2024","result":"HD","language":["Hindi"],"country":["JP"],"original_language":"ja","genres":["Animation","Action & Adventure","Sci-Fi & Fantasy"],"imdb_id":"tt31514720","latest_uploaded_season":2,"total_uploaded_episodes":13},{"id":"234910","type":"tv","title":"Tying the Knot with an Amagami Sister","poster":"https://image.tmdb.org/t/p/w342/werwTXBFyhlhBqDkGQzUaDolHt9.jpg","year":"2024","result":"HD","language":["Hindi"],"country":["JP"],"original_language":"ja","genres":["Animation","Comedy"],"imdb_id":"tt29141921","latest_uploaded_season":1,"total_uploaded_episodes":24},{"id":"232018","type":"tv","title":"Paris Has Fallen","poster":"https://image.tmdb.org/t/p/w342/ei1jnjJ154XN1E4q9JKEpuEImup.jpg","year":"2024","result":"HD","language":["Hindi"],"country":["FR"],"original_language":"fr","genres":["Action & Adventure","War & Politics"],"imdb_id":"tt33184638","latest_uploaded_season":1,"total_uploaded_episodes":8},{"id":"230923","type":"tv","title":"Lovely Runner","poster":"https://image.tmdb.org/t/p/w342/xJQyrif5M4UMoVBrBlwUabtaRxB.jpg","year":"2024","result":"HD","language":["Hindi"],"country":["KR"],"original_language":"ko","genres":["Drama","Sci-Fi & Fantasy","Comedy","Mystery"],"imdb_id":"tt31324295","latest_uploaded_season":1,"total_uploaded_episodes":16},{"id":"230777","type":"tv","title":"The Trunk","poster":"https://image.tmdb.org/t/p/w342/3YQtEqg923Os5w5Qg8sbQL41shw.jpg","year":"2024","result":"HD","language":["Hindi"],"country":["KR"],"original_language":"ko","genres":["Drama","Mystery"],"imdb_id":"tt26773401","latest_uploaded_season":1,"total_uploaded_episodes":8},{"id":"230448","type":"tv","title":"Mr. Plankton","poster":"https://image.tmdb.org/t/p/w342/c31cvdNNiAMvb4XVjAwYLNn3LNO.jpg","year":"2024","result":"HD","language":["Hindi"],"country":["KR"],"original_language":"ko","genres":["Comedy","Drama"],"imdb_id":"tt27539317","latest_uploaded_season":1,"total_uploaded_episodes":10},{"id":"230198","type":"tv","title":"Wedding Impossible","poster":"https://image.tmdb.org/t/p/w342/auP4DnCCUHNH1CBlpL8TWBZya2f.jpg","year":"2024","result":"HD","language":["Hindi"],"country":["KR"],"original_language":"ko","genres":["Drama","Comedy"],"imdb_id":"tt30301176","latest_uploaded_season":1,"total_uploaded_episodes":12},{"id":"229480","type":"tv","title":"No Gain No Love","poster":"https://image.tmdb.org/t/p/w342/jiGxkMP3lzPDaPw4F0EZAEiTSgL.jpg","year":"2024","result":"HD","language":["Hindi"],"country":["KR"],"original_language":"ko","genres":["Drama","Comedy"],"imdb_id":"tt32981987","latest_uploaded_season":1,"total_uploaded_episodes":12},{"id":"229202","type":"tv","title":"The Tale of Rose","poster":"https://image.tmdb.org/t/p/w342/d9M2l1fSFaze3PaHwz19hVrsU1g.jpg","year":"2024","result":"HD","language":["Hindi"],"country":["CN"],"original_language":"zh","genres":["Drama"],"imdb_id":"tt29930328","latest_uploaded_season":1,"total_uploaded_episodes":38},{"id":"224030","type":"tv","title":"High School Return of a Gangster","poster":"https://image.tmdb.org/t/p/w342/bK5kGsWq9vGALbDgPmNiLFNFVI1.jpg","year":"2024","result":"HD","language":["Hindi"],"country":["KR"],"original_language":"ko","genres":["Sci-Fi & Fantasy","Drama"],"imdb_id":"tt32499943","latest_uploaded_season":1,"total_uploaded_episodes":8},{"id":"223500","type":"tv","title":"WIND BREAKER","poster":"https://image.tmdb.org/t/p/w342/3kTFL3PAeTyS8gGZAh0iYG6NNjt.jpg","year":"2024","result":"HD","language":["Hindi"],"country":["JP"],"original_language":"ja","genres":["Animation","Action & Adventure"],"imdb_id":"tt29605391","latest_uploaded_season":1,"total_uploaded_episodes":25},{"id":"219652","type":"tv","title":"The Frog","poster":"https://image.tmdb.org/t/p/w342/uMl2TzRs1LzTR9jyRNHnf5keqMV.jpg","year":"2024","result":"HD","language":["Hindi"],"country":["KR"],"original_language":"ko","genres":["Mystery","Crime","Drama"],"imdb_id":"tt26767508","latest_uploaded_season":1,"total_uploaded_episodes":8},{"id":"217667","type":"tv","title":"Eric","poster":"https://image.tmdb.org/t/p/w342/9OV6McrRh1BAnrak3yVP9xYuUId.jpg","year":"2024","result":"HD","language":["Hindi"],"country":["GB"],"original_language":"en","genres":["Drama","Mystery"],"imdb_id":"tt16283824","latest_uploaded_season":1,"total_uploaded_episodes":6},{"id":"215720","type":"tv","title":"Queen of Tears","poster":"https://image.tmdb.org/t/p/w342/7ZXLZ3KYL3IVvsSHBZaHjcNQzNU.jpg","year":"2024","result":"HD","language":["Hindi"],"country":["KR"],"original_language":"ko","genres":["Drama","Comedy"],"imdb_id":"tt27668559","latest_uploaded_season":1,"total_uploaded_episodes":16},{"id":"214826","type":"tv","title":"Not A Murder Story","poster":"https://image.tmdb.org/t/p/w342/aWgKbHI8GfW63CfLa5BHgDbnMl.jpg","year":"2024","result":"HD","language":["Hindi"],"country":["TW"],"original_language":"zh","genres":["Mystery","Crime"],"imdb_id":"tt23472304","latest_uploaded_season":1,"total_uploaded_episodes":8},{"id":"213830","type":"tv","title":"I Was Reincarnated as the 7th Prince so I Can Take My Time Perfecting My Magical Ability","poster":"https://image.tmdb.org/t/p/w342/ruLkQB8i1yazHgO0QCWpyJRRTs9.jpg","year":"2024","result":"HD","language":["Hindi"],"country":["JP"],"original_language":"ja","genres":["Animation","Sci-Fi & Fantasy"],"imdb_id":"tt31624309","latest_uploaded_season":1,"total_uploaded_episodes":24},{"id":"212588","type":"tv","title":"Furies","poster":"https://image.tmdb.org/t/p/w342/8sHKc6kNKjdhvHBP2c5zoSS16v5.jpg","year":"2024","result":"HD","language":["Hindi"],"country":["FR"],"original_language":"fr","genres":["Action & Adventure","Crime"],"imdb_id":"tt11384300","latest_uploaded_season":1,"total_uploaded_episodes":8},{"id":"212553","type":"tv","title":"The Bequeathed","poster":"https://image.tmdb.org/t/p/w342/iExLDuclzOp06ro9929UTDQRDm1.jpg","year":"2024","result":"HD","language":["Hindi"],"country":["KR"],"original_language":"ko","genres":["Drama","Mystery","Crime"],"imdb_id":"tt28225048","latest_uploaded_season":1,"total_uploaded_episodes":6},{"id":"208825","type":"tv","title":"Parasyte: The Grey","poster":"https://image.tmdb.org/t/p/w342/9UPneQ4NF7g6WDNSFE5qyt88wJn.jpg","year":"2024","result":"HD","language":["Hindi"],"country":["KR"],"original_language":"ko","genres":["Sci-Fi & Fantasy","Action & Adventure","Drama"],"imdb_id":"tt21874396","latest_uploaded_season":1,"total_uploaded_episodes":6},{"id":"207468","type":"tv","title":"Kaiju No. 8","poster":"https://image.tmdb.org/t/p/w342/bJxGs0w5RAhaX4fIUQu511rvm0S.jpg","year":"2024","result":"HD","language":["Hindi"],"country":["JP"],"original_language":"ja","genres":["Animation","Action & Adventure","Sci-Fi & Fantasy"],"imdb_id":"tt21975436","latest_uploaded_season":1,"total_uploaded_episodes":23},{"id":"194764","type":"tv","title":"The Penguin","poster":"https://image.tmdb.org/t/p/w342/vOWcqC4oDQws1doDWLO7d3dh5qc.jpg","year":"2024","result":"HD","language":["Hindi"],"country":["US"],"original_language":"en","genres":["Drama","Crime"],"imdb_id":"tt15435876","latest_uploaded_season":1,"total_uploaded_episodes":8},{"id":"139547","type":"tv","title":"Goodbye Earth","poster":"https://image.tmdb.org/t/p/w342/i1LvLQSKRoGlU5egMHagDtsZ4K1.jpg","year":"2024","result":"HD","language":["Hindi"],"country":["KR"],"original_language":"ko","genres":["Drama"],"imdb_id":"tt17492848","latest_uploaded_season":1,"total_uploaded_episodes":12},{"id":"108545","type":"tv","title":"3 Body Problem","poster":"https://image.tmdb.org/t/p/w342/ykZ7hlShkdRQaL2aiieXdEMmrLb.jpg","year":"2024","result":"HD","language":["Hindi"],"country":["US"],"original_language":"en","genres":["Sci-Fi & Fantasy","Mystery","Drama"],"imdb_id":"tt13016388","latest_uploaded_season":1,"total_uploaded_episodes":8},{"id":"129600","type":"tv","title":"Baki Hanma","poster":"https://image.tmdb.org/t/p/w342/x145FSI9xJ6UbkxfabUsY2SFbu3.jpg","year":"2023","result":"HD","language":["Hindi"],"country":["JP"],"original_language":"ja","genres":["Animation","Action & Adventure","Sci-Fi & Fantasy"],"imdb_id":"tt13357140","latest_uploaded_season":2,"total_uploaded_episodes":26},{"id":"68398","type":"tv","title":"Dr. Romantic","poster":"https://image.tmdb.org/t/p/w342/9fbRJgZ2zDTnSUId1bOwsllHNr7.jpg","year":"2023","result":"HD","language":["Hindi"],"country":["KR"],"original_language":"ko","genres":["Drama"],"imdb_id":"tt6157190","latest_uploaded_season":3,"total_uploaded_episodes":52},{"id":"81500","type":"tv","title":"Fights Break Sphere","poster":"https://image.tmdb.org/t/p/w342/quF64x6cR0dk38v2Y2kTJKJWU1H.jpg","year":"2023","result":"HD","language":["Hindi"],"country":["CN"],"original_language":"zh","genres":["Sci-Fi & Fantasy","Action & Adventure"],"imdb_id":"tt9248626","latest_uploaded_season":2,"total_uploaded_episodes":79},{"id":"126280","type":"tv","title":"Sex/Life","poster":"https://image.tmdb.org/t/p/w342/kfcJl5e8CRWDU7e4vX6uNABPRbS.jpg","year":"2023","result":"HD","language":["Hindi"],"country":["US"],"original_language":"en","genres":["Drama"],"imdb_id":"tt10839422","latest_uploaded_season":2,"total_uploaded_episodes":14},{"id":"88803","type":"tv","title":"Vinland Saga","poster":"https://image.tmdb.org/t/p/w342/vUHlpA5c1NXkds59reY3HMb4Abs.jpg","year":"2023","result":"HD","language":["Hindi"],"country":["JP"],"original_language":"ja","genres":["Animation","War & Politics","Action & Adventure","Drama"],"imdb_id":"tt10233448","latest_uploaded_season":2,"total_uploaded_episodes":48},{"id":"231364","type":"tv","title":"My Lovely Wife","poster":"https://image.tmdb.org/t/p/w342/zPcThOYLsXUZUHY4VhRNCLQuhT0.jpg","year":"2023","result":"HD","language":["Hindi"],"country":["CN"],"original_language":"zh","genres":["Drama","Mystery"],"imdb_id":"","latest_uploaded_season":1,"total_uploaded_episodes":11},{"id":"152551","type":"tv","title":"Rising with the Wind","poster":"https://image.tmdb.org/t/p/w342/cZSb43j1O1pRZIwwn0fgCx5XJIP.jpg","year":"2023","result":"HD","language":["Hindi"],"country":["CN"],"original_language":"zh","genres":["Drama"],"imdb_id":"tt17069404","latest_uploaded_season":1,"total_uploaded_episodes":40},{"id":"228547","type":"tv","title":"When I Fly Towards You","poster":"https://image.tmdb.org/t/p/w342/mjCChwZcEZ9902tUAG1hWZlfOHm.jpg","year":"2023","result":"HD","language":["Hindi"],"country":["CN"],"original_language":"zh","genres":["Drama","Comedy"],"imdb_id":"tt28036189","latest_uploaded_season":1,"total_uploaded_episodes":24},{"id":"231955","type":"tv","title":"You From The Future","poster":"https://image.tmdb.org/t/p/w342/edkdnOZhp0dzG0ltaxmNupVmdbZ.jpg","year":"2023","result":"HD","language":["Hindi"],"country":["CN"],"original_language":"zh","genres":["Drama","Sci-Fi & Fantasy"],"imdb_id":"tt30138533","latest_uploaded_season":1,"total_uploaded_episodes":24},{"id":"229217","type":"tv","title":"Exploration Method of Love","poster":"https://image.tmdb.org/t/p/w342/2DFMf3k5MCs4LTsmLHRzFBybBSq.jpg","year":"2023","result":"HD","language":["Hindi"],"country":["CN"],"original_language":"zh","genres":["Drama","Comedy"],"imdb_id":"tt28131611","latest_uploaded_season":1,"total_uploaded_episodes":22},{"id":"232828","type":"tv","title":"Fake It Till You Make It","poster":"https://image.tmdb.org/t/p/w342/zwypLF3ipPCoow735l3GjM9wkJa.jpg","year":"2023","result":"HD","language":["Hindi"],"country":["CN"],"original_language":"zh","genres":["Drama"],"imdb_id":"tt28667730","latest_uploaded_season":1,"total_uploaded_episodes":20},{"id":"228819","type":"tv","title":"Fish Show You","poster":"https://image.tmdb.org/t/p/w342/oYDUtBGgUnfd3njqR4gxH8wRY2K.jpg","year":"2023","result":"HD","language":["Hindi"],"country":["CN"],"original_language":"zh","genres":["Drama","Sci-Fi & Fantasy"],"imdb_id":"","latest_uploaded_season":1,"total_uploaded_episodes":18},{"id":"220068","type":"tv","title":"Have a Crush On You","poster":"https://image.tmdb.org/t/p/w342/isXUBTFNXyeo1XojeBLZMN4cpnT.jpg","year":"2023","result":"HD","language":["Hindi"],"country":["CN"],"original_language":"zh","genres":["Drama"],"imdb_id":"tt26732402","latest_uploaded_season":1,"total_uploaded_episodes":36},{"id":"227634","type":"tv","title":"Mr. Insomnia Waiting for Love","poster":"https://image.tmdb.org/t/p/w342/wHm0jvUoO6Eg80bqg1ALHlV1NfT.jpg","year":"2023","result":"HD","language":["Hindi"],"country":["CN"],"original_language":"zh","genres":["Drama","Comedy","Sci-Fi & Fantasy"],"imdb_id":"tt28036984","latest_uploaded_season":1,"total_uploaded_episodes":24}]}