{"page":34,"total_pages":67,"total_items":3303,"items":[{"id":"220801","type":"tv","title":"Fool Me Once","poster":"https://image.tmdb.org/t/p/w342/Ertv4WLEyHgi8zN4ldOKgPcGAZ.jpg","year":"2024","result":"HD","language":["Hindi"],"country":["GB"],"original_language":"en","genres":["Drama","Crime","Mystery"],"imdb_id":"tt5611024","latest_uploaded_season":1,"total_uploaded_episodes":8},{"id":"252425","type":"tv","title":"Garouden: The Way of the Lone Wolf","poster":"https://image.tmdb.org/t/p/w342/ozOjfhE6ADlWto0IKgVtniRvUOW.jpg","year":"2024","result":"HD","language":["Hindi"],"country":["JP"],"original_language":"ja","genres":["Animation","Action & Adventure"],"imdb_id":"tt32178759","latest_uploaded_season":1,"total_uploaded_episodes":8},{"id":"967847","type":"movie","title":"Ghostbusters: Frozen Empire","poster":"https://image.tmdb.org/t/p/w342/e1J2oNzSBdou01sUvriVuoYp0pJ.jpg","year":"2024","result":"HD","language":["Hindi"],"country":["US"],"original_language":"en","genres":["Fantasy","Adventure","Comedy"],"imdb_id":"tt21235248"},{"id":"1191610","type":"movie","title":"Goyo","poster":"https://image.tmdb.org/t/p/w342/fCjC1RRbEJUpDjM55RNUMXQen0b.jpg","year":"2024","result":"HD","language":["Hindi"],"country":["AR"],"original_language":"es","genres":["Drama","Romance","Comedy"],"imdb_id":"tt32598483"},{"id":"137893","type":"tv","title":"Griselda","poster":"https://image.tmdb.org/t/p/w342/nhEtK1lJKb3kqBtDBDXynGr3hJL.jpg","year":"2024","result":"HD","language":["Hindi"],"country":["US"],"original_language":"en","genres":["Drama","Crime"],"imdb_id":"tt15837600","latest_uploaded_season":1,"total_uploaded_episodes":6},{"id":"1181548","type":"movie","title":"Heart of the Hunter","poster":"https://image.tmdb.org/t/p/w342/n726fdyL1dGwt15bY7Nj3XOXc4Q.jpg","year":"2024","result":"HD","language":["Hindi"],"country":["ZA"],"original_language":"en","genres":["Action"],"imdb_id":"tt28943278"},{"id":"974635","type":"movie","title":"Hit Man","poster":"https://image.tmdb.org/t/p/w342/oil3EZwKFp3CWxZnfGfGglesvm9.jpg","year":"2024","result":"HD","language":["Hindi"],"country":["US"],"original_language":"en","genres":["Comedy","Romance","Crime"],"imdb_id":"tt20215968"},{"id":"1291143","type":"movie","title":"How to Rob a Bank","poster":"https://image.tmdb.org/t/p/w342/vhBQOgig0bXCXIgHHyO8ipG47J9.jpg","year":"2024","result":"HD","language":["Hindi"],"country":["US"],"original_language":"en","genres":["Documentary","Crime"],"imdb_id":"tt32308418"},{"id":"639720","type":"movie","title":"IF","poster":"https://image.tmdb.org/t/p/w342/xbKFv4KF3sVYuWKllLlwWDmuZP7.jpg","year":"2024","result":"HD","language":["Hindi"],"country":["US"],"original_language":"en","genres":["Comedy","Fantasy","Family"],"imdb_id":"tt11152168"},{"id":"1230550","type":"movie","title":"In Good Hands 2","poster":"https://image.tmdb.org/t/p/w342/octokBbs3r3N3SyDGwzLX6qkdor.jpg","year":"2024","result":"HD","language":["Hindi"],"country":["TR"],"original_language":"tr","genres":["Drama","Comedy","Romance"],"imdb_id":"tt28567745"},{"id":"1019420","type":"movie","title":"Irish Wish","poster":"https://image.tmdb.org/t/p/w342/v4Bb70dpIIQoEnZAHnm3nzCPauU.jpg","year":"2024","result":"HD","language":["Hindi"],"country":["US"],"original_language":"en","genres":["Romance","Comedy","Fantasy"],"imdb_id":"tt21957774"},{"id":"242875","type":"tv","title":"Iron Reign","poster":"https://image.tmdb.org/t/p/w342/fc1oDqW2Gi1vzzloMwcRFXgtjdM.jpg","year":"2024","result":"HD","language":["Hindi"],"country":["ES"],"original_language":"es","genres":["Crime","Drama"],"imdb_id":"tt23806252","latest_uploaded_season":1,"total_uploaded_episodes":8},{"id":"653346","type":"movie","title":"Kingdom of the Planet of the Apes","poster":"https://image.tmdb.org/t/p/w342/gKkl37BQuKTanygYQG1pyYgLVgf.jpg","year":"2024","result":"HD","language":["Hindi"],"country":["US"],"original_language":"en","genres":["Science Fiction","Adventure","Action"],"imdb_id":"tt11389872"},{"id":"1026999","type":"movie","title":"Kleks Academy","poster":"https://image.tmdb.org/t/p/w342/ymbECZscR8BTkdvXziSinMIckAz.jpg","year":"2024","result":"HD","language":["Hindi"],"country":["PL"],"original_language":"pl","genres":["Fantasy","Adventure","Family"],"imdb_id":"tt20857676"},{"id":"206010","type":"tv","title":"Kleo","poster":"https://image.tmdb.org/t/p/w342/hs72cJXRYay3kuZaEiHB0EYhQtJ.jpg","year":"2024","result":"HD","language":["Hindi"],"country":["DE"],"original_language":"de","genres":["Action & Adventure","Drama","Crime"],"imdb_id":"tt15135104","latest_uploaded_season":2,"total_uploaded_episodes":14},{"id":"634492","type":"movie","title":"Madame Web","poster":"https://image.tmdb.org/t/p/w342/rULWuutDcN5NvtiZi4FRPzRYWSh.jpg","year":"2024","result":"HD","language":["Hindi"],"country":["US"],"original_language":"en","genres":["Action","Fantasy"],"imdb_id":"tt11057302"},{"id":"250670","type":"tv","title":"Maxton Hall – The World Between Us","poster":"https://image.tmdb.org/t/p/w342/slKAbvY2CjAIyJFqoLSh1WICzg6.jpg","year":"2024","result":"HD","language":["Hindi"],"country":["DE"],"original_language":"de","genres":["Drama"],"imdb_id":"tt27792190","latest_uploaded_season":3,"total_uploaded_episodes":12},{"id":"673593","type":"movie","title":"Mean Girls","poster":"https://image.tmdb.org/t/p/w342/fbbj3viSUDEGT1fFFMNpHP1iUjw.jpg","year":"2024","result":"HD","language":["Hindi"],"country":["US"],"original_language":"en","genres":["Comedy"],"imdb_id":"tt11762114"},{"id":"118642","type":"tv","title":"Mr. & Mrs. Smith","poster":"https://image.tmdb.org/t/p/w342/kvJvGxsDLi3MmHzc9nregyJtOWY.jpg","year":"2024","result":"HD","language":["Hindi"],"country":["US"],"original_language":"en","genres":["Action & Adventure","Comedy","Drama"],"imdb_id":"tt14044212","latest_uploaded_season":2,"total_uploaded_episodes":8},{"id":"203413","type":"tv","title":"My Lady Jane","poster":"https://image.tmdb.org/t/p/w342/qX68uGVJwxQ0B0sPZBEGikWRmA6.jpg","year":"2024","result":"HD","language":["Hindi"],"country":["US"],"original_language":"en","genres":["Drama","Comedy","Sci-Fi & Fantasy"],"imdb_id":"tt11379456","latest_uploaded_season":1,"total_uploaded_episodes":8},{"id":"1048241","type":"movie","title":"My Spy The Eternal City","poster":"https://image.tmdb.org/t/p/w342/fRBfkzSrcyrnUfVgpEtTurEEiac.jpg","year":"2024","result":"HD","language":["Hindi"],"country":["US","ZA","IT"],"original_language":"en","genres":["Action","Comedy","Family"],"imdb_id":"tt12930350"},{"id":"1255028","type":"movie","title":"Mysteries of the Terracotta Warriors","poster":"https://image.tmdb.org/t/p/w342/snl9dddlnu2yKXXix2ua7G8UWoe.jpg","year":"2024","result":"HD","language":["Hindi"],"country":["GB"],"original_language":"en","genres":["Documentary"],"imdb_id":"tt32451344"},{"id":"968441","type":"movie","title":"Música","poster":"https://image.tmdb.org/t/p/w342/kUX5ourGUJDG0yvEeS3uooZS0dS.jpg","year":"2024","result":"HD","language":["Hindi"],"country":["US"],"original_language":"en","genres":["Romance","Comedy","Music"],"imdb_id":"tt19853698"},{"id":"240667","type":"tv","title":"One Day","poster":"https://image.tmdb.org/t/p/w342/smBWt8rHCCavV88C5gQVjh0NUFa.jpg","year":"2024","result":"HD","language":["Hindi"],"country":["GB","US"],"original_language":"en","genres":["Drama"],"imdb_id":"tt16283804","latest_uploaded_season":1,"total_uploaded_episodes":14},{"id":"213612","type":"tv","title":"Our Living World","poster":"https://image.tmdb.org/t/p/w342/1xUhIpdJOna0vGmUohTC9hnWaRj.jpg","year":"2024","result":"HD","language":["Hindi"],"country":["GB"],"original_language":"en","genres":["Documentary"],"imdb_id":"tt23181418","latest_uploaded_season":1,"total_uploaded_episodes":4},{"id":"203667","type":"tv","title":"Red Queen","poster":"https://image.tmdb.org/t/p/w342/lk7LVXYSOO5rReR2jzLo8Le3cO1.jpg","year":"2024","result":"HD","language":["Hindi"],"country":["ES"],"original_language":"es","genres":["Action & Adventure","Mystery"],"imdb_id":"tt20883126","latest_uploaded_season":2,"total_uploaded_episodes":8},{"id":"94028","type":"tv","title":"RIPLEY","poster":"https://image.tmdb.org/t/p/w342/rpSo8z9alultGVTqQ3dkLEyU8xx.jpg","year":"2024","result":"HD","language":["Hindi"],"country":["US"],"original_language":"en","genres":["Drama"],"imdb_id":"tt11016042","latest_uploaded_season":1,"total_uploaded_episodes":8},{"id":"850888","type":"movie","title":"Sayen: The Huntress","poster":"https://image.tmdb.org/t/p/w342/upKD8UbH8vQ798aMWgwMxV8t4yk.jpg","year":"2024","result":"HD","language":["Hindi"],"country":["CL","US"],"original_language":"es","genres":["Action","Thriller"],"imdb_id":"tt32063728"},{"id":"245782","type":"tv","title":"Secret World of Sound","poster":"https://image.tmdb.org/t/p/w342/xNvSfPXty29S7SuBpvp8Thg0EJ7.jpg","year":"2024","result":"HD","language":["Hindi"],"country":["CA"],"original_language":"en","genres":["Documentary"],"imdb_id":"tt31186319","latest_uploaded_season":1,"total_uploaded_episodes":3},{"id":"115577","type":"tv","title":"Sonic Prime","poster":"https://image.tmdb.org/t/p/w342/xvg1zTAQHFhf8hJIsd53RSQHMYz.jpg","year":"2024","result":"HD","language":["Hindi"],"country":["US"],"original_language":"en","genres":["Animation","Action & Adventure","Sci-Fi & Fantasy","Kids"],"imdb_id":"tt13961348","latest_uploaded_season":3,"total_uploaded_episodes":23},{"id":"636706","type":"movie","title":"Spaceman","poster":"https://image.tmdb.org/t/p/w342/f46WvKEsBn98WJbPJcO47ZoKn6B.jpg","year":"2024","result":"HD","language":["Hindi"],"country":["US"],"original_language":"en","genres":["Science Fiction","Adventure","Drama"],"imdb_id":"tt11097384"},{"id":"247441","type":"tv","title":"Testament: The Story of Moses","poster":"https://image.tmdb.org/t/p/w342/rRMIvf9OismdaKSuyUoo3mQa3iD.jpg","year":"2024","result":"HD","language":["Hindi"],"country":["US"],"original_language":"en","genres":["Documentary","Drama","Sci-Fi & Fantasy"],"imdb_id":"tt31589872","latest_uploaded_season":1,"total_uploaded_episodes":3},{"id":"914206","type":"movie","title":"The Beast","poster":"https://image.tmdb.org/t/p/w342/96Jb7yjDkzluBqQZ21j54CJdYeM.jpg","year":"2024","result":"HD","language":["Hindi"],"country":["FR","CA","CH"],"original_language":"fr","genres":["Science Fiction","Drama","Romance"],"imdb_id":"tt14407336"},{"id":"866398","type":"movie","title":"The Beekeeper","poster":"https://image.tmdb.org/t/p/w342/A7EByudX0eOzlkQ2FIbogzyazm2.jpg","year":"2024","result":"HD","language":["Hindi"],"country":["GB","US"],"original_language":"en","genres":["Action","Crime","Thriller"],"imdb_id":"tt15314262"},{"id":"227004","type":"tv","title":"The Brothers Sun","poster":"https://image.tmdb.org/t/p/w342/aTPMj3Bqb0WfHsIv8zUOROSjb7S.jpg","year":"2024","result":"HD","language":["Hindi"],"country":["US"],"original_language":"en","genres":["Drama","Action & Adventure","Crime","Comedy"],"imdb_id":"tt17632862","latest_uploaded_season":1,"total_uploaded_episodes":8},{"id":"250162","type":"tv","title":"The Decameron","poster":"https://image.tmdb.org/t/p/w342/7jxX4EQLeGMQb8SA4YgiaUowz8n.jpg","year":"2024","result":"HD","language":["Hindi"],"country":["US"],"original_language":"en","genres":["Comedy","Drama"],"imdb_id":"tt21831910","latest_uploaded_season":1,"total_uploaded_episodes":8},{"id":"748783","type":"movie","title":"The Garfield Movie","poster":"https://image.tmdb.org/t/p/w342/xYduFGuch9OwbCOEUiamml18ZoB.jpg","year":"2024","result":"HD","language":["Hindi"],"country":["HK","GB","US"],"original_language":"en","genres":["Family","Comedy","Adventure","Animation"],"imdb_id":"tt5779228"},{"id":"236235","type":"tv","title":"The Gentlemen","poster":"https://image.tmdb.org/t/p/w342/tw3tzfXaSpmUZIB8ZNqNEGzMBCy.jpg","year":"2024","result":"HD","language":["Hindi"],"country":["GB"],"original_language":"en","genres":["Comedy","Drama","Crime"],"imdb_id":"tt13210838","latest_uploaded_season":2,"total_uploaded_episodes":8},{"id":"249812","type":"tv","title":"The Grimm Variations","poster":"https://image.tmdb.org/t/p/w342/jjk6nHiZGlRu2f6fWyjNWL0hp0k.jpg","year":"2024","result":"HD","language":["Hindi"],"country":["JP"],"original_language":"ja","genres":["Animation","Sci-Fi & Fantasy","Drama","Mystery"],"imdb_id":"tt14872196","latest_uploaded_season":1,"total_uploaded_episodes":6},{"id":"249548","type":"tv","title":"The Hijacking of Flight 601","poster":"https://image.tmdb.org/t/p/w342/AcSOs5wLPB9GGFY1Bact3V0riQE.jpg","year":"2024","result":"HD","language":["Hindi"],"country":["CO"],"original_language":"es","genres":["Drama"],"imdb_id":"tt28240840","latest_uploaded_season":1,"total_uploaded_episodes":6},{"id":"843527","type":"movie","title":"The Idea of You","poster":"https://image.tmdb.org/t/p/w342/Y5P4Q3q8nrruZ9aD3wXeJS2Plg.jpg","year":"2024","result":"HD","language":["Hindi"],"country":["US"],"original_language":"en","genres":["Music","Comedy","Romance","Drama"],"imdb_id":"tt9466114"},{"id":"253361","type":"tv","title":"The Life You Wanted","poster":"https://image.tmdb.org/t/p/w342/7MbDOh98R8bCfKuUNojWWY54gem.jpg","year":"2024","result":"HD","language":["Hindi"],"country":["IT"],"original_language":"it","genres":["Drama"],"imdb_id":"tt28019927","latest_uploaded_season":1,"total_uploaded_episodes":6},{"id":"257207","type":"tv","title":"The Man with 1000 Kids","poster":"https://image.tmdb.org/t/p/w342/vwikVqh4XajChpQ9sae1FIg7nyC.jpg","year":"2024","result":"HD","language":["Hindi"],"country":["GB"],"original_language":"en","genres":["Documentary"],"imdb_id":"tt27712032","latest_uploaded_season":1,"total_uploaded_episodes":3},{"id":"799583","type":"movie","title":"The Ministry of Ungentlemanly Warfare","poster":"https://image.tmdb.org/t/p/w342/8aF0iAKH9MJMYAZdi0Slg77RYa2.jpg","year":"2024","result":"HD","language":["Hindi"],"country":["GB","US"],"original_language":"en","genres":["Action","Comedy","War"],"imdb_id":"tt5177120"},{"id":"241473","type":"tv","title":"The Signal","poster":"https://image.tmdb.org/t/p/w342/AoDYkBwRtOZPwLPaqPxXTQx0WZk.jpg","year":"2024","result":"HD","language":["Hindi"],"country":["DE"],"original_language":"de","genres":["Sci-Fi & Fantasy","Drama","Mystery"],"imdb_id":"tt25375256","latest_uploaded_season":1,"total_uploaded_episodes":4},{"id":"75006","type":"tv","title":"The Umbrella Academy","poster":"https://image.tmdb.org/t/p/w342/qhcwrnnCnN8NE1N6XXKHFmveJR9.jpg","year":"2024","result":"HD","language":["Hindi"],"country":["US"],"original_language":"en","genres":["Action & Adventure","Sci-Fi & Fantasy","Drama"],"imdb_id":"tt1312171","latest_uploaded_season":4,"total_uploaded_episodes":36},{"id":"120462","type":"tv","title":"Them","poster":"https://image.tmdb.org/t/p/w342/bJw1VZ4ACt5TnAvJbHcprzgYc1E.jpg","year":"2024","result":"HD","language":["Hindi"],"country":["US"],"original_language":"en","genres":["Drama","Mystery","Crime"],"imdb_id":"tt9064858","latest_uploaded_season":2,"total_uploaded_episodes":18},{"id":"704673","type":"movie","title":"Trigger Warning","poster":"https://image.tmdb.org/t/p/w342/6XJM3C47iGOK9nFU6yLFCSf4U5c.jpg","year":"2024","result":"HD","language":["Hindi"],"country":["US"],"original_language":"en","genres":["Action"],"imdb_id":"tt5834874"},{"id":"829402","type":"movie","title":"Ultraman: Rising","poster":"https://image.tmdb.org/t/p/w342/j886YEkIUsiImY53px5VHKD4lRa.jpg","year":"2024","result":"HD","language":["Hindi"],"country":["JP","US"],"original_language":"en","genres":["Animation","Science Fiction","Family","Action"],"imdb_id":"tt9471678"},{"id":"238903","type":"tv","title":"Vampire Dormitory","poster":"https://image.tmdb.org/t/p/w342/y4HvRKul54BSRFBeY5uaA3354Bz.jpg","year":"2024","result":"HD","language":["Hindi"],"country":["JP"],"original_language":"ja","genres":["Animation","Drama","Sci-Fi & Fantasy"],"imdb_id":"tt31976012","latest_uploaded_season":1,"total_uploaded_episodes":12}]}