{"page":66,"total_pages":67,"total_items":3303,"items":[{"id":"402","type":"movie","title":"Basic Instinct","poster":"https://image.tmdb.org/t/p/w342/76Ts0yoHk8kVQj9MMnoMixhRWoh.jpg","year":"1992","result":"HD","language":["Hindi"],"country":["US","FR"],"original_language":"en","genres":["Thriller","Mystery"],"imdb_id":"tt0103772"},{"id":"45030","type":"movie","title":"Hard Hunted","poster":"https://image.tmdb.org/t/p/w342/esVXyG6o2tD42XmPKgAhPCfdEUY.jpg","year":"1992","result":"HD","language":["Hindi"],"country":["US"],"original_language":"en","genres":["Action","Thriller"],"imdb_id":"tt0104391"},{"id":"164660","type":"movie","title":"Secret Games","poster":"https://image.tmdb.org/t/p/w342/rAQpCP8YllNLslICW56F1ufzuJZ.jpg","year":"1992","result":"HD","language":["Hindi"],"country":["US"],"original_language":"en","genres":["Drama","Thriller"],"imdb_id":"tt0105338"},{"id":"188403","type":"movie","title":"Doraemon: Nobita's Dorabian Nights","poster":"https://image.tmdb.org/t/p/w342/yMrO4LcdoSI1PLd9oKLuY5W8cDG.jpg","year":"1991","result":"HD","language":["Hindi"],"country":["JP"],"original_language":"ja","genres":["Animation","Adventure","Fantasy","Family","Science Fiction"],"imdb_id":"tt1147508"},{"id":"64348","type":"movie","title":"Robotrix","poster":"https://image.tmdb.org/t/p/w342/3ikwwNbk7GVorndt8lUyzaqIWpu.jpg","year":"1991","result":"HD","language":["Hindi"],"country":["HK"],"original_language":"cn","genres":["Action","Comedy","Crime","Romance","Science Fiction","Thriller"],"imdb_id":"tt0102562"},{"id":"28340","type":"movie","title":"The Invisible Maniac","poster":"https://image.tmdb.org/t/p/w342/t04IPymimKl1uK5dblZzuQIJIjL.jpg","year":"1990","result":"HD","language":["Hindi"],"country":["US"],"original_language":"en","genres":["Science Fiction","Comedy","Horror"],"imdb_id":"tt0099856"},{"id":"71853","type":"movie","title":"Def by Temptation","poster":"https://image.tmdb.org/t/p/w342/cC96OjOeYXmBF6RuePlxA709tkz.jpg","year":"1990","result":"HD","language":["Hindi"],"country":["US"],"original_language":"en","genres":["Horror","Thriller","Romance"],"imdb_id":"tt0099395"},{"id":"60898","type":"movie","title":"Erotic Ghost Story","poster":"https://image.tmdb.org/t/p/w342/fTUCwsxVoLFuodAtlL6aITP1B45.jpg","year":"1990","result":"HD","language":["Hindi"],"country":["HK"],"original_language":"cn","genres":["Fantasy","Drama","Horror"],"imdb_id":"tt0100014"},{"id":"242","type":"movie","title":"The Godfather Part III","poster":"https://image.tmdb.org/t/p/w342/lm3pQ2QoQ16pextRsmnUbG2onES.jpg","year":"1990","result":"HD","language":["Hindi"],"country":["US"],"original_language":"en","genres":["Crime","Drama","Thriller"],"imdb_id":"tt0099674"},{"id":"142527","type":"movie","title":"Doraemon: Nobita and the Birth of Japan","poster":"https://image.tmdb.org/t/p/w342/pWYf9VL7yO0NMPzzUKsCGCD4GU4.jpg","year":"1989","result":"HD","language":["Hindi"],"country":["JP"],"original_language":"ja","genres":["Animation","Adventure","Family","Fantasy","Science Fiction"],"imdb_id":"tt1147511"},{"id":"11718","type":"movie","title":"Who's Harry Crumb?","poster":"https://image.tmdb.org/t/p/w342/6iUoyyaMklULVoGJDyHcN4nGgSX.jpg","year":"1989","result":"HD","language":["Hindi"],"country":["US"],"original_language":"en","genres":["Comedy","Crime","Mystery"],"imdb_id":"tt0098645"},{"id":"5203","type":"movie","title":"Wild Orchid","poster":"https://image.tmdb.org/t/p/w342/6UfS8J9Ixn0BAv1aeuAFWom5YEk.jpg","year":"1989","result":"HD","language":["Hindi"],"country":["US"],"original_language":"en","genres":["Drama","Romance"],"imdb_id":"tt0100934"},{"id":"30494","type":"movie","title":"Top Model","poster":"https://image.tmdb.org/t/p/w342/t4zHGClSi7XNHSSFoJSI83jKWkw.jpg","year":"1988","result":"HD","language":["Hindi"],"country":["IT"],"original_language":"it","genres":["Drama"],"imdb_id":"tt0094167"},{"id":"77631","type":"movie","title":"Tears in the Rain","poster":"https://image.tmdb.org/t/p/w342/pEAsKBif5VwGOPcxjcHWmgunfiC.jpg","year":"1988","result":"HD","language":["Hindi"],"country":["GB"],"original_language":"en","genres":["TV Movie","Romance","Drama"],"imdb_id":"tt0096237"},{"id":"12477","type":"movie","title":"Grave of the Fireflies","poster":"https://image.tmdb.org/t/p/w342/k9tv1rXZbOhH7eiCk378x61kNQ1.jpg","year":"1988","result":"HD","language":["Hindi"],"country":["JP"],"original_language":"ja","genres":["Animation","Drama","War"],"imdb_id":"tt0095327"},{"id":"25920","type":"movie","title":"Born of Fire","poster":"https://image.tmdb.org/t/p/w342/j3Rs1fT2bpGTs1cRVtA1AlG9rNi.jpg","year":"1987","result":"HD","language":["Hindi"],"country":["TR","GB"],"original_language":"en","genres":["Fantasy","Horror","Drama"],"imdb_id":"tt0092691"},{"id":"26011","type":"movie","title":"Hard Ticket to Hawaii","poster":"https://image.tmdb.org/t/p/w342/yZBHqhCZYAAihDBgMvQziITtLUO.jpg","year":"1987","result":"HD","language":["Hindi"],"country":["US"],"original_language":"en","genres":["Action","Adventure"],"imdb_id":"tt0093146"},{"id":"52961","type":"movie","title":"That's Life!","poster":"https://image.tmdb.org/t/p/w342/opZSLqdoRoAIg6oW99iiNmrSgAp.jpg","year":"1986","result":"HD","language":["Hindi"],"country":["US"],"original_language":"en","genres":["Comedy","Drama"],"imdb_id":"tt0092079"},{"id":"38173","type":"movie","title":"Up Your Anchor","poster":"https://image.tmdb.org/t/p/w342/eWjtuV9FQ3UBDjOtTgxZbrFUnW2.jpg","year":"1985","result":"HD","language":["Hindi"],"country":["IL"],"original_language":"he","genres":["Comedy"],"imdb_id":"tt0089473"},{"id":"30877","type":"movie","title":"Cut and Run","poster":"https://image.tmdb.org/t/p/w342/nM79J0phqXnnXxR2rYBIk880gRv.jpg","year":"1985","result":"HD","language":["Hindi"],"country":["IT"],"original_language":"it","genres":["Adventure","Horror"],"imdb_id":"tt0089338"},{"id":"9626","type":"movie","title":"Red Sonja","poster":"https://image.tmdb.org/t/p/w342/83v0W5cCSFsWpI0cAj8DRlihySN.jpg","year":"1985","result":"HD","language":["Hindi"],"country":["US"],"original_language":"en","genres":["Adventure","Fantasy","Action"],"imdb_id":"tt0089893"},{"id":"11904","type":"movie","title":"Young Sherlock Holmes","poster":"https://image.tmdb.org/t/p/w342/aOxVYvQoAfNSns4hW5Ah55GBzgq.jpg","year":"1985","result":"HD","language":["Hindi"],"country":["US"],"original_language":"en","genres":["Mystery","Adventure","Thriller"],"imdb_id":"tt0090357"},{"id":"9355","type":"movie","title":"Mad Max Beyond Thunderdome","poster":"https://image.tmdb.org/t/p/w342/jJlxcEVVUHnrUeEkQ0077VeHQpb.jpg","year":"1985","result":"HD","language":["Hindi"],"country":["AU"],"original_language":"en","genres":["Action","Adventure","Science Fiction"],"imdb_id":"tt0089530"},{"id":"841","type":"movie","title":"Dune","poster":"https://image.tmdb.org/t/p/w342/4kJmUCE7mkVJjXa7A0g2rY4IGTm.jpg","year":"1984","result":"HD","language":["Hindi"],"country":["US"],"original_language":"en","genres":["Action","Science Fiction","Adventure"],"imdb_id":"tt0087182"},{"id":"10179","type":"movie","title":"The Ice Pirates","poster":"https://image.tmdb.org/t/p/w342/tv2iZbQYWwKcWOUWVFxOhcchKZT.jpg","year":"1984","result":"HD","language":["Hindi"],"country":["US"],"original_language":"en","genres":["Science Fiction","Action","Adventure","Comedy"],"imdb_id":"tt0087451"},{"id":"147576","type":"movie","title":"Doraemon: Nobita and the Castle of the Undersea Devil","poster":"https://image.tmdb.org/t/p/w342/ioI9ftVCfdhgwM0jAjfSG2pNN4S.jpg","year":"1983","result":"HD","language":["Hindi"],"country":["JP"],"original_language":"ja","genres":["Animation","Adventure","Family","Fantasy","Science Fiction"],"imdb_id":"tt1147509"},{"id":"2193","type":"movie","title":"My Tutor","poster":"https://image.tmdb.org/t/p/w342/gMIEasZXQImHpRHos5XsVg80ERV.jpg","year":"1983","result":"HD","language":["Hindi"],"country":["US"],"original_language":"en","genres":["Comedy","Drama","Romance"],"imdb_id":"tt0085980"},{"id":"31646","type":"movie","title":"Piranha II: The Spawning","poster":"https://image.tmdb.org/t/p/w342/rbcbLYbhc8ZmQmNHAt8E8knij88.jpg","year":"1982","result":"HD","language":["Hindi"],"country":["IT","NL","US"],"original_language":"en","genres":["Horror"],"imdb_id":"tt0082910"},{"id":"37795","type":"movie","title":"Taboo II","poster":"https://image.tmdb.org/t/p/w342/cxu0vWX5rXLA9oZXSfl8sgpctkg.jpg","year":"1982","result":"HD","language":["Hindi"],"country":["US"],"original_language":"en","genres":["Drama","Romance","Horror"],"imdb_id":"tt0084755"},{"id":"8810","type":"movie","title":"Mad Max 2","poster":"https://image.tmdb.org/t/p/w342/l1KVEhkGDpWRzQ0VqIhZqDDuOim.jpg","year":"1981","result":"HD","language":["Hindi"],"country":["AU"],"original_language":"en","genres":["Adventure","Action","Thriller","Science Fiction"],"imdb_id":"tt0082694"},{"id":"6399","type":"movie","title":"Who Finds a Friend Finds a Treasure","poster":"https://image.tmdb.org/t/p/w342/8fl6sXVv5fWMpDxFDab54qc71tv.jpg","year":"1981","result":"HD","language":["Hindi"],"country":["IT"],"original_language":"it","genres":["Action","Adventure","Comedy"],"imdb_id":"tt0085327"},{"id":"64789","type":"movie","title":"Doraemon: Nobita's Dinosaur","poster":"https://image.tmdb.org/t/p/w342/oBWtnb9kmROgziBXOh4P3IMXHKz.jpg","year":"1980","result":"HD","language":["Hindi"],"country":["JP"],"original_language":"ja","genres":["Animation","Family","Adventure","Science Fiction","Fantasy"],"imdb_id":"tt1147517"},{"id":"8690","type":"movie","title":"Eaten Alive!","poster":"https://image.tmdb.org/t/p/w342/7h5LH5UNjYO4Hvv2myKqGeoaSo7.jpg","year":"1980","result":"HD","language":["Hindi"],"country":["IT"],"original_language":"it","genres":["Adventure","Horror"],"imdb_id":"tt0081112"},{"id":"42019","type":"movie","title":"Taboo","poster":"https://image.tmdb.org/t/p/w342/fLh69JdW4chwaIOIMX9zLCmfJUy.jpg","year":"1980","result":"HD","language":["Hindi"],"country":["US"],"original_language":"en","genres":["Drama","Romance"],"imdb_id":"tt0081593"},{"id":"9659","type":"movie","title":"Mad Max","poster":"https://image.tmdb.org/t/p/w342/5LrI4GiCSrChgkdskVZiwv643Kg.jpg","year":"1979","result":"HD","language":["Hindi"],"country":["AU"],"original_language":"en","genres":["Adventure","Action","Thriller","Science Fiction"],"imdb_id":"tt0079501"},{"id":"25239","type":"movie","title":"Day of the Woman","poster":"https://image.tmdb.org/t/p/w342/nMCkOo26GtISoxJmpkTAJyMqBO8.jpg","year":"1978","result":"HD","language":["Hindi"],"country":["US"],"original_language":"en","genres":["Horror"],"imdb_id":"tt0077713"},{"id":"215746","type":"movie","title":"Dracula Sucks","poster":"https://image.tmdb.org/t/p/w342/3add7Z5fN6sC4r9LkgXin1UDU2Q.jpg","year":"1978","result":"HD","language":["Hindi"],"country":["US"],"original_language":"en","genres":["Comedy","Horror"],"imdb_id":"tt0079074"},{"id":"10580","type":"movie","title":"Lemon Popsicle","poster":"https://image.tmdb.org/t/p/w342/14tlbgXfd3Q3bGIdAPdBfSAyTM0.jpg","year":"1978","result":"HD","language":["Hindi"],"country":["IL","DE"],"original_language":"he","genres":["Comedy","Romance"],"imdb_id":"tt0079118"},{"id":"26686","type":"movie","title":"California Suite","poster":"https://image.tmdb.org/t/p/w342/2IlgL7m1ByY3RIghbXNGGNvYfEE.jpg","year":"1978","result":"HD","language":["Hindi"],"country":["US"],"original_language":"en","genres":["Comedy","Drama","Romance"],"imdb_id":"tt0077289"},{"id":"10138","type":"tv","title":"James at 16","poster":"https://image.tmdb.org/t/p/w342/w58QId6WdywHpZLdTyIV48Qmkaz.jpg","year":"1977","result":"HD","language":["Hindi"],"country":["US"],"original_language":"en","genres":["Drama"],"imdb_id":"tt0075519","latest_uploaded_season":1,"total_uploaded_episodes":1},{"id":"33301","type":"movie","title":"Confessions of a Driving Instructor","poster":"https://image.tmdb.org/t/p/w342/vMTf2j4cvAOMZU9rgpipqnGoe9O.jpg","year":"1976","result":"HD","language":["Hindi"],"country":["GB"],"original_language":"en","genres":["Comedy"],"imdb_id":"tt0074343"},{"id":"5336","type":"movie","title":"Salò, or the 120 Days of Sodom","poster":"https://image.tmdb.org/t/p/w342/xnaDdiRfZlJaTf6JRc4in40eaeI.jpg","year":"1976","result":"HD","language":["English"],"country":["IT","FR"],"original_language":"it","genres":["Drama","Horror"],"imdb_id":"tt0073650"},{"id":"29955","type":"movie","title":"Black Cobra","poster":"https://image.tmdb.org/t/p/w342/wZ2QgscQS7DbrcgRcroryCUskuG.jpg","year":"1976","result":"HD","language":["Hindi"],"country":["IT"],"original_language":"it","genres":["Drama","Thriller","Horror"],"imdb_id":"tt0074501"},{"id":"13282","type":"movie","title":"Death Race 2000","poster":"https://image.tmdb.org/t/p/w342/kwM8kkNGtv62gfPWVhD6qFxjDzg.jpg","year":"1975","result":"HD","language":["Hindi"],"country":["US"],"original_language":"en","genres":["Action","Science Fiction","Comedy"],"imdb_id":"tt0072856"},{"id":"4705","type":"movie","title":"The Sensuous Nurse","poster":"https://image.tmdb.org/t/p/w342/2mfEFL6mTV2ETonE6k8cKFMNQKC.jpg","year":"1975","result":"HD","language":["Hindi"],"country":["IT"],"original_language":"it","genres":["Comedy"],"imdb_id":"tt0074682"},{"id":"240","type":"movie","title":"The Godfather Part II","poster":"https://image.tmdb.org/t/p/w342/hek3koDUyRQk7FIhPXsa6mT2Zc3.jpg","year":"1974","result":"HD","language":["Hindi"],"country":["US"],"original_language":"en","genres":["Drama","Crime"],"imdb_id":"tt0071562"},{"id":"238","type":"movie","title":"The Godfather","poster":"https://image.tmdb.org/t/p/w342/3bhkrj58Vtu7enYsRolD1fZdja1.jpg","year":"1972","result":"HD","language":["Hindi"],"country":["US"],"original_language":"en","genres":["Drama","Crime"],"imdb_id":"tt0068646"},{"id":"805","type":"movie","title":"Rosemary's Baby","poster":"https://image.tmdb.org/t/p/w342/uYgvlHceRFjAFbsNeMInYcLZLUb.jpg","year":"1968","result":"HD","language":["Hindi"],"country":["US"],"original_language":"en","genres":["Drama","Horror","Thriller"],"imdb_id":"tt0063522"},{"id":"33743","type":"movie","title":"The 5,000 Fingers of Dr. T.","poster":"https://image.tmdb.org/t/p/w342/5sAxThhLhsQSf4mjrIGHqfKlaAy.jpg","year":"1953","result":"HD","language":["Hindi"],"country":["US"],"original_language":"en","genres":["Family","Fantasy","Music"],"imdb_id":"tt0045464"},{"id":"534442","type":"movie","title":"Senorita","poster":"https://image.tmdb.org/t/p/w342/2POdrruLBuUKaYLixD9eurpuYfy.jpg","year":"1927","result":"HD","language":["English"],"country":[],"original_language":"en","genres":["Action","Comedy"],"imdb_id":"tt0018381"}]}