{"page":1,"total_pages":4,"total_items":184,"items":[{"id":"72517","type":"tv","title":"Classroom of the Elite","poster":"https://image.tmdb.org/t/p/w342/yuHanbUUIv2UWRxxQFt9n8jtmOJ.jpg","year":"2026","result":"HD","language":["Hindi"],"country":["JP"],"original_language":"ja","genres":["Animation","Drama","Mystery"],"imdb_id":"tt7263328","latest_uploaded_season":4,"total_uploaded_episodes":39},{"id":"45790","type":"tv","title":"JoJo's Bizarre Adventure","poster":"https://image.tmdb.org/t/p/w342/ogAWwbh3frWtiTyyXrZaVFtqCgp.jpg","year":"2026","result":"HD","language":["Hindi"],"country":["JP"],"original_language":"ja","genres":["Animation","Action & Adventure","Sci-Fi & Fantasy"],"imdb_id":"tt2359704","latest_uploaded_season":6,"total_uploaded_episodes":191},{"id":"300529","type":"tv","title":"Straight to Hell","poster":"https://image.tmdb.org/t/p/w342/fRgQ7noEDUoP6w2EEQlQgvnrpiy.jpg","year":"2026","result":"HD","language":["Hindi"],"country":["JP"],"original_language":"ja","genres":["Drama"],"imdb_id":"tt38337374","latest_uploaded_season":1,"total_uploaded_episodes":9},{"id":"249907","type":"tv","title":"Sentenced to Be a Hero","poster":"https://image.tmdb.org/t/p/w342/k8bh5mvHDx3czHSF56v9lRyulLC.jpg","year":"2026","result":"HD","language":["Hindi"],"country":["JP"],"original_language":"ja","genres":["Animation","Sci-Fi & Fantasy","Action & Adventure"],"imdb_id":"tt32536168","latest_uploaded_season":2,"total_uploaded_episodes":12},{"id":"258063","type":"tv","title":"Soul Mate","poster":"https://image.tmdb.org/t/p/w342/koWJdCFLPLI2VSWQhssoF91k5al.jpg","year":"2026","result":"HD","language":["Hindi"],"country":["JP"],"original_language":"ja","genres":["Drama"],"imdb_id":"tt32809226","latest_uploaded_season":1,"total_uploaded_episodes":8},{"id":"1570282","type":"movie","title":"This Is I","poster":"https://image.tmdb.org/t/p/w342/3aMYB238ZU2GPjP7YAvcIzPjQaN.jpg","year":"2026","result":"HD","language":["Hindi"],"country":["JP"],"original_language":"ja","genres":["Drama","Music"],"imdb_id":"tt39196792"},{"id":"1226863","type":"movie","title":"The Super Mario Galaxy Movie","poster":"https://image.tmdb.org/t/p/w342/eJGWx219ZcEMVQJhAgMiqo8tYY.jpg","year":"2026","result":"HD","language":["Hindi"],"country":["JP","US"],"original_language":"en","genres":["Animation","Adventure","Fantasy","Family","Action","Comedy"],"imdb_id":"tt28650488"},{"id":"316973","type":"tv","title":"Dandelion","poster":"https://image.tmdb.org/t/p/w342/r5Cq5wax0sQ1ModcZXWKyXF1xpy.jpg","year":"2026","result":"HD","language":["Hindi"],"country":["JP"],"original_language":"ja","genres":["Animation","Sci-Fi & Fantasy","Drama","Comedy"],"imdb_id":"tt40356933","latest_uploaded_season":1,"total_uploaded_episodes":7},{"id":"303405","type":"tv","title":"Sins of Kujo","poster":"https://image.tmdb.org/t/p/w342/jgmYNLdKLNBN5p2vPKuqlpLfeDS.jpg","year":"2026","result":"HD","language":["Hindi"],"country":["JP"],"original_language":"ja","genres":["Crime","Drama"],"imdb_id":"tt38742795","latest_uploaded_season":1,"total_uploaded_episodes":10},{"id":"300054","type":"tv","title":"BAKI-DOU: The Invincible Samurai","poster":"https://image.tmdb.org/t/p/w342/frtzbwANetYd0M4zdrZ5gx0E89q.jpg","year":"2026","result":"HD","language":["Hindi"],"country":["JP"],"original_language":"ja","genres":["Animation","Action & Adventure"],"imdb_id":"tt38201910","latest_uploaded_season":1,"total_uploaded_episodes":13},{"id":"1406657","type":"movie","title":"Scarlet","poster":"https://image.tmdb.org/t/p/w342/2O2tOyS4kvO9GtFPHpWmbXvfRQv.jpg","year":"2025","result":"HD","language":["Hindi"],"country":["JP","US"],"original_language":"ja","genres":["Animation","Action","Drama","Science Fiction"],"imdb_id":"tt35114460"},{"id":"285788","type":"tv","title":"Tojima Wants to Be a Kamen Rider","poster":"https://image.tmdb.org/t/p/w342/oDHsngq989H1jY2ZsLB5KRUVIb.jpg","year":"2025","result":"HD","language":["Hindi"],"country":["JP"],"original_language":"ja","genres":["Animation","Action & Adventure","Comedy"],"imdb_id":"tt37532319","latest_uploaded_season":1,"total_uploaded_episodes":24},{"id":"122587","type":"tv","title":"A Couple of Cuckoos","poster":"https://image.tmdb.org/t/p/w342/5QErGBshq37p0UKGUHhcYwLufSq.jpg","year":"2025","result":"HD","language":["Hindi"],"country":["JP"],"original_language":"ja","genres":["Animation","Comedy"],"imdb_id":"tt14400866","latest_uploaded_season":2,"total_uploaded_episodes":31},{"id":"110316","type":"tv","title":"Alice in Borderland","poster":"https://image.tmdb.org/t/p/w342/Ac8ruycRXzgcsndTZFK6ouGA0FA.jpg","year":"2025","result":"HD","language":["Hindi"],"country":["JP"],"original_language":"ja","genres":["Mystery","Drama","Action & Adventure"],"imdb_id":"tt10795658","latest_uploaded_season":3,"total_uploaded_episodes":22},{"id":"86031","type":"tv","title":"Dr. STONE","poster":"https://image.tmdb.org/t/p/w342/ve1Sv3sVArmE0nlFjzadcNv1G8r.jpg","year":"2025","result":"HD","language":["Hindi"],"country":["JP"],"original_language":"ja","genres":["Animation","Action & Adventure","Comedy","Sci-Fi & Fantasy"],"imdb_id":"tt9679542","latest_uploaded_season":4,"total_uploaded_episodes":81},{"id":"88046","type":"tv","title":"Fire Force","poster":"https://image.tmdb.org/t/p/w342/sC4sTJnI0rLakinXMgBHv3Ynl9D.jpg","year":"2025","result":"HD","language":["Hindi"],"country":["JP"],"original_language":"ja","genres":["Animation","Action & Adventure","Sci-Fi & Fantasy","Comedy"],"imdb_id":"tt9307686","latest_uploaded_season":3,"total_uploaded_episodes":73},{"id":"99073","type":"tv","title":"I've Been Killing Slimes for 300 Years and Maxed Out My Level","poster":"https://image.tmdb.org/t/p/w342/iyTiJqrAs2YItyTYGI18PdqX65c.jpg","year":"2025","result":"HD","language":["Hindi"],"country":["JP"],"original_language":"ja","genres":["Animation","Comedy","Sci-Fi & Fantasy"],"imdb_id":"tt13248062","latest_uploaded_season":2,"total_uploaded_episodes":24},{"id":"63926","type":"tv","title":"One-Punch Man","poster":"https://image.tmdb.org/t/p/w342/dT10AxJIXVvRwFAew4tt2RhzJrD.jpg","year":"2025","result":"HD","language":["Hindi"],"country":["JP"],"original_language":"ja","genres":["Animation","Comedy","Action & Adventure","Sci-Fi & Fantasy"],"imdb_id":"tt4508902","latest_uploaded_season":3,"total_uploaded_episodes":36},{"id":"207564","type":"tv","title":"Reborn as a Vending Machine, I Now Wander the Dungeon","poster":"https://image.tmdb.org/t/p/w342/bY6oLDoxDyP7JNLVGjeO3udND4g.jpg","year":"2025","result":"HD","language":["Hindi"],"country":["JP"],"original_language":"ja","genres":["Animation","Comedy","Action & Adventure","Sci-Fi & Fantasy"],"imdb_id":"tt28100731","latest_uploaded_season":2,"total_uploaded_episodes":24},{"id":"120089","type":"tv","title":"SPY x FAMILY","poster":"https://image.tmdb.org/t/p/w342/7NAvPYPAu7MeHwP8E9sn81PqsRh.jpg","year":"2025","result":"HD","language":["Hindi"],"country":["JP"],"original_language":"ja","genres":["Animation","Action & Adventure","Comedy"],"imdb_id":"tt13706018","latest_uploaded_season":3,"total_uploaded_episodes":50},{"id":"95269","type":"tv","title":"Toilet-Bound Hanako-kun","poster":"https://image.tmdb.org/t/p/w342/h1X1G8Q9Ba9Vy1YIgXHduenP8nv.jpg","year":"2025","result":"HD","language":["Hindi"],"country":["JP"],"original_language":"ja","genres":["Animation","Mystery","Sci-Fi & Fantasy"],"imdb_id":"tt10777610","latest_uploaded_season":2,"total_uploaded_episodes":36},{"id":"284442","type":"tv","title":"A Gatherer's Adventure in Isekai","poster":"https://image.tmdb.org/t/p/w342/AtpIf9wnT6IaHoG31XsdqZEEf80.jpg","year":"2025","result":"HD","language":["Hindi"],"country":["JP"],"original_language":"ja","genres":["Animation","Action & Adventure","Sci-Fi & Fantasy"],"imdb_id":"tt37430949","latest_uploaded_season":1,"total_uploaded_episodes":12},{"id":"293010","type":"tv","title":"Let's Play","poster":"https://image.tmdb.org/t/p/w342/tJbyOYE4befDE7SgV03aJzxt8Ja.jpg","year":"2025","result":"HD","language":["Hindi"],"country":["JP"],"original_language":"ja","genres":["Animation","Comedy"],"imdb_id":"tt37532040","latest_uploaded_season":1,"total_uploaded_episodes":12},{"id":"287278","type":"tv","title":"Mechanical Marie","poster":"https://image.tmdb.org/t/p/w342/vsH56qFI4GEjeIPcIFIBEF6aaT9.jpg","year":"2025","result":"HD","language":["Hindi"],"country":["JP"],"original_language":"ja","genres":["Animation","Comedy","Sci-Fi & Fantasy"],"imdb_id":"tt36912922","latest_uploaded_season":1,"total_uploaded_episodes":12},{"id":"249882","type":"tv","title":"ZENSHU","poster":"https://image.tmdb.org/t/p/w342/okRnvNLpduDKPUIyZbMxJkeek8D.jpg","year":"2025","result":"HD","language":["Hindi"],"country":["JP"],"original_language":"ja","genres":["Animation","Drama","Action & Adventure","Sci-Fi & Fantasy"],"imdb_id":"tt31863730","latest_uploaded_season":1,"total_uploaded_episodes":12},{"id":"1404404","type":"movie","title":"Crayon Shin-chan the Movie: Super Hot! The Spicy Kasukabe Dancers","poster":"https://image.tmdb.org/t/p/w342/bxLr3VzoSq0G4CSWUCnZBNS8Eeh.jpg","year":"2025","result":"HD","language":["Hindi"],"country":["JP"],"original_language":"ja","genres":["Animation","Adventure","Comedy"],"imdb_id":"tt35009463"},{"id":"1322218","type":"movie","title":"Mononoke the Movie: Chapter II - The Ashes of Rage","poster":"https://image.tmdb.org/t/p/w342/tPExtAM958Gx07itJ7nWqSddBQ9.jpg","year":"2025","result":"HD","language":["Hindi"],"country":["JP"],"original_language":"ja","genres":["Animation","Fantasy","Mystery"],"imdb_id":"tt35301440"},{"id":"1311031","type":"movie","title":"Demon Slayer: Kimetsu no Yaiba Infinity Castle","poster":"https://image.tmdb.org/t/p/w342/fWVSwgjpT2D78VUh6X8UBd2rorW.jpg","year":"2025","result":"HD","language":["Hindi"],"country":["JP"],"original_language":"ja","genres":["Animation","Action","Fantasy"],"imdb_id":"tt32820897"},{"id":"1226406","type":"movie","title":"Love Hurts","poster":"https://image.tmdb.org/t/p/w342/skPPVeHoTTVVSJlb0Ib5vrqiuA4.jpg","year":"2025","result":"HD","language":["Hindi"],"country":["US","JP"],"original_language":"en","genres":["Action","Comedy","Romance"],"imdb_id":"tt30788842"},{"id":"1218925","type":"movie","title":"Chainsaw Man - The Movie: Reze Arc","poster":"https://image.tmdb.org/t/p/w342/pHyxb2RV5wLlboAwm9ZJ9qTVEDw.jpg","year":"2025","result":"HD","language":["Hindi"],"country":["JP"],"original_language":"ja","genres":["Animation","Action","Romance","Fantasy"],"imdb_id":"tt30472557"},{"id":"986097","type":"movie","title":"HIM","poster":"https://image.tmdb.org/t/p/w342/qPJzcYR2f1O1uynYBCVPPJuOiAH.jpg","year":"2025","result":"HD","language":["Hindi"],"country":["US","JP"],"original_language":"en","genres":["Horror","Mystery"],"imdb_id":"tt20990442"},{"id":"299778","type":"tv","title":"Tatsuki Fujimoto 17-26","poster":"https://image.tmdb.org/t/p/w342/rVBxMx1IrBdxbxbBuOWK8kiurMB.jpg","year":"2025","result":"HD","language":["Hindi"],"country":["JP"],"original_language":"ja","genres":["Animation","Drama","Comedy","Sci-Fi & Fantasy"],"imdb_id":"tt38491451","latest_uploaded_season":1,"total_uploaded_episodes":8},{"id":"290160","type":"tv","title":"Marry My Husband: Japan","poster":"https://image.tmdb.org/t/p/w342/mxBKb1DEqzhUUHh9EI1H7ZVErRD.jpg","year":"2025","result":"HD","language":["Hindi"],"country":["JP"],"original_language":"ja","genres":["Drama","Comedy","Sci-Fi & Fantasy"],"imdb_id":"tt36838547","latest_uploaded_season":1,"total_uploaded_episodes":10},{"id":"286723","type":"tv","title":"Welcome to the Outcast's Restaurant!","poster":"https://image.tmdb.org/t/p/w342/caWU2F1DSrrJgoJCSclpSoCWnge.jpg","year":"2025","result":"HD","language":["Hindi"],"country":["JP"],"original_language":"ja","genres":["Animation","Comedy","Sci-Fi & Fantasy"],"imdb_id":"tt36600399","latest_uploaded_season":1,"total_uploaded_episodes":12},{"id":"284644","type":"tv","title":"My Status as an Assassin Obviously Exceeds the Hero's","poster":"https://image.tmdb.org/t/p/w342/oQk3aXYEa4TMd9rAYgzDpAYTU8P.jpg","year":"2025","result":"HD","language":["Hindi"],"country":["JP"],"original_language":"ja","genres":["Animation","Action & Adventure","Sci-Fi & Fantasy"],"imdb_id":"tt36230718","latest_uploaded_season":1,"total_uploaded_episodes":12},{"id":"284445","type":"tv","title":"Takopi's Original Sin","poster":"https://image.tmdb.org/t/p/w342/xPXDVhVKt0XM34ihoUVMHtLYTw8.jpg","year":"2025","result":"HD","language":["Hindi"],"country":["JP"],"original_language":"ja","genres":["Animation","Drama","Sci-Fi & Fantasy"],"imdb_id":"tt36988358","latest_uploaded_season":1,"total_uploaded_episodes":6},{"id":"278196","type":"tv","title":"The Summer Hikaru Died","poster":"https://image.tmdb.org/t/p/w342/dTgq553baOQYUmgjcSlVX0xd6ut.jpg","year":"2025","result":"HD","language":["Hindi"],"country":["JP"],"original_language":"ja","genres":["Animation","Drama","Mystery","Sci-Fi & Fantasy"],"imdb_id":"tt33028568","latest_uploaded_season":1,"total_uploaded_episodes":12},{"id":"277581","type":"tv","title":"Dekin no Mogura: The Earthbound Mole","poster":"https://image.tmdb.org/t/p/w342/xnEForFiNATvYS4MUwYyFuPyiok.jpg","year":"2025","result":"HD","language":["Hindi"],"country":["JP"],"original_language":"ja","genres":["Animation","Mystery","Drama"],"imdb_id":"tt35995444","latest_uploaded_season":1,"total_uploaded_episodes":12},{"id":"271605","type":"tv","title":"May I Ask for One Final Thing?","poster":"https://image.tmdb.org/t/p/w342/6WUSl1NP5I66IGiI6n9BwOzZTbY.jpg","year":"2025","result":"HD","language":["Hindi"],"country":["JP"],"original_language":"ja","genres":["Animation","Comedy","Drama","Action & Adventure","Sci-Fi & Fantasy"],"imdb_id":"tt33384856","latest_uploaded_season":1,"total_uploaded_episodes":13},{"id":"270487","type":"tv","title":"I Left My A-Rank Party to Help My Former Students Reach the Dungeon Depths!","poster":"https://image.tmdb.org/t/p/w342/I0AU52dvJzQptvbmWfVnVBgm75.jpg","year":"2025","result":"HD","language":["Hindi"],"country":["JP"],"original_language":"ja","genres":["Animation","Action & Adventure","Sci-Fi & Fantasy"],"imdb_id":"tt33615810","latest_uploaded_season":2,"total_uploaded_episodes":25},{"id":"258348","type":"tv","title":"Clevatess","poster":"https://image.tmdb.org/t/p/w342/7sWrMBhOS1x4RUCr3o2I4ld13fq.jpg","year":"2025","result":"HD","language":["Hindi"],"country":["JP"],"original_language":"ja","genres":["Animation","Action & Adventure","Sci-Fi & Fantasy"],"imdb_id":"tt32991344","latest_uploaded_season":2,"total_uploaded_episodes":13},{"id":"256721","type":"tv","title":"Gachiakuta","poster":"https://image.tmdb.org/t/p/w342/jH78nLFrTU6aP7hY7KO6DZHFLoX.jpg","year":"2025","result":"HD","language":["Hindi"],"country":["JP"],"original_language":"ja","genres":["Animation","Action & Adventure","Drama","Sci-Fi & Fantasy"],"imdb_id":"tt32612521","latest_uploaded_season":1,"total_uploaded_episodes":24},{"id":"256109","type":"tv","title":"Teogonia","poster":"https://image.tmdb.org/t/p/w342/zGHrnnFc0p5Pf25qUaAv95JpnJC.jpg","year":"2025","result":"HD","language":["Hindi"],"country":["JP"],"original_language":"ja","genres":["Action & Adventure","Sci-Fi & Fantasy","Drama","Animation"],"imdb_id":"tt32514593","latest_uploaded_season":1,"total_uploaded_episodes":12},{"id":"254017","type":"tv","title":"YAIBA: Samurai Legend","poster":"https://image.tmdb.org/t/p/w342/cxD3FQP4hDU5hSABwdQCvGrrnz6.jpg","year":"2025","result":"HD","language":["Hindi"],"country":["JP"],"original_language":"ja","genres":["Action & Adventure","Animation","Sci-Fi & Fantasy","Comedy"],"imdb_id":"tt33332400","latest_uploaded_season":1,"total_uploaded_episodes":24},{"id":"252193","type":"tv","title":"Last Samurai Standing","poster":"https://image.tmdb.org/t/p/w342/wKNEFlrs68rzweVzfwkjWmkJqu7.jpg","year":"2025","result":"HD","language":["Hindi"],"country":["JP"],"original_language":"ja","genres":["Action & Adventure","Drama"],"imdb_id":"tt32237534","latest_uploaded_season":1,"total_uploaded_episodes":6},{"id":"250994","type":"tv","title":"Ameku M.D.: Doctor Detective","poster":"https://image.tmdb.org/t/p/w342/ukyIdEgqRKfovtFm9NzUfrIdm8y.jpg","year":"2025","result":"HD","language":["Hindi"],"country":["JP"],"original_language":"ja","genres":["Animation","Mystery"],"imdb_id":"tt33384314","latest_uploaded_season":1,"total_uploaded_episodes":12},{"id":"249054","type":"tv","title":"Romantics Anonymous","poster":"https://image.tmdb.org/t/p/w342/jEP3ZQLzwy50sWYpJQGuS6SKrw6.jpg","year":"2025","result":"HD","language":["Hindi"],"country":["KR","JP"],"original_language":"ja","genres":["Comedy","Drama"],"imdb_id":"tt32524691","latest_uploaded_season":1,"total_uploaded_episodes":8},{"id":"212766","type":"tv","title":"New Saga","poster":"https://image.tmdb.org/t/p/w342/dmZ74VyWi3I8ZqJ1m3Fmcc1etgp.jpg","year":"2025","result":"HD","language":["Hindi"],"country":["JP"],"original_language":"ja","genres":["Animation","Action & Adventure","Sci-Fi & Fantasy"],"imdb_id":"tt33050376","latest_uploaded_season":1,"total_uploaded_episodes":12},{"id":"207332","type":"tv","title":"SAKAMOTO DAYS","poster":"https://image.tmdb.org/t/p/w342/wRpCqsJFyKNuh5FMegNPrhzp2NF.jpg","year":"2025","result":"HD","language":["Hindi"],"country":["JP"],"original_language":"ja","genres":["Animation","Comedy","Action & Adventure"],"imdb_id":"tt17069148","latest_uploaded_season":1,"total_uploaded_episodes":22},{"id":"84092","type":"movie","title":"Ramayana : The Legend of Prince Rama","poster":"https://image.tmdb.org/t/p/w342/jnwUw88Zq5tS0BFNvDwhISQ7p8Y.jpg","year":"2025","result":"HD","language":["Hindi"],"country":["IN","JP"],"original_language":"en","genres":["Animation","Action","Adventure","Fantasy"],"imdb_id":"tt0259534"}]}