{"page":2,"total_pages":4,"total_items":184,"items":[{"id":"88044","type":"tv","title":"Demon Lord, Retry!","poster":"https://image.tmdb.org/t/p/w342/d5hXGaqit05qhYP4cqZs0BUrLG.jpg","year":"2024","result":"HD","language":["Hindi"],"country":["JP"],"original_language":"ja","genres":["Animation","Action & Adventure","Comedy","Sci-Fi & Fantasy"],"imdb_id":"tt10443362","latest_uploaded_season":2,"total_uploaded_episodes":24},{"id":"234674","type":"tv","title":"Beyond Goodbye","poster":"https://image.tmdb.org/t/p/w342/zfBIufqT9QcupV17pEqQuGk29Io.jpg","year":"2024","result":"HD","language":["Hindi"],"country":["JP"],"original_language":"ja","genres":["Drama"],"imdb_id":"tt29103836","latest_uploaded_season":1,"total_uploaded_episodes":8},{"id":"249906","type":"tv","title":"Tokyo Swindlers","poster":"https://image.tmdb.org/t/p/w342/892R0peQpBJP6VnAiQWtAGxRUr.jpg","year":"2024","result":"HD","language":["Hindi"],"country":["JP"],"original_language":"ja","genres":["Crime"],"imdb_id":"tt31250132","latest_uploaded_season":1,"total_uploaded_episodes":7},{"id":"210098","type":"tv","title":"House of Ninjas","poster":"https://image.tmdb.org/t/p/w342/AoEuSoSnwSSnX1YzykDdOiKAZNB.jpg","year":"2024","result":"HD","language":["Hindi"],"country":["JP"],"original_language":"ja","genres":["Drama","Action & Adventure"],"imdb_id":"tt22012992","latest_uploaded_season":1,"total_uploaded_episodes":8},{"id":"239214","type":"tv","title":"A Condition Called Love","poster":"https://image.tmdb.org/t/p/w342/aaYPPivWuebwIKQvFYuWkp9m0q5.jpg","year":"2024","result":"HD","language":["Hindi"],"country":["JP"],"original_language":"ja","genres":["Animation","Comedy","Drama"],"imdb_id":"tt29899598","latest_uploaded_season":1,"total_uploaded_episodes":12},{"id":"235758","type":"tv","title":"Alya Sometimes Hides Her Feelings in Russian","poster":"https://image.tmdb.org/t/p/w342/hfnzByZIRj6rx8xaxzS2zDilei1.jpg","year":"2024","result":"HD","language":["Hindi"],"country":["JP"],"original_language":"ja","genres":["Animation","Comedy"],"imdb_id":"tt31131295","latest_uploaded_season":2,"total_uploaded_episodes":13},{"id":"1104844","type":"movie","title":"BLUE LOCK THE MOVIE -EPISODE NAGI-","poster":"https://image.tmdb.org/t/p/w342/yZYZqT1f6rddhiSdjl8NVVCoZKE.jpg","year":"2024","result":"HD","language":["Hindi"],"country":["JP"],"original_language":"ja","genres":["Animation","Action","Drama"],"imdb_id":"tt28671146"},{"id":"206629","type":"tv","title":"Days with My Stepsister","poster":"https://image.tmdb.org/t/p/w342/vNeq9t40tzddaZls9YntaHeaVdn.jpg","year":"2024","result":"HD","language":["Hindi"],"country":["JP"],"original_language":"ja","genres":["Animation","Drama"],"imdb_id":"tt21975478","latest_uploaded_season":1,"total_uploaded_episodes":12},{"id":"207784","type":"tv","title":"Delicious in Dungeon","poster":"https://image.tmdb.org/t/p/w342/9t3DYdGxK3i4WRzKvIZwJd4kBnr.jpg","year":"2024","result":"HD","language":["Hindi"],"country":["JP"],"original_language":"ja","genres":["Animation","Comedy","Action & Adventure","Sci-Fi & Fantasy"],"imdb_id":"tt21621494","latest_uploaded_season":1,"total_uploaded_episodes":24},{"id":"258579","type":"tv","title":"Let This Grieving Soul Retire","poster":"https://image.tmdb.org/t/p/w342/egViTAdBqUyUFI2sIBsGbnH5Sun.jpg","year":"2024","result":"HD","language":["Hindi"],"country":["JP"],"original_language":"ja","genres":["Animation","Comedy","Sci-Fi & Fantasy"],"imdb_id":"tt32508529","latest_uploaded_season":1,"total_uploaded_episodes":24},{"id":"241535","type":"tv","title":"Makeine: Too Many Losing Heroines!","poster":"https://image.tmdb.org/t/p/w342/nLBBhmzN6tPhxMy9aFzDqMbAc4V.jpg","year":"2024","result":"HD","language":["Hindi"],"country":["JP"],"original_language":"ja","genres":["Animation","Comedy","Drama"],"imdb_id":"tt32332831","latest_uploaded_season":2,"total_uploaded_episodes":12},{"id":"989730","type":"movie","title":"Mononoke the Movie: The Phantom in the Rain","poster":"https://image.tmdb.org/t/p/w342/s0apanRsR8mIp9jU9WJt9dgdt7Y.jpg","year":"2024","result":"HD","language":["Hindi"],"country":["JP"],"original_language":"ja","genres":["Animation","Fantasy","Mystery"],"imdb_id":"tt32574149"},{"id":"1159311","type":"movie","title":"My Hero Academia: You're Next","poster":"https://image.tmdb.org/t/p/w342/tTrI6PwqzxkgO3dvQ7BEKXM7SYR.jpg","year":"2024","result":"HD","language":["Hindi"],"country":["JP"],"original_language":"ja","genres":["Animation","Action","Adventure","Science Fiction"],"imdb_id":"tt32176689"},{"id":"205743","type":"tv","title":"No Longer Allowed in Another World","poster":"https://image.tmdb.org/t/p/w342/mKOeQuH7BRrd6Fu4Exx2r0rJF5b.jpg","year":"2024","result":"HD","language":["Hindi"],"country":["JP"],"original_language":"ja","genres":["Animation","Comedy","Drama","Sci-Fi & Fantasy"],"imdb_id":"tt31186547","latest_uploaded_season":1,"total_uploaded_episodes":12},{"id":"78204","type":"tv","title":"Sword Art Online Alternative: Gun Gale Online","poster":"https://image.tmdb.org/t/p/w342/1EBk96E3cVVOEVlx2z744oEuFQk.jpg","year":"2024","result":"HD","language":["Hindi"],"country":["JP"],"original_language":"ja","genres":["Animation","Action & Adventure","Sci-Fi & Fantasy"],"imdb_id":"tt7978710","latest_uploaded_season":2,"total_uploaded_episodes":24},{"id":"222623","type":"tv","title":"The Elusive Samurai","poster":"https://image.tmdb.org/t/p/w342/wVJjyUbns2USXo1bolF2vGanvf6.jpg","year":"2024","result":"HD","language":["Hindi"],"country":["JP"],"original_language":"ja","genres":["Animation","Action & Adventure"],"imdb_id":"tt27187054","latest_uploaded_season":2,"total_uploaded_episodes":12},{"id":"216760","type":"tv","title":"The Many Sides of Voice Actor Radio","poster":"https://image.tmdb.org/t/p/w342/733lDek9YYMfxplg0ELoi3mkRuH.jpg","year":"2024","result":"HD","language":["Hindi"],"country":["JP"],"original_language":"ja","genres":["Animation","Comedy","Drama"],"imdb_id":"tt31940035","latest_uploaded_season":1,"total_uploaded_episodes":12},{"id":"244672","type":"tv","title":"Why Does Nobody Remember Me in This World?","poster":"https://image.tmdb.org/t/p/w342/u9C9lYBA6dujAaYXjxlgcEqVc1d.jpg","year":"2024","result":"HD","language":["Hindi"],"country":["JP"],"original_language":"ja","genres":["Animation","Drama","Sci-Fi & Fantasy","Action & Adventure","Mystery"],"imdb_id":"tt31844529","latest_uploaded_season":1,"total_uploaded_episodes":12},{"id":"230189","type":"tv","title":"365 Days to the Wedding","poster":"https://image.tmdb.org/t/p/w342/lMVkOrMaWEkHZLdPksKGcdi6hJg.jpg","year":"2024","result":"HD","language":["Hindi"],"country":["JP"],"original_language":"ja","genres":["Animation","Comedy"],"imdb_id":"tt27497575","latest_uploaded_season":1,"total_uploaded_episodes":12},{"id":"225168","type":"tv","title":"BARTENDER Glass of God","poster":"https://image.tmdb.org/t/p/w342/aefIsbDvm2kDkZGEllkYWoMONrl.jpg","year":"2024","result":"HD","language":["Hindi"],"country":["JP"],"original_language":"ja","genres":["Animation","Drama"],"imdb_id":"tt29233201","latest_uploaded_season":1,"total_uploaded_episodes":12},{"id":"236994","type":"tv","title":"Dragon Ball DAIMA","poster":"https://image.tmdb.org/t/p/w342/lMULbSFZNXUC87MqOZQ4SSV9DXI.jpg","year":"2024","result":"HD","language":["Hindi"],"country":["JP"],"original_language":"ja","genres":["Animation","Action & Adventure","Comedy","Sci-Fi & Fantasy"],"imdb_id":"tt29485149","latest_uploaded_season":1,"total_uploaded_episodes":20},{"id":"1244492","type":"movie","title":"Look Back","poster":"https://image.tmdb.org/t/p/w342/4f2EcNkp1Mvp9wE5w7HKxcmACWg.jpg","year":"2024","result":"HD","language":["Hindi"],"country":["JP"],"original_language":"ja","genres":["Animation","Drama"],"imdb_id":"tt31711040"},{"id":"1221404","type":"movie","title":"Crayon Shin-chan the Movie: Our Dinosaur Diary","poster":"https://image.tmdb.org/t/p/w342/n7YcOeqPOmvQ2PUatn4UqV5YStj.jpg","year":"2024","result":"HD","language":["Hindi"],"country":["JP"],"original_language":"ja","genres":["Animation","Adventure","Comedy","Family"],"imdb_id":"tt30400536"},{"id":"516729","type":"movie","title":"Paddington in Peru","poster":"https://image.tmdb.org/t/p/w342/1ffZAucqfvQu36x1C49XfOdjuOG.jpg","year":"2024","result":"HD","language":["Hindi"],"country":["GB","JP"],"original_language":"en","genres":["Adventure","Comedy","Family"],"imdb_id":"tt5822536"},{"id":"939243","type":"movie","title":"Sonic the Hedgehog 3","poster":"https://image.tmdb.org/t/p/w342/d8Ryb8AunYAuycVKDp5HpdWPKgC.jpg","year":"2024","result":"HD","language":["Hindi"],"country":["US","JP"],"original_language":"en","genres":["Action","Science Fiction","Comedy","Family"],"imdb_id":"tt18259086"},{"id":"1061990","type":"movie","title":"City Hunter","poster":"https://image.tmdb.org/t/p/w342/cjQzJ9xFdaN9KAwu7HUImIgbc2Y.jpg","year":"2024","result":"HD","language":["Hindi"],"country":["JP"],"original_language":"ja","genres":["Action"],"imdb_id":"tt24478470"},{"id":"252425","type":"tv","title":"Garouden: The Way of the Lone Wolf","poster":"https://image.tmdb.org/t/p/w342/ozOjfhE6ADlWto0IKgVtniRvUOW.jpg","year":"2024","result":"HD","language":["Hindi"],"country":["JP"],"original_language":"ja","genres":["Animation","Action & Adventure"],"imdb_id":"tt32178759","latest_uploaded_season":1,"total_uploaded_episodes":8},{"id":"249812","type":"tv","title":"The Grimm Variations","poster":"https://image.tmdb.org/t/p/w342/jjk6nHiZGlRu2f6fWyjNWL0hp0k.jpg","year":"2024","result":"HD","language":["Hindi"],"country":["JP"],"original_language":"ja","genres":["Animation","Sci-Fi & Fantasy","Drama","Mystery"],"imdb_id":"tt14872196","latest_uploaded_season":1,"total_uploaded_episodes":6},{"id":"829402","type":"movie","title":"Ultraman: Rising","poster":"https://image.tmdb.org/t/p/w342/j886YEkIUsiImY53px5VHKD4lRa.jpg","year":"2024","result":"HD","language":["Hindi"],"country":["JP","US"],"original_language":"en","genres":["Animation","Science Fiction","Family","Action"],"imdb_id":"tt9471678"},{"id":"238903","type":"tv","title":"Vampire Dormitory","poster":"https://image.tmdb.org/t/p/w342/y4HvRKul54BSRFBeY5uaA3354Bz.jpg","year":"2024","result":"HD","language":["Hindi"],"country":["JP"],"original_language":"ja","genres":["Animation","Drama","Sci-Fi & Fantasy"],"imdb_id":"tt31976012","latest_uploaded_season":1,"total_uploaded_episodes":12},{"id":"308329","type":"tv","title":"Bleach: Thousand-Year Blood War","poster":"https://image.tmdb.org/t/p/w342/aU88IrxR6FGFYY9U3fGcQ7RQMrN.jpg","year":"2024","result":"HD","language":["Hindi"],"country":["JP"],"original_language":"ja","genres":["Animation"],"imdb_id":"tt14986406","latest_uploaded_season":3,"total_uploaded_episodes":41},{"id":"226905","type":"tv","title":"BUCCHIGIRI?!","poster":"https://image.tmdb.org/t/p/w342/bhtkmLdMleHtGTq267VqhePgp5S.jpg","year":"2024","result":"HD","language":["Hindi"],"country":["JP"],"original_language":"ja","genres":["Animation","Action & Adventure","Comedy","Sci-Fi & Fantasy"],"imdb_id":"tt28454318","latest_uploaded_season":1,"total_uploaded_episodes":12},{"id":"214587","type":"tv","title":"Bye Bye, Earth","poster":"https://image.tmdb.org/t/p/w342/iuo2jor1Hya3bT1imNxEScgoh5o.jpg","year":"2024","result":"HD","language":["Hindi"],"country":["JP"],"original_language":"ja","genres":["Animation","Sci-Fi & Fantasy","Action & Adventure"],"imdb_id":"tt23844810","latest_uploaded_season":1,"total_uploaded_episodes":20},{"id":"127532","type":"tv","title":"Solo Leveling","poster":"https://image.tmdb.org/t/p/w342/geCRueV3ElhRTr0xtJuEWJt6dJ1.jpg","year":"2024","result":"HD","language":["Hindi"],"country":["JP"],"original_language":"ja","genres":["Animation","Action & Adventure","Sci-Fi & Fantasy"],"imdb_id":"tt21209876","latest_uploaded_season":1,"total_uploaded_episodes":25},{"id":"248951","type":"tv","title":"The Strongest Magician in the Demon Lord's Army Was a Human","poster":"https://image.tmdb.org/t/p/w342/z0udnWYj8tXjzqYzT6MSBbZ1sMf.jpg","year":"2024","result":"HD","language":["Hindi"],"country":["JP"],"original_language":"ja","genres":["Animation","Action & Adventure"],"imdb_id":"tt32333026","latest_uploaded_season":1,"total_uploaded_episodes":12},{"id":"97860","type":"tv","title":"Tower of God","poster":"https://image.tmdb.org/t/p/w342/9QXO4C0AwAuBa15nuDLZU2MyktB.jpg","year":"2024","result":"HD","language":["Hindi"],"country":["JP"],"original_language":"ja","genres":["Animation","Action & Adventure","Mystery","Sci-Fi & Fantasy"],"imdb_id":"tt12057106","latest_uploaded_season":2,"total_uploaded_episodes":39},{"id":"1263421","type":"movie","title":"Baki Hanma VS Kengan Ashura","poster":"https://image.tmdb.org/t/p/w342/etbHJxil0wHvYOCmibzFLsMcl2C.jpg","year":"2024","result":"HD","language":["Hindi"],"country":["JP"],"original_language":"ja","genres":["Animation","Action","Fantasy"],"imdb_id":"tt31869664"},{"id":"1148677","type":"movie","title":"Doraemon the Movie: Nobita's Earth Symphony","poster":"https://image.tmdb.org/t/p/w342/1W5Kg4K27U3dx9Kxb8DaE6WFLHI.jpg","year":"2024","result":"HD","language":["Hindi"],"country":["JP"],"original_language":"ja","genres":["Animation","Family","Fantasy","Music","Adventure","Comedy","Science Fiction"],"imdb_id":"tt29402528"},{"id":"1012201","type":"movie","title":"HAIKYU!! The Dumpster Battle","poster":"https://image.tmdb.org/t/p/w342/ntRU0OA4etGGiMMmH1Yw0bnaMdW.jpg","year":"2024","result":"HD","language":["Hindi"],"country":["JP"],"original_language":"ja","genres":["Animation","Comedy"],"imdb_id":"tt30476486"},{"id":"259786","type":"tv","title":"Good Bye, Dragon Life","poster":"https://image.tmdb.org/t/p/w342/n15iwXmYASiAEWUvkfoVKEIoqWq.jpg","year":"2024","result":"HD","language":["Hindi"],"country":["JP"],"original_language":"ja","genres":["Animation","Sci-Fi & Fantasy","Action & Adventure"],"imdb_id":"tt32832435","latest_uploaded_season":1,"total_uploaded_episodes":12},{"id":"259140","type":"tv","title":"Ranma1/2","poster":"https://image.tmdb.org/t/p/w342/cDThx8yRYbdPOSgHbjihS4q7GYc.jpg","year":"2024","result":"HD","language":["Hindi"],"country":["JP"],"original_language":"ja","genres":["Animation","Action & Adventure","Comedy","Sci-Fi & Fantasy"],"imdb_id":"tt32766897","latest_uploaded_season":1,"total_uploaded_episodes":24},{"id":"249847","type":"tv","title":"Miss Target","poster":"https://image.tmdb.org/t/p/w342/tcKysgvfk1kS84wdxMlJBK6KQIX.jpg","year":"2024","result":"HD","language":["Hindi"],"country":["JP"],"original_language":"ja","genres":["Drama","Comedy"],"imdb_id":"tt32169410","latest_uploaded_season":1,"total_uploaded_episodes":9},{"id":"248817","type":"tv","title":"I'll Become a Villainess Who Goes Down in History","poster":"https://image.tmdb.org/t/p/w342/lTDWs3IjKwiBz00c8bzVmrgLa3A.jpg","year":"2024","result":"HD","language":["Hindi"],"country":["JP"],"original_language":"ja","genres":["Animation","Comedy"],"imdb_id":"tt32812118","latest_uploaded_season":1,"total_uploaded_episodes":13},{"id":"242143","type":"tv","title":"You are Ms. Servant","poster":"https://image.tmdb.org/t/p/w342/eyFOI6GkIN9JI1qaGLpEkrRlXdc.jpg","year":"2024","result":"HD","language":["Hindi"],"country":["JP"],"original_language":"ja","genres":["Animation","Comedy"],"imdb_id":"tt30689669","latest_uploaded_season":1,"total_uploaded_episodes":12},{"id":"240411","type":"tv","title":"Dan Da Dan","poster":"https://image.tmdb.org/t/p/w342/6qfZAOEUFIrbUH3JvePclx1nXzz.jpg","year":"2024","result":"HD","language":["Hindi"],"country":["JP"],"original_language":"ja","genres":["Animation","Action & Adventure","Comedy","Sci-Fi & Fantasy"],"imdb_id":"tt30217403","latest_uploaded_season":1,"total_uploaded_episodes":24},{"id":"240125","type":"tv","title":"TRILLION GAME","poster":"https://image.tmdb.org/t/p/w342/pL4nFHx4lChRXLrJzRX0sAl8SfG.jpg","year":"2024","result":"HD","language":["Hindi"],"country":["JP"],"original_language":"ja","genres":["Animation","Drama"],"imdb_id":"tt33609048","latest_uploaded_season":1,"total_uploaded_episodes":26},{"id":"237150","type":"tv","title":"As a Reincarnated Aristocrat, I'll Use My Appraisal Skill to Rise in the World","poster":"https://image.tmdb.org/t/p/w342/kYjQNi15IWz76nbqFBFPlVsO9lL.jpg","year":"2024","result":"HD","language":["Hindi"],"country":["JP"],"original_language":"ja","genres":["Animation","Sci-Fi & Fantasy"],"imdb_id":"tt31975847","latest_uploaded_season":1,"total_uploaded_episodes":24},{"id":"235389","type":"tv","title":"Re:Monster","poster":"https://image.tmdb.org/t/p/w342/AmFrA0jX0p9twH1IKfxcGWVz2X3.jpg","year":"2024","result":"HD","language":["Hindi"],"country":["JP"],"original_language":"ja","genres":["Animation","Action & Adventure","Sci-Fi & Fantasy"],"imdb_id":"tt31514720","latest_uploaded_season":2,"total_uploaded_episodes":13},{"id":"234910","type":"tv","title":"Tying the Knot with an Amagami Sister","poster":"https://image.tmdb.org/t/p/w342/werwTXBFyhlhBqDkGQzUaDolHt9.jpg","year":"2024","result":"HD","language":["Hindi"],"country":["JP"],"original_language":"ja","genres":["Animation","Comedy"],"imdb_id":"tt29141921","latest_uploaded_season":1,"total_uploaded_episodes":24},{"id":"223500","type":"tv","title":"WIND BREAKER","poster":"https://image.tmdb.org/t/p/w342/3kTFL3PAeTyS8gGZAh0iYG6NNjt.jpg","year":"2024","result":"HD","language":["Hindi"],"country":["JP"],"original_language":"ja","genres":["Animation","Action & Adventure"],"imdb_id":"tt29605391","latest_uploaded_season":1,"total_uploaded_episodes":25}]}