{"page":4,"total_pages":4,"total_items":184,"items":[{"id":"65942","type":"tv","title":"Re:ZERO -Starting Life in Another World-","poster":"https://image.tmdb.org/t/p/w342/aRwmcX36r1ZpR5Xq5mmFcpUDQ8J.jpg","year":"2016","result":"HD","language":["Hindi"],"country":["JP"],"original_language":"ja","genres":["Animation","Action & Adventure","Sci-Fi & Fantasy","Mystery"],"imdb_id":"tt5607616","latest_uploaded_season":3,"total_uploaded_episodes":54},{"id":"350650","type":"movie","title":"Doraemon: Nobita and the Space Heroes","poster":"https://image.tmdb.org/t/p/w342/pYVJgcuCU9swa7GEujygsRdkSQd.jpg","year":"2015","result":"HD","language":["Hindi"],"country":["JP"],"original_language":"ja","genres":["Comedy","Animation","Family","Adventure","Science Fiction","Fantasy"],"imdb_id":"tt4788602"},{"id":"1157408","type":"movie","title":"Ghost in the Shell: Arise - Border 5: Pyrophoric Cult","poster":"https://image.tmdb.org/t/p/w342/tPuRZltk87r9oP8pSNjJLMsHVMV.jpg","year":"2015","result":"HD","language":["Hindi"],"country":["JP"],"original_language":"ja","genres":["Action","Animation","Science Fiction","Crime"],"imdb_id":""},{"id":"334376","type":"movie","title":"Ghost in the Shell: The New Movie","poster":"https://image.tmdb.org/t/p/w342/eLd31emY3jann7JV0AkSPJ06Xep.jpg","year":"2015","result":"HD","language":["Hindi"],"country":["JP"],"original_language":"ja","genres":["Science Fiction","Animation"],"imdb_id":"tt4337072"},{"id":"285812","type":"movie","title":"Doraemon: New Nobita's Great Demon - Peko and the Exploration Party of Five","poster":"https://image.tmdb.org/t/p/w342/xKGMXQFGca4nKcO308aZ6nWz0Gc.jpg","year":"2014","result":"HD","language":["Hindi"],"country":["JP"],"original_language":"ja","genres":["Family","Animation","Adventure","Fantasy","Comedy","Science Fiction"],"imdb_id":"tt3949650"},{"id":"265712","type":"movie","title":"Stand by Me Doraemon","poster":"https://image.tmdb.org/t/p/w342/wc7XQbfx6EIQqCuvmBMt3aisb2Y.jpg","year":"2014","result":"HD","language":["Hindi"],"country":["JP"],"original_language":"ja","genres":["Animation","Adventure","Science Fiction","Drama","Family","Fantasy"],"imdb_id":"tt3331846"},{"id":"279254","type":"movie","title":"Ghost in the Shell: Arise - Border 4: Ghost Stands Alone","poster":"https://image.tmdb.org/t/p/w342/dNlPBbpsyZCHDbYa4VxZOCj3RiI.jpg","year":"2014","result":"HD","language":["Hindi"],"country":["JP"],"original_language":"ja","genres":["Action","Animation","Science Fiction","Crime"],"imdb_id":"tt4016942"},{"id":"240341","type":"movie","title":"Ghost in the Shell: Arise - Border 3: Ghost Tears","poster":"https://image.tmdb.org/t/p/w342/nrMr4ht4CgX4tyseN1uYVHXENJN.jpg","year":"2014","result":"HD","language":["Hindi"],"country":["JP"],"original_language":"ja","genres":["Action","Animation","Science Fiction"],"imdb_id":"tt3579524"},{"id":"61663","type":"tv","title":"Your Lie in April","poster":"https://image.tmdb.org/t/p/w342/rRjfH3ckTYz8z8aSkJshFL4VyK9.jpg","year":"2014","result":"HD","language":["Hindi"],"country":["JP"],"original_language":"ja","genres":["Animation","Comedy","Drama"],"imdb_id":"tt3895150","latest_uploaded_season":1,"total_uploaded_episodes":22},{"id":"56559","type":"tv","title":"Theatre of Darkness: Yamishibai","poster":"https://image.tmdb.org/t/p/w342/coYJ1i9QLlHZTanckLZ4iceptlj.jpg","year":"2013","result":"HD","language":["Hindi"],"country":["JP"],"original_language":"ja","genres":["Animation"],"imdb_id":"tt3111906","latest_uploaded_season":1,"total_uploaded_episodes":13},{"id":"218726","type":"movie","title":"Doraemon: Nobita's Secret Gadget Museum","poster":"https://image.tmdb.org/t/p/w342/cOPhayPb0YzO8GfC4sNmntV9FWE.jpg","year":"2013","result":"HD","language":["Hindi"],"country":["JP"],"original_language":"ja","genres":["Adventure","Family","Animation","Comedy","Fantasy","Science Fiction"],"imdb_id":"tt2768084"},{"id":"212168","type":"movie","title":"Ghost in the Shell: Arise - Border 2: Ghost Whispers","poster":"https://image.tmdb.org/t/p/w342/eC8babU050Nwnss5CnAJyymGkB.jpg","year":"2013","result":"HD","language":["Hindi"],"country":["JP"],"original_language":"ja","genres":["Action","Animation","Science Fiction","Thriller"],"imdb_id":"tt3017864"},{"id":"196750","type":"movie","title":"Ghost in the Shell: Arise - Border 1: Ghost Pain","poster":"https://image.tmdb.org/t/p/w342/p0kHK9nJoLzpqa6tqOzPgPkdxYN.jpg","year":"2013","result":"HD","language":["Hindi"],"country":["JP"],"original_language":"ja","genres":["Action","Animation","Crime","Science Fiction"],"imdb_id":"tt2636124"},{"id":"169934","type":"movie","title":"Iron Man: Rise of Technovore","poster":"https://image.tmdb.org/t/p/w342/eHDez1uN5X2ZAq4niX7HvhyZIIO.jpg","year":"2013","result":"HD","language":["Hindi"],"country":["JP"],"original_language":"ja","genres":["Science Fiction","Animation","Action"],"imdb_id":"tt2654124"},{"id":"160642","type":"movie","title":"Doraemon: Nobita and the Island of Miracles – Animal Adventure","poster":"https://image.tmdb.org/t/p/w342/mUJGtID4UyO6nLE0Ztqq48y4Hdw.jpg","year":"2012","result":"HD","language":["Hindi"],"country":["JP"],"original_language":"ja","genres":["Family","Animation","Adventure","Fantasy","Comedy","Science Fiction"],"imdb_id":"tt2271315"},{"id":"150213","type":"movie","title":"Pokémon the Movie: Kyurem vs. the Sword of Justice","poster":"https://image.tmdb.org/t/p/w342/7gQEAR8aaCQRtJi7wq26ST5hukn.jpg","year":"2012","result":"HD","language":["Hindi"],"country":["JP"],"original_language":"ja","genres":["Family","Animation","Action","Adventure","Fantasy","Science Fiction"],"imdb_id":"tt2549540"},{"id":"46435","type":"tv","title":"Robotics;Notes","poster":"https://image.tmdb.org/t/p/w342/iRD5fwcKNqCuu7q6LqwCZP2iHpc.jpg","year":"2012","result":"HD","language":["Hindi"],"country":["JP"],"original_language":"ja","genres":["Animation","Drama","Mystery","Sci-Fi & Fantasy"],"imdb_id":"tt2293974","latest_uploaded_season":1,"total_uploaded_episodes":22},{"id":"137227","type":"movie","title":"Doraemon: Nobita and the New Steel Troops: Winged Angels","poster":"https://image.tmdb.org/t/p/w342/57ighjFjXpRwg7VeQ1GN6nf4OZH.jpg","year":"2011","result":"HD","language":["Hindi"],"country":["JP"],"original_language":"ja","genres":["Animation","Adventure","Family","Science Fiction","Fantasy","Comedy"],"imdb_id":"tt1851909"},{"id":"86184","type":"movie","title":"Doraemon: Nobita's Great Battle of the Mermaid King","poster":"https://image.tmdb.org/t/p/w342/lvi0MjGJvWPAAqQaxCwwMsLqBG8.jpg","year":"2010","result":"HD","language":["Hindi"],"country":["JP"],"original_language":"ja","genres":["Adventure","Family","Animation","Fantasy","Science Fiction"],"imdb_id":"tt1613031"},{"id":"136686","type":"movie","title":"Doraemon: Nobita and the Green Giant Legend","poster":"https://image.tmdb.org/t/p/w342/jY2c8s4s8YyGxuxX8ymmzGUdnwZ.jpg","year":"2008","result":"HD","language":["Hindi"],"country":["JP"],"original_language":"ja","genres":["Adventure","Animation","Family","Comedy","Science Fiction","Fantasy"],"imdb_id":"tt1180304"},{"id":"13916","type":"tv","title":"Death Note","poster":"https://image.tmdb.org/t/p/w342/tCZFfYTIwrR7n94J6G14Y4hAFU6.jpg","year":"2006","result":"HD","language":["Hindi"],"country":["JP"],"original_language":"ja","genres":["Animation","Mystery","Sci-Fi & Fantasy"],"imdb_id":"tt0877057","latest_uploaded_season":1,"total_uploaded_episodes":37},{"id":"98613","type":"movie","title":"Doraemon: Nobita and the Windmasters","poster":"https://image.tmdb.org/t/p/w342/kdBLKFviJckRXOCgPqkTQK16Rq0.jpg","year":"2003","result":"HD","language":["Hindi"],"country":["JP"],"original_language":"ja","genres":["Animation","Fantasy","Adventure","Family","Science Fiction"],"imdb_id":"tt0473474"},{"id":"129","type":"movie","title":"Spirited Away","poster":"https://image.tmdb.org/t/p/w342/39wmItIWsg5sZMyRUHLkWBcuVCM.jpg","year":"2001","result":"HD","language":["Hindi"],"country":["JP"],"original_language":"ja","genres":["Animation","Family","Fantasy"],"imdb_id":"tt0245429"},{"id":"31352","type":"movie","title":"Doraemon: Nobita and the Legend of the Sun King","poster":"https://image.tmdb.org/t/p/w342/aBPaU4bnqrnKrKe0gi6nC9qvlLj.jpg","year":"2000","result":"HD","language":["Hindi"],"country":["JP"],"original_language":"ja","genres":["Animation","Adventure","Fantasy","Science Fiction","Family"],"imdb_id":"tt1147513"},{"id":"19576","type":"movie","title":"One Piece: The Movie","poster":"https://image.tmdb.org/t/p/w342/6QOrTYafoqzXPWLnR2K8129jTHH.jpg","year":"2000","result":"HD","language":["Hindi"],"country":["JP"],"original_language":"ja","genres":["Action","Animation","Adventure","Comedy","Fantasy"],"imdb_id":"tt0814243"},{"id":"105444","type":"movie","title":"Doraemon: Nobita's Great Adventure in the South Seas","poster":"https://image.tmdb.org/t/p/w342/4gGIYi40x3G6UPm1IMGqdseK0Ro.jpg","year":"1998","result":"HD","language":["Hindi"],"country":["JP"],"original_language":"ja","genres":["Animation","Family","Adventure","Comedy","Fantasy","Science Fiction"],"imdb_id":"tt1147519"},{"id":"106164","type":"movie","title":"Doraemon: Nobita and the Galaxy Super-express","poster":"https://image.tmdb.org/t/p/w342/moqO24uCB0k6q4qPyAwb7O0xeWM.jpg","year":"1996","result":"HD","language":["Hindi"],"country":["JP"],"original_language":"ja","genres":["Animation","Science Fiction","Action","Family","Adventure","Fantasy"],"imdb_id":"tt1147522"},{"id":"162069","type":"movie","title":"Doraemon: Nobita's Diary on the Creation of the World","poster":"https://image.tmdb.org/t/p/w342/qemtaCXwo9sP6bYO8Hqc0o96JIy.jpg","year":"1995","result":"HD","language":["Hindi"],"country":["JP"],"original_language":"ja","genres":["Animation","Science Fiction","Fantasy","Adventure","Family","Comedy"],"imdb_id":"tt1147512"},{"id":"161715","type":"movie","title":"Doraemon: Nobita's Three Visionary Swordsmen","poster":"https://image.tmdb.org/t/p/w342/oCQtdezF7Ap5wm8ICiB3Pzx6wM4.jpg","year":"1994","result":"HD","language":["Hindi"],"country":["JP"],"original_language":"ja","genres":["Animation","Family","Adventure","Comedy","Fantasy","Science Fiction"],"imdb_id":"tt1147524"},{"id":"188403","type":"movie","title":"Doraemon: Nobita's Dorabian Nights","poster":"https://image.tmdb.org/t/p/w342/yMrO4LcdoSI1PLd9oKLuY5W8cDG.jpg","year":"1991","result":"HD","language":["Hindi"],"country":["JP"],"original_language":"ja","genres":["Animation","Adventure","Fantasy","Family","Science Fiction"],"imdb_id":"tt1147508"},{"id":"142527","type":"movie","title":"Doraemon: Nobita and the Birth of Japan","poster":"https://image.tmdb.org/t/p/w342/pWYf9VL7yO0NMPzzUKsCGCD4GU4.jpg","year":"1989","result":"HD","language":["Hindi"],"country":["JP"],"original_language":"ja","genres":["Animation","Adventure","Family","Fantasy","Science Fiction"],"imdb_id":"tt1147511"},{"id":"12477","type":"movie","title":"Grave of the Fireflies","poster":"https://image.tmdb.org/t/p/w342/k9tv1rXZbOhH7eiCk378x61kNQ1.jpg","year":"1988","result":"HD","language":["Hindi"],"country":["JP"],"original_language":"ja","genres":["Animation","Drama","War"],"imdb_id":"tt0095327"},{"id":"147576","type":"movie","title":"Doraemon: Nobita and the Castle of the Undersea Devil","poster":"https://image.tmdb.org/t/p/w342/ioI9ftVCfdhgwM0jAjfSG2pNN4S.jpg","year":"1983","result":"HD","language":["Hindi"],"country":["JP"],"original_language":"ja","genres":["Animation","Adventure","Family","Fantasy","Science Fiction"],"imdb_id":"tt1147509"},{"id":"64789","type":"movie","title":"Doraemon: Nobita's Dinosaur","poster":"https://image.tmdb.org/t/p/w342/oBWtnb9kmROgziBXOh4P3IMXHKz.jpg","year":"1980","result":"HD","language":["Hindi"],"country":["JP"],"original_language":"ja","genres":["Animation","Family","Adventure","Science Fiction","Fantasy"],"imdb_id":"tt1147517"}]}