{"page":3,"total_pages":4,"total_items":184,"items":[{"id":"213830","type":"tv","title":"I Was Reincarnated as the 7th Prince so I Can Take My Time Perfecting My Magical Ability","poster":"https://image.tmdb.org/t/p/w342/ruLkQB8i1yazHgO0QCWpyJRRTs9.jpg","year":"2024","result":"HD","language":["Hindi"],"country":["JP"],"original_language":"ja","genres":["Animation","Sci-Fi & Fantasy"],"imdb_id":"tt31624309","latest_uploaded_season":1,"total_uploaded_episodes":24},{"id":"207468","type":"tv","title":"Kaiju No. 8","poster":"https://image.tmdb.org/t/p/w342/bJxGs0w5RAhaX4fIUQu511rvm0S.jpg","year":"2024","result":"HD","language":["Hindi"],"country":["JP"],"original_language":"ja","genres":["Animation","Action & Adventure","Sci-Fi & Fantasy"],"imdb_id":"tt21975436","latest_uploaded_season":1,"total_uploaded_episodes":23},{"id":"129600","type":"tv","title":"Baki Hanma","poster":"https://image.tmdb.org/t/p/w342/x145FSI9xJ6UbkxfabUsY2SFbu3.jpg","year":"2023","result":"HD","language":["Hindi"],"country":["JP"],"original_language":"ja","genres":["Animation","Action & Adventure","Sci-Fi & Fantasy"],"imdb_id":"tt13357140","latest_uploaded_season":2,"total_uploaded_episodes":26},{"id":"88803","type":"tv","title":"Vinland Saga","poster":"https://image.tmdb.org/t/p/w342/vUHlpA5c1NXkds59reY3HMb4Abs.jpg","year":"2023","result":"HD","language":["Hindi"],"country":["JP"],"original_language":"ja","genres":["Animation","War & Politics","Action & Adventure","Drama"],"imdb_id":"tt10233448","latest_uploaded_season":2,"total_uploaded_episodes":48},{"id":"121659","type":"tv","title":"Yu Yu Hakusho","poster":"https://image.tmdb.org/t/p/w342/t9WiCEnojzksL3crxiCt7HIda8p.jpg","year":"2023","result":"HD","language":["Hindi"],"country":["JP"],"original_language":"ja","genres":["Drama","Sci-Fi & Fantasy","Action & Adventure"],"imdb_id":"tt13664452","latest_uploaded_season":1,"total_uploaded_episodes":5},{"id":"1030587","type":"movie","title":"Doraemon the Movie: Nobita's Sky Utopia","poster":"https://image.tmdb.org/t/p/w342/uux6M8z3hxLDkq8LXSzq8528mrq.jpg","year":"2023","result":"HD","language":["Hindi"],"country":["JP"],"original_language":"ja","genres":["Animation","Family","Adventure","Science Fiction","Fantasy"],"imdb_id":"tt21223380"},{"id":"940721","type":"movie","title":"Godzilla Minus One","poster":"https://image.tmdb.org/t/p/w342/2E2WTX0TJEflAged6kzErwqX1kt.jpg","year":"2023","result":"HD","language":["Hindi"],"country":["JP"],"original_language":"ja","genres":["Science Fiction","Horror","Action"],"imdb_id":"tt23289160"},{"id":"913001","type":"movie","title":"The Imaginary","poster":"https://image.tmdb.org/t/p/w342/j2a9eQaoI91EuKnhGbE8yvPfmyV.jpg","year":"2023","result":"HD","language":["Hindi"],"country":["JP"],"original_language":"ja","genres":["Animation","Adventure","Drama","Family","Fantasy"],"imdb_id":"tt16369708"},{"id":"1062807","type":"movie","title":"SPY x FAMILY CODE: White","poster":"https://image.tmdb.org/t/p/w342/xlIQf4y9eB14iYzNN142tROIWON.jpg","year":"2023","result":"HD","language":["Hindi"],"country":["JP"],"original_language":"ja","genres":["Animation","Comedy","Adventure","Action"],"imdb_id":"tt26684398"},{"id":"812225","type":"movie","title":"Black Clover: Sword of the Wizard King","poster":"https://image.tmdb.org/t/p/w342/9YEGawvjaRgnyW6QVcUhFJPFDco.jpg","year":"2023","result":"HD","language":["Hindi"],"country":["JP"],"original_language":"ja","genres":["Animation","Fantasy","Action","Adventure"],"imdb_id":"tt22868844"},{"id":"221301","type":"tv","title":"Pokémon Concierge","poster":"https://image.tmdb.org/t/p/w342/2k53AsWsLrMtcbFyH0nVOqQjj2x.jpg","year":"2023","result":"HD","language":["Hindi"],"country":["JP"],"original_language":"ja","genres":["Animation","Family"],"imdb_id":"tt26916286","latest_uploaded_season":1,"total_uploaded_episodes":8},{"id":"220542","type":"tv","title":"The Apothecary Diaries","poster":"https://image.tmdb.org/t/p/w342/e3ojpANrFnmJCyeBNTinYwyBCIN.jpg","year":"2023","result":"HD","language":["Hindi"],"country":["JP"],"original_language":"ja","genres":["Animation","Drama","Mystery"],"imdb_id":"tt26743760","latest_uploaded_season":1,"total_uploaded_episodes":48},{"id":"213331","type":"tv","title":"Berserk of Gluttony","poster":"https://image.tmdb.org/t/p/w342/wQMcq5YUjMfoIEqLRzrNQVt4ROl.jpg","year":"2023","result":"HD","language":["Hindi"],"country":["JP"],"original_language":"ja","genres":["Animation","Sci-Fi & Fantasy"],"imdb_id":"tt28685497","latest_uploaded_season":1,"total_uploaded_episodes":12},{"id":"210879","type":"tv","title":"Rurouni Kenshin","poster":"https://image.tmdb.org/t/p/w342/zT77Y6iQGmYGBqbhQi0ySD60o9i.jpg","year":"2023","result":"HD","language":["Hindi"],"country":["JP"],"original_language":"ja","genres":["Animation","Action & Adventure"],"imdb_id":"tt22249034","latest_uploaded_season":1,"total_uploaded_episodes":47},{"id":"209867","type":"tv","title":"Frieren: Beyond Journey's End","poster":"https://image.tmdb.org/t/p/w342/dqZENchTd7lp5zht7BdlqM7RBhD.jpg","year":"2023","result":"HD","language":["Hindi"],"country":["JP"],"original_language":"ja","genres":["Animation","Action & Adventure","Drama","Sci-Fi & Fantasy"],"imdb_id":"tt22248376","latest_uploaded_season":1,"total_uploaded_episodes":39},{"id":"207493","type":"tv","title":"The Aristocrat's Otherworldly Adventure: Serving Gods Who Go Too Far","poster":"https://image.tmdb.org/t/p/w342/aH3EKIPW9XRaIJQeF7EYlOe7SEK.jpg","year":"2023","result":"HD","language":["English"],"country":["JP"],"original_language":"ja","genres":["Animation","Comedy","Action & Adventure","Sci-Fi & Fantasy"],"imdb_id":"tt27404658","latest_uploaded_season":1,"total_uploaded_episodes":12},{"id":"203045","type":"tv","title":"Paradox Live THE ANIMATION","poster":"https://image.tmdb.org/t/p/w342/tlPG08mmtFPb6K0PpymddXvuzzt.jpg","year":"2023","result":"HD","language":["Hindi"],"country":["JP"],"original_language":"ja","genres":["Animation","Drama"],"imdb_id":"tt29514999","latest_uploaded_season":1,"total_uploaded_episodes":12},{"id":"196944","type":"tv","title":"My Happy Marriage","poster":"https://image.tmdb.org/t/p/w342/5RZIBqSYHhpQF6s8Dgw2aXlA4ZS.jpg","year":"2023","result":"HD","language":["Hindi"],"country":["JP"],"original_language":"ja","genres":["Animation","Drama","Sci-Fi & Fantasy"],"imdb_id":"tt19869172","latest_uploaded_season":1,"total_uploaded_episodes":26},{"id":"195459","type":"tv","title":"Ragna Crimson","poster":"https://image.tmdb.org/t/p/w342/oGmNWwV3wgp1DZXTOLSAYZZgh3X.jpg","year":"2023","result":"HD","language":["Hindi"],"country":["JP"],"original_language":"ja","genres":["Animation","Action & Adventure","Sci-Fi & Fantasy"],"imdb_id":"tt28685470","latest_uploaded_season":1,"total_uploaded_episodes":24},{"id":"90293","type":"tv","title":"Ghost in the Shell: SAC_2045","poster":"https://image.tmdb.org/t/p/w342/tPK8BER0Pyq68IGKHrTemGlxBV4.jpg","year":"2022","result":"HD","language":["Hindi"],"country":["JP"],"original_language":"ja","genres":["Animation","Drama","Action & Adventure","Sci-Fi & Fantasy"],"imdb_id":"tt9466298","latest_uploaded_season":2,"total_uploaded_episodes":24},{"id":"83121","type":"tv","title":"Kaguya-sama: Love Is War","poster":"https://image.tmdb.org/t/p/w342/5khbC6AuNgnvnoDbjIMKCOhEtIc.jpg","year":"2022","result":"HD","language":["Hindi"],"country":["JP"],"original_language":"ja","genres":["Comedy","Animation"],"imdb_id":"tt9522300","latest_uploaded_season":3,"total_uploaded_episodes":37},{"id":"72636","type":"tv","title":"Made in Abyss","poster":"https://image.tmdb.org/t/p/w342/f6U3odfIb3pCXMGKRTQGGF9o1Qg.jpg","year":"2022","result":"HD","language":["English"],"country":["JP"],"original_language":"ja","genres":["Animation","Drama","Action & Adventure","Sci-Fi & Fantasy"],"imdb_id":"tt7222086","latest_uploaded_season":2,"total_uploaded_episodes":25},{"id":"64196","type":"tv","title":"Overlord","poster":"https://image.tmdb.org/t/p/w342/K8ZUjxaj9F0t3AwJDz8ypzBynM.jpg","year":"2022","result":"HD","language":["Hindi"],"country":["JP"],"original_language":"ja","genres":["Animation","Sci-Fi & Fantasy","Action & Adventure"],"imdb_id":"tt4869896","latest_uploaded_season":4,"total_uploaded_episodes":52},{"id":"960704","type":"movie","title":"Fullmetal Alchemist: The Final Alchemy","poster":"https://image.tmdb.org/t/p/w342/AeyiuQUUs78bPkz18FY3AzNFF8b.jpg","year":"2022","result":"HD","language":["Hindi"],"country":["JP"],"original_language":"ja","genres":["Action","Adventure","Fantasy"],"imdb_id":"tt18671660"},{"id":"960700","type":"movie","title":"Fullmetal Alchemist: The Revenge of Scar","poster":"https://image.tmdb.org/t/p/w342/c5OwwBNyJkwyroIOIJL9IiRjydR.jpg","year":"2022","result":"HD","language":["Hindi"],"country":["JP"],"original_language":"ja","genres":["Fantasy","Action","Adventure"],"imdb_id":"tt18671386"},{"id":"916224","type":"movie","title":"Suzume","poster":"https://image.tmdb.org/t/p/w342/yStW1TXF5s7Tbtu9KjIZEaWl6HL.jpg","year":"2022","result":"HD","language":["Hindi"],"country":["JP"],"original_language":"ja","genres":["Animation","Drama","Adventure","Fantasy"],"imdb_id":"tt16428256"},{"id":"138882","type":"tv","title":"Shoot! Goal to the Future","poster":"https://image.tmdb.org/t/p/w342/3jMImKHLU9zoB2K2hDEe6fu1Emn.jpg","year":"2022","result":"HD","language":["Hindi"],"country":["JP"],"original_language":"ja","genres":["Animation"],"imdb_id":"tt16148546","latest_uploaded_season":1,"total_uploaded_episodes":13},{"id":"123249","type":"tv","title":"My Dress-Up Darling","poster":"https://image.tmdb.org/t/p/w342/A6mxBwvvv63JXZm3xXKv4SugE0L.jpg","year":"2022","result":"HD","language":["Hindi"],"country":["JP"],"original_language":"ja","genres":["Animation","Comedy","Drama"],"imdb_id":"tt15765670","latest_uploaded_season":1,"total_uploaded_episodes":24},{"id":"60846","type":"tv","title":"Log Horizon","poster":"https://image.tmdb.org/t/p/w342/xLGdRuWCn2AlByL5Y9OLB3ZwItg.jpg","year":"2021","result":"HD","language":["Hindi"],"country":["JP"],"original_language":"ja","genres":["Animation","Action & Adventure","Sci-Fi & Fantasy","Comedy"],"imdb_id":"tt2942218","latest_uploaded_season":3,"total_uploaded_episodes":62},{"id":"810693","type":"movie","title":"Jujutsu Kaisen 0","poster":"https://image.tmdb.org/t/p/w342/23oJaeBh0FDk2mQ2P240PU9Xxfh.jpg","year":"2021","result":"HD","language":["Hindi"],"country":["JP"],"original_language":"ja","genres":["Animation","Action","Fantasy"],"imdb_id":"tt14331144"},{"id":"105009","type":"tv","title":"Tokyo Revengers","poster":"https://image.tmdb.org/t/p/w342/arB3L9pZZBSzUPSC8BEv8c3X0bF.jpg","year":"2021","result":"HD","language":["Hindi"],"country":["JP"],"original_language":"ja","genres":["Drama","Animation","Action & Adventure","Crime"],"imdb_id":"tt13196080","latest_uploaded_season":1,"total_uploaded_episodes":50},{"id":"1429","type":"tv","title":"Attack on Titan","poster":"https://image.tmdb.org/t/p/w342/hTP1DtLGFamjfu8WqjnuQdP1n4i.jpg","year":"2020","result":"HD","language":["Hindi"],"country":["JP"],"original_language":"ja","genres":["Animation","Sci-Fi & Fantasy","Action & Adventure"],"imdb_id":"tt2560140","latest_uploaded_season":4,"total_uploaded_episodes":87},{"id":"60863","type":"tv","title":"Haikyu!!","poster":"https://image.tmdb.org/t/p/w342/rBXEmHQaYoIAyOWRpu8v3cBGKcT.jpg","year":"2020","result":"HD","language":["Hindi"],"country":["JP"],"original_language":"ja","genres":["Animation","Comedy","Drama"],"imdb_id":"tt3398540","latest_uploaded_season":4,"total_uploaded_episodes":85},{"id":"728754","type":"movie","title":"Stand by Me Doraemon 2","poster":"https://image.tmdb.org/t/p/w342/vBv8iOFPLnXmtELUjcFc7OKHsR4.jpg","year":"2020","result":"HD","language":["Hindi"],"country":["JP"],"original_language":"ja","genres":["Animation","Adventure","Comedy","Science Fiction","Drama","Family","Fantasy"],"imdb_id":"tt13428402"},{"id":"682153","type":"movie","title":"Doraemon: Nobita's New Dinosaur","poster":"https://image.tmdb.org/t/p/w342/wxCZmXRJa8hSv1Tpih8TBSR4o6b.jpg","year":"2020","result":"HD","language":["Hindi"],"country":["JP"],"original_language":"ja","genres":["Animation","Adventure","Family","Fantasy","Science Fiction","Comedy"],"imdb_id":"tt10588750"},{"id":"533514","type":"movie","title":"Violet Evergarden: The Movie","poster":"https://image.tmdb.org/t/p/w342/bajajkoErDst0JxdFyBkABiF9rW.jpg","year":"2020","result":"HD","language":["English"],"country":["JP"],"original_language":"ja","genres":["Animation","Drama","Fantasy","Romance"],"imdb_id":"tt8652818"},{"id":"96316","type":"tv","title":"Rent-a-Girlfriend","poster":"https://image.tmdb.org/t/p/w342/6ZpDPUNtVw6UdJoStvVlRZ62yAi.jpg","year":"2020","result":"HD","language":["Hindi"],"country":["JP"],"original_language":"ja","genres":["Animation","Comedy"],"imdb_id":"tt11448214","latest_uploaded_season":1,"total_uploaded_episodes":0},{"id":"95479","type":"tv","title":"JUJUTSU KAISEN","poster":"https://image.tmdb.org/t/p/w342/fHpKWq9ayzSk8nSwqRuaAUemRKh.jpg","year":"2020","result":"HD","language":["Hindi"],"country":["JP"],"original_language":"ja","genres":["Animation","Action & Adventure","Sci-Fi & Fantasy"],"imdb_id":"tt12343534","latest_uploaded_season":1,"total_uploaded_episodes":52},{"id":"575222","type":"movie","title":"Doraemon: Nobita's Chronicle of the Moon Exploration","poster":"https://image.tmdb.org/t/p/w342/zAZ43208e643rB3pcx8jsLqc6B9.jpg","year":"2019","result":"HD","language":["Hindi"],"country":["JP"],"original_language":"ja","genres":["Animation","Adventure","Comedy","Science Fiction","Fantasy","Family"],"imdb_id":"tt9735672"},{"id":"91827","type":"tv","title":"Mistress","poster":"https://image.tmdb.org/t/p/w342/pUSCs1cEoGsUClxqnH5o0kJw0LZ.jpg","year":"2019","result":"HD","language":["Hindi"],"country":["JP"],"original_language":"ja","genres":["Mystery","Drama"],"imdb_id":"tt10552772","latest_uploaded_season":1,"total_uploaded_episodes":12},{"id":"585747","type":"movie","title":"The Woman Who Keeps a Murderer","poster":"https://image.tmdb.org/t/p/w342/kqR0NFQhMC2VFfBgWxQ6drv4bNk.jpg","year":"2019","result":"HD","language":["Hindi"],"country":["JP"],"original_language":"ja","genres":["Thriller","Horror"],"imdb_id":"tt9844358"},{"id":"512196","type":"movie","title":"Happy Death Day 2U","poster":"https://image.tmdb.org/t/p/w342/4tdnePOkOOzwuGPEOAHp8UA4vqx.jpg","year":"2019","result":"HD","language":["Hindi"],"country":["US","JP"],"original_language":"en","genres":["Comedy","Horror","Science Fiction"],"imdb_id":"tt8155288"},{"id":"91284","type":"tv","title":"Coffee & Vanilla","poster":"https://image.tmdb.org/t/p/w342/ofzfbEVT7ayFjoWU31kRPMgeomK.jpg","year":"2019","result":"HD","language":["Hindi"],"country":["JP"],"original_language":"ja","genres":["Drama"],"imdb_id":"tt10495314","latest_uploaded_season":1,"total_uploaded_episodes":10},{"id":"91026","type":"tv","title":"After School Dice Club","poster":"https://image.tmdb.org/t/p/w342/nHVmPRqjGxMi4RNlwgflXA8mvev.jpg","year":"2019","result":"HD","language":["Hindi"],"country":["JP"],"original_language":"ja","genres":["Animation","Comedy"],"imdb_id":"tt11033944","latest_uploaded_season":1,"total_uploaded_episodes":12},{"id":"495925","type":"movie","title":"Doraemon: Nobita's Treasure Island","poster":"https://image.tmdb.org/t/p/w342/t1YkpYAxzD1lxNbjoZBpvYWkucO.jpg","year":"2018","result":"HD","language":["Hindi"],"country":["JP"],"original_language":"ja","genres":["Animation","Adventure","Fantasy","Science Fiction","Comedy","Family"],"imdb_id":"tt8098546"},{"id":"447743","type":"movie","title":"Inuyashiki","poster":"https://image.tmdb.org/t/p/w342/lyqkQ6y7d4YGVQrRjtmGTRMVcDY.jpg","year":"2018","result":"HD","language":["Hindi"],"country":["JP"],"original_language":"ja","genres":["Action","Adventure","Science Fiction","Fantasy"],"imdb_id":"tt6340500"},{"id":"426285","type":"movie","title":"Fullmetal Alchemist","poster":"https://image.tmdb.org/t/p/w342/kWJtS0XFHxH2ADkWX8P7WISDnX3.jpg","year":"2017","result":"HD","language":["Hindi"],"country":["JP"],"original_language":"ja","genres":["Fantasy","Action","Science Fiction","Adventure"],"imdb_id":"tt5607028"},{"id":"462677","type":"movie","title":"Doraemon: Nobita's Great Adventure in the Antarctic Kachi Kochi","poster":"https://image.tmdb.org/t/p/w342/hcydn0Lr3DAixZFOaUmjoqoIFU6.jpg","year":"2017","result":"HD","language":["Hindi"],"country":["JP"],"original_language":"ja","genres":["Animation","Adventure","Fantasy","Family","Science Fiction","Comedy"],"imdb_id":"tt5912470"},{"id":"73223","type":"tv","title":"Black Clover","poster":"https://image.tmdb.org/t/p/w342/kaMisKeOoTBPxPkbC3OW7Wgt6ON.jpg","year":"2017","result":"HD","language":["Hindi"],"country":["JP"],"original_language":"ja","genres":["Animation","Action & Adventure","Sci-Fi & Fantasy"],"imdb_id":"tt7441658","latest_uploaded_season":1,"total_uploaded_episodes":51},{"id":"372058","type":"movie","title":"Your Name.","poster":"https://image.tmdb.org/t/p/w342/q719jXXEzOoYaps6babgKnONONX.jpg","year":"2016","result":"HD","language":["Hindi"],"country":["JP"],"original_language":"ja","genres":["Animation","Romance","Drama"],"imdb_id":"tt5311514"}]}